[
    [
        "Arena",
        1
    ],
    [
        "default_background",
        1
    ],
    [
        "info_menu_background_old",
        1
    ],
    [
        "Hill",
        1
    ],
    [
        "House",
        1
    ],
    [
        "Forest",
        1
    ],
    [
        "InsideCastle",
        1
    ],
    [
        "Plains",
        1
    ],
    [
        "Clearing",
        1
    ],
    [
        "Town",
        1
    ],
    [
        "TownSunset",
        1
    ],
    [
        "ForestDark",
        1
    ],
    [
        "CastleSepia",
        1
    ],
    [
        "Ruins",
        1
    ],
    [
        "CastleRuins",
        1
    ],
    [
        "GradoCastle",
        1
    ],
    [
        "DeepForest",
        1
    ],
    [
        "VillageGate",
        1
    ],
    [
        "Village",
        1
    ],
    [
        "BlackBackground",
        1
    ],
    [
        "title_background_SS",
        1
    ],
    [
        "combat_arena",
        1
    ],
    [
        "combat_castle1",
        1
    ],
    [
        "combat_castle2",
        1
    ],
    [
        "combat_castle3",
        1
    ],
    [
        "combat_castle4",
        1
    ],
    [
        "combat_forest",
        1
    ],
    [
        "combat_forest_night",
        1
    ],
    [
        "combat_hill",
        1
    ],
    [
        "combat_lava",
        1
    ],
    [
        "combat_marsh",
        1
    ],
    [
        "combat_outside_castle",
        1
    ],
    [
        "combat_plains",
        1
    ],
    [
        "combat_plains_night",
        1
    ],
    [
        "combat_river",
        1
    ],
    [
        "combat_riverbed",
        1
    ],
    [
        "combat_ruins",
        1
    ],
    [
        "combat_sea",
        1
    ],
    [
        "combat_swamp",
        1
    ],
    [
        "combat_village",
        1
    ],
    [
        "title_background_old",
        1
    ],
    [
        "WhiteBackground",
        1
    ],
    [
        "foggy_castle_field",
        1
    ],
    [
        "icy_mountain",
        1
    ],
    [
        "tower",
        1
    ],
    [
        "Temple 2",
        1
    ],
    [
        "bedroom",
        1
    ],
    [
        "Lakeside Fog Day",
        1
    ],
    [
        "Manse",
        1
    ],
    [
        "office",
        1
    ],
    [
        "info_menu_background",
        1
    ],
    [
        "Castle_Room",
        1
    ],
    [
        "title_background_2",
        1
    ],
    [
        "title_background",
        1
    ],
    [
        "remin_background",
        1
    ]
]