[
    [
        "EirikaLord_Tacita",
        [
            [
                [
                    0,
                    0
                ],
                [
                    128,
                    160,
                    128
                ]
            ],
            [
                [
                    1,
                    0
                ],
                [
                    40,
                    40,
                    40
                ]
            ],
            [
                [
                    2,
                    0
                ],
                [
                    64,
                    88,
                    112
                ]
            ],
            [
                [
                    3,
                    0
                ],
                [
                    16,
                    200,
                    176
                ]
            ],
            [
                [
                    4,
                    0
                ],
                [
                    16,
                    152,
                    160
                ]
            ],
            [
                [
                    5,
                    0
                ],
                [
                    160,
                    77,
                    153
                ]
            ],
            [
                [
                    6,
                    0
                ],
                [
                    112,
                    72,
                    48
                ]
            ],
            [
                [
                    7,
                    0
                ],
                [
                    192,
                    128,
                    80
                ]
            ],
            [
                [
                    0,
                    1
                ],
                [
                    248,
                    192,
                    144
                ]
            ],
            [
                [
                    1,
                    1
                ],
                [
                    112,
                    48,
                    112
                ]
            ],
            [
                [
                    2,
                    1
                ],
                [
                    240,
                    160,
                    48
                ]
            ],
            [
                [
                    3,
                    1
                ],
                [
                    160,
                    96,
                    0
                ]
            ],
            [
                [
                    4,
                    1
                ],
                [
                    248,
                    248,
                    248
                ]
            ],
            [
                [
                    5,
                    1
                ],
                [
                    196,
                    111,
                    189
                ]
            ],
            [
                [
                    6,
                    1
                ],
                [
                    248,
                    248,
                    48
                ]
            ],
            [
                [
                    7,
                    1
                ],
                [
                    248,
                    248,
                    208
                ]
            ]
        ]
    ]
]