[
    {
        "nid": "Arbiter_Sword",
        "name": "Arbiter",
        "desc": "Heavily armored users of blade and spell.",
        "tier": 2,
        "movement_group": "Armors",
        "promotes_from": "Baron",
        "turns_into": [],
        "tags": [
            "Armor",
            "Magical"
        ],
        "max_level": 40,
        "bases": {
            "HP": 21,
            "STR": 8,
            "MAG": 6,
            "SKL": 5,
            "SPD": 5,
            "LCK": 0,
            "DEF": 11,
            "RES": 6,
            "CON": 11,
            "MOV": 5
        },
        "growths": {
            "HP": 75,
            "STR": 30,
            "MAG": 30,
            "SKL": 25,
            "SPD": 10,
            "LCK": 20,
            "DEF": 25,
            "RES": 25,
            "CON": 0,
            "MOV": 0
        },
        "growth_bonus": {
            "HP": 0,
            "STR": 0,
            "MAG": 0,
            "SKL": 0,
            "SPD": 0,
            "LCK": 0,
            "DEF": 0,
            "RES": 0,
            "CON": 0,
            "MOV": 0
        },
        "promotion": {
            "HP": 3,
            "STR": 1,
            "MAG": 1,
            "SKL": 1,
            "SPD": 1,
            "LCK": 0,
            "DEF": 3,
            "RES": 1,
            "CON": 2,
            "MOV": -97
        },
        "max_stats": {
            "HP": 60,
            "STR": 30,
            "MAG": 30,
            "SKL": 30,
            "SPD": 30,
            "LCK": 30,
            "DEF": 30,
            "RES": 30,
            "CON": 25,
            "MOV": 15
        },
        "learned_skills": [],
        "wexp_gain": {
            "Sword": [
                2,
                0,
                251
            ],
            "Lance": [
                false,
                0,
                251
            ],
            "Axe": [
                false,
                0,
                251
            ],
            "Bow": [
                false,
                0,
                251
            ],
            "Knife": [
                false,
                0,
                251
            ],
            "Anima": [
                false,
                0,
                251
            ],
            "Light": [
                false,
                0,
                251
            ],
            "Dark": [
                false,
                0,
                251
            ],
            "Staff": [
                false,
                0,
                251
            ],
            "Stone": [
                false,
                0,
                251
            ],
            "Default": [
                false,
                0,
                251
            ],
            "Dragonstone": [
                false,
                0,
                251
            ]
        },
        "icon_nid": "Generic_Portrait_General",
        "icon_index": [
            0,
            0
        ],
        "map_sprite_nid": "Arbiter",
        "combat_anim_nid": null,
        "fields": []
    }
]