[
    {
        "nid": "Beastkin",
        "name": "Beastkin",
        "desc": "Shifters who take the form of a Beast.",
        "tier": 1,
        "movement_group": "Heavy Cav",
        "promotes_from": null,
        "turns_into": [],
        "tags": [
            "Beast"
        ],
        "max_level": 40,
        "bases": {
            "HP": 16,
            "STR": 4,
            "MAG": 2,
            "SKL": 8,
            "SPD": 9,
            "LCK": 0,
            "DEF": 3,
            "RES": 2,
            "CON": 5,
            "MOV": 5
        },
        "growths": {
            "HP": 70,
            "STR": 30,
            "MAG": 20,
            "SKL": 45,
            "SPD": 45,
            "LCK": 20,
            "DEF": 20,
            "RES": 20,
            "CON": 0,
            "MOV": 0
        },
        "growth_bonus": {
            "HP": 0,
            "STR": 0,
            "MAG": 0,
            "SKL": 0,
            "SPD": 0,
            "LCK": 0,
            "DEF": 0,
            "RES": 0,
            "CON": 0,
            "MOV": 0
        },
        "promotion": {
            "HP": 0,
            "STR": 0,
            "MAG": 0,
            "SKL": 0,
            "SPD": 0,
            "LCK": 0,
            "DEF": 0,
            "RES": 0,
            "CON": 0,
            "MOV": 0
        },
        "max_stats": {
            "HP": 60,
            "STR": 20,
            "MAG": 20,
            "SKL": 20,
            "SPD": 20,
            "LCK": 30,
            "DEF": 20,
            "RES": 20,
            "CON": 25,
            "MOV": 15
        },
        "learned_skills": [],
        "wexp_gain": {
            "Sword": [
                false,
                0,
                251
            ],
            "Lance": [
                false,
                0,
                251
            ],
            "Axe": [
                false,
                0,
                251
            ],
            "Bow": [
                false,
                0,
                251
            ],
            "Knife": [
                false,
                0,
                251
            ],
            "Anima": [
                false,
                0,
                251
            ],
            "Light": [
                false,
                0,
                251
            ],
            "Dark": [
                false,
                0,
                251
            ],
            "Staff": [
                false,
                0,
                251
            ],
            "Stone": [
                true,
                1,
                251
            ],
            "Default": [
                false,
                0,
                251
            ],
            "Dragonstone": [
                true,
                1,
                251
            ]
        },
        "icon_nid": "Mauthe Doog {IS}",
        "icon_index": [
            0,
            0
        ],
        "map_sprite_nid": "Beastkin",
        "combat_anim_nid": null,
        "fields": []
    }
]