[
    {
        "nid": "Dragon_Hound",
        "name": "Dragon Hound",
        "desc": "A reanimated beast-dragon. Capable of flight.",
        "tier": 2,
        "movement_group": "Fliers",
        "promotes_from": "Dragon_Mutt",
        "turns_into": [],
        "tags": [
            "Dragon",
            "Flying",
            "Monster",
            "Magical",
            "Beast"
        ],
        "max_level": 40,
        "bases": {
            "HP": 21,
            "STR": 6,
            "MAG": 2,
            "SKL": 12,
            "SPD": 12,
            "LCK": 0,
            "DEF": 5,
            "RES": 2,
            "CON": 8,
            "MOV": 6
        },
        "growths": {
            "HP": 65,
            "STR": 28,
            "MAG": 10,
            "SKL": 35,
            "SPD": 35,
            "LCK": 25,
            "DEF": 16,
            "RES": 22,
            "CON": 0,
            "MOV": 0
        },
        "growth_bonus": {
            "HP": 0,
            "STR": 0,
            "MAG": 0,
            "SKL": 0,
            "SPD": 0,
            "LCK": 0,
            "DEF": 0,
            "RES": 0,
            "CON": 0,
            "MOV": 0
        },
        "promotion": {
            "HP": 3,
            "STR": 1,
            "MAG": 1,
            "SKL": 2,
            "SPD": 2,
            "LCK": 0,
            "DEF": 0,
            "RES": 1,
            "CON": 2,
            "MOV": -97
        },
        "max_stats": {
            "HP": 80,
            "STR": 30,
            "MAG": 30,
            "SKL": 30,
            "SPD": 30,
            "LCK": 30,
            "DEF": 30,
            "RES": 30,
            "CON": 20,
            "MOV": 15
        },
        "learned_skills": [
            [
                1,
                "Flying"
            ]
        ],
        "wexp_gain": {
            "Sword": [
                false,
                0,
                251
            ],
            "Lance": [
                false,
                0,
                251
            ],
            "Axe": [
                false,
                0,
                251
            ],
            "Bow": [
                false,
                0,
                251
            ],
            "Knife": [
                false,
                0,
                251
            ],
            "Anima": [
                false,
                0,
                251
            ],
            "Light": [
                false,
                0,
                251
            ],
            "Dark": [
                false,
                0,
                251
            ],
            "Staff": [
                false,
                0,
                251
            ],
            "Stone": [
                true,
                0,
                251
            ],
            "Default": [
                false,
                0,
                251
            ],
            "Dragonstone": [
                true,
                0,
                251
            ]
        },
        "icon_nid": "Mauthe Doog Gwyllgi {IS}",
        "icon_index": [
            0,
            0
        ],
        "map_sprite_nid": "Dragon_Hound",
        "combat_anim_nid": "Gwyllgi",
        "fields": []
    }
]