[
    {
        "nid": "Gorgon",
        "name": "Gorgon",
        "desc": "Beautiful and cursed creatures, whose gaze turns all who behold it into stone.",
        "tier": 2,
        "movement_group": "Light Foot",
        "promotes_from": "Shaman",
        "turns_into": [],
        "tags": [
            "Monster",
            "Magical",
            "Infantry"
        ],
        "max_level": 40,
        "bases": {
            "HP": 19,
            "STR": 0,
            "MAG": 8,
            "SKL": 3,
            "SPD": 4,
            "LCK": 0,
            "DEF": 5,
            "RES": 7,
            "CON": 11,
            "MOV": 5
        },
        "growths": {
            "HP": 55,
            "STR": 0,
            "MAG": 55,
            "SKL": 25,
            "SPD": 30,
            "LCK": 20,
            "DEF": 10,
            "RES": 30,
            "CON": 0,
            "MOV": 0
        },
        "growth_bonus": {
            "HP": 0,
            "STR": 0,
            "MAG": 0,
            "SKL": 0,
            "SPD": 0,
            "LCK": 0,
            "DEF": 0,
            "RES": 0,
            "CON": 0,
            "MOV": 0
        },
        "promotion": {
            "HP": 2,
            "STR": 0,
            "MAG": 2,
            "SKL": 0,
            "SPD": 1,
            "LCK": 0,
            "DEF": 1,
            "RES": 1,
            "CON": 1,
            "MOV": -97
        },
        "max_stats": {
            "HP": 60,
            "STR": 30,
            "MAG": 30,
            "SKL": 30,
            "SPD": 30,
            "LCK": 30,
            "DEF": 30,
            "RES": 30,
            "CON": 20,
            "MOV": 15
        },
        "learned_skills": [],
        "wexp_gain": {
            "Sword": [
                false,
                0,
                251
            ],
            "Lance": [
                false,
                0,
                251
            ],
            "Axe": [
                false,
                0,
                251
            ],
            "Bow": [
                false,
                0,
                251
            ],
            "Knife": [
                false,
                0,
                251
            ],
            "Anima": [
                false,
                0,
                251
            ],
            "Light": [
                false,
                0,
                251
            ],
            "Dark": [
                true,
                0,
                251
            ],
            "Staff": [
                false,
                0,
                251
            ],
            "Stone": [
                false,
                0,
                251
            ],
            "Default": [
                false,
                0,
                251
            ],
            "Dragonstone": [
                false,
                0,
                251
            ]
        },
        "icon_nid": "Gorgon {IS}",
        "icon_index": [
            0,
            0
        ],
        "map_sprite_nid": "Gorgon (U) {IS}-stand",
        "combat_anim_nid": null,
        "fields": []
    }
]