[
    {
        "nid": "Lamia",
        "name": "Lamia",
        "desc": "Cursed creatures. Their gaze slows all who behold it.",
        "tier": 1,
        "movement_group": "Light Foot",
        "promotes_from": null,
        "turns_into": [],
        "tags": [
            "Monster",
            "Magical",
            "Infantry"
        ],
        "max_level": 40,
        "bases": {
            "HP": 19,
            "STR": 0,
            "MAG": 6,
            "SKL": 3,
            "SPD": 3,
            "LCK": 0,
            "DEF": 4,
            "RES": 6,
            "CON": 9,
            "MOV": 4
        },
        "growths": {
            "HP": 55,
            "STR": 0,
            "MAG": 55,
            "SKL": 25,
            "SPD": 30,
            "LCK": 20,
            "DEF": 10,
            "RES": 30,
            "CON": 0,
            "MOV": 0
        },
        "growth_bonus": {
            "HP": 0,
            "STR": 0,
            "MAG": 0,
            "SKL": 0,
            "SPD": 0,
            "LCK": 0,
            "DEF": 0,
            "RES": 0,
            "CON": 0,
            "MOV": 0
        },
        "promotion": {
            "HP": 0,
            "STR": 0,
            "MAG": 0,
            "SKL": 0,
            "SPD": 0,
            "LCK": 0,
            "DEF": 0,
            "RES": 0,
            "CON": 0,
            "MOV": 0
        },
        "max_stats": {
            "HP": 60,
            "STR": 20,
            "MAG": 20,
            "SKL": 20,
            "SPD": 20,
            "LCK": 30,
            "DEF": 20,
            "RES": 20,
            "CON": 20,
            "MOV": 15
        },
        "learned_skills": [],
        "wexp_gain": {
            "Sword": [
                false,
                0,
                251
            ],
            "Lance": [
                false,
                0,
                251
            ],
            "Axe": [
                false,
                0,
                251
            ],
            "Bow": [
                false,
                0,
                251
            ],
            "Knife": [
                false,
                0,
                251
            ],
            "Anima": [
                false,
                0,
                251
            ],
            "Light": [
                false,
                0,
                251
            ],
            "Dark": [
                true,
                0,
                251
            ],
            "Staff": [
                false,
                0,
                251
            ],
            "Stone": [
                false,
                0,
                251
            ],
            "Default": [
                false,
                0,
                251
            ],
            "Dragonstone": [
                false,
                0,
                251
            ]
        },
        "icon_nid": "Gorgon {IS}",
        "icon_index": [
            0,
            0
        ],
        "map_sprite_nid": "Lamia (F) {Dutch Introvert}-stand",
        "combat_anim_nid": null,
        "fields": []
    }
]