[
    {
        "nid": "Mage",
        "name": "Mage",
        "desc": "Curious practioners of anima magic.",
        "tier": 1,
        "movement_group": "Mages",
        "promotes_from": null,
        "turns_into": [
            "Sage",
            "Mage_Knight"
        ],
        "tags": [
            "Magical",
            "Infantry"
        ],
        "max_level": 40,
        "bases": {
            "HP": 17,
            "STR": 0,
            "MAG": 5,
            "SKL": 3,
            "SPD": 4,
            "LCK": 0,
            "DEF": 2,
            "RES": 4,
            "CON": 5,
            "MOV": 4
        },
        "growths": {
            "HP": 55,
            "STR": 0,
            "MAG": 55,
            "SKL": 40,
            "SPD": 35,
            "LCK": 20,
            "DEF": 5,
            "RES": 40,
            "CON": 0,
            "MOV": 0
        },
        "growth_bonus": {
            "HP": 0,
            "STR": 0,
            "MAG": 0,
            "SKL": 0,
            "SPD": 0,
            "LCK": 0,
            "DEF": 0,
            "RES": 0,
            "CON": 0,
            "MOV": 0
        },
        "promotion": {
            "HP": 1,
            "STR": 0,
            "MAG": 0,
            "SKL": 1,
            "SPD": 2,
            "LCK": 0,
            "DEF": 1,
            "RES": 2,
            "CON": 1,
            "MOV": -97
        },
        "max_stats": {
            "HP": 60,
            "STR": 20,
            "MAG": 20,
            "SKL": 20,
            "SPD": 20,
            "LCK": 30,
            "DEF": 20,
            "RES": 20,
            "CON": 20,
            "MOV": 15
        },
        "learned_skills": [],
        "wexp_gain": {
            "Sword": [
                false,
                0,
                251
            ],
            "Lance": [
                false,
                0,
                251
            ],
            "Axe": [
                false,
                0,
                251
            ],
            "Bow": [
                false,
                0,
                251
            ],
            "Knife": [
                false,
                0,
                251
            ],
            "Anima": [
                true,
                1,
                251
            ],
            "Light": [
                false,
                0,
                251
            ],
            "Dark": [
                false,
                0,
                251
            ],
            "Staff": [
                false,
                0,
                251
            ],
            "Stone": [
                false,
                0,
                251
            ],
            "Default": [
                false,
                0,
                251
            ],
            "Dragonstone": [
                false,
                0,
                251
            ]
        },
        "icon_nid": "Generic_Portrait_Mage (1)",
        "icon_index": [
            0,
            0
        ],
        "map_sprite_nid": "Mage",
        "combat_anim_nid": "Mage",
        "fields": []
    }
]