[
    {
        "nid": "Ophanim_Hunter",
        "name": "Ophanim",
        "desc": "A strange entity that emanates divinity.\nAttacks with powerful magic.",
        "tier": 2,
        "movement_group": "Fliers",
        "promotes_from": null,
        "turns_into": [],
        "tags": [
            "Flying"
        ],
        "max_level": 40,
        "bases": {
            "HP": 22,
            "STR": 5,
            "MAG": 10,
            "SKL": 9,
            "SPD": 8,
            "LCK": 5,
            "DEF": 5,
            "RES": 6,
            "CON": 10,
            "MOV": 6
        },
        "growths": {
            "HP": 75,
            "STR": 35,
            "MAG": 50,
            "SKL": 45,
            "SPD": 40,
            "LCK": 35,
            "DEF": 20,
            "RES": 25,
            "CON": 0,
            "MOV": 0
        },
        "growth_bonus": {
            "HP": 0,
            "STR": 0,
            "MAG": 0,
            "SKL": 0,
            "SPD": 0,
            "LCK": 0,
            "DEF": 0,
            "RES": 0,
            "CON": 0,
            "MOV": 0
        },
        "promotion": {
            "HP": 0,
            "STR": 0,
            "MAG": 0,
            "SKL": 0,
            "SPD": 0,
            "LCK": 0,
            "DEF": 0,
            "RES": 0,
            "CON": 0,
            "MOV": -97
        },
        "max_stats": {
            "HP": 60,
            "STR": 30,
            "MAG": 30,
            "SKL": 30,
            "SPD": 30,
            "LCK": 30,
            "DEF": 30,
            "RES": 30,
            "CON": 25,
            "MOV": 15
        },
        "learned_skills": [
            [
                1,
                "Flying"
            ],
            [
                1,
                "Divinity"
            ],
            [
                1,
                "Divinity_Helper"
            ]
        ],
        "wexp_gain": {
            "Sword": [
                false,
                0,
                null
            ],
            "Lance": [
                false,
                0,
                null
            ],
            "Axe": [
                false,
                0,
                null
            ],
            "Bow": [
                false,
                0,
                null
            ],
            "Knife": [
                false,
                0,
                null
            ],
            "Anima": [
                true,
                51,
                null
            ],
            "Light": [
                true,
                51,
                null
            ],
            "Dark": [
                true,
                51,
                null
            ],
            "Staff": [
                false,
                0,
                null
            ],
            "Stone": [
                false,
                0,
                null
            ],
            "Default": [
                false,
                0,
                null
            ]
        },
        "icon_nid": "Ophanim (U) {Sphealnuke}",
        "icon_index": [
            0,
            0
        ],
        "map_sprite_nid": "Ophanim (U) {Sphealnuke}-stand",
        "combat_anim_nid": null,
        "fields": []
    }
]