[
    {
        "nid": "Paladin_Staff",
        "name": "Paladin",
        "desc": "A title earned only by those cavaliers whose lives have been dedicated to justice.",
        "tier": 2,
        "movement_group": "Heavy Cav",
        "promotes_from": "Troubadour",
        "turns_into": [],
        "tags": [
            "Horse",
            "Mounted",
            "Magical"
        ],
        "max_level": 40,
        "bases": {
            "HP": 20,
            "STR": 0,
            "MAG": 4,
            "SKL": 3,
            "SPD": 5,
            "LCK": 0,
            "DEF": 4,
            "RES": 8,
            "CON": 6,
            "MOV": 6
        },
        "growths": {
            "HP": 45,
            "STR": 0,
            "MAG": 35,
            "SKL": 25,
            "SPD": 45,
            "LCK": 40,
            "DEF": 10,
            "RES": 40,
            "CON": 0,
            "MOV": 0
        },
        "growth_bonus": {
            "HP": 0,
            "STR": 0,
            "MAG": 0,
            "SKL": 0,
            "SPD": 0,
            "LCK": 0,
            "DEF": 0,
            "RES": 0,
            "CON": 0,
            "MOV": 0
        },
        "promotion": {
            "HP": 3,
            "STR": 2,
            "MAG": 2,
            "SKL": 1,
            "SPD": 1,
            "LCK": 0,
            "DEF": 2,
            "RES": 1,
            "CON": 2,
            "MOV": -97
        },
        "max_stats": {
            "HP": 60,
            "STR": 30,
            "MAG": 30,
            "SKL": 30,
            "SPD": 30,
            "LCK": 30,
            "DEF": 30,
            "RES": 30,
            "CON": 25,
            "MOV": 15
        },
        "learned_skills": [],
        "wexp_gain": {
            "Sword": [
                true,
                0,
                251
            ],
            "Lance": [
                false,
                0,
                251
            ],
            "Axe": [
                false,
                0,
                251
            ],
            "Bow": [
                false,
                0,
                251
            ],
            "Knife": [
                false,
                0,
                251
            ],
            "Anima": [
                false,
                0,
                251
            ],
            "Light": [
                false,
                0,
                251
            ],
            "Dark": [
                false,
                0,
                251
            ],
            "Staff": [
                true,
                0,
                251
            ],
            "Stone": [
                false,
                0,
                251
            ],
            "Default": [
                false,
                0,
                251
            ],
            "Dragonstone": [
                false,
                0,
                251
            ]
        },
        "icon_nid": "Generic_Portrait_Paladin",
        "icon_index": [
            0,
            0
        ],
        "map_sprite_nid": "Paladin",
        "combat_anim_nid": "Paladin",
        "fields": []
    }
]