[
    {
        "nid": "Queen",
        "name": "Queen",
        "desc": "Regal leaders atop luxurious mounts.",
        "tier": 2,
        "movement_group": "Heavy Cav",
        "promotes_from": "Lord",
        "turns_into": [],
        "tags": [
            "Horse",
            "Mounted",
            "Magical"
        ],
        "max_level": 40,
        "bases": {
            "HP": 18,
            "STR": 5,
            "MAG": 5,
            "SKL": 4,
            "SPD": 6,
            "LCK": 0,
            "DEF": 3,
            "RES": 4,
            "CON": 6,
            "MOV": 6
        },
        "growths": {
            "HP": 45,
            "STR": 45,
            "MAG": 45,
            "SKL": 30,
            "SPD": 35,
            "LCK": 15,
            "DEF": 15,
            "RES": 25,
            "CON": 0,
            "MOV": 0
        },
        "growth_bonus": {
            "HP": 0,
            "STR": 0,
            "MAG": 0,
            "SKL": 0,
            "SPD": 0,
            "LCK": 0,
            "DEF": 0,
            "RES": 0,
            "CON": 0,
            "MOV": 0
        },
        "promotion": {
            "HP": 2,
            "STR": 2,
            "MAG": 2,
            "SKL": 1,
            "SPD": 2,
            "LCK": 0,
            "DEF": 1,
            "RES": 1,
            "CON": 1,
            "MOV": -97
        },
        "max_stats": {
            "HP": 60,
            "STR": 30,
            "MAG": 30,
            "SKL": 30,
            "SPD": 30,
            "LCK": 30,
            "DEF": 30,
            "RES": 30,
            "CON": 20,
            "MOV": 15
        },
        "learned_skills": [],
        "wexp_gain": {
            "Sword": [
                true,
                0,
                251
            ],
            "Lance": [
                false,
                0,
                251
            ],
            "Axe": [
                false,
                0,
                251
            ],
            "Bow": [
                false,
                0,
                251
            ],
            "Knife": [
                false,
                0,
                251
            ],
            "Anima": [
                false,
                0,
                251
            ],
            "Light": [
                true,
                0,
                251
            ],
            "Dark": [
                false,
                0,
                251
            ],
            "Staff": [
                false,
                0,
                251
            ],
            "Stone": [
                false,
                0,
                251
            ],
            "Default": [
                false,
                0,
                251
            ],
            "Dragonstone": [
                false,
                0,
                251
            ]
        },
        "icon_nid": "Generic_Portrait_Paladin",
        "icon_index": [
            0,
            0
        ],
        "map_sprite_nid": "Eirika_Great_Lord",
        "combat_anim_nid": null,
        "fields": []
    }
]