[
    {
        "nid": "Sword_Wight",
        "name": "Wight",
        "desc": "Skeletons infused with tremendous magical strength. They can wield many weapons.",
        "tier": 2,
        "movement_group": "Light Foot",
        "promotes_from": "Sword_Bonewalker",
        "turns_into": [],
        "tags": [
            "Monster",
            "Infantry",
            "Undead"
        ],
        "max_level": 40,
        "bases": {
            "HP": 21,
            "STR": 7,
            "MAG": 3,
            "SKL": 5,
            "SPD": 6,
            "LCK": 0,
            "DEF": 5,
            "RES": 2,
            "CON": 9,
            "MOV": 5
        },
        "growths": {
            "HP": 80,
            "STR": 50,
            "MAG": 25,
            "SKL": 35,
            "SPD": 25,
            "LCK": 10,
            "DEF": 15,
            "RES": 15,
            "CON": 0,
            "MOV": 0
        },
        "growth_bonus": {
            "HP": 0,
            "STR": 0,
            "MAG": 0,
            "SKL": 0,
            "SPD": 0,
            "LCK": 0,
            "DEF": 0,
            "RES": 0,
            "CON": 0,
            "MOV": 0
        },
        "promotion": {
            "HP": 2,
            "STR": 2,
            "MAG": 1,
            "SKL": 1,
            "SPD": 1,
            "LCK": 0,
            "DEF": 1,
            "RES": 1,
            "CON": 2,
            "MOV": -97
        },
        "max_stats": {
            "HP": 60,
            "STR": 30,
            "MAG": 30,
            "SKL": 30,
            "SPD": 30,
            "LCK": 30,
            "DEF": 30,
            "RES": 30,
            "CON": 25,
            "MOV": 15
        },
        "learned_skills": [],
        "wexp_gain": {
            "Sword": [
                true,
                0,
                251
            ],
            "Lance": [
                true,
                0,
                251
            ],
            "Axe": [
                false,
                0,
                251
            ],
            "Bow": [
                false,
                0,
                251
            ],
            "Knife": [
                false,
                0,
                251
            ],
            "Anima": [
                false,
                0,
                251
            ],
            "Light": [
                false,
                0,
                251
            ],
            "Dark": [
                false,
                0,
                251
            ],
            "Staff": [
                false,
                0,
                251
            ],
            "Stone": [
                false,
                0,
                251
            ],
            "Default": [
                false,
                0,
                251
            ],
            "Dragonstone": [
                false,
                0,
                251
            ]
        },
        "icon_nid": "Generic_Portrait_Sword_Wight",
        "icon_index": [
            0,
            0
        ],
        "map_sprite_nid": "Sword_Wight",
        "combat_anim_nid": "Bonewalker",
        "fields": []
    }
]