[
    {
        "nid": "Treant",
        "name": "Treant",
        "desc": "These trees use staves.",
        "tier": 1,
        "movement_group": "Mages",
        "promotes_from": null,
        "turns_into": [
            "Bishop"
        ],
        "tags": [
            "Monster",
            "Magical",
            "Infantry"
        ],
        "max_level": 40,
        "bases": {
            "HP": 18,
            "STR": 0,
            "MAG": 1,
            "SKL": 2,
            "SPD": 2,
            "LCK": 0,
            "DEF": 1,
            "RES": 6,
            "CON": 5,
            "MOV": 4
        },
        "growths": {
            "HP": 50,
            "STR": 0,
            "MAG": 30,
            "SKL": 35,
            "SPD": 32,
            "LCK": 45,
            "DEF": 8,
            "RES": 50,
            "CON": 0,
            "MOV": 0
        },
        "growth_bonus": {
            "HP": 0,
            "STR": 0,
            "MAG": 0,
            "SKL": 0,
            "SPD": 0,
            "LCK": 0,
            "DEF": 0,
            "RES": 0,
            "CON": 0,
            "MOV": 0
        },
        "promotion": {
            "HP": 0,
            "STR": 0,
            "MAG": 0,
            "SKL": 0,
            "SPD": 0,
            "LCK": 0,
            "DEF": 0,
            "RES": 0,
            "CON": 0,
            "MOV": 0
        },
        "max_stats": {
            "HP": 60,
            "STR": 20,
            "MAG": 20,
            "SKL": 20,
            "SPD": 20,
            "LCK": 30,
            "DEF": 20,
            "RES": 20,
            "CON": 20,
            "MOV": 15
        },
        "learned_skills": [],
        "wexp_gain": {
            "Sword": [
                false,
                0,
                251
            ],
            "Lance": [
                false,
                0,
                251
            ],
            "Axe": [
                false,
                0,
                251
            ],
            "Bow": [
                false,
                0,
                251
            ],
            "Knife": [
                false,
                0,
                251
            ],
            "Anima": [
                false,
                0,
                251
            ],
            "Light": [
                false,
                0,
                251
            ],
            "Dark": [
                false,
                0,
                251
            ],
            "Staff": [
                true,
                1,
                251
            ],
            "Stone": [
                false,
                0,
                251
            ],
            "Default": [
                false,
                0,
                251
            ],
            "Dragonstone": [
                false,
                0,
                251
            ]
        },
        "icon_nid": "Generic_Portrait_Cleric",
        "icon_index": [
            0,
            0
        ],
        "map_sprite_nid": "Evergrim_U_Almirage_Jj09-stand",
        "combat_anim_nid": "Cleric",
        "fields": []
    }
]