[
    {
        "nid": "Aerouse",
        "name": "Aerouse",
        "desc": "<green>Refreshes</> an adjacent ally, but inflicts <brown>Weaken</>.",
        "icon_nid": "Skills",
        "icon_index": [
            3,
            9
        ],
        "components": [
            [
                "ability",
                "Aerouse"
            ],
            [
                "drain_charge",
                3
            ],
            [
                "class_skill",
                null
            ],
            [
                "copysafe",
                []
            ]
        ]
    }
]