[
    {
        "nid": "Aim_Proc",
        "name": "Aim",
        "desc": "+1 maximum range and +5% hit with bows this turn, stacking.",
        "icon_nid": "LTSkillIconSheet",
        "icon_index": [
            0,
            28
        ],
        "components": [
            [
                "stack",
                999
            ],
            [
                "end_time",
                1
            ],
            [
                "hit",
                15
            ],
            [
                "modify_maximum_range",
                1
            ],
            [
                "condition",
                "item_system.weapon_type(unit, item) == 'Bow'"
            ]
        ]
    }
]