[
    {
        "nid": "ALL_FRESH_AND_CLEAN_Plus",
        "name": "ALL_FRESH_AND_CLEAN+",
        "desc": "<green>Free Action</>\nCleanses all <brown>ailments</> from self or an ally.\nGain 1 stack of <blue>DRONE_BUDDIES</>.",
        "icon_nid": "All_Skills",
        "icon_index": [
            3,
            38
        ],
        "components": [
            [
                "class_skill",
                null
            ],
            [
                "ability",
                "ALL_FRESH_AND_CLEAN"
            ],
            [
                "drain_charge",
                2
            ],
            [
                "copysafe",
                []
            ]
        ]
    }
]