[
    {
        "nid": "All_Stats_Plus_3",
        "name": "All Stats +3",
        "desc": "+3 to all stats.",
        "icon_nid": "All_Skills",
        "icon_index": [
            2,
            9
        ],
        "components": [
            [
                "stat_change",
                [
                    [
                        "STR",
                        3
                    ],
                    [
                        "MAG",
                        3
                    ],
                    [
                        "SKL",
                        3
                    ],
                    [
                        "SPD",
                        3
                    ],
                    [
                        "LCK",
                        3
                    ],
                    [
                        "DEF",
                        3
                    ],
                    [
                        "RES",
                        3
                    ]
                ]
            ],
            [
                "lost_on_end_chapter",
                null
            ]
        ]
    }
]