[
    {
        "nid": "Allied_Fortress",
        "name": "Allied Fortress",
        "desc": "Allies within 3 spaces gain +2/-2 damage dealt/received, and <blue>Canter [1]</>.",
        "icon_nid": "LTSkillIconSheet",
        "icon_index": [
            5,
            45
        ],
        "components": [
            [
                "class_skill",
                null
            ],
            [
                "copysafe",
                []
            ],
            [
                "aura",
                "Allied_Fortress_Child"
            ],
            [
                "aura_range",
                3
            ],
            [
                "aura_target",
                "ally"
            ],
            [
                "tether_parameters",
                {
                    "cost": 40,
                    "level": 4
                }
            ]
        ]
    }
]