[
    {
        "nid": "Alpha_Sabotage",
        "name": "Alpha Sabotage",
        "desc": "Only in effect if unit is in <blue>Formation Alpha</>.\nUnit can move through impassable tiles.\nMOV +2, and attacks pierce defense.",
        "icon_nid": "All_Skills",
        "icon_index": [
            8,
            20
        ],
        "components": [
            [
                "class_skill",
                null
            ],
            [
                "condition",
                "has_skill(unit, 'Formation_Alpha_Status')"
            ],
            [
                "grey_if_inactive",
                null
            ],
            [
                "movement_type",
                "Cheater"
            ],
            [
                "stat_change",
                [
                    [
                        "MOV",
                        2
                    ]
                ]
            ],
            [
                "item_override",
                "Luna_Tag_Override"
            ]
        ]
    }
]