[
    {
        "nid": "Amped",
        "name": "Amped",
        "desc": "+5/-5 damage dealt/received in next combat.\nIf target is <brown>Dazzled</>, +10/-10 damage instead.",
        "icon_nid": "LTSkillIconSheet",
        "icon_index": [
            2,
            35
        ],
        "components": [
            [
                "dynamic_damage",
                "10 if any([s.dazzled for s in target.skills]) and not 'TrueDamage' in item.tags else 5 if not 'TrueDamage' in item.tags else 0"
            ],
            [
                "lost_on_end_combat2",
                {
                    "lost_on_self": false,
                    "lost_on_ally": false,
                    "lost_on_enemy": true,
                    "lost_on_splash": true
                }
            ],
            [
                "unit_anim",
                "OverchargeAura"
            ],
            [
                "dynamic_resist",
                "10 if any([s.dazzled for s in target.skills]) and not 'TrueDamage' in item.tags else 5 if not 'TrueDamage' in item.tags else 0"
            ]
        ]
    }
]