[
    {
        "nid": "Ancient_Advance",
        "name": "Ancient Advance",
        "desc": "Teleport adjacent to an ally, healing in an AoE 2 for 1 HP (including self).\n<green>Free Action</>.",
        "icon_nid": "LTSkillIconSheet",
        "icon_index": [
            3,
            11
        ],
        "components": [
            [
                "class_skill",
                null
            ],
            [
                "copysafe",
                []
            ],
            [
                "drain_charge",
                2
            ],
            [
                "ability",
                "Ancient_Advance"
            ],
            [
                "tether_parameters",
                {
                    "cost": 30,
                    "level": 3
                }
            ]
        ]
    }
]