[
    {
        "nid": "Animus_Graft",
        "name": "Animus Graft",
        "desc": "If any unit within 5 spaces has <brown>Burning</>, <brown>Chill</>, <brown>Frozen</>, or <brown>Dazzled</>:\nYou can copy that status to one enemy (Chill if Frozen).\n<green>Free Action</>.",
        "icon_nid": "Skills",
        "icon_index": [
            10,
            1
        ],
        "components": [
            [
                "class_skill",
                null
            ],
            [
                "copysafe",
                [
                    "Burn_Graft",
                    "Chill_Graft",
                    "Dazzle_Graft"
                ]
            ],
            [
                "drain_charge",
                2
            ],
            [
                "tether_parameters",
                {
                    "cost": 40,
                    "level": 99
                }
            ]
        ]
    }
]