[
    {
        "nid": "Animus_Blade",
        "name": "Animus Blade",
        "desc": "If foe has <blue>Burning</>, <blue>Chilled</>, <blue>Frozen</>, or <blue>Dazzled</>:\nGain +10 damage dealt, +25 Hit, and +20 Critical Chance.",
        "icon_nid": "LTSkillIconSheet",
        "icon_index": [
            1,
            49
        ],
        "components": [
            [
                "combat_condition",
                "item.nid == 'Faenia_Secret' and (has_skill(target, 'Burning') or has_skill(target, 'Frozen') or has_skill(target, 'Chilled') or any([s.dazzled for s in target.skills]))"
            ],
            [
                "eval_damage",
                "10 if not 'TrueDamage' in item.tags else 0"
            ],
            [
                "crit",
                20
            ],
            [
                "hit",
                25
            ],
            [
                "hidden",
                null
            ]
        ]
    }
]