[
    {
        "nid": "Apex_Rune_3",
        "name": "Apex Rune 3",
        "desc": "",
        "icon_nid": "RWDragonstones",
        "icon_index": [
            5,
            0
        ],
        "components": [
            [
                "hidden",
                null
            ],
            [
                "item_override",
                "Effective_Beast_OR"
            ],
            [
                "combat_condition",
                "'Beast' in unit.tags and item.nid == 'Apex_Rune'"
            ]
        ]
    }
]