[
    {
        "nid": "Aramitama",
        "name": "Aramitama",
        "desc": "<pink>Unique</>\nSummons Ayaka at the start of battle. Akane and Ayaka will share HP, stats, and skills. If either Akane or Ayaka is killed, the other will be killed as well.\nBoth units inflict <brown>Burn</> on target and foes within 2 spaces of target after combat, but take 4 damage after combat as well.",
        "icon_nid": "All_Skills",
        "icon_index": [
            14,
            41
        ],
        "components": [
            [
                "class_skill",
                null
            ],
            [
                "item_override",
                "Burning_After_Combat_Foe_Only"
            ],
            [
                "savage_status",
                {
                    "status": "Burning",
                    "range": 2
                }
            ],
            [
                "combat_condition",
                "game.phase.get_current() == unit.team"
            ],
            [
                "better_recoil",
                4
            ]
        ]
    }
]