[
    {
        "nid": "Astralforce",
        "name": "Astralforce",
        "desc": "<green>Combat Art</>\nDisables unit's follow-up attacks. Deal additional damage equal to <orange>(SPD / 3)</>.\nIf lethal, <green>Refresh</> unit, but reduce base MOV to 0.",
        "icon_nid": "reds_icons",
        "icon_index": [
            3,
            0
        ],
        "components": [
            [
                "class_skill",
                null
            ],
            [
                "copysafe",
                []
            ],
            [
                "drain_charge",
                2
            ],
            [
                "combat_art",
                "Astralforce_Proc"
            ],
            [
                "allowed_weapons",
                "item_system.is_weapon(unit, item)"
            ]
        ]
    }
]