[
    {
        "nid": "Astralforce_Proc",
        "name": "Astralforce",
        "desc": "<green>Combat Art</>\nDisables unit's follow-up attacks. Deal additional damage equal to <orange>(SPD / 3)</>.\nIf lethal, <green>Refresh</> unit, but reduce base MOV to 0.",
        "icon_nid": "reds_icons",
        "icon_index": [
            3,
            0
        ],
        "components": [
            [
                "dynamic_damage",
                "unit.get_stat('SPD') // 3 if not 'TrueDamage' in item.tags else 0"
            ],
            [
                "galeforce",
                null
            ],
            [
                "gain_skill_after_active_kill",
                "Astralforce_Debuff"
            ]
        ]
    }
]