[
    {
        "nid": "Astral_Storm_Proc_Plus",
        "name": "Ancestral Astral Storm to Slay Twenty-Seven Generations+",
        "desc": "Attack number of times equal to current charge.\nInflicts <brown>Toxin</> on hit.",
        "icon_nid": "Skills",
        "icon_index": [
            4,
            1
        ],
        "components": [
            [
                "dynamic_multiattacks",
                "get_skill(unit, 'Astral_Storm_Plus').data['charge']"
            ],
            [
                "cannot_double",
                null
            ],
            [
                "combat_art_proc",
                null
            ],
            [
                "event_after_combat",
                "Global Ability_Astral_Storm"
            ],
            [
                "give_status_after_hit",
                "Toxin"
            ]
        ]
    }
]