[
    {
        "nid": "Atonement",
        "name": "Atonement",
        "desc": "RES Growth +50% while Zaphkiel is on the field.",
        "icon_nid": "All_Skills",
        "icon_index": [
            6,
            44
        ],
        "components": [
            [
                "growth_change",
                [
                    [
                        "RES",
                        50
                    ]
                ]
            ],
            [
                "condition",
                "u('Zaphkiel') and u('Zaphkiel').position"
            ]
        ]
    }
]