[
    {
        "nid": "Aurasteal",
        "name": "Aurasteal",
        "desc": "When dealing fatal damage, copy any non-unique Aura skills foe has.\nCan only trigger if unit has fewer than 12 skills.",
        "icon_nid": "LTSkillIconSheet",
        "icon_index": [
            7,
            38
        ],
        "components": [
            [
                "event_after_kill",
                "Global Ability_Aurasteal"
            ],
            [
                "class_skill",
                null
            ],
            [
                "copysafe",
                []
            ]
        ]
    }
]