[
    {
        "nid": "Axe_Mastery_Plus",
        "name": "Axe Mastery+",
        "desc": "At D, B, and S rank Axes, gain +1 damage and +5 hit when using Axes. At C and A, gain an additional +1 damage and +5 hit/crit when using Axes.",
        "icon_nid": "LTSkillIconSheet",
        "icon_index": [
            2,
            31
        ],
        "components": [
            [
                "class_skill",
                null
            ],
            [
                "eval_damage",
                "0 if 'TrueDamage' in item.tags else 5 if unit.wexp['Axe'] >= 51 else 4 if unit.wexp['Axe'] >= 37 else 3 if unit.wexp['Axe'] >= 25 else 2 if unit.wexp['Axe'] >= 15 else 1 if unit.wexp['Axe'] >= 7 else 0"
            ],
            [
                "eval_hit",
                "25 if unit.wexp['Axe'] >= 51 else 20 if unit.wexp['Axe'] >= 37 else 15 if unit.wexp['Axe'] >= 25 else 10 if unit.wexp['Axe'] >= 15 else 5 if unit.wexp['Axe'] >= 7 else 0"
            ],
            [
                "eval_crit",
                "10 if unit.wexp['Axe'] >= 37 else 5 if unit.wexp['Axe'] >= 15 else 0"
            ],
            [
                "copysafe",
                []
            ],
            [
                "condition",
                "item_system.weapon_type(unit, item) == 'Axe'"
            ]
        ]
    }
]