[
    {
        "nid": "Axefaith",
        "name": "Axefaith",
        "desc": "While wielding an Axe:\nAdds half of LCK to Hit and Critical Chance.\nAdds one quarter of LCK to Avoid and Critical Evasion.",
        "icon_nid": "All_Skills",
        "icon_index": [
            2,
            29
        ],
        "components": [
            [
                "copysafe",
                []
            ],
            [
                "dynamic_accuracy",
                "unit.get_stat('LCK') // 2"
            ],
            [
                "dynamic_avoid",
                "unit.get_stat('LCK') // 4"
            ],
            [
                "dynamic_crit_accuracy",
                "unit.get_stat('LCK') // 2"
            ],
            [
                "dynamic_crit_avoid",
                "unit.get_stat('LCK') // 4"
            ],
            [
                "condition",
                "item_system.weapon_type(unit, item) == 'Axe'"
            ],
            [
                "class_skill",
                null
            ]
        ]
    }
]