[
    {
        "nid": "Backstab",
        "name": "Backstab",
        "desc": "If unit is adjacent to an enemy with an ally on the opposite side, grants +50 critical chance.",
        "icon_nid": "LTSkillIconSheet",
        "icon_index": [
            2,
            44
        ],
        "components": [
            [
                "combat_condition",
                "item.nid == 'Backstab' and unit_funcs.check_flanked(target)"
            ],
            [
                "crit",
                50
            ],
            [
                "hidden",
                null
            ]
        ]
    }
]