[
    {
        "nid": "Bad_PhD",
        "name": "Bad PhD",
        "desc": "Cannot use Staves, except for Physical Staves.",
        "icon_nid": "All_Skills",
        "icon_index": [
            12,
            33
        ],
        "components": [
            [
                "class_skill",
                null
            ],
            [
                "item_override",
                "Physical_Staff_OR"
            ],
            [
                "shit",
                null
            ]
        ]
    }
]