[
    {
        "nid": "Bag_of_Hoarding",
        "name": "Hoard",
        "desc": "Adds an item into the <red>Bag of Hoarding</>.",
        "icon_nid": "Skills",
        "icon_index": [
            0,
            0
        ],
        "components": [
            [
                "hidden",
                null
            ],
            [
                "ability",
                "Hoarding_Sack_Stow"
            ]
        ]
    }
]