[
    {
        "nid": "Basil_Band",
        "name": "Basil Band",
        "desc": "Coriandr Only.\nCan teleport to a space next to Basil.",
        "icon_nid": "LTSkillIconSheet",
        "icon_index": [
            5,
            46
        ],
        "components": [
            [
                "specific_witch_warp",
                [
                    "Basil"
                ]
            ],
            [
                "condition",
                "unit.nid == 'Coriandr'"
            ],
            [
                "hidden",
                null
            ]
        ]
    }
]