[
    {
        "nid": "Beastform_S",
        "name": "Beastform",
        "desc": "Unit has +2 STR, +1 MOV,\n<blue>Canto</>, and <violet>Beast</> typing.",
        "icon_nid": "LTSkillIconSheet",
        "icon_index": [
            2,
            33
        ],
        "components": [
            [
                "canto",
                null
            ],
            [
                "stat_change",
                [
                    [
                        "STR",
                        2
                    ],
                    [
                        "MOV",
                        1
                    ]
                ]
            ],
            [
                "has_tags",
                [
                    "Beast"
                ]
            ],
            [
                "time",
                3
            ],
            [
                "lost_on_end_chapter",
                null
            ]
        ]
    }
]