[
    {
        "nid": "Bend_Reality",
        "name": "Bend Reality",
        "desc": "This unit ignores all terrain.",
        "icon_nid": "LTSkillIconSheet",
        "icon_index": [
            1,
            41
        ],
        "components": [
            [
                "class_skill",
                null
            ],
            [
                "movement_type",
                "Cheater"
            ]
        ]
    }
]