[
    {
        "nid": "Bigger_Shove",
        "name": "Bigger Shove",
        "desc": "Shove all adjacent units 2 tile. Enemies shoved take <orange>(STR)</> non-lethal <green>NCD</>.",
        "icon_nid": "LTSkillIconSheet",
        "icon_index": [
            6,
            34
        ],
        "components": [
            [
                "ability",
                "Bigger_Shove"
            ],
            [
                "class_skill",
                null
            ],
            [
                "drain_charge",
                2
            ],
            [
                "copysafe",
                []
            ]
        ]
    }
]