[
    {
        "nid": "Bird_of_Prey",
        "name": "Bird of Prey",
        "desc": "<green>Combat Art</> \nIf attack is lethal, <green>refreshes</> unit.",
        "icon_nid": "All_Skills",
        "icon_index": [
            5,
            35
        ],
        "components": [
            [
                "class_skill",
                null
            ],
            [
                "combat_art",
                "GaleforceStrike_Proc"
            ],
            [
                "copysafe",
                []
            ],
            [
                "allowed_weapons",
                "item_system.is_weapon(unit, item)"
            ],
            [
                "drain_charge",
                1
            ]
        ]
    }
]