[
    {
        "nid": "BladeMastery_Plus",
        "name": "Blade Mastery+",
        "desc": "When using any weapon with \"Blade\" in its name, or if weapon weight equals or exceeds 10, unit adds 75% of weapon weight to damage.",
        "icon_nid": "LTSkillIconSheet",
        "icon_index": [
            0,
            3
        ],
        "components": [
            [
                "class_skill",
                null
            ],
            [
                "dynamic_damage",
                "int(item.weight.value * 0.75) if not 'TrueDamage' in item.tags and ('HeavyBlade' in item.tags or item.weight and item.weight.value >= 10) else 0"
            ],
            [
                "copysafe",
                []
            ]
        ]
    }
]