[
    {
        "nid": "Blade_Dance",
        "name": "Blade Dance",
        "desc": "Attacking will <green>refresh</> unit's turn at the cost of a non-generic ally's turn.\nAfterwards, gain a stack of <blue>Fatigue</>.\nLethal attacks will grant stacks of <blue>Crimson</>.",
        "icon_nid": "LTSkillIconSheet",
        "icon_index": [
            0,
            34
        ],
        "components": [
            [
                "lost_on_endstep",
                null
            ],
            [
                "lost_on_end_chapter",
                null
            ],
            [
                "gain_skill_after_kill",
                "Crimson"
            ]
        ]
    }
]