[
    {
        "nid": "Blessing_of_Magic_Buff",
        "name": "Blessed by Magic",
        "desc": "Unit's attacks will deal magical damage.",
        "icon_nid": "All_Skills",
        "icon_index": [
            0,
            52
        ],
        "components": [
            [
                "alternate_damage_formula",
                "MAGIC_DAMAGE"
            ],
            [
                "alternate_magic_damage_formula",
                "MAGIC_DAMAGE"
            ],
            [
                "alternate_resist_formula",
                "MAGIC_DEFENSE"
            ],
            [
                "end_time",
                3
            ],
            [
                "lost_on_end_chapter",
                null
            ]
        ]
    }
]