[
    {
        "nid": "Blessings_From_Above",
        "name": "Blessings From Above",
        "desc": "Applies <blue>Tidal Surge</> to allies for 3 turns.\nWhen allies' HP changes as the result of an <green>interaction</> or <brown>ailments</>:\nAll allies with <blue>Tidal Surge</> gain a stacking +1 bonus to Damage Dealt (Max 10).\nIf recast, buff resets.",
        "icon_nid": "LTSkillIconSheet",
        "icon_index": [
            4,
            4
        ],
        "components": [
            [
                "class_skill",
                null
            ],
            [
                "ability",
                "Blessings_From_Above"
            ],
            [
                "drain_charge",
                2
            ],
            [
                "copysafe",
                []
            ]
        ]
    }
]