[
    {
        "nid": "Blight",
        "name": "Blighted",
        "desc": "<brown>Ailment</>\nActive healing is 50% less effective on unit.\nUnit takes 25% of all damage they inflict.",
        "icon_nid": "All_Skills",
        "icon_index": [
            2,
            47
        ],
        "components": [
            [
                "combined_time",
                1
            ],
            [
                "negative",
                null
            ],
            [
                "lost_on_end_chapter",
                null
            ],
            [
                "empower_heal_received",
                "0.5"
            ],
            [
                "lifelink",
                -0.25
            ]
        ]
    }
]