[
    {
        "nid": "Blinded_Short",
        "name": "Blind (50)",
        "desc": "<brown>Ailment</>\nHit -50 for next combat.",
        "icon_nid": "LTSkillIconSheet",
        "icon_index": [
            5,
            47
        ],
        "components": [
            [
                "lost_on_end_next_combat",
                [
                    [
                        "NumberOfCombats (X)",
                        "1",
                        "Number of combats before expiration"
                    ],
                    [
                        "LostOnSelf (T/F)",
                        "F",
                        "Lost after self combat (e.g. vulnerary)"
                    ],
                    [
                        "LostOnAlly (T/F)",
                        "F",
                        "Lost after combat with an ally"
                    ],
                    [
                        "LostOnEnemy (T/F)",
                        "T",
                        "Lost after combat with an enemy"
                    ],
                    [
                        "LostOnSplash (T/F)",
                        "T",
                        "Lost after combat if using an AOE item"
                    ]
                ]
            ],
            [
                "hit",
                -50
            ],
            [
                "negative",
                null
            ],
            [
                "lost_on_end_chapter",
                null
            ],
            [
                "blinded",
                null
            ],
            [
                "unit_anim",
                "Blind"
            ],
            [
                "combined_time",
                1
            ]
        ]
    }
]