[
    {
        "nid": "Blitz_Strike",
        "name": "Blitz Strike",
        "desc": "After critically striking, <green>refresh</>.\nCan only occur for the team twice per chapter.",
        "icon_nid": "All_Skills",
        "icon_index": [
            13,
            44
        ],
        "components": [
            [
                "item_override",
                "BlitzStrikeOverride"
            ],
            [
                "condition",
                "game.phase.get_current() == unit.team"
            ],
            [
                "drain_charge_all",
                2
            ],
            [
                "hidden_if_inactive",
                null
            ]
        ]
    }
]