[
    {
        "nid": "BloodlineCurse_Child",
        "name": "Predecessor's Haunting",
        "desc": "When this unit dies, Predecessor will be returned to the map next to them.",
        "icon_nid": "LTSkillIconSheet",
        "icon_index": [
            4,
            46
        ],
        "components": [
            [
                "lost_on_end_chapter",
                null
            ]
        ]
    }
]