[
    {
        "nid": "Blue_Magic",
        "name": "Blue Magic",
        "desc": "Can learn a new skill when <green>initiated</>\nupon by a <violet>beast</>, <violet>dragon</>, <violet>monster</>,\nor <violet>mech</> enemy, or Berserked ally.\nCan learn up to 3 <blue>Blue Magic</> skills.",
        "icon_nid": "LTSkillIconSheet",
        "icon_index": [
            5,
            1
        ],
        "components": [
            [
                "class_skill",
                null
            ],
            [
                "copysafe",
                []
            ],
            [
                "event_after_combat",
                "Global Ability_Blue_Magic"
            ],
            [
                "combat_condition",
                "mode != 'attack' and (unit2.team in ['enemy', 'enemy2'] or has_skill(unit2, 'Berserk'))"
            ]
        ]
    }
]