[
    {
        "nid": "Blue_Rose_Gain",
        "name": "Blue Rose Gain",
        "desc": "",
        "icon_nid": "Skills",
        "icon_index": [
            0,
            0
        ],
        "components": [
            [
                "hidden",
                null
            ],
            [
                "gain_skill_after_kill",
                "Blue_Roses"
            ]
        ]
    }
]