[
    {
        "nid": "Boundless_Blade",
        "name": "Boundless Blade",
        "desc": "<green>Combat Art</>. Adds <orange>(tiles moved)</> to damage and <orange>(tiles moved / 2)</> maximum range.",
        "icon_nid": "LTSkillIconSheet",
        "icon_index": [
            0,
            3
        ],
        "components": [
            [
                "class_skill",
                null
            ],
            [
                "drain_charge",
                2
            ],
            [
                "combat_art",
                "Boundless_Blade_proc"
            ],
            [
                "allowed_weapons",
                "item_system.is_weapon(unit, item)"
            ],
            [
                "copysafe",
                []
            ]
        ]
    }
]