[
    {
        "nid": "Bunny",
        "name": "Bunny",
        "desc": "<pink>Unique</>. Relaxing.\nUpon dropping below 25%, replace this skill with <blue>Twilight of the Rabbit God</>. Returns end of map.",
        "icon_nid": "All_Skills",
        "icon_index": [
            12,
            43
        ],
        "components": [
            [
                "class_skill",
                null
            ],
            [
                "event_after_combat",
                "Global Ability_Twilight_Of_The_Rabbit_God"
            ],
            [
                "hidden_if_inactive",
                null
            ],
            [
                "condition",
                "not has_skill(unit, 'Twilight_of_the_Rabbit_God')"
            ]
        ]
    }
]