[
    {
        "nid": "Bye",
        "name": "Bye",
        "desc": "Immediately retreats.",
        "icon_nid": "LTSkillIconSheet",
        "icon_index": [
            3,
            42
        ],
        "components": [
            [
                "class_skill",
                null
            ],
            [
                "copysafe",
                []
            ],
            [
                "ability",
                "Bye"
            ],
            [
                "tether_parameters",
                {
                    "cost": 10,
                    "level": 99
                }
            ]
        ]
    }
]