[
    {
        "nid": "Call_Lads",
        "name": "Call Lads",
        "desc": "Pay 200 gold to summon generic allies.",
        "icon_nid": "LTSkillIconSheet",
        "icon_index": [
            7,
            42
        ],
        "components": [
            [
                "class_skill",
                null
            ],
            [
                "ability",
                "Call_Lads"
            ],
            [
                "condition",
                "game.get_money() > 199"
            ],
            [
                "drain_charge",
                1
            ],
            [
                "copysafe",
                []
            ]
        ]
    }
]