[
    {
        "nid": "Camouflage",
        "name": "Camouflage",
        "desc": "Enemy AI is significantly less likely to target this unit.",
        "icon_nid": "tactics_ogre",
        "icon_index": [
            6,
            15
        ],
        "components": [
            [
                "modify_ai_priority",
                0.1
            ]
        ]
    }
]