[
    {
        "nid": "Cannot_Strike_Priestess",
        "name": "Cannot Strike Priestess",
        "desc": "",
        "icon_nid": "Skills",
        "icon_index": [
            0,
            0
        ],
        "components": [
            [
                "hidden",
                null
            ],
            [
                "condition",
                "unit.team in ['player', 'other']"
            ],
            [
                "lost_on_end_chapter",
                null
            ]
        ]
    }
]