[
    {
        "nid": "Canter_Movement",
        "name": "Canter [MOV]",
        "desc": "Unit can move spaces equal to their current MOV after taking an action.",
        "icon_nid": "All_Skills",
        "icon_index": [
            6,
            8
        ],
        "components": []
    }
]