[
    {
        "nid": "Capture_Storm",
        "name": "Capture Storm",
        "desc": "When this unit or an ally triggers the effect of <blue>Capture Piece</>:\nA random enemy unit takes 5 <green>Non-Combat Damage</>.",
        "icon_nid": "LTSkillIconSheet",
        "icon_index": [
            2,
            35
        ],
        "components": [
            [
                "class_skill",
                null
            ],
            [
                "copysafe",
                []
            ]
        ]
    }
]