[
    {
        "nid": "Caracole",
        "name": "Caracole",
        "desc": "When <green>initiating</> combat at 2 range, <blue>Canto+</> after attacking.",
        "icon_nid": "Skills",
        "icon_index": [
            1,
            4
        ],
        "components": [
            [
                "class_skill",
                null
            ],
            [
                "combat_condition",
                "utils.calculate_distance(unit.position, target.position) == 2"
            ],
            [
                "canto_plus",
                null
            ],
            [
                "copysafe",
                []
            ]
        ]
    }
]