[
    {
        "nid": "Ceaseless_Toil",
        "name": "Ceaseless Toil",
        "desc": "Cannot perform follow-up attacks.\nWhile other machines are present, AFDD gains:\n1: An additional multiattack per living machine\n2: 10 HP recovery per living machine\n3: -2 damage received per living machine\n4: +1 attack range per living machine",
        "icon_nid": "LTSkillIconSheet",
        "icon_index": [
            4,
            45
        ],
        "components": [
            [
                "class_skill",
                null
            ],
            [
                "dynamic_multiattacks",
                "1 * len([u for u in game.units if u.position and u.klass == 'Machine' and not is_dead(u.nid) and u.nid != unit.nid]) if not item_system.is_spell(unit, item) else 0"
            ],
            [
                "eval_regeneration",
                "10 * len([u for u in game.units if u.position and u.klass == 'Machine' and not is_dead(u.nid) and u.nid != unit.nid])"
            ],
            [
                "dynamic_resist",
                "2 * len([u for u in game.units if u.position and  u.klass == 'Machine' and not is_dead(u.nid) and u.nid != unit.nid])"
            ],
            [
                "eval_range",
                "1 * len([u for u in game.units if u.position and  u.klass == 'Machine' and not is_dead(u.nid) and u.nid != unit.nid])"
            ],
            [
                "item_override",
                "No_Double_Override"
            ]
        ]
    }
]