[
    {
        "nid": "Charging_Descent_P",
        "name": "Charging Descent",
        "desc": "<green>Lance Combat Art</>.\nLances can only strike laterally, but have their range boosted to 5.\nUnit will <blue>Pivot</> over the target if possible, and will be allowed to attack again.\nThe same target cannot be selected during the same turn.",
        "icon_nid": "LTSkillIconSheet",
        "icon_index": [
            5,
            36
        ],
        "components": [
            [
                "class_skill",
                null
            ],
            [
                "combat_art",
                "Charging_Descent_P_Child"
            ],
            [
                "allowed_weapons",
                "item_system.weapon_type(unit, item) == 'Lance'"
            ],
            [
                "drain_charge",
                2
            ],
            [
                "copysafe",
                []
            ]
        ]
    }
]