[
    {
        "nid": "Cheer_Child",
        "name": "Cheered",
        "desc": "The aura holder will gain 1 stack of <blue>Enthusiasm</> when unit defeats an enemy.",
        "icon_nid": "All_Skills",
        "icon_index": [
            6,
            34
        ],
        "components": [
            [
                "event_after_kill",
                "Global Ability_Cheer"
            ],
            [
                "stat_change_expression",
                [
                    [
                        "STR",
                        "v('Cheer_Stacks', 0)"
                    ],
                    [
                        "MAG",
                        "v('Cheer_Stacks', 0)"
                    ],
                    [
                        "SKL",
                        "v('Cheer_Stacks', 0)"
                    ],
                    [
                        "SPD",
                        "v('Cheer_Stacks', 0)"
                    ]
                ]
            ]
        ]
    }
]