[
    {
        "nid": "Chessmaster",
        "name": "Chessmaster",
        "desc": "Whenever this unit or any ally activates <blue>Capture Piece</>,\nthey gain +2 STR/MAG/DEF/RES for 1 turn.",
        "icon_nid": "LTSkillIconSheet",
        "icon_index": [
            6,
            50
        ],
        "components": [
            [
                "class_skill",
                null
            ],
            [
                "aura",
                "Chessmaster_Child"
            ],
            [
                "aura_range",
                99
            ],
            [
                "aura_target",
                "ally"
            ],
            [
                "copysafe",
                []
            ],
            [
                "hide_aura",
                null
            ],
            [
                "tether_parameters",
                {
                    "cost": 20,
                    "level": 3
                }
            ]
        ]
    }
]