[
    {
        "nid": "Chisel_Plus",
        "name": "Chisel+",
        "desc": "Each time unit takes damage, gain 1 stack of <blue>Chiseled+</>, up to 5.\n<blue>Chiseled+</> gives +3 SPD/-1 DEF.",
        "icon_nid": "LTSkillIconSheet",
        "icon_index": [
            5,
            45
        ],
        "components": [
            [
                "gain_skill_after_take_damage",
                "Chiseled_Plus"
            ],
            [
                "class_skill",
                null
            ],
            [
                "copysafe",
                []
            ]
        ]
    }
]