[
    {
        "nid": "Command_Alpha",
        "name": "Command: Alpha",
        "desc": "When an ally within 5 spaces <green>initiates</> against a foe:\nUnit will perform a successive attack on foe, using the currently equipped weapon.",
        "icon_nid": "All_Skills",
        "icon_index": [
            11,
            52
        ],
        "components": [
            [
                "lost_on_end_chapter",
                null
            ],
            [
                "aura",
                "Command_Alpha_Child"
            ],
            [
                "aura_range",
                5
            ],
            [
                "aura_target",
                "ally"
            ]
        ]
    }
]