[
    {
        "nid": "Copycat_Sword",
        "name": "Copycat",
        "desc": "",
        "icon_nid": "LTSkillIconSheet",
        "icon_index": [
            7,
            46
        ],
        "components": [
            [
                "hidden",
                null
            ],
            [
                "wexp_usable_skill",
                "Sword"
            ],
            [
                "condition",
                "len([u for u in get_units_within_distance(position, 2) if u.nid != unit.nid and item_system.available(u, DB.items.get('Iron_Sword'))]) >= 1"
            ]
        ]
    }
]