[
    {
        "nid": "Cosmic_Blessings",
        "name": "Cosmic Blessings",
        "desc": "Grants <blue>Star Child</> to one ally within 3 spaces until the end of the chapter.",
        "icon_nid": "All_Skills",
        "icon_index": [
            11,
            51
        ],
        "components": [
            [
                "class_skill",
                null
            ],
            [
                "ability",
                "Cosmic_Blessings"
            ],
            [
                "copysafe",
                []
            ],
            [
                "drain_charge",
                1
            ]
        ]
    }
]