[
    {
        "nid": "Crackling_Bolt_E",
        "name": "Crackling Bolt",
        "desc": "Every turn, gain stacks equal to the # of living Priestesses.\nFor every 5 stacks, a random foe will be <brown>Dazzled</> at upkeep. This ailment does not expire with time.\nIf stacks reach 35, all foes will be inflicted with <brown>Dazzled</> for the remainder of the chapter.",
        "icon_nid": "LTSkillIconSheet",
        "icon_index": [
            2,
            6
        ],
        "components": [
            [
                "class_skill",
                null
            ],
            [
                "stack",
                35
            ]
        ]
    }
]