[
    {
        "nid": "Crackling_Bolt_E_F",
        "name": "Crackling Bolt",
        "desc": "Every turn, gain stacks equal to the # of living Priestesses.\nFor every 10 stacks, a random foe will be <brown>Dazzled</> at the start of <red>Enemy</> phase.\nIf stacks reach 70, all foes will be inflicted with <brown>Dazzled</> for the remainder of the chapter.",
        "icon_nid": "LTSkillIconSheet",
        "icon_index": [
            2,
            6
        ],
        "components": [
            [
                "class_skill",
                null
            ],
            [
                "stack",
                35
            ]
        ]
    }
]