[
    {
        "nid": "Crashing_Through",
        "name": "Crashing Through",
        "desc": "<green>Combat Art</>. +10 damage, +30 crit, -20 hit. Pivots over enemy. If lethal, refresh unit. Destroy used weapon, and cannot multi-attack or double.",
        "icon_nid": "ZessDynamiteSkillsys",
        "icon_index": [
            6,
            14
        ],
        "components": [
            [
                "combat_art",
                "Crashing_Through_Child"
            ],
            [
                "class_skill",
                null
            ],
            [
                "drain_charge",
                3
            ],
            [
                "copysafe",
                []
            ],
            [
                "allowed_weapons",
                "item_system.is_weapon(unit, item)"
            ]
        ]
    }
]