[
    {
        "nid": "Cream_of_Crop",
        "name": "Proper Challenge",
        "desc": "<blue>Trial</>\nGeneric foes will have their targeting priority minimized.\nThey will also be reduced to 1 HP upon upkeep, or be destroyed if they already have 1 HP.",
        "icon_nid": "All_Skills",
        "icon_index": [
            9,
            34
        ],
        "components": [
            [
                "class_skill",
                null
            ],
            [
                "aura",
                "Cream_of_Crop_Child"
            ],
            [
                "aura_range",
                99
            ],
            [
                "aura_target",
                "enemy"
            ],
            [
                "hide_aura",
                null
            ]
        ]
    }
]