[
    {
        "nid": "Crimson_Scatter_Proc",
        "name": "Scatter, O Blades of Crimson",
        "desc": "Adds (3 to the power of <blue>Crimson</> stacks) damage.\nOn use, ends the <blue>Blade Dance</> state.",
        "icon_nid": "Skills",
        "icon_index": [
            10,
            5
        ],
        "components": [
            [
                "dynamic_damage",
                "3 ** len([s for s in unit.skills if s.nid == 'Crimson']) if not 'TrueDamage' in item.tags else 0"
            ],
            [
                "combat_art_proc",
                null
            ]
        ]
    }
]