[
    {
        "nid": "Critical_Pursuit",
        "name": "Critical Pursuit",
        "desc": "Follow-up attacks have 1.5 times greater chance to be critical.",
        "icon_nid": "Skills",
        "icon_index": [
            0,
            0
        ],
        "components": [
            [
                "hidden",
                null
            ],
            [
                "pcc_static",
                1.5000000000000004
            ]
        ]
    }
]