[
    {
        "nid": "Critical_Reinforcement_Child",
        "name": "Critical Reinforcement",
        "desc": "Whenever self or an ally lands a Critical Hit, they gain +1 STR/MAG after combat (Max 5).\nA stack of this effect is lost if the ally does not perform a critical hit.",
        "icon_nid": "LTSkillIconSheet",
        "icon_index": [
            2,
            8
        ],
        "components": [
            [
                "hidden",
                null
            ]
        ]
    }
]