[
    {
        "nid": "Crit_Chance_10",
        "name": "Critical Chance +10%",
        "desc": "",
        "icon_nid": "LTSkillIconSheet",
        "icon_index": [
            2,
            27
        ],
        "components": [
            [
                "hidden",
                null
            ],
            [
                "crit",
                10
            ]
        ]
    }
]