[
    {
        "nid": "Cull_The_Unworthy_P",
        "name": "Cull The Unworthy",
        "desc": "",
        "icon_nid": "All_Skills",
        "icon_index": [
            11,
            49
        ],
        "components": [
            [
                "limit_maximum_range",
                1
            ],
            [
                "dynamic_damage",
                "999 if 'Boss' not in unit2.tags else 0"
            ],
            [
                "event_after_combat",
                "Global Ability_CullTheUnworthy"
            ]
        ]
    }
]