[
    {
        "nid": "Cull_The_Unworthy_S",
        "name": "Cull The Unworthy",
        "desc": "+4 STR/MAG/SPD against non-bosses.",
        "icon_nid": "All_Skills",
        "icon_index": [
            11,
            49
        ],
        "components": [
            [
                "stat_change",
                [
                    [
                        "STR",
                        4
                    ],
                    [
                        "MAG",
                        4
                    ],
                    [
                        "SPD",
                        4
                    ]
                ]
            ],
            [
                "time",
                1
            ],
            [
                "lost_on_end_chapter",
                null
            ],
            [
                "combat_condition",
                "'Boss' not in unit2.tags"
            ]
        ]
    }
]