[
    {
        "nid": "Daeva_Awe_Enemy",
        "name": "Daeva Awe",
        "desc": "Inflicts -7 LCK to enemies and +7 LCK to allies within 3 spaces.",
        "icon_nid": "LTSkillIconSheet",
        "icon_index": [
            2,
            8
        ],
        "components": [
            [
                "aura",
                "Daeva_Awe_Enemy_Child"
            ],
            [
                "aura_range",
                3
            ],
            [
                "aura_target",
                "enemy"
            ],
            [
                "class_skill",
                null
            ]
        ]
    }
]