[
    {
        "nid": "Dancing_Plague",
        "name": "Dancing Plague",
        "desc": "This unit is immune to the effects of <brown>Toxin</>.\nWhen unit evades an attack, unit gains 1 stack of <brown>Toxin</>.\nThis effect can occur up to 3 times per chapter.",
        "icon_nid": "LTSkillIconSheet",
        "icon_index": [
            0,
            34
        ],
        "components": [
            [
                "class_skill",
                null
            ],
            [
                "copysafe",
                []
            ],
            [
                "gain_skill_after_take_miss",
                "Toxin"
            ],
            [
                "drain_charge",
                3
            ]
        ]
    }
]