[
    {
        "nid": "Daredevil",
        "name": "Daredevil",
        "desc": "+1 Damage for each tile between unit and nearest ally, capping at +10 Damage.",
        "icon_nid": "All_Skills",
        "icon_index": [
            7,
            39
        ],
        "components": [
            [
                "class_skill",
                null
            ],
            [
                "eval_damage",
                "min(10, max(0, get_closest_allies(unit.position, 2)[1][1])) if (len(get_closest_allies(unit.position)) > 0 and not 'TrueDamage' in item.tags) else 0"
            ],
            [
                "copysafe",
                []
            ]
        ]
    }
]