[
    {
        "nid": "Deadly_Dodges_Stack",
        "name": "Deadly Dodges Stack",
        "desc": "",
        "icon_nid": "Skills",
        "icon_index": [
            0,
            0
        ],
        "components": [
            [
                "hidden",
                null
            ],
            [
                "stack",
                3
            ]
        ]
    }
]