[
    {
        "nid": "Death_Throes_Plus",
        "name": "Death Throes+",
        "desc": "<pink>Unique</>. <green>Combat Art</>.\nOn kill, non-boss is possessed with 1 HP under your control.\nWhen target dies, this unit appears at their position and heals 25% HP.\nTarget dies at start of next turn.",
        "icon_nid": "LTSkillIconSheet",
        "icon_index": [
            0,
            41
        ],
        "components": [
            [
                "class_skill",
                null
            ],
            [
                "drain_charge",
                2
            ],
            [
                "combat_art",
                "Death_Throes_P"
            ]
        ]
    }
]