[
    {
        "nid": "Defensive_Field_S",
        "name": "Defensive Field",
        "desc": "All <violet>Mech</> allies (and self) within 5\ntiles ignore damage. After combat\nwith an enemy, protected <violet>Mech</>\ngenerates 1 <blue>Heat</> for this unit.\nSkill disabled at 3 <blue>Heat</>.",
        "icon_nid": "LTSkillIconSheet",
        "icon_index": [
            5,
            25
        ],
        "components": [
            [
                "ignore_damage",
                null
            ],
            [
                "ability",
                "Deactivate_Field"
            ],
            [
                "aura",
                "Defensive_Field_A"
            ],
            [
                "aura_range",
                5
            ],
            [
                "aura_target",
                "ally"
            ],
            [
                "event_after_combat",
                "Global Ability_Defensive_Field"
            ],
            [
                "lost_on_end_chapter",
                null
            ]
        ]
    }
]