[
    {
        "nid": "Dexterity_Boost",
        "name": "Dexterity Boost",
        "desc": "",
        "icon_nid": "Skills",
        "icon_index": [
            0,
            0
        ],
        "components": [
            [
                "hidden",
                null
            ],
            [
                "stat_change_expression",
                [
                    [
                        "SKL",
                        "v('dex_boosters', 0)"
                    ],
                    [
                        "SPD",
                        "v('dex_boosters', 0)"
                    ]
                ]
            ],
            [
                "global",
                null
            ],
            [
                "condition",
                "unit.team == 'player' and 'Temporary' not in unit.tags"
            ]
        ]
    }
]