[
    {
        "nid": "Disco_Inferno_Helper_3",
        "name": "Disco Inferno Buff",
        "desc": "For each 25% HP below maximum, gain +2 SKL/SPD/DEF.\nWhen HP is 25% or less, all attacks are <green>Brave</>.",
        "icon_nid": "Oliver_Icons",
        "icon_index": [
            2,
            0
        ],
        "components": [
            [
                "hidden",
                null
            ],
            [
                "condition",
                "unit.get_hp() <= unit.get_max_hp() * .75"
            ],
            [
                "stat_change",
                [
                    [
                        "SKL",
                        2
                    ],
                    [
                        "SPD",
                        2
                    ],
                    [
                        "DEF",
                        2
                    ]
                ]
            ]
        ]
    }
]