[
    {
        "nid": "DishOut",
        "name": "Dish Out",
        "desc": "Whenever unit kills an enemy, unit has a <orange>(LCK * 150%)</> chance to gain a random item.\nA charge will be consumed regardless of success.",
        "icon_nid": "LTSkillIconSheet",
        "icon_index": [
            5,
            33
        ],
        "components": [
            [
                "class_skill",
                null
            ],
            [
                "event_after_kill",
                "Global Ability_DishOut"
            ],
            [
                "copysafe",
                []
            ],
            [
                "drain_charge",
                1
            ]
        ]
    }
]