[
    {
        "nid": "DismountDivebomb",
        "name": "Dismount Divebomb",
        "desc": "<green>Refreshes</> unit's turn on use. Unit suffers -2 MOV, cannot fly, ignores <violet>Horse</> and <violet>Flying</> effectiveness, and gains +2 to all stats until next turn. Next turn, unit can <blue>Mount Up</> to return to normal.",
        "icon_nid": "LTSkillIconSheet",
        "icon_index": [
            6,
            48
        ],
        "components": [
            [
                "class_skill",
                null
            ],
            [
                "ability",
                "DismountDivebomb"
            ],
            [
                "copysafe",
                []
            ],
            [
                "tether_parameters",
                {
                    "cost": 45,
                    "level": 4
                }
            ]
        ]
    }
]