[
    {
        "nid": "Draconic_Impulse_Child",
        "name": "Draconic Impulse",
        "desc": "Unleashes latent Draconic powers.\nAll stats +4, and regain a charge of <blue>Charging Descent</> during upkeep.\nDuring upkeep, take 4 damage. This damage can be lethal.\nThese effects will not clear until the end of the chapter.",
        "icon_nid": "LTSkillIconSheet",
        "icon_index": [
            2,
            43
        ],
        "components": [
            [
                "upkeep_event",
                "Global Ability_Draconic_Impulse"
            ],
            [
                "stat_change",
                [
                    [
                        "STR",
                        4
                    ],
                    [
                        "MAG",
                        4
                    ],
                    [
                        "SKL",
                        4
                    ],
                    [
                        "SPD",
                        4
                    ],
                    [
                        "LCK",
                        4
                    ],
                    [
                        "DEF",
                        4
                    ],
                    [
                        "RES",
                        4
                    ]
                ]
            ],
            [
                "lost_on_end_chapter",
                null
            ]
        ]
    }
]