[
    {
        "nid": "Draconic_Brutality",
        "name": "Draconic Brutality",
        "desc": "When a <violet>Dragon</> ally slays a foe:\nDeals 25% of this unit's current STR to a random foe as a non-lethal <green>NCD</>.",
        "icon_nid": "All_Skills",
        "icon_index": [
            1,
            43
        ],
        "components": [
            [
                "class_skill",
                null
            ],
            [
                "aura",
                "Draconic_Brutality_Child"
            ],
            [
                "aura_range",
                99
            ],
            [
                "aura_target",
                "ally"
            ],
            [
                "hide_aura",
                null
            ],
            [
                "copysafe",
                []
            ]
        ]
    }
]