[
    {
        "nid": "Draconic_Pride",
        "name": "Draconic Pride",
        "desc": "While HP is less than or equal to 50%:\nDeal effective damage against <violet>Dragons</> and <violet>Wyverns</>.",
        "icon_nid": "All_Skills",
        "icon_index": [
            5,
            49
        ],
        "components": [
            [
                "class_skill",
                null
            ],
            [
                "combat_condition",
                "unit.get_hp() <= (unit.get_max_hp() // 2)"
            ],
            [
                "item_override",
                "Effective_Dragon_OR"
            ],
            [
                "copysafe",
                []
            ],
            [
                "tether_parameters",
                {
                    "cost": 40,
                    "level": 99
                }
            ]
        ]
    }
]