[
    {
        "nid": "Draconic_Channeling_Effect",
        "name": "Draconic Channeling Effect",
        "desc": "Powers up <red>Draconic Expulsion</>. Max 20 stacks.\nAll stacks are lost on chapter end.",
        "icon_nid": "All_Skills",
        "icon_index": [
            9,
            37
        ],
        "components": [
            [
                "hidden",
                null
            ],
            [
                "upkeep_event",
                "Global Ability_Draconic_Channeling"
            ]
        ]
    }
]