[
    {
        "nid": "Draconian_Aura",
        "name": "Draconian Aura",
        "desc": "When two or more dragons are\nwithin two spaces of each other,\nadd STR / 2 to stone damage and\ngain access to Dragon Scare.",
        "icon_nid": "Skills",
        "icon_index": [
            0,
            0
        ],
        "components": [
            [
                "hidden",
                null
            ],
            [
                "ability",
                "DragonScare"
            ],
            [
                "dynamic_damage",
                "unit.get_stat('STR') // 2 if item_system.weapon_type(unit, item) == 'Stone' else 0"
            ],
            [
                "condition",
                "len([u for u in get_allies_within_distance(unit.position, 2) if 'Dragon' in u.tags]) >= 2"
            ],
            [
                "combat_condition",
                "not 'TrueDamage' in item.tags"
            ]
        ]
    }
]