[
    {
        "nid": "Dragon_Passion_Plus_A",
        "name": "Dragon Passion+",
        "desc": "+2 MAG/SPD",
        "icon_nid": "LTSkillIconSheet",
        "icon_index": [
            3,
            5
        ],
        "components": [
            [
                "stat_change",
                [
                    [
                        "MAG",
                        2
                    ],
                    [
                        "SPD",
                        2
                    ]
                ]
            ],
            [
                "hidden_if_inactive",
                null
            ],
            [
                "condition",
                "unit.nid == 'Basil'"
            ]
        ]
    }
]