[
    {
        "nid": "Dragonskin_Scorn",
        "name": "Minor Dragonskin",
        "desc": "Unit takes 75% damage.",
        "icon_nid": "LTSkillIconSheet",
        "icon_index": [
            1,
            50
        ],
        "components": [
            [
                "global",
                null
            ],
            [
                "resist_multiplier",
                0.75
            ],
            [
                "hidden_if_inactive",
                null
            ],
            [
                "condition",
                "'Boss' not in unit.tags and unit.team in ['enemy', 'enemy2'] and RECORDS.get('Scorn_level') == 1"
            ],
            [
                "self_nihil",
                [
                    "Shame_Cowardice",
                    "Enhanced_State"
                ]
            ]
        ]
    }
]