[
    {
        "nid": "Dragonforce_Child",
        "name": "Force of Dragons",
        "desc": "+3 STR/MAG/SPD to <violet>Dragons</>.\nIf there are 4 or more <violet>Dragon</> allies on the field, +1 MOV as well.",
        "icon_nid": "All_Skills",
        "icon_index": [
            8,
            31
        ],
        "components": [
            [
                "stat_change",
                [
                    [
                        "STR",
                        3
                    ],
                    [
                        "MAG",
                        3
                    ],
                    [
                        "SPD",
                        3
                    ]
                ]
            ],
            [
                "stat_change_expression",
                [
                    [
                        "MOV",
                        "1 if len([u for u in game.get_ally_units() if 'Dragon' in u.tags]) >= 4 else 0"
                    ]
                ]
            ]
        ]
    }
]