[
    {
        "nid": "Draining_Touch",
        "name": "Draining Touch",
        "desc": "<pink>Unique</>\nWhen an ally dies, unit gains all of their copiable Aura skills.\nThis will occur as long as unit is alive, even if undeployed (must not be in Reserves or Shuffled).\nWill no longer activate if unit has 12 skills.",
        "icon_nid": "All_Skills",
        "icon_index": [
            14,
            35
        ],
        "components": [
            [
                "class_skill",
                null
            ]
        ]
    }
]