[
    {
        "nid": "Draw_Back",
        "name": "Draw Back",
        "desc": "Move self and target back one space.",
        "icon_nid": "LTSkillIconSheet",
        "icon_index": [
            2,
            36
        ],
        "components": [
            [
                "class_skill",
                null
            ],
            [
                "ability",
                "Draw_Back"
            ],
            [
                "copysafe",
                []
            ],
            [
                "tether_parameters",
                {
                    "cost": 20,
                    "level": 0
                }
            ]
        ]
    }
]