[
    {
        "nid": "Drive_Defenses_Child",
        "name": "Drive Defenses",
        "desc": "+2 Def/Res",
        "icon_nid": "ZessDynamiteSkillsys",
        "icon_index": [
            0,
            57
        ],
        "components": [
            [
                "stat_change",
                [
                    [
                        "DEF",
                        2
                    ],
                    [
                        "RES",
                        2
                    ]
                ]
            ]
        ]
    }
]