[
    {
        "nid": "Drive_Speed",
        "name": "Drive Speed",
        "desc": "+4 Speed to allies within 2 spaces.",
        "icon_nid": "LTSkillIconSheet",
        "icon_index": [
            2,
            16
        ],
        "components": [
            [
                "class_skill",
                null
            ],
            [
                "aura",
                "SpurSpeed_Child"
            ],
            [
                "aura_range",
                2
            ],
            [
                "aura_target",
                "ally"
            ],
            [
                "copysafe",
                []
            ]
        ]
    }
]