[
    {
        "nid": "Drive_Steal_Plus",
        "name": "Drive Steal+",
        "desc": "Allies within 2 spaces can use <blue>Steal+</>.",
        "icon_nid": "Skills",
        "icon_index": [
            7,
            10
        ],
        "components": [
            [
                "class_skill",
                null
            ],
            [
                "aura",
                "Steal_Plus"
            ],
            [
                "aura_range",
                2
            ],
            [
                "aura_target",
                "ally"
            ],
            [
                "copysafe",
                []
            ]
        ]
    }
]