[
    {
        "nid": "Dusk_Looms",
        "name": "Dusk Looms",
        "desc": "All allies are considered to have Ice, Thunder, Earth, Dark, and Null affinities.",
        "icon_nid": "Skills",
        "icon_index": [
            0,
            0
        ],
        "components": [
            [
                "hidden",
                null
            ],
            [
                "has_affinities",
                [
                    "Ice",
                    "Thunder",
                    "Earth",
                    "Dark",
                    "None"
                ]
            ]
        ]
    }
]