[
    {
        "nid": "Effective_Retreat",
        "name": "Effective Retreat",
        "desc": "When <green>initiating</>, if attack is effective, unit gains <blue>Canter [2]</>.",
        "icon_nid": "Skills",
        "icon_index": [
            3,
            1
        ],
        "components": [
            [
                "class_skill",
                null
            ],
            [
                "combat_condition",
                "item.effective_damage and any([tag in item.effective_damage.tags for tag in target.tags])"
            ],
            [
                "canter",
                2
            ],
            [
                "copysafe",
                []
            ],
            [
                "tether_parameters",
                {
                    "cost": 25,
                    "level": 1
                }
            ]
        ]
    }
]