[
    {
        "nid": "Electric_Chain",
        "name": "Electric Chain",
        "desc": "During any phase change, inflicts <blue>Electric Chain</> on all units within 3 spaces.\nInflicts -3 Critical Evasion per unit with <blue>Electric Chain</>.",
        "icon_nid": "All_Skills",
        "icon_index": [
            2,
            38
        ],
        "components": [
            [
                "dynamic_crit_avoid",
                "-3 * len([u for u in game.get_all_units() if has_skill(u, 'Electric_Chain')])"
            ],
            [
                "lost_on_end_chapter",
                null
            ],
            [
                "self_nihil",
                [
                    "Electric_Chainer"
                ]
            ],
            [
                "hidden_if_inactive",
                null
            ]
        ]
    }
]