[
    {
        "nid": "Enchanted_Blade_P",
        "name": "Enchanted Blade",
        "desc": "",
        "icon_nid": "LTSkillIconSheet",
        "icon_index": [
            0,
            3
        ],
        "components": [
            [
                "hidden",
                null
            ],
            [
                "display_skill_icon_in_combat",
                null
            ],
            [
                "all_brave",
                null
            ],
            [
                "dynamic_damage",
                "unit.get_stat('MAG')"
            ],
            [
                "event_after_initiated_combat",
                "Global Ability_EnchantedBlade"
            ],
            [
                "limit_maximum_range",
                1
            ],
            [
                "combat_art_proc",
                null
            ]
        ]
    }
]