[
    {
        "nid": "EurekaSwordRestrict",
        "name": "EurekaSwordRestrict",
        "desc": "",
        "icon_nid": null,
        "icon_index": [
            0,
            0
        ],
        "components": [
            [
                "hidden",
                null
            ],
            [
                "wexp_unusable_skill",
                "Sword"
            ],
            [
                "condition",
                "DB.classes.get(unit.klass).tier < 2"
            ]
        ]
    }
]