[
    {
        "nid": "Evenhanded",
        "name": "Evenhanded",
        "desc": "On even numbered turns, +4 damage dealt.",
        "icon_nid": "LTSkillIconSheet",
        "icon_index": [
            3,
            46
        ],
        "components": [
            [
                "class_skill",
                null
            ],
            [
                "dynamic_damage",
                "4 if game.turncount % 2 == 0 and not 'TrueDamage' in item.tags else 0"
            ],
            [
                "unit_flickering_tint",
                [
                    255,
                    99,
                    99
                ]
            ],
            [
                "condition",
                "game.turncount % 2 == 0"
            ]
        ]
    }
]