[
    {
        "nid": "Execution_Child",
        "name": "Execution",
        "desc": "Child of <blue>Execution</>.",
        "icon_nid": "All_Skills",
        "icon_index": [
            13,
            38
        ],
        "components": [
            [
                "start_and_end_event_initiate",
                {
                    "start_event": "Global Ability_Execution_Start",
                    "end_event": "Global Ability_Execution"
                }
            ],
            [
                "cannot_double",
                null
            ],
            [
                "hidden",
                null
            ],
            [
                "combat_art_proc",
                null
            ]
        ]
    }
]