[
    {
        "nid": "Experimentation",
        "name": "Experimentation",
        "desc": "When <green>initiating</> against a target:\nIf target is an ally and heals as a result of the interaction: They gain +2 to their highest stat for 1 turn.\nIf target is a foe and is damaged as a result of the interaction: They gain all stats -1 in their next combat.",
        "icon_nid": "All_Skills",
        "icon_index": [
            8,
            39
        ],
        "components": [
            [
                "class_skill",
                null
            ],
            [
                "start_and_end_event_initiate",
                {
                    "start_event": "Global Ability_Experimentation_Start",
                    "end_event": "Global Ability_Experimentation_End"
                }
            ],
            [
                "copysafe",
                []
            ]
        ]
    }
]