[
    {
        "nid": "FallingLeafFlare",
        "name": "Falling-Leaf Flare",
        "desc": "<green>Combat Art</>\nAttack in a magical Blast AoE 2, centered on the user.\nCannot perform follow-up attacks. Only usable this turn.",
        "icon_nid": "Nokt Icons ltinsert",
        "icon_index": [
            5,
            0
        ],
        "components": [
            [
                "combat_art",
                "FallingLeafFlareChild"
            ],
            [
                "allowed_weapons",
                "item_system.is_weapon(unit, item)"
            ],
            [
                "end_time",
                1
            ]
        ]
    }
]