[
    {
        "nid": "Fancy_Feet_Proc",
        "name": "Fancy Feet",
        "desc": "<pink>Unique</> <green>Combat Art</>\n<green>Free Action</>, <blue>Canter [5]</>",
        "icon_nid": "All_Skills",
        "icon_index": [
            4,
            8
        ],
        "components": [
            [
                "combat_art_proc",
                null
            ],
            [
                "item_override",
                "DualCastOverride"
            ],
            [
                "canter",
                5
            ]
        ]
    }
]