[
    {
        "nid": "Female_Tag",
        "name": "Female Tag",
        "desc": "",
        "icon_nid": "Skills",
        "icon_index": [
            0,
            0
        ],
        "components": [
            [
                "has_tags",
                [
                    "Female"
                ]
            ],
            [
                "hidden",
                null
            ]
        ]
    }
]