[
    {
        "nid": "Fig",
        "name": "Fig",
        "desc": "Unit cannot be selected, and will pursue enemies.\n+20 STR/MAG.",
        "icon_nid": "Food_by_ZessDynamite",
        "icon_index": [
            2,
            0
        ],
        "components": [
            [
                "stat_change",
                [
                    [
                        "STR",
                        20
                    ],
                    [
                        "MAG",
                        20
                    ]
                ]
            ],
            [
                "unselectable",
                null
            ],
            [
                "change_ai",
                "Pursue"
            ]
        ]
    }
]