[
    {
        "nid": "Flickering_Flames",
        "name": "Flickering Flames",
        "desc": "Deal 33% of damage when missing.\nWhen an attack misses, the next strike gains +200 Hit and damage equal to half of weapon's WT.",
        "icon_nid": "crystal_icons",
        "icon_index": [
            2,
            0
        ],
        "components": [
            [
                "class_skill",
                null
            ],
            [
                "copysafe",
                []
            ],
            [
                "gain_on_miss",
                "Flickering_Flames_Child"
            ],
            [
                "item_override",
                "OneThird_OnMiss_OR"
            ]
        ]
    }
]