[
    {
        "nid": "Flier_Formation",
        "name": "Flier Formation",
        "desc": "<violet>Flying</> allies can move to a space adjacent to other allied <violet>fliers</> within 6 spaces.",
        "icon_nid": "Skills",
        "icon_index": [
            0,
            0
        ],
        "components": [
            [
                "hidden",
                null
            ],
            [
                "condition",
                "'Flying' in unit.tags"
            ],
            [
                "witch_warp_expression",
                "'Flying' in unit.tags and not skill_system.check_enemy(unit, target) and unit.nid != target.nid and utils.calculate_distance(unit.position, target.position) <= 6"
            ]
        ]
    }
]