[
    {
        "nid": "Flinch",
        "name": "Flinch",
        "desc": "Unit cannot counterattack with magical weapons.",
        "icon_nid": "LTSkillIconSheet",
        "icon_index": [
            1,
            29
        ],
        "components": [
            [
                "condition",
                "item_funcs.is_magic(unit, unit.get_weapon())"
            ],
            [
                "item_override",
                "Cannot_Counter_Override"
            ],
            [
                "class_skill",
                null
            ],
            [
                "shit",
                null
            ]
        ]
    }
]