[
    {
        "nid": "Flutter_Step",
        "name": "Flutter Step",
        "desc": "+40 Avoid while HP is 25% or less.\nCan only trigger while charges remain.",
        "icon_nid": "All_Skills",
        "icon_index": [
            14,
            8
        ],
        "components": [
            [
                "class_skill",
                null
            ],
            [
                "drain_charge",
                2
            ],
            [
                "combat_condition",
                "unit.get_hp() <= (unit.get_max_hp() // 4) and skill_system.check_enemy(unit, target)"
            ],
            [
                "avoid",
                40
            ]
        ]
    }
]