[
    {
        "nid": "Force_Stop_Even_Scales",
        "name": "Force Stop Even Scales",
        "desc": "",
        "icon_nid": "Skills",
        "icon_index": [
            0,
            0
        ],
        "components": [
            [
                "hidden",
                null
            ],
            [
                "lost_on_endstep",
                null
            ],
            [
                "item_override",
                "Unavailable_Override"
            ],
            [
                "stat_change",
                [
                    [
                        "MOV",
                        -99
                    ]
                ]
            ]
        ]
    }
]