[
    {
        "nid": "Forgetful",
        "name": "Forgetful",
        "desc": "<pink>Unique</>\nWhen entering room selection:\nDecrease one base stat by 1. Cannot target HP, LCK, CON, or MOV.",
        "icon_nid": "All_Skills",
        "icon_index": [
            7,
            24
        ],
        "components": [
            [
                "class_skill",
                null
            ],
            [
                "shit",
                null
            ]
        ]
    }
]