[
    {
        "nid": "Formation_Alpha_Status",
        "name": "Formation Alpha",
        "desc": "Unit will approach nearby foes.\nAvailable skills will be more aggressive.",
        "icon_nid": "All_Skills",
        "icon_index": [
            11,
            52
        ],
        "components": [
            [
                "class_skill",
                null
            ]
        ]
    }
]