[
    {
        "nid": "Forrester",
        "name": "Forrester",
        "desc": "Gain +3 MOV, <blue>Canto+</>, and +30 Hit/Critical Hit while in a Forest or Thicket tile.\nTreat Forest and Thicket tiles as 1 movement cost.",
        "icon_nid": "All_Skills",
        "icon_index": [
            0,
            37
        ],
        "components": [
            [
                "condition",
                "get_terrain(unit.position) in ['2','3']"
            ],
            [
                "stat_change",
                [
                    [
                        "MOV",
                        3
                    ]
                ]
            ],
            [
                "canto_plus",
                null
            ],
            [
                "hit",
                30
            ],
            [
                "crit",
                30
            ],
            [
                "class_skill",
                null
            ],
            [
                "copysafe",
                [
                    "Forrester_Costs"
                ]
            ]
        ]
    }
]