[
    {
        "nid": "Fox_Charm",
        "name": "Fox Charm",
        "desc": "While HP is 50% or lower, gain <blue>Vantage</>.",
        "icon_nid": "tactics_ogre",
        "icon_index": [
            10,
            1
        ],
        "components": [
            [
                "vantage",
                null
            ],
            [
                "combat_condition",
                "unit.get_hp() <= (unit.get_max_hp() // 2)"
            ]
        ]
    }
]