[
    {
        "nid": "Frostbite",
        "name": "Frostbite",
        "desc": "Knife <green>Combat Art</>\nAdds <orange>(MAG / 2)</> to damage dealt, but nullifies unit's follow-up attacks.\nInflicts <brown>Exposed</> after combat.",
        "icon_nid": "All_Skills",
        "icon_index": [
            7,
            25
        ],
        "components": [
            [
                "class_skill",
                null
            ],
            [
                "combat_art",
                "Frostbite_Proc"
            ],
            [
                "allowed_weapons",
                "item_system.is_weapon(unit, item) and item_system.weapon_type(unit, item) == 'Knife'"
            ],
            [
                "drain_charge",
                2
            ],
            [
                "copysafe",
                []
            ]
        ]
    }
]