[
    {
        "nid": "Full_Bloom",
        "name": "Full Bloom",
        "desc": "<pink>Unique</>. Every stack of <blue>Efflorescing</> will grant +1 Hit, Critical Chance, and Critical Evasion to unit and allies with <blue>Blooming Flower</>.\nEvery 5 stacks of <blue>Efflorescing</> will grant +1 STR/DEF to unit and allies with <blue>Blooming Flower</>.",
        "icon_nid": "All_Skills",
        "icon_index": [
            10,
            35
        ],
        "components": [
            [
                "class_skill",
                null
            ],
            [
                "eval_hit",
                "v('Efflorescing', 0)"
            ],
            [
                "eval_crit",
                "v('Efflorescing', 0)"
            ],
            [
                "dynamic_crit_avoid",
                "v('Efflorescing', 0)"
            ],
            [
                "stat_change_expression",
                [
                    [
                        "STR",
                        "v('Efflorescing', 0) // 5"
                    ],
                    [
                        "DEF",
                        "v('Efflorescing', 0) // 5"
                    ]
                ]
            ],
            [
                "aura",
                "Full_Bloom_Child"
            ],
            [
                "aura_range",
                99
            ],
            [
                "aura_target",
                "ally"
            ],
            [
                "hide_aura",
                null
            ]
        ]
    }
]