[
    {
        "nid": "Fury_Bow_Debuff_Gain",
        "name": "Furious End",
        "desc": "STR and MAG are halved until next turn.",
        "icon_nid": "zarg icons ltinsert",
        "icon_index": [
            4,
            3
        ],
        "components": [
            [
                "hidden",
                null
            ],
            [
                "combat_condition",
                "item.nid in ['Fury_Bow','Fury_Bow_Plus']"
            ],
            [
                "gain_skill_after_combat",
                "Fury_Bow_Debuff"
            ]
        ]
    }
]