[
    {
        "nid": "GaleforceStrike_Plus",
        "name": "Galeforce Strike+",
        "desc": "<green>Combat Art</> \nIf attack is lethal, <green>refreshes</> unit.",
        "icon_nid": "LTSkillIconSheet",
        "icon_index": [
            0,
            47
        ],
        "components": [
            [
                "combat_art",
                "GaleforceStrike_Proc"
            ],
            [
                "class_skill",
                null
            ],
            [
                "drain_charge",
                2
            ],
            [
                "allowed_weapons",
                "item_system.is_weapon(unit, item)"
            ],
            [
                "copysafe",
                []
            ]
        ]
    }
]