[
    {
        "nid": "Galerobber_Plus",
        "name": "Galerobber+",
        "desc": "Grants <blue>Steal+</>.\nUpon using <blue>Steal+</>, <green>Refresh</> self.",
        "icon_nid": "All_Skills",
        "icon_index": [
            7,
            37
        ],
        "components": [
            [
                "class_skill",
                null
            ],
            [
                "ability",
                "Steal_Plus"
            ],
            [
                "copysafe",
                [
                    "Galerobber_Helper"
                ]
            ],
            [
                "drain_charge",
                3
            ]
        ]
    }
]