[
    {
        "nid": "Gemini_Swap",
        "name": "Gemini Swap",
        "desc": "<pink>Unique</>\nSwitches the on-field Gemini for the off-field Gemini.",
        "icon_nid": "LTSkillIconSheet",
        "icon_index": [
            1,
            36
        ],
        "components": [
            [
                "class_skill",
                null
            ],
            [
                "ability",
                "Gemini_Swap"
            ],
            [
                "condition",
                "(get_skill(unit, 'Together') and get_skill(unit, 'Together').data['charge'] >= 1) or (get_skill(unit, 'Together_Plus') and get_skill(unit, 'Together_Plus').data['charge'] >= 1)"
            ]
        ]
    }
]