[
    {
        "nid": "GlitterOfGoldPlus",
        "name": "Glitter of Gold+",
        "desc": "Unit's Hit & Critical Chance are boosted by <orange>(party's gold / 50)</>. Max 30.\nDamage Dealt is boosted by <orange>(party's gold / 300)</>. Max 5.",
        "icon_nid": "LTSkillIconSheet",
        "icon_index": [
            1,
            50
        ],
        "components": [
            [
                "class_skill",
                null
            ],
            [
                "dynamic_damage",
                "min(game.get_money() // 300, 5) if not 'TrueDamage' in item.tags else 0"
            ],
            [
                "eval_hit",
                "min(game.get_money() // 50, 30)"
            ],
            [
                "eval_crit",
                "min(game.get_money() // 50, 30)"
            ],
            [
                "copysafe",
                []
            ]
        ]
    }
]