[
    {
        "nid": "GlitterOfGold",
        "name": "Glitter of Gold",
        "desc": "Unit's Hit & Critical Chance are boosted by <orange>(party's gold / 100)</>. Max 20.\nDamage Dealt is boosted by <orange>(party's gold / 400)</>. Max 5.",
        "icon_nid": "LTSkillIconSheet",
        "icon_index": [
            1,
            50
        ],
        "components": [
            [
                "class_skill",
                null
            ],
            [
                "dynamic_damage",
                "min(game.get_money() // 400, 5) if not 'TrueDamage' in item.tags else 0"
            ],
            [
                "eval_hit",
                "min(game.get_money() // 100, 20)"
            ],
            [
                "eval_crit",
                "min(game.get_money() // 100, 20)"
            ],
            [
                "copysafe",
                []
            ]
        ]
    }
]