[
    {
        "nid": "GreedSever_Proc",
        "name": "Greed Sever",
        "desc": "Combat art. AoE Cleave. Inflicts Blinded on hit.",
        "icon_nid": "LTSkillIconSheet",
        "icon_index": [
            2,
            3
        ],
        "components": [
            [
                "item_override",
                "GreedSeverOverride"
            ],
            [
                "combat_art_proc",
                null
            ]
        ]
    }
]