[
    {
        "nid": "Guardian_Spirit",
        "name": "Guardian Spirit",
        "desc": "Unit uses RES instead of STR or MAG to determine damage dealt.",
        "icon_nid": "All_Skills",
        "icon_index": [
            4,
            35
        ],
        "components": [
            [
                "class_skill",
                null
            ],
            [
                "item_override",
                "Res_Damage_OR"
            ],
            [
                "copysafe",
                []
            ]
        ]
    }
]