[
    {
        "nid": "Guiding_Hand_Status",
        "name": "Guiding Hand",
        "desc": "+30 Hit and +5 Critical Chance in next combat.",
        "icon_nid": "All_Skills",
        "icon_index": [
            5,
            52
        ],
        "components": [
            [
                "hit",
                30
            ],
            [
                "crit",
                5
            ],
            [
                "lost_on_end_combat2",
                {
                    "lost_on_self": false,
                    "lost_on_ally": false,
                    "lost_on_enemy": true,
                    "lost_on_splash": true
                }
            ],
            [
                "lost_on_end_chapter",
                null
            ]
        ]
    }
]