[
    {
        "nid": "Heaven_Rain",
        "name": "Heaven's Rain",
        "desc": "On turn 1, and every 4th turn, Ouranos will ascend into the sky.\nOn the next turn, launches an AoE attack that does 10 <green>true damage</>, and descends to a random location.",
        "icon_nid": "Skills",
        "icon_index": [
            4,
            1
        ],
        "components": [
            [
                "class_skill",
                null
            ]
        ]
    }
]