[
    {
        "nid": "HeavySlam",
        "name": "Heavy Slam",
        "desc": "Warp to a space within 3 spaces, then perform a AoE attack <orabge>(Atk = CON/2)</> centered on target location. <green>Free Action</>.",
        "icon_nid": "Skills",
        "icon_index": [
            9,
            5
        ],
        "components": [
            [
                "ability",
                "HeavySlam_Hub"
            ],
            [
                "class_skill",
                null
            ],
            [
                "drain_charge",
                2
            ],
            [
                "copysafe",
                []
            ]
        ]
    }
]