[
    {
        "nid": "HELPFUL_SKL",
        "name": "HELPFUL_SKL",
        "desc": "Increases SKL by 3 until the end of the chapter.",
        "icon_nid": "All_Skills",
        "icon_index": [
            2,
            3
        ],
        "components": [
            [
                "stat_change",
                [
                    [
                        "SKL",
                        3
                    ]
                ]
            ],
            [
                "lost_on_end_chapter",
                null
            ]
        ]
    }
]