[
    {
        "nid": "Hibernation_Plus",
        "name": "Hibernation+",
        "desc": "Inflicts <brown>Sleep</> and grants <blue>Invincible</> to a unit within 3 spaces.\nCosts one Aura to use.",
        "icon_nid": "All_Skills",
        "icon_index": [
            3,
            44
        ],
        "components": [
            [
                "class_skill",
                null
            ],
            [
                "ability",
                "Hibernation_Plus"
            ],
            [
                "copysafe",
                []
            ]
        ]
    }
]