[
    {
        "nid": "HiddenAnimaAccess",
        "name": "HiddenAnimaAccess",
        "desc": "",
        "icon_nid": "Skills",
        "icon_index": [
            0,
            0
        ],
        "components": [
            [
                "hidden",
                null
            ],
            [
                "wexp_usable_skill",
                "Anima"
            ],
            [
                "has_tags",
                [
                    "Magical"
                ]
            ]
        ]
    }
]