[
    {
        "nid": "Hit_Plus_50",
        "name": "Hit +50",
        "desc": "Grants Hit +50.",
        "icon_nid": "LTSkillIconSheet",
        "icon_index": [
            4,
            23
        ],
        "components": [
            [
                "hit",
                50
            ],
            [
                "combined_time",
                1
            ]
        ]
    }
]