[
    {
        "nid": "Hit_Plus_100",
        "name": "Hit +100",
        "desc": "Grants Hit +100.",
        "icon_nid": "All_Skills",
        "icon_index": [
            6,
            10
        ],
        "components": [
            [
                "hit",
                100
            ],
            [
                "combined_time",
                1
            ]
        ]
    }
]