[
    {
        "nid": "Hope_for_Humanity_Helper",
        "name": "Hope for Humanity",
        "desc": "Immune to Tier 2 statuses, and fatal damage from statuses.\nUnit can counter from any range, but counters at half strength.\nWhile this skill has charges remaining, unit will revive with full HP.",
        "icon_nid": "LTSkillIconSheet",
        "icon_index": [
            2,
            39
        ],
        "components": [
            [
                "distant_counter",
                null
            ],
            [
                "hidden",
                null
            ],
            [
                "condition",
                "game.phase.get_current() != unit.team"
            ],
            [
                "damage_multiplier",
                0.5
            ]
        ]
    }
]