[
    {
        "nid": "house_1",
        "name": "house 1",
        "desc": "",
        "icon_nid": "Skills",
        "icon_index": [
            0,
            0
        ],
        "components": [
            [
                "hidden",
                null
            ],
            [
                "lost_on_end_chapter",
                null
            ]
        ]
    }
]