[
    {
        "nid": "HungerForRot_Plus",
        "name": "Hunger For Rot+",
        "desc": "Whenever unit hits an enemy who is not suffering from <brown>Toxin</>, unit loses 1 HP.\n+3 Damage Dealt if foe is suffering from <brown>Toxin</>.",
        "icon_nid": "Skills",
        "icon_index": [
            9,
            2
        ],
        "components": [
            [
                "class_skill",
                null
            ],
            [
                "item_override",
                "Hunger_For_Rot_Override"
            ],
            [
                "dynamic_damage",
                "3 if not 'TrueDamage' in item.tags and has_skill(target, 'Toxin') else 0"
            ],
            [
                "copysafe",
                []
            ],
            [
                "combat_condition",
                "skill_system.check_enemy(unit, target)"
            ]
        ]
    }
]