[
    {
        "nid": "HungerForRot",
        "name": "Hunger For Rot",
        "desc": "<pink>Unique</>\nWhenever unit hits an enemy who is not suffering from <brown>Toxin</>, unit loses 1 HP.",
        "icon_nid": "Skills",
        "icon_index": [
            9,
            2
        ],
        "components": [
            [
                "class_skill",
                null
            ],
            [
                "shit",
                null
            ],
            [
                "item_override",
                "Hunger_For_Rot_Override"
            ],
            [
                "combat_condition",
                "skill_system.check_enemy(unit, target)"
            ]
        ]
    }
]