[
    {
        "nid": "Hypocritical_Oath",
        "name": "Hypocritical Oath",
        "desc": "When <green>initiating</> against a foe:\nAfter combat, inflict a random <brown>Ailment</> onto foe.",
        "icon_nid": "All_Skills",
        "icon_index": [
            6,
            34
        ],
        "components": [
            [
                "event_after_initiated_combat",
                "Global Ability_Hypocritical_Oath"
            ],
            [
                "class_skill",
                null
            ],
            [
                "copysafe",
                []
            ],
            [
                "combat_condition",
                "skill_system.check_enemy(unit, target)"
            ]
        ]
    }
]