[
    {
        "nid": "Ignore_Damage",
        "name": "Ignore Damage",
        "desc": "",
        "icon_nid": "Skills",
        "icon_index": [
            0,
            0
        ],
        "components": [
            [
                "hidden",
                null
            ],
            [
                "ignore_damage",
                null
            ]
        ]
    }
]