[
    {
        "nid": "Imbibe_Lifesteal",
        "name": "Imbibe",
        "desc": "Drains 5 HP from an ally.\nAlso adds a stack of <blue>Blood</>.",
        "icon_nid": "LTSkillIconSheet",
        "icon_index": [
            3,
            40
        ],
        "components": [
            [
                "hidden",
                null
            ],
            [
                "combat_condition",
                "item.nid == 'Imbibe'"
            ],
            [
                "lifelink",
                1.0
            ]
        ]
    }
]