[
    {
        "nid": "Inevitable",
        "name": "Inevitable",
        "desc": "<brown>Ailment</>\nAfter 3 turns, this unit will die.",
        "icon_nid": "Skills",
        "icon_index": [
            9,
            3
        ],
        "components": [
            [
                "negative",
                null
            ],
            [
                "self_nihil",
                [
                    "Legend",
                    "Hope_for_Humanity",
                    "Master_of_the_Fog",
                    "Legend_Plus",
                    "Hope_for_Humanity_Plus",
                    "Fading_Legend",
                    "Burning_Desire",
                    "Angelic_Decree",
                    "Judgment_of_Ten"
                ]
            ],
            [
                "lost_on_end_chapter",
                null
            ],
            [
                "time",
                3
            ],
            [
                "upkeep_event",
                "Global Status_Inevitable"
            ]
        ]
    }
]