[
    {
        "nid": "Information_Neutralization",
        "name": "Information Neutralization",
        "desc": "Unit cannot perform follow-up attacks.\nWhen <green>initiating</>, if foe cannot counter, inflict <brown>Chill</> after combat.\nWhen <green>initiating</>, if foe can counter, gain +20 Avoid.",
        "icon_nid": "All_Skills",
        "icon_index": [
            15,
            44
        ],
        "components": [
            [
                "class_skill",
                null
            ],
            [
                "copysafe",
                [
                    "Information_Neutralization_Helper",
                    "Information_Neutralization_Helper_2"
                ]
            ],
            [
                "give_status_after_combat",
                "Chilled"
            ],
            [
                "combat_condition",
                "not combat_calcs.can_counterattack(unit, item, target, item2)"
            ],
            [
                "tether_parameters",
                {
                    "cost": 45,
                    "level": 99
                }
            ]
        ]
    }
]