[
    {
        "nid": "Inspired_Heal",
        "name": "Inspired Heal",
        "desc": "Allies within 3 tiles will regenerate 10% HP during upkeep.\nCan only occur twice per chapter, per unit.",
        "icon_nid": "LTSkillIconSheet",
        "icon_index": [
            1,
            42
        ],
        "components": [
            [
                "class_skill",
                null
            ],
            [
                "copysafe",
                []
            ],
            [
                "aura",
                "Inspired_Heal_Child"
            ],
            [
                "aura_range",
                3
            ],
            [
                "aura_target",
                "ally"
            ],
            [
                "tether_parameters",
                {
                    "cost": 40,
                    "level": 3
                }
            ]
        ]
    }
]