[
    {
        "nid": "Inspiring_Words",
        "name": "Inspiring Words",
        "desc": "Grants +2 DEF or RES (whichever is the lower base stat, DEF if equal) to a non-<violet>Female</> ally within 3 spaces.",
        "icon_nid": "All_Skills",
        "icon_index": [
            10,
            24
        ],
        "components": [
            [
                "class_skill",
                null
            ],
            [
                "ability",
                "Inspiring_Words"
            ],
            [
                "drain_charge",
                2
            ],
            [
                "copysafe",
                []
            ]
        ]
    }
]