[
    {
        "nid": "Isolated",
        "name": "Isolated",
        "desc": "All Stats -10, MOV -3.\nUnit cannot be rescued.",
        "icon_nid": "All_Skills",
        "icon_index": [
            14,
            44
        ],
        "components": [
            [
                "has_tags",
                [
                    "NoRescue"
                ]
            ],
            [
                "stat_change",
                [
                    [
                        "MOV",
                        -3
                    ],
                    [
                        "STR",
                        -10
                    ],
                    [
                        "MAG",
                        -10
                    ],
                    [
                        "SKL",
                        -10
                    ],
                    [
                        "SPD",
                        -10
                    ],
                    [
                        "LCK",
                        -10
                    ],
                    [
                        "DEF",
                        -10
                    ],
                    [
                        "RES",
                        -10
                    ]
                ]
            ]
        ]
    }
]