[
    {
        "nid": "Jack_of_all_Trades_Debuff",
        "name": "Jack of all Trades",
        "desc": "All stats -2 until chapter end.",
        "icon_nid": "Rikaharuz_Icons",
        "icon_index": [
            0,
            0
        ],
        "components": [
            [
                "negative",
                null
            ],
            [
                "stat_change",
                [
                    [
                        "STR",
                        -2
                    ],
                    [
                        "MAG",
                        -2
                    ],
                    [
                        "SKL",
                        -2
                    ],
                    [
                        "SPD",
                        -2
                    ],
                    [
                        "LCK",
                        -2
                    ],
                    [
                        "DEF",
                        -2
                    ],
                    [
                        "RES",
                        -2
                    ]
                ]
            ],
            [
                "lost_on_end_chapter",
                null
            ],
            [
                "stack",
                999
            ]
        ]
    }
]