[
    {
        "nid": "Juggernaut",
        "name": "Juggernaut",
        "desc": "+25% Damage Dealt, -25% Damage Received, +5 All Stats.\nAll allies can warp to this unit, and gain the above effects while adjacent.\n",
        "icon_nid": "All_Skills",
        "icon_index": [
            15,
            52
        ],
        "components": [
            [
                "class_skill",
                null
            ],
            [
                "damage_multiplier",
                1.25
            ],
            [
                "resist_multiplier",
                0.75
            ],
            [
                "aura",
                "Juggernaut_Warp_Aura_Child"
            ],
            [
                "aura_range",
                99
            ],
            [
                "aura_target",
                "ally"
            ],
            [
                "hide_aura",
                null
            ],
            [
                "stat_change",
                [
                    [
                        "STR",
                        5
                    ],
                    [
                        "MAG",
                        5
                    ],
                    [
                        "SKL",
                        5
                    ],
                    [
                        "SPD",
                        5
                    ],
                    [
                        "LCK",
                        5
                    ],
                    [
                        "DEF",
                        5
                    ],
                    [
                        "RES",
                        5
                    ]
                ]
            ]
        ]
    }
]