[
    {
        "nid": "Keen_Stance",
        "name": "Keen Stance",
        "desc": "Gain +10 Avoid against adjacent\nfoes and +25 Avoid against ranged.\n<green>Free action</>, lasts 3 turns.",
        "icon_nid": "LTSkillIconSheet",
        "icon_index": [
            4,
            34
        ],
        "components": [
            [
                "class_skill",
                null
            ],
            [
                "blue",
                null
            ],
            [
                "copysafe",
                []
            ],
            [
                "ability",
                "Keen_Stance"
            ],
            [
                "drain_charge",
                1
            ]
        ]
    }
]