[
    {
        "nid": "Ketchup_Water",
        "name": "Ketchup (Wa)",
        "desc": "DEF/RES +2",
        "icon_nid": "All_Skills",
        "icon_index": [
            1,
            9
        ],
        "components": [
            [
                "stat_change",
                [
                    [
                        "DEF",
                        2
                    ],
                    [
                        "RES",
                        2
                    ]
                ]
            ],
            [
                "condition",
                "unit.affinity == 'Water'"
            ],
            [
                "hidden_if_inactive",
                null
            ]
        ]
    }
]