[
    {
        "nid": "King_Command_Child",
        "name": "King's Command",
        "desc": "+2 to all stats.",
        "icon_nid": "LTSkillIconSheet",
        "icon_index": [
            7,
            42
        ],
        "components": [
            [
                "stat_change",
                [
                    [
                        "STR",
                        2
                    ],
                    [
                        "MAG",
                        2
                    ],
                    [
                        "SKL",
                        2
                    ],
                    [
                        "SPD",
                        2
                    ],
                    [
                        "LCK",
                        2
                    ],
                    [
                        "DEF",
                        2
                    ],
                    [
                        "RES",
                        2
                    ]
                ]
            ],
            [
                "hidden_if_inactive",
                null
            ],
            [
                "condition",
                "'Chess' in unit.tags"
            ]
        ]
    }
]