[
    {
        "nid": "Knighted",
        "name": "Knighted",
        "desc": "This unit has been deemed trustworthy... for now. Unaffected by <blue>Snuff Out The Light</> or <red>Execution</>.",
        "icon_nid": "{LordGlenn} {ArchaneaIconProject} 2019",
        "icon_index": [
            3,
            5
        ],
        "components": []
    }
]