[
    {
        "nid": "Lash_Out_Plus",
        "name": "Lash Out+",
        "desc": "Damage rises as health falls.\n<orange>(+3 damage per 5 health lost)</>",
        "icon_nid": "LTSkillIconSheet",
        "icon_index": [
            0,
            6
        ],
        "components": [
            [
                "dynamic_damage",
                "3 * ((unit.get_max_hp() - unit.get_hp()) // 5) if not 'TrueDamage' in item.tags else 0"
            ]
        ]
    }
]