[
    {
        "nid": "Last_Wish",
        "name": "Last Wish",
        "desc": "<pink>Unique</>. Upon death, sends <red>Guardian Oath</>\nto the convoy and heals every\ndeployed ally for 5 HP.\nUnit is then <green>banished</>.",
        "icon_nid": "ZessDynamiteSkillsys",
        "icon_index": [
            7,
            76
        ],
        "components": [
            [
                "class_skill",
                null
            ]
        ]
    }
]