[
    {
        "nid": "Leading_Charge_Child",
        "name": "Leading Charge",
        "desc": "Unit's <green>initiated</> attacks will be preceded by an ally's.",
        "icon_nid": "Skills",
        "icon_index": [
            10,
            4
        ],
        "components": [
            [
                "event_before_combat",
                "Global Ability_Leading_Charge"
            ],
            [
                "condition",
                "not (item.nid == 'MercySword' or item.nid == 'MercySwordPlus')"
            ]
        ]
    }
]