[
    {
        "nid": "Legend_Plus",
        "name": "Legend+",
        "desc": "Immune to <brown>Silence</>, <brown>Berserk</>, <brown>Sleep</>, and fatal damage from statuses.\nCannot be forcibly moved.\nWhile charges remain, unit will survive a fatal blow and revive at max HP.\nCharges are lost upon being killed.",
        "icon_nid": "LTSkillIconSheet",
        "icon_index": [
            3,
            49
        ],
        "components": [
            [
                "class_skill",
                null
            ],
            [
                "drain_charge",
                2
            ],
            [
                "full_miracle",
                null
            ],
            [
                "fatal_block",
                null
            ],
            [
                "grounded",
                null
            ]
        ]
    }
]