[
    {
        "nid": "Lethality_Plus",
        "name": "Lethality+",
        "desc": "Unit gains no crit bonuses from Skl.\nGains Critical Chance equal to <orange>(Level)</>.\nAdditionally, adds <orange>(Level / 2)</> to Critical Damage.",
        "icon_nid": "LTSkillIconSheet",
        "icon_index": [
            4,
            6
        ],
        "components": [
            [
                "class_skill",
                null
            ],
            [
                "copysafe",
                []
            ],
            [
                "eval_crit",
                "unit.level"
            ],
            [
                "alternate_crit_accuracy_formula",
                "ZERO"
            ],
            [
                "alternate_critical_addition_formula",
                "LVL_CRIT_DMG"
            ]
        ]
    }
]