[
    {
        "nid": "Lets_Enjoy_This",
        "name": "Apotheosis",
        "desc": "Unit is currently changing their state.\nAll combat damage is ignored and negative statuses will be purged.\nHeal to full HP at start of the next Player Phase, then this skill is lost.",
        "icon_nid": "All_Skills",
        "icon_index": [
            10,
            34
        ],
        "components": [
            [
                "immune_status",
                null
            ],
            [
                "ignore_damage",
                null
            ],
            [
                "unit_flickering_tint",
                [
                    254,
                    231,
                    255
                ]
            ]
        ]
    }
]