[
    {
        "nid": "Lifecast_Stance_Plus",
        "name": "Lifecast Stance+",
        "desc": "When using a tome, gain +8 MAG, but lose 5 HP after combat.",
        "icon_nid": "LTSkillIconSheet",
        "icon_index": [
            4,
            46
        ],
        "components": [
            [
                "condition",
                "item_system.weapon_type(unit, item) == 'Anima' or item_system.weapon_type(unit, item) == 'Light' or item_system.weapon_type(unit, item) == 'Dark'"
            ],
            [
                "stat_change",
                [
                    [
                        "MAG",
                        8
                    ]
                ]
            ],
            [
                "event_after_combat",
                "Global Ability_Lifecast"
            ],
            [
                "unit_flickering_tint",
                [
                    255,
                    106,
                    108
                ]
            ],
            [
                "lost_on_end_chapter",
                null
            ]
        ]
    }
]