[
    {
        "nid": "Like_Water_Plus",
        "name": "Like Water+",
        "desc": "When unit Critically Strikes, unit gains +50 avoid until the next turn, but cannot counter, and attacking foes take <green>NCD</> damage equal to unit's RES after combat.",
        "icon_nid": "All_Skills",
        "icon_index": [
            6,
            44
        ],
        "components": [
            [
                "class_skill",
                null
            ],
            [
                "gain_skill_after_crit",
                "Like_Water_Child_Plus"
            ],
            [
                "copysafe",
                []
            ]
        ]
    }
]