[
    {
        "nid": "Lock_On",
        "name": "Lock-On",
        "desc": "When <green>initiating</> combat, gain +50 Hit.",
        "icon_nid": "All_Skills",
        "icon_index": [
            5,
            10
        ],
        "components": [
            [
                "class_skill",
                null
            ],
            [
                "copysafe",
                []
            ],
            [
                "dynamic_accuracy",
                "50 if mode == 'attack' else 0"
            ]
        ]
    }
]