[
    {
        "nid": "Lockdown_Plus",
        "name": "Lockdown+",
        "desc": "Enemy units adjacent to this unit suffer -7 damage dealt and -80 Hit when <green>initiating</> against units without <blue>Lockdown</>(+).\nAdditionally, adjacent foes have their MOV halved.",
        "icon_nid": "Skills",
        "icon_index": [
            1,
            0
        ],
        "components": [
            [
                "aura",
                "Lockdown_Plus_Child"
            ],
            [
                "aura_range",
                1
            ],
            [
                "aura_target",
                "enemy"
            ],
            [
                "class_skill",
                null
            ],
            [
                "copysafe",
                [
                    "Lockdown_Plus_Helper"
                ]
            ]
        ]
    }
]