[
    {
        "nid": "Luna_Proc",
        "name": "Luna",
        "desc": "Combat Art.\nAttack will ignore target's DEF.",
        "icon_nid": "Skills",
        "icon_index": [
            4,
            3
        ],
        "components": [
            [
                "item_override",
                "Luna_Tag_Override"
            ],
            [
                "combat_art_proc",
                null
            ]
        ]
    }
]