[
    {
        "nid": "Lunar_Sign",
        "name": "Lunar Sign",
        "desc": "All Arcana effects are doubled until upkeep.",
        "icon_nid": "All_Skills",
        "icon_index": [
            8,
            32
        ],
        "components": [
            [
                "lost_on_upkeep",
                null
            ],
            [
                "lost_on_end_chapter",
                null
            ]
        ]
    }
]