[
    {
        "nid": "Lunge_Proc",
        "name": "Lunge",
        "desc": "Attack and switch places with the enemy after combat.",
        "icon_nid": "LTSkillIconSheet",
        "icon_index": [
            6,
            36
        ],
        "components": [
            [
                "item_override",
                "Lunge_Override"
            ],
            [
                "combat_art_proc",
                null
            ]
        ]
    }
]