[
    {
        "nid": "Lycanthropy",
        "name": "Lycanthropy",
        "desc": "<pink>Unique</>\nWhen attacking an ally with the <red>Fullmoon Stone</>:\nThat ally becomes a <violet>Beast</>, and Malakay changes his base affinity to that ally's base affinity.\nAt the end of the chapter, Malakay's base affinity will be set to Null.",
        "icon_nid": "All_Skills",
        "icon_index": [
            15,
            41
        ],
        "components": [
            [
                "class_skill",
                null
            ],
            [
                "combat_condition",
                "item.nid == 'Fullmoon_Stone' and target.team == 'player'"
            ],
            [
                "event_after_initiated_combat",
                "Global Ability_Lycanthropy"
            ],
            [
                "give_ally_status_after_combat",
                "Lycanthropy_Temp"
            ]
        ]
    }
]