[
    {
        "nid": "Lycanthropy_Temp",
        "name": "Lycanthropy",
        "desc": "Unit is treated as a <violet>Beast</>.\nEffect wears off on chapter end.",
        "icon_nid": "All_Skills",
        "icon_index": [
            5,
            35
        ],
        "components": [
            [
                "lost_on_end_chapter",
                null
            ],
            [
                "has_tags",
                [
                    "Beast"
                ]
            ]
        ]
    }
]