[
    {
        "nid": "MAG_Plus_Three",
        "name": "MAG +3",
        "desc": "Increases MAG by 3.",
        "icon_nid": "All_Skills",
        "icon_index": [
            2,
            2
        ],
        "components": [
            [
                "class_skill",
                null
            ],
            [
                "copysafe",
                []
            ],
            [
                "stat_change",
                [
                    [
                        "MAG",
                        3
                    ]
                ]
            ]
        ]
    }
]