[
    {
        "nid": "Magic_Overflow_Buff",
        "name": "Magic Overflowing",
        "desc": "Increases MAG by <orange>(Caster's Base MAG / 2)</> until next upkeep.",
        "icon_nid": "All_Skills",
        "icon_index": [
            12,
            24
        ],
        "components": [
            [
                "stat_change_at_apply_expression",
                [
                    [
                        "MAG",
                        "game.get_unit(skill.initiator_nid).stats['MAG'] // 2"
                    ]
                ]
            ],
            [
                "lost_on_upkeep",
                null
            ],
            [
                "lost_on_end_chapter",
                null
            ]
        ]
    }
]