[
    {
        "nid": "Magma_Blade_2",
        "name": "Magma Blade",
        "desc": "",
        "icon_nid": "Skills",
        "icon_index": [
            0,
            0
        ],
        "components": [
            [
                "combat_condition",
                "not has_skill(target, 'Burning') and mode == 'attack' and item.nid == 'Magma_Blade'"
            ],
            [
                "give_status_after_combat",
                "Burning"
            ],
            [
                "hidden",
                null
            ]
        ]
    }
]