[
    {
        "nid": "Make_Friends_Plus",
        "name": "Make Friends+",
        "desc": "<green>Free Action</>\nAdjacent <blue>playable</> generic becomes <blue>Friended</> and heals 7 HP.",
        "icon_nid": "BernIcons",
        "icon_index": [
            0,
            0
        ],
        "components": [
            [
                "class_skill",
                null
            ],
            [
                "ability",
                "Make_Friends_Plus"
            ],
            [
                "copysafe",
                []
            ],
            [
                "drain_charge",
                3
            ]
        ]
    }
]