[
    {
        "nid": "Malevolent_Blight",
        "name": "Malevolent Blight",
        "desc": "Activated. Inflicts <brown>Blind (20)</> and 2 stacks of <brown>Toxin</> on all foes with an <brown>Ailment</> (this is not an <green>interaction</>).\nPassive. When <green>initiating</>, if fatal and foe has a <brown>Blind</> and <brown>Toxin</>, skill refreshes.",
        "icon_nid": "LTSkillIconSheet",
        "icon_index": [
            7,
            34
        ],
        "components": [
            [
                "ability",
                "MalevolentBlight"
            ],
            [
                "drain_charge",
                1
            ],
            [
                "class_skill",
                null
            ],
            [
                "copysafe",
                []
            ],
            [
                "tether_parameters",
                {
                    "cost": 40,
                    "level": 4
                }
            ]
        ]
    }
]