[
    {
        "nid": "Mana_Channeling",
        "name": "Mana Channeling",
        "desc": "Gains 1 stack every turn.\nStacks increase the range of <red>Magic Expulsion</>.",
        "icon_nid": "LTSkillIconSheet",
        "icon_index": [
            4,
            47
        ],
        "components": [
            [
                "class_skill",
                null
            ],
            [
                "stack",
                20
            ]
        ]
    }
]