[
    {
        "nid": "Mechanization_Plus",
        "name": "Mechanization+",
        "desc": "Gain <violet>Mech</> typing, flight, +1 MOV,\nand use better defense\nagainst all attacks for 3 turns.\nMust be used before moving,\nbut <green>refreshes</> turn on use.",
        "icon_nid": "LTSkillIconSheet",
        "icon_index": [
            2,
            1
        ],
        "components": [
            [
                "class_skill",
                null
            ],
            [
                "blue",
                null
            ],
            [
                "copysafe",
                []
            ],
            [
                "ability",
                "Mechanization_Plus"
            ],
            [
                "drain_charge",
                1
            ]
        ]
    }
]