[
    {
        "nid": "Mechanization",
        "name": "Mechanization",
        "desc": "Gain <violet>Mech</> typing and use\nbetter defense against all\nattacks for 3 turns.\nMust be used before moving,\nbut <green>refreshes</> turn on use.",
        "icon_nid": "LTSkillIconSheet",
        "icon_index": [
            2,
            1
        ],
        "components": [
            [
                "class_skill",
                null
            ],
            [
                "blue",
                null
            ],
            [
                "copysafe",
                []
            ],
            [
                "ability",
                "Mechanization"
            ],
            [
                "drain_charge",
                1
            ]
        ]
    }
]