[
    {
        "nid": "Melodia_Sublime_Child",
        "name": "Melodia Sublime Effect",
        "desc": "- +3 LCK\n- <orange>(LCK / 2)</> additional Critical Chance and Critical Evasion",
        "icon_nid": "All_Skills",
        "icon_index": [
            5,
            14
        ],
        "components": [
            [
                "stat_change",
                [
                    [
                        "LCK",
                        3
                    ]
                ]
            ],
            [
                "dynamic_crit_accuracy",
                "unit.get_stat('LCK') // 2"
            ],
            [
                "dynamic_crit_avoid",
                "unit.get_stat('LCK') // 2"
            ]
        ]
    }
]