[
    {
        "nid": "MobilityModulation",
        "name": "Mobility Modulation",
        "desc": "Gain +1 MOV and +5 Critical Chance for the remainder of the chapter. <green>Free action</>, stacking. Costs 1 stack of <blue>Modular</> to use.",
        "icon_nid": "LTSkillIconSheet",
        "icon_index": [
            2,
            5
        ],
        "components": [
            [
                "class_skill",
                null
            ],
            [
                "condition",
                "len([s for s in unit.skills if s.nid == 'Modular']) >= 1"
            ],
            [
                "ability",
                "MobilityModulation"
            ]
        ]
    }
]