[
    {
        "nid": "ModularLight",
        "name": "Modular Light",
        "desc": "Unit can use Light this chapter.",
        "icon_nid": "LTSkillIconSheet",
        "icon_index": [
            4,
            31
        ],
        "components": [
            [
                "lost_on_end_chapter",
                null
            ],
            [
                "wexp_usable_skill",
                "Light"
            ]
        ]
    }
]