[
    {
        "nid": "ModularRes",
        "name": "Modular Resistance",
        "desc": "+2 Resistance for the remainder of the chapter.",
        "icon_nid": "LTSkillIconSheet",
        "icon_index": [
            0,
            19
        ],
        "components": [
            [
                "lost_on_end_chapter",
                null
            ],
            [
                "stack",
                999
            ],
            [
                "stat_change",
                [
                    [
                        "RES",
                        2
                    ]
                ]
            ]
        ]
    }
]