[
    {
        "nid": "ModularVantage",
        "name": "Modular Vantage",
        "desc": "Unit always attacks first this chapter.",
        "icon_nid": "Skills",
        "icon_index": [
            1,
            7
        ],
        "components": [
            [
                "vantage",
                null
            ],
            [
                "lost_on_end_chapter",
                null
            ]
        ]
    }
]