[
    {
        "nid": "ModuloPlus",
        "name": "Modulo+",
        "desc": "Unit starts each chapter with 6 stacks of <blue>Modular</>. Each stack gives +3 Hit and Avoid. On end of chapter, regain 1 HP for each unspent stack.",
        "icon_nid": "LTSkillIconSheet",
        "icon_index": [
            6,
            50
        ],
        "components": [
            [
                "class_skill",
                null
            ],
            [
                "copysafe",
                []
            ]
        ]
    }
]