[
    {
        "nid": "Morass_Child",
        "name": "Morass Effect",
        "desc": "<blue>Canto</>, <blue>Canter</>, and similar effects have their range limited to 1.\nAttack Speed -4 and Defense Speed -4.",
        "icon_nid": "All_Skills",
        "icon_index": [
            12,
            40
        ],
        "components": [
            [
                "has_tags",
                [
                    "NullCanto"
                ]
            ],
            [
                "attack_speed",
                -4
            ],
            [
                "defense_speed",
                -4
            ]
        ]
    }
]