[
    {
        "nid": "MOV_Minus_1_Hidden",
        "name": "MOV Minus 1 Hidden",
        "desc": "",
        "icon_nid": "Skills",
        "icon_index": [
            0,
            0
        ],
        "components": [
            [
                "hidden",
                null
            ],
            [
                "subtle_stat_change",
                [
                    [
                        "MOV",
                        -1
                    ]
                ]
            ]
        ]
    }
]