[
    {
        "nid": "Multitool_Buff",
        "name": "Multitool",
        "desc": "Boost hit by # of items in The Multitool.",
        "icon_nid": "LTSkillIconSheet",
        "icon_index": [
            0,
            39
        ],
        "components": [
            [
                "hidden",
                null
            ],
            [
                "eval_hit",
                "len([i.uid for i in get_item(unit, 'Multitool').subitems])"
            ],
            [
                "condition",
                "item.parent_item and item.parent_item.nid == 'Multitool'"
            ]
        ]
    }
]