[
    {
        "nid": "Natural_Born_Captain",
        "name": "Natural Born Captain",
        "desc": "Summons an allied Cavalier.\nThe summoned ally's weapon type will cycle between Axes, Lances, and Swords each time they are summoned.",
        "icon_nid": "All_Skills",
        "icon_index": [
            11,
            52
        ],
        "components": [
            [
                "class_skill",
                null
            ],
            [
                "ability",
                "Natual_Born_Captain"
            ],
            [
                "drain_charge",
                1
            ],
            [
                "copysafe",
                []
            ]
        ]
    }
]