[
    {
        "nid": "Ninja_Star",
        "name": "Ninja Star",
        "desc": "\"Shuriken\" weapons have doubled might and inflict <brown>Toxin</> after combat on hit.",
        "icon_nid": "All_Skills",
        "icon_index": [
            6,
            43
        ],
        "components": [
            [
                "class_skill",
                null
            ],
            [
                "item_override",
                "Toxin_OR"
            ],
            [
                "combat_condition",
                "'Shuriken' in item.nid"
            ],
            [
                "dynamic_damage",
                "item.damage.value"
            ],
            [
                "copysafe",
                []
            ]
        ]
    }
]