[
    {
        "nid": "No_Trade",
        "name": "No Trade",
        "desc": "Unit cannot trade.\nAll items are locked.",
        "icon_nid": "Skills",
        "icon_index": [
            0,
            0
        ],
        "components": [
            [
                "item_override",
                "Locked_Override"
            ],
            [
                "cannot_trade",
                null
            ],
            [
                "hidden",
                null
            ]
        ]
    }
]