[
    {
        "nid": "Oblivious",
        "name": "Oblivious",
        "desc": "Unit is immune to the effects of <blue>Bad Vibes</>.",
        "icon_nid": "LTSkillIconSheet",
        "icon_index": [
            2,
            42
        ],
        "components": [
            [
                "copysafe",
                []
            ],
            [
                "class_skill",
                null
            ]
        ]
    }
]