[
    {
        "nid": "Obsidian_Fortress_Plus",
        "name": "Obsidian Fortress+",
        "desc": "Creates a 3x3 terrain around each Earth ally that grants <blue>Obsidian Defense</>.\nThe terrain created by this effect will last until the next upkeep.",
        "icon_nid": "All_Skills",
        "icon_index": [
            14,
            34
        ],
        "components": [
            [
                "class_skill",
                null
            ],
            [
                "ability",
                "Obsidian_Fortress"
            ],
            [
                "drain_charge",
                2
            ],
            [
                "copysafe",
                []
            ]
        ]
    }
]