[
    {
        "nid": "On_The_Rocks_Plus",
        "name": "On The Rocks+",
        "desc": "If foe is <brown>Frozen</> after <green>interacting</> with this unit:\nUnit gains 2 stacks of <blue>Snow Blessing+</>.",
        "icon_nid": "All_Skills",
        "icon_index": [
            14,
            43
        ],
        "components": [
            [
                "class_skill",
                null
            ],
            [
                "copysafe",
                []
            ],
            [
                "combat_condition",
                "skill_system.check_enemy(unit, target)"
            ],
            [
                "event_after_combat",
                "Global Ability_On_the_Rocks"
            ]
        ]
    }
]