[
    {
        "nid": "Optioned",
        "name": "Optioned",
        "desc": "",
        "icon_nid": null,
        "icon_index": [
            0,
            0
        ],
        "components": [
            [
                "hidden",
                null
            ],
            [
                "time",
                1
            ]
        ]
    }
]