[
    {
        "nid": "Our_Last_Stand",
        "name": "Our Last Stand",
        "desc": "Any unit can survive a fatal attack with 1 HP. This effect will only occur twice per chapter across the whole team.",
        "icon_nid": "LTSkillIconSheet",
        "icon_index": [
            0,
            42
        ],
        "components": [
            [
                "TrueMiracle",
                null
            ],
            [
                "drain_charge_all",
                2
            ]
        ]
    }
]