[
    {
        "nid": "OUT_OF_THE_WAY_PLEASE",
        "name": "OUT_OF_THE_WAY_PLEASE",
        "desc": "Damage an adjacent foe, and push them until they collide with impassable units or terrain.",
        "icon_nid": "LTSkillIconSheet",
        "icon_index": [
            6,
            34
        ],
        "components": [
            [
                "class_skill",
                null
            ],
            [
                "copysafe",
                []
            ],
            [
                "drain_charge",
                2
            ],
            [
                "ability",
                "OUT_OF_THE_WAY_PLEASE"
            ],
            [
                "tether_parameters",
                {
                    "cost": 35,
                    "level": 99
                }
            ]
        ]
    }
]