[
    {
        "nid": "Overflow",
        "name": "Overflow",
        "desc": "Adds <orange>(unit's HIT - target's AVO - 100)</> to Critical Chance.\nThis bonus cannot exceed 30.",
        "icon_nid": "All_Skills",
        "icon_index": [
            2,
            43
        ],
        "components": [
            [
                "dynamic_crit_accuracy",
                "min(30, max(0,combat_calcs.accuracy(unit, unit.get_weapon()) - 100 - combat_calcs.avoid(unit2, unit2.get_weapon())))"
            ],
            [
                "class_skill",
                null
            ],
            [
                "copysafe",
                []
            ]
        ]
    }
]