[
    {
        "nid": "Overtime_S_2",
        "name": "Overtime",
        "desc": "",
        "icon_nid": "All_Skills",
        "icon_index": [
            15,
            50
        ],
        "components": [
            [
                "hidden",
                null
            ],
            [
                "event_after_combat",
                "Global Ability_Overtime_Death"
            ],
            [
                "stat_change_expression",
                [
                    [
                        "STR",
                        "-unit.stats.get('STR') if u('Janus').get_hp() <= 1 else 0"
                    ],
                    [
                        "MAG",
                        "-unit.stats.get('MAG') if u('Janus').get_hp() <= 1 else 0"
                    ],
                    [
                        "SKL",
                        "-unit.stats.get('SKL') if u('Janus').get_hp() <= 1 else 0"
                    ],
                    [
                        "SPD",
                        "-unit.stats.get('SPD') if u('Janus').get_hp() <= 1 else 0"
                    ],
                    [
                        "LCK",
                        "-unit.stats.get('LCK') if u('Janus').get_hp() <= 1 else 0"
                    ],
                    [
                        "DEF",
                        "-unit.stats.get('DEF') if u('Janus').get_hp() <= 1 else 0"
                    ],
                    [
                        "RES",
                        "-unit.stats.get('RES') if u('Janus').get_hp() <= 1 else 0"
                    ]
                ]
            ]
        ]
    }
]