[
    {
        "nid": "Overwatch_Spotted",
        "name": "Overwatch Spotted",
        "desc": "This tracks when an enemy should be shot by Overwatch.",
        "icon_nid": "All_Skills",
        "icon_index": [
            15,
            45
        ],
        "components": [
            [
                "hidden",
                null
            ],
            [
                "stack",
                999
            ]
        ]
    }
]