[
    {
        "nid": "Overheat_Plus",
        "name": "Overheat+",
        "desc": "Spend 2 MAG to inflict <brown>Burning</>\nand deal 5 flat damage to foes within 3 tiles.",
        "icon_nid": "ZessDynamiteSkillsys",
        "icon_index": [
            3,
            13
        ],
        "components": [
            [
                "class_skill",
                null
            ],
            [
                "copysafe",
                []
            ],
            [
                "ability",
                "Overheat_Plus"
            ],
            [
                "dynamic_avoid",
                "999 if item.nid == 'Overheat_Plus' else 0"
            ],
            [
                "condition",
                "unit.stats.get('MAG') >= 2"
            ]
        ]
    }
]