[
    {
        "nid": "Pacify_Proc",
        "name": "Pacify Proc",
        "desc": "Cannot kill. -4 Damage received. After combat, on hit, inflict <brown>Blunted</> and <brown>Exposed</>.",
        "icon_nid": "ZessDynamiteSkillsys",
        "icon_index": [
            1,
            34
        ],
        "components": [
            [
                "resist",
                4
            ],
            [
                "give_statuses_after_combat",
                [
                    "Blunted",
                    "Exposed"
                ]
            ],
            [
                "start_and_end_event_initiate",
                {
                    "start_event": "Global Ability_Pacify_Cannot_Kill",
                    "end_event": "Global Ability_Pacify_Cannot_Kill_Purge"
                }
            ]
        ]
    }
]