[
    {
        "nid": "PackBond_Child",
        "name": "Pack Bond",
        "desc": "For the first three turns of the chapter, <violet>Beast</> units recover 2 HP at the start of their turn.",
        "icon_nid": "LTSkillIconSheet",
        "icon_index": [
            1,
            48
        ],
        "components": [
            [
                "condition",
                "(game.turncount < 4) and ('Beast' in unit.tags)"
            ],
            [
                "eval_regeneration",
                "2"
            ],
            [
                "hidden_if_inactive",
                null
            ]
        ]
    }
]