[
    {
        "nid": "Pestilent_Wind_Child",
        "name": "Pestilent Wind",
        "desc": "When <green>initiating</>, SPD +2.\nAfter <green>initiated</> combat, inflict <brown>Infection</> on target and foes adjacent to target.\nOnly active if unit has a Wind affinity.",
        "icon_nid": "All_Skills",
        "icon_index": [
            11,
            41
        ],
        "components": [
            [
                "condition",
                "unit.affinity == 'Wind' or any([s.has_affinities and 'Wind' in s.has_affinities.value for s in unit.skills])"
            ],
            [
                "combat_condition",
                "mode == 'attack'"
            ],
            [
                "stat_change",
                [
                    [
                        "SPD",
                        2
                    ]
                ]
            ],
            [
                "savage_statuses",
                {
                    "statuses": [
                        "Infection_Debuff",
                        "Infection_Hit_Debuff"
                    ],
                    "range": 1
                }
            ]
        ]
    }
]