[
    {
        "nid": "Phase_Change_2",
        "name": "Phase Change 2",
        "desc": "When on the final life given by <blue>Legend+</>, at start of Player Phase:\nCreates a clone of this unit. Then, inflict <brown>Blood Price</> on all <blue>Players</>.",
        "icon_nid": "All_Skills",
        "icon_index": [
            10,
            38
        ],
        "components": [
            [
                "class_skill",
                null
            ]
        ]
    }
]