[
    {
        "nid": "Piercing_Gaze",
        "name": "Piercing Gaze",
        "desc": "If unit's SKL > target's RES, +15 Critical Hit.",
        "icon_nid": "ZessDynamiteSkillsys",
        "icon_index": [
            7,
            9
        ],
        "components": [
            [
                "combat_condition",
                "unit.get_stat('SKL') > target.get_stat('RES')"
            ],
            [
                "class_skill",
                null
            ],
            [
                "crit",
                15
            ],
            [
                "copysafe",
                []
            ]
        ]
    }
]