[
    {
        "nid": "Pink_Flowers",
        "name": "Pink Flowers",
        "desc": "A beautiful flower. Can spend 5 in order to cast <red>Noble Dance: Realize</> as a <green>Free Action</>.",
        "icon_nid": "All_Skills",
        "icon_index": [
            11,
            35
        ],
        "components": [
            [
                "stack",
                5
            ]
        ]
    }
]