[
    {
        "nid": "PocketComb",
        "name": "Pocket Comb",
        "desc": "Grants +20 Avoid until next turn, and replace <blue>Dejected</> with <blue>Confident</>.",
        "icon_nid": "LTSkillIconSheet",
        "icon_index": [
            5,
            31
        ],
        "components": [
            [
                "class_skill",
                null
            ],
            [
                "copysafe",
                []
            ],
            [
                "ability",
                "PocketComb"
            ],
            [
                "drain_charge",
                1
            ]
        ]
    }
]