[
    {
        "nid": "PointBlankShot_Proc",
        "name": "Point-Blank Shot",
        "desc": "Combat Art. 1-range bow attack with +8 might and +20 hit. Cannot double.",
        "icon_nid": "LTSkillIconSheet",
        "icon_index": [
            3,
            31
        ],
        "components": [
            [
                "item_override",
                "One_Range_Override"
            ],
            [
                "lost_on_endstep",
                null
            ],
            [
                "hit",
                20
            ],
            [
                "damage",
                8
            ],
            [
                "display_skill_icon_in_combat",
                null
            ],
            [
                "cannot_double",
                null
            ],
            [
                "combat_art_proc",
                null
            ]
        ]
    }
]