[
    {
        "nid": "Poison_Bite",
        "name": "Poison Bite",
        "desc": "<green>Combat Art</>. Inflicts <brown>Poison</>.\nIf target is already <brown>poisoned</>,\nbonus damage equal to 20%\nof target's max HP.",
        "icon_nid": "LTSkillIconSheet",
        "icon_index": [
            2,
            40
        ],
        "components": [
            [
                "class_skill",
                null
            ],
            [
                "blue",
                null
            ],
            [
                "copysafe",
                []
            ],
            [
                "combat_art",
                "Poison_Bite_P"
            ],
            [
                "drain_charge",
                2
            ],
            [
                "allowed_weapons",
                "item.weapon and not 'Silenced' in unit.tags"
            ]
        ]
    }
]