[
    {
        "nid": "Pragmatist",
        "name": "Pragmatist",
        "desc": "+5 damage to targets that cannot counter.",
        "icon_nid": "LTSkillIconSheet",
        "icon_index": [
            1,
            43
        ],
        "components": [
            [
                "class_skill",
                null
            ],
            [
                "copysafe",
                []
            ],
            [
                "dynamic_damage",
                "5 if mode == 'attack' and not combat_calcs.can_counterattack(unit, item, target, target.get_weapon()) and not 'TrueDamage' in item.tags else 0"
            ]
        ]
    }
]