[
    {
        "nid": "Protocol_HUNT",
        "name": "Protocol: HUNT",
        "desc": "<pink>Unique</>. <green>Free Action</>.\nInflict -50 Avoid/C.Avoid on target enemy on the map that's at least 5 spaces away. Charge restored when target is dead.\nWhile target is alive, unit cannot critically strike non-target units.",
        "icon_nid": "LTSkillIconSheet",
        "icon_index": [
            3,
            40
        ],
        "components": [
            [
                "ability_attack_charge",
                "Protocol_HUNT"
            ],
            [
                "drain_charge",
                1
            ],
            [
                "class_skill",
                null
            ]
        ]
    }
]