[
    {
        "nid": "Protective_Coating",
        "name": "Protective Coating",
        "desc": "DEF/RES +5\nImmune to the effects of <brown>Ailments</>.",
        "icon_nid": "All_Skills",
        "icon_index": [
            5,
            31
        ],
        "components": [
            [
                "class_skill",
                null
            ],
            [
                "stat_change",
                [
                    [
                        "DEF",
                        5
                    ],
                    [
                        "RES",
                        5
                    ]
                ]
            ],
            [
                "immune_status",
                null
            ]
        ]
    }
]