[
    {
        "nid": "Provoking",
        "name": "Provoking",
        "desc": "Foes will prioritize this unit for attacks.",
        "icon_nid": "LTSkillIconSheet",
        "icon_index": [
            5,
            42
        ],
        "components": [
            [
                "modify_ai_priority",
                99.0
            ],
            [
                "unit_flickering_tint",
                [
                    170,
                    0,
                    0
                ]
            ]
        ]
    }
]