[
    {
        "nid": "Radiant_Care_Plus",
        "name": "Radiant Care+",
        "desc": "Allies within 3 spaces gain +10 Critical Chance and +20 Critical Evasion.",
        "icon_nid": "LTSkillIconSheet",
        "icon_index": [
            2,
            11
        ],
        "components": [
            [
                "aura",
                "Radiant_Care_Plus_Child"
            ],
            [
                "aura_range",
                3
            ],
            [
                "aura_target",
                "ally"
            ],
            [
                "class_skill",
                null
            ],
            [
                "copysafe",
                []
            ]
        ]
    }
]