[
    {
        "nid": "Raging_Axe_Plus_Proc",
        "name": "Raging Axe+",
        "desc": "+9 damage, +15 hit.\nOn kill, refreshes user and gives +8 Str, but inflicts <blue>Berserk</>",
        "icon_nid": "LTSkillIconSheet",
        "icon_index": [
            2,
            30
        ],
        "components": [
            [
                "combat_art_proc",
                null
            ],
            [
                "hit",
                15
            ],
            [
                "gain_skill_after_kill",
                "Raging_Plus"
            ],
            [
                "gain_skill_after_active_kill",
                "Galeforce_Status"
            ],
            [
                "dynamic_damage",
                "10 if not 'TrueDamage' in item.tags else 0"
            ]
        ]
    }
]