[
    {
        "nid": "Rallied_Spectator",
        "name": "Rallied Spectator",
        "desc": "+1 to all stats.\nThese bonuses stack up to 3 times, and wear off one battle after being deployed.",
        "icon_nid": "LTSkillIconSheet",
        "icon_index": [
            7,
            2
        ],
        "components": [
            [
                "stack",
                3
            ],
            [
                "stat_change",
                [
                    [
                        "STR",
                        1
                    ],
                    [
                        "MAG",
                        1
                    ],
                    [
                        "SKL",
                        1
                    ],
                    [
                        "SPD",
                        1
                    ],
                    [
                        "LCK",
                        1
                    ],
                    [
                        "DEF",
                        1
                    ],
                    [
                        "RES",
                        1
                    ]
                ]
            ]
        ]
    }
]