[
    {
        "nid": "Range_Specialist",
        "name": "Range Specialist",
        "desc": "Against adjacent foes, +35 Avoid.",
        "icon_nid": "LTSkillIconSheet",
        "icon_index": [
            1,
            29
        ],
        "components": [
            [
                "class_skill",
                null
            ],
            [
                "dynamic_avoid",
                "35 if utils.calculate_distance(unit.position, target.position) == 1 else 0"
            ]
        ]
    }
]