[
    {
        "nid": "RecursivePuppetry",
        "name": "Recursive Puppetry",
        "desc": "<pink>Unique</>\nFungal Puppets this unit creates also have Fungal Puppetry.",
        "icon_nid": "LTSkillIconSheet",
        "icon_index": [
            2,
            48
        ],
        "components": [
            [
                "class_skill",
                null
            ]
        ]
    }
]