[
    {
        "nid": "Reinforce",
        "name": "Reinforce",
        "desc": "Pay to call in generic allies:\n100 gold for 1 Pegasus\nKnight, or 250 gold for 3.",
        "icon_nid": "LTSkillIconSheet",
        "icon_index": [
            2,
            36
        ],
        "components": [
            [
                "class_skill",
                null
            ],
            [
                "ability",
                "Reinforce"
            ],
            [
                "condition",
                "game.get_money() > 99"
            ],
            [
                "drain_charge",
                1
            ],
            [
                "copysafe",
                []
            ]
        ]
    }
]