[
    {
        "nid": "Release",
        "name": "Release",
        "desc": "<pink>Unique</>\nReleases a Tamed unit.\nTamed units that survive a chapter will be available\nto release in future chapters.",
        "icon_nid": "LTSkillIconSheet",
        "icon_index": [
            2,
            46
        ],
        "components": [
            [
                "class_skill",
                null
            ],
            [
                "ability",
                "Release"
            ],
            [
                "drain_charge",
                2
            ]
        ]
    }
]