[
    {
        "nid": "Repertoire",
        "name": "Repertoire",
        "desc": "At the end of player phase, if a <blue>Coda</> is active:\n<blue>Mage's Coda</>: <blue>Bloodletter's</> cooldown -2.\n<blue>Army's Coda</>: Unit and allies within 3 tiles gain +10 Critical Chance for 1 turn.\n<blue>Wanderer's Coda</>: Deals <orange>(5 + MAG / 2)</> non-lethal <green>NCD</> to foes within 3 spaces.",
        "icon_nid": "ZessDynamiteSkillsys",
        "icon_index": [
            3,
            37
        ],
        "components": [
            [
                "class_skill",
                null
            ],
            [
                "copysafe",
                []
            ],
            [
                "endstep_event",
                "Global Ability_Repertoire"
            ]
        ]
    }
]