[
    {
        "nid": "RES_Plus_Three",
        "name": "RES +3",
        "desc": "Increases RES by 3.",
        "icon_nid": "All_Skills",
        "icon_index": [
            2,
            7
        ],
        "components": [
            [
                "class_skill",
                null
            ],
            [
                "stat_change",
                [
                    [
                        "RES",
                        3
                    ]
                ]
            ],
            [
                "copysafe",
                []
            ]
        ]
    }
]