[
    {
        "nid": "Rhythms_Crescendo",
        "name": "Rhythm's Crescendo",
        "desc": "<green>Tome Combat Art</>. Requires and consumes 2 stacks of the corresponding <blue>Tempo</> to use.\nAnima: +5 Damage Dealt and +25% Hit.\nLight: +1 Maximum Range.\nDark: +1 AoE.",
        "icon_nid": "LTSkillIconSheet",
        "icon_index": [
            1,
            49
        ],
        "components": [
            [
                "class_skill",
                null
            ],
            [
                "drain_charge",
                2
            ],
            [
                "copysafe",
                [
                    "Dark_Crescendo",
                    "Light_Crescendo",
                    "Anima_Crescendo"
                ]
            ]
        ]
    }
]