[
    {
        "nid": "Rose_Strike",
        "name": "Rose Strike",
        "desc": "<pink>Unique</>. <green>Combat Art</>. <red>Avalatze</> only. Costs 5 <blue>Red Roses</> to use. AoE 1.  <green>Free Action</>. Inflicts <brown>Bleed</>,<brown>Laceration</>, and <brown>Poison</>. Unit cannot follow up.",
        "icon_nid": "All_Skills",
        "icon_index": [
            15,
            47
        ],
        "components": [
            [
                "class_skill",
                null
            ],
            [
                "combat_art",
                "Rose_Strike_Proc"
            ],
            [
                "allowed_weapons",
                "item_system.is_weapon(unit, item) and (item.nid == 'Avalatze' or item.nid == 'Avalatze_Plus')"
            ],
            [
                "condition",
                "len([s for s in unit.skills if s.nid == 'Red_Roses']) >= 5"
            ]
        ]
    }
]