[
    {
        "nid": "Sacrificial_Tear_Plus_Proc",
        "name": "Sacrificial Tear+",
        "desc": "+1 Range, +5 damage, +30 crit.\nAfter combat, must banish 1 dead unit.",
        "icon_nid": "LTSkillIconSheet",
        "icon_index": [
            3,
            38
        ],
        "components": [
            [
                "modify_maximum_range",
                1
            ],
            [
                "hidden",
                null
            ],
            [
                "display_skill_icon_in_combat",
                null
            ],
            [
                "combat_art_proc",
                null
            ],
            [
                "crit",
                40
            ],
            [
                "dynamic_damage",
                "8 if not 'TrueDamage' in item.tags else 0"
            ]
        ]
    }
]