[
    {
        "nid": "Scarlet_Edge_Plus",
        "name": "Scarlet Edge+",
        "desc": "Swords inflict <brown>Burning</> after combat, and deal additional damage equal to <orange>(MAG / 3)</>.\nIf foe is <brown>Burning</>, +5 Attack Speed and Defense Speed.",
        "icon_nid": "All_Skills",
        "icon_index": [
            0,
            23
        ],
        "components": [
            [
                "class_skill",
                null
            ],
            [
                "copysafe",
                [
                    "Scarlet_Edge_Helper_1",
                    "Scarlet_Edge_Helper_2"
                ]
            ],
            [
                "give_status_after_combat_on_hit",
                "Burning"
            ],
            [
                "combat_condition",
                "skill_system.check_enemy(unit, target) and item_system.is_weapon(unit, item) and item_system.weapon_type(unit, item) == 'Sword'"
            ]
        ]
    }
]