[
    {
        "nid": "Scavenger",
        "name": "Scavenger",
        "desc": "At the end of a chapter, a random item from the current\ndroppable item pool will be added into the <red>Bag of Hoarding</>.\nThe party must own the <red>Bag of Hoarding</> to activate this effect.",
        "icon_nid": "All_Skills",
        "icon_index": [
            4,
            52
        ],
        "components": [
            [
                "class_skill",
                null
            ],
            [
                "copysafe",
                []
            ]
        ]
    }
]