[
    {
        "nid": "Served_Water",
        "name": "Served (Wa)",
        "desc": "DEF/RES -2 for 2 turns.",
        "icon_nid": "All_Skills",
        "icon_index": [
            9,
            9
        ],
        "components": [
            [
                "end_time",
                2
            ],
            [
                "stat_change",
                [
                    [
                        "DEF",
                        -2
                    ],
                    [
                        "RES",
                        -2
                    ]
                ]
            ],
            [
                "lost_on_end_chapter",
                null
            ],
            [
                "negative",
                null
            ]
        ]
    }
]