[
    {
        "nid": "Servable_Plus",
        "name": "Servable+",
        "desc": "Allies can rescue this unit regardless of AID.\nWhen doing so, the rescuing unit gains <blue>Serve Forth+</>.",
        "icon_nid": "All_Skills",
        "icon_index": [
            0,
            50
        ],
        "components": [
            [
                "class_skill",
                null
            ],
            [
                "rescue_bonus",
                "Serve_Forth_Plus"
            ],
            [
                "has_tags",
                [
                    "Weightless"
                ]
            ],
            [
                "copysafe",
                []
            ],
            [
                "drain_charge",
                1
            ]
        ]
    }
]