[
    {
        "nid": "Seven_Set",
        "name": "Seven Set",
        "desc": "Lowers target unit's HP to the nearest multiple of 7.\n<green>Free Action</>. This is considered <green>Non-Combat Damage</>.",
        "icon_nid": "LTSkillIconSheet",
        "icon_index": [
            3,
            8
        ],
        "components": [
            [
                "class_skill",
                null
            ],
            [
                "ability",
                "Seven_Set"
            ],
            [
                "drain_charge",
                2
            ],
            [
                "copysafe",
                []
            ]
        ]
    }
]