[
    {
        "nid": "Seyavash_Effect_Plus",
        "name": "Seyavash Effect",
        "desc": "",
        "icon_nid": "Skills",
        "icon_index": [
            0,
            0
        ],
        "components": [
            [
                "hidden",
                null
            ],
            [
                "condition",
                "item.nid == 'Seyavash_Plus'"
            ],
            [
                "combat_condition",
                "has_skill(target, 'Drowning')"
            ],
            [
                "desperation",
                null
            ],
            [
                "crit",
                20
            ]
        ]
    }
]