[
    {
        "nid": "ShackleLust_Child",
        "name": "Shackled by Lust",
        "desc": "Skill, Luck, and Speed halved for the purposes of calculating Hit and Avoid.",
        "icon_nid": "LTSkillIconSheet",
        "icon_index": [
            6,
            7
        ],
        "components": [
            [
                "alternate_accuracy_formula",
                "HIT_SHACKLED"
            ],
            [
                "alternate_avoid_formula",
                "AVOID_SHACKLED"
            ]
        ]
    }
]