[
    {
        "nid": "Shadow_Arts",
        "name": "Shadow Arts",
        "desc": "<green>Dark Combat Art</>. If attack kills, <green>refreshes</> unit.\nRecharges on using <blue>Shadowstep</>.\nCannot be used when at 3 stacks of <blue>Dark Energy</>.",
        "icon_nid": "LTSkillIconSheet",
        "icon_index": [
            6,
            6
        ],
        "components": [
            [
                "combat_art",
                "GaleforceStrike_Proc"
            ],
            [
                "class_skill",
                null
            ],
            [
                "drain_charge",
                1
            ],
            [
                "allowed_weapons",
                "item_system.weapon_type(unit, item) == 'Dark' and len([s for s in unit.skills if s.nid == 'Dark_Energy']) < 3"
            ],
            [
                "copysafe",
                []
            ],
            [
                "tether_parameters",
                {
                    "cost": 50,
                    "level": 4
                }
            ]
        ]
    }
]