[
    {
        "nid": "Shielded_Tonic",
        "name": "Shielded",
        "desc": "The next instance of damage will be blocked.",
        "icon_nid": "Skills",
        "icon_index": [
            10,
            3
        ],
        "components": [
            [
                "lost_on_take_hit",
                null
            ],
            [
                "ignore_damage",
                null
            ],
            [
                "display_skill_icon_in_combat",
                null
            ]
        ]
    }
]