[
    {
        "nid": "Skyflow_Confluence",
        "name": "Skyflow Confluence",
        "desc": "Deals up to 3 <green>NCD</> to allies (excluding self) within 5 spaces.\nFor each ally damaged, gain 1 stack of <blue>Convergeance</>.\nDamage dealt is considered to be status damage, and cannot be fatal.",
        "icon_nid": "All_Skills",
        "icon_index": [
            8,
            43
        ],
        "components": [
            [
                "class_skill",
                null
            ],
            [
                "ability",
                "Skyflow_Confluence"
            ],
            [
                "drain_charge",
                1
            ],
            [
                "copysafe",
                []
            ]
        ]
    }
]