[
    {
        "nid": "Skywyrm_Strike_P",
        "name": "Skywyrm Strike",
        "desc": "",
        "icon_nid": "LTSkillIconSheet",
        "icon_index": [
            3,
            33
        ],
        "components": [
            [
                "hidden",
                null
            ],
            [
                "combat_art_proc",
                null
            ],
            [
                "alternate_damage_formula",
                "FAVORED_DAMAGE"
            ],
            [
                "item_override",
                "Hexblade_Override"
            ],
            [
                "damage_multiplier",
                1.5
            ]
        ]
    }
]