[
    {
        "nid": "Sol_Proc",
        "name": "Sol",
        "desc": "Combat Art. Drain HP equal to half of damage dealt.",
        "icon_nid": "Skills",
        "icon_index": [
            4,
            2
        ],
        "components": [
            [
                "lifelink",
                0.5000000000000001
            ],
            [
                "combat_art_proc",
                null
            ]
        ]
    }
]