[
    {
        "nid": "Sol_Proc_Chance",
        "name": "Sol",
        "desc": "<orange>(LCK%)</> chance to restore 50% of damage dealt on hit.",
        "icon_nid": "Skills",
        "icon_index": [
            4,
            2
        ],
        "components": [
            [
                "attack_proc",
                "Sol_Proc"
            ],
            [
                "proc_rate",
                "LUCK"
            ],
            [
                "combat_condition",
                "item.nid == 'Harpe_Plus'"
            ]
        ]
    }
]