[
    {
        "nid": "SoulEater_Child",
        "name": "Darkness",
        "desc": "Can spend all 4 stacks to use the <blue>Devour Soul</> command, which instantly kills an adjacent non-boss enemy.",
        "icon_nid": "LTSkillIconSheet",
        "icon_index": [
            2,
            41
        ],
        "components": [
            [
                "stack",
                4
            ]
        ]
    }
]