[
    {
        "nid": "Spectral_Steed_Status",
        "name": "Spectral Steed",
        "desc": "DEF/RES +2\nMOV +1\nLost during endstep.",
        "icon_nid": "Batima_Dark",
        "icon_index": [
            7,
            0
        ],
        "components": [
            [
                "lost_on_endstep",
                null
            ],
            [
                "stat_change",
                [
                    [
                        "DEF",
                        2
                    ],
                    [
                        "RES",
                        2
                    ],
                    [
                        "MOV",
                        1
                    ]
                ]
            ],
            [
                "lost_on_end_chapter",
                null
            ]
        ]
    }
]