[
    {
        "nid": "Spectral_Slash",
        "name": "Spectral Slash",
        "desc": "<green>Combat Art</>\nMagical, ignores enemy RES.",
        "icon_nid": "LTSkillIconSheet",
        "icon_index": [
            5,
            6
        ],
        "components": [
            [
                "class_skill",
                null
            ],
            [
                "blue",
                null
            ],
            [
                "copysafe",
                []
            ],
            [
                "combat_art",
                "Spectral_Slash_P"
            ],
            [
                "drain_charge",
                2
            ],
            [
                "allowed_weapons",
                "item.weapon and not 'Silenced' in unit.tags"
            ]
        ]
    }
]