[
    {
        "nid": "Split_HP",
        "name": "Split HP",
        "desc": "Maximum HP is halved until the end of the chapter.",
        "icon_nid": "All_Skills",
        "icon_index": [
            15,
            51
        ],
        "components": [
            [
                "stat_multiplier",
                [
                    [
                        "HP",
                        0.5
                    ]
                ]
            ],
            [
                "lost_on_end_chapter",
                null
            ]
        ]
    }
]