[
    {
        "nid": "Staff_Savant",
        "name": "Staff Savant",
        "desc": "Unit has additional Staff range.",
        "icon_nid": "LTSkillIconSheet",
        "icon_index": [
            3,
            34
        ],
        "components": [
            [
                "modify_maximum_range",
                2
            ],
            [
                "class_skill",
                null
            ]
        ]
    }
]