[
    {
        "nid": "Star_Defense",
        "name": "Star Defense",
        "desc": "Decrease damage taken by (# of <blue>Stars</>).",
        "icon_nid": "LTSkillIconSheet",
        "icon_index": [
            2,
            1
        ],
        "components": [
            [
                "dynamic_resist",
                "len([s for s in unit.skills if s.nid == 'Stars'])"
            ],
            [
                "lost_on_end_chapter",
                null
            ]
        ]
    }
]