[
    {
        "nid": "Steal_Plus",
        "name": "Steal+",
        "desc": "Can steal unequipped weapons, items, and accessories from foes.\nUnit's CON must exceed item's weight.",
        "icon_nid": "Skills",
        "icon_index": [
            7,
            10
        ],
        "components": [
            [
                "ability",
                "Steal_Plus"
            ]
        ]
    }
]