[
    {
        "nid": "SteelScythes",
        "name": "Steel Scythes",
        "desc": "Make a sword attack with +1 maximum range, that also <green>Cleaves</>. Each unit in the <green>Cleave</> suffers an <blue>Offhand Attack</> like normal.\nSecondary targets of the <green>Cleave</> can receive fatal damage from the <blue>Offhand Attack</>.",
        "icon_nid": "Skills",
        "icon_index": [
            4,
            1
        ],
        "components": [
            [
                "class_skill",
                null
            ],
            [
                "combat_art",
                "SteelScythes_Child"
            ],
            [
                "copysafe",
                []
            ],
            [
                "drain_charge",
                1
            ],
            [
                "allowed_weapons",
                "item_system.is_weapon(unit, item) and item_system.weapon_type(unit, item) == 'Sword'"
            ]
        ]
    }
]