[
    {
        "nid": "Stinger_Crit",
        "name": "Stinger Crit",
        "desc": "Guaranteed crit on follow up.",
        "icon_nid": "Skills",
        "icon_index": [
            0,
            0
        ],
        "components": [
            [
                "lost_on_end_combat2",
                {
                    "lost_on_self": true,
                    "lost_on_ally": true,
                    "lost_on_enemy": true,
                    "lost_on_splash": true
                }
            ],
            [
                "lost_on_end_chapter",
                null
            ],
            [
                "hidden",
                null
            ],
            [
                "crit",
                50
            ]
        ]
    }
]