[
    {
        "nid": "Stone_Flash",
        "name": "Stone Flash",
        "desc": "<brown>Hardens</> all units within 3 tiles.\nThis unit is immune to <brown>Harden</>\neven when <brown>Silenced</>.",
        "icon_nid": "LTSkillIconSheet",
        "icon_index": [
            3,
            35
        ],
        "components": [
            [
                "class_skill",
                null
            ],
            [
                "blue",
                null
            ],
            [
                "copysafe",
                []
            ],
            [
                "ability",
                "Stone_Flash"
            ],
            [
                "drain_charge",
                1
            ]
        ]
    }
]