[
    {
        "nid": "Sublime_Mini",
        "name": "Sublime (L)",
        "desc": "Heal 1 HP per stack of <blue>Sublime</> when the <red>Sword of Light</> breaks.\nMax 3 stacks.",
        "icon_nid": "All_Skills",
        "icon_index": [
            4,
            49
        ],
        "components": [
            [
                "stack",
                3
            ],
            [
                "lost_on_end_chapter",
                null
            ]
        ]
    }
]