[
    {
        "nid": "Summon_Pawn",
        "name": "Summon: Pawn",
        "desc": "Unit can summon a Pawn to the field.",
        "icon_nid": "LTSkillIconSheet",
        "icon_index": [
            0,
            16
        ],
        "components": [
            [
                "class_skill",
                null
            ],
            [
                "ability",
                "Summon_Pawn"
            ],
            [
                "drain_charge",
                1
            ],
            [
                "copysafe",
                []
            ]
        ]
    }
]