[
    {
        "nid": "Summon_Drone",
        "name": "Summon: Drone",
        "desc": "Summons a Drone to fight in battle.",
        "icon_nid": "LTSkillIconSheet",
        "icon_index": [
            2,
            10
        ],
        "components": [
            [
                "class_skill",
                null
            ],
            [
                "drain_charge",
                1
            ],
            [
                "ability",
                "Summon_Drone"
            ],
            [
                "copysafe",
                []
            ],
            [
                "tether_parameters",
                {
                    "cost": 15,
                    "level": 4
                }
            ]
        ]
    }
]