[
    {
        "nid": "SureShot",
        "name": "Sure Shot",
        "desc": "<green>Combat Art</>. +200 HIT. Adds half of SKL to damage.",
        "icon_nid": "Skills",
        "icon_index": [
            7,
            0
        ],
        "components": [
            [
                "class_skill",
                null
            ],
            [
                "copysafe",
                []
            ],
            [
                "combat_art",
                "SureShot_Proc"
            ],
            [
                "allowed_weapons",
                "item_system.is_weapon(unit, item)"
            ],
            [
                "drain_charge",
                2
            ]
        ]
    }
]