[
    {
        "nid": "Swift_Fangs_P",
        "name": "Swift Fangs",
        "desc": "",
        "icon_nid": "LTSkillIconSheet",
        "icon_index": [
            3,
            40
        ],
        "components": [
            [
                "dynamic_multiattacks",
                "1"
            ],
            [
                "attack_speed",
                -999
            ],
            [
                "combat_art_proc",
                null
            ]
        ]
    }
]