[
    {
        "nid": "Sword_Slayer",
        "name": "Sword Slayer",
        "desc": "<green>Axe Combat Art</>\nWeapon reverses the weapon triangle.\nIf foe is wielding a Sword, +20 damage dealt.",
        "icon_nid": "LTSkillIconSheet",
        "icon_index": [
            2,
            30
        ],
        "components": [
            [
                "combat_art",
                "Sword_Slayer_Proc"
            ],
            [
                "allowed_weapons",
                "item_system.is_weapon(unit, item) and item_system.weapon_type(unit, item) == 'Axe'"
            ],
            [
                "drain_charge",
                2
            ],
            [
                "copysafe",
                []
            ],
            [
                "class_skill",
                null
            ]
        ]
    }
]