[
    {
        "nid": "Tao_Lance_Magic",
        "name": "Tao Lance",
        "desc": "",
        "icon_nid": "Skills",
        "icon_index": [
            0,
            0
        ],
        "components": [
            [
                "hidden",
                null
            ],
            [
                "upkeep_event",
                "Global Item_Tao_Lance"
            ]
        ]
    }
]