[
    {
        "nid": "Templar_Training_Helper",
        "name": "Templar Training",
        "desc": "<pink>Unique</>\nMagic damage received is halved.\nNegative statuses expire after one turn.",
        "icon_nid": "All_Skills",
        "icon_index": [
            7,
            52
        ],
        "components": [
            [
                "hidden",
                null
            ],
            [
                "resist_status",
                null
            ]
        ]
    }
]