[
    {
        "nid": "TerminalIllness",
        "name": "Terminal Illness",
        "desc": "At the start of each turn, unit permanently loses 1 maximum HP.",
        "icon_nid": "LTSkillIconSheet",
        "icon_index": [
            7,
            3
        ],
        "components": [
            [
                "class_skill",
                null
            ],
            [
                "shit",
                null
            ],
            [
                "upkeep_event",
                "Global Ability_TerminalIllness"
            ],
            [
                "condition",
                "game.turncount > 1"
            ]
        ]
    }
]