[
    {
        "nid": "The_Final_Word",
        "name": "The Final Word",
        "desc": "If a <violet>Mech</> dies while this unit is on the field, gain a stack of <blue>Final Word</>. A stack of <blue>Final Word</> can be used to use <blue>Gavel</>.",
        "icon_nid": "ZessDynamiteSkillsys",
        "icon_index": [
            2,
            69
        ],
        "components": [
            [
                "copysafe",
                [
                    "Gavel"
                ]
            ],
            [
                "class_skill",
                null
            ]
        ]
    }
]