[
    {
        "nid": "The_Cogs_Turn",
        "name": "The Cogs Turn...",
        "desc": "Gain 1 stack for each other Machine during player upkeep.\nAt 10 stacks, all foes on the field take 1 <green>NCD</> and are <brown>Burned</>, then lose 5 stacks.\nIf foe is <brown>Burning</>, take 3 <green>NCD</> instead.\nIf it is Raining, all stacks are lost during player upkeep.",
        "icon_nid": "Skills",
        "icon_index": [
            5,
            2
        ],
        "components": [
            [
                "class_skill",
                null
            ]
        ]
    }
]