[
    {
        "nid": "The_Scales_Justice",
        "name": "The Scale's Justice",
        "desc": "Effects that prevent unit's counterattacks are nullfied.\nDuring combat, each strike received reduces all damage received by 7 until combat end.\nCritical Evasion +50.\nAll <brown>ailments</> are purged during endstep.",
        "icon_nid": "LTSkillIconSheet",
        "icon_index": [
            2,
            43
        ],
        "components": [
            [
                "class_skill",
                null
            ],
            [
                "gain_skill_after_take_damage",
                "The_Scales_Resistance"
            ],
            [
                "crit_avoid",
                50
            ],
            [
                "resist_status",
                null
            ],
            [
                "null_sweep",
                null
            ],
            [
                "upkeep_skill_gain",
                "Striking_Again"
            ]
        ]
    }
]