[
    {
        "nid": "Thunderous_Possession",
        "name": "Thunderous Possession",
        "desc": "While HP <= 40%:\nAvoid + 20%, Hit/Critical Chance + 25%.",
        "icon_nid": "All_Skills",
        "icon_index": [
            10,
            18
        ],
        "components": [
            [
                "class_skill",
                null
            ],
            [
                "condition",
                "unit.get_hp() <= (unit.get_max_hp() * 0.4)"
            ],
            [
                "hit",
                25
            ],
            [
                "avoid",
                20
            ],
            [
                "crit",
                25
            ],
            [
                "copysafe",
                []
            ]
        ]
    }
]