[
    {
        "nid": "Tidal_Burst",
        "name": "Tidal Burst",
        "desc": "+1 Damage Dealt for every ally within 3 spaces.\nAfter combat this unit initiates, drains 1 HP from each ally within 3 spaces.\nIf <blue>Tidal Surge</> is active, it will be triggered for each ally who lost HP via this effect.",
        "icon_nid": "LTSkillIconSheet",
        "icon_index": [
            4,
            5
        ],
        "components": [
            [
                "class_skill",
                null
            ],
            [
                "event_after_initiated_combat",
                "Global Ability_Tidal_Burst"
            ]
        ]
    }
]