[
    {
        "nid": "TimeShared",
        "name": "Time Shared",
        "desc": "Unit will skip their next turn.",
        "icon_nid": "{Beansy} Silence",
        "icon_index": [
            2,
            0
        ],
        "components": [
            [
                "upkeep_event",
                "Global Item_TimeShare_Trigger"
            ],
            [
                "lost_on_end_chapter",
                null
            ],
            [
                "unit_flickering_tint",
                [
                    104,
                    200,
                    184
                ]
            ]
        ]
    }
]