[
    {
        "nid": "Treacherous_Savagery",
        "name": "Treacherous Savagery",
        "desc": "When <green>initiating</> combat, target and foes within a 2 tile radius have their HP reduced by 20% after combat,\nand are inflicted with <brown>Bleed</>. The main target will also be inflicted with <brown>Toxin</>.",
        "icon_nid": "LTSkillIconSheet",
        "icon_index": [
            2,
            46
        ],
        "components": [
            [
                "class_skill",
                null
            ],
            [
                "condition",
                "game.phase.get_current() == unit.team"
            ],
            [
                "savage_status",
                {
                    "status": "Bleeding",
                    "range": 2
                }
            ],
            [
                "give_statuses_after_combat",
                [
                    "Toxin",
                    "Bleeding"
                ]
            ],
            [
                "eval_post_combat_damage",
                "target.get_max_hp() // 5"
            ],
            [
                "savage_blow_fates",
                2
            ],
            [
                "copysafe",
                []
            ]
        ]
    }
]