[
    {
        "nid": "TriangleReversal",
        "name": "Triangle Reversal",
        "desc": "Reverse the weapon triangle for all <blue>player</> units until their next turn. <green>Free Action</>.",
        "icon_nid": "LTSkillIconSheet",
        "icon_index": [
            0,
            39
        ],
        "components": [
            [
                "copysafe",
                []
            ],
            [
                "ability",
                "TriangleReversal"
            ],
            [
                "drain_charge",
                2
            ],
            [
                "class_skill",
                null
            ]
        ]
    }
]