[
    {
        "nid": "TriAttack",
        "name": "Tri-Attack",
        "desc": "<green>Combat Art</>.\nCharges after <green>initiating</> actions 3 times.\nDeal triple damage to an enemy.",
        "icon_nid": "LTSkillIconSheet",
        "icon_index": [
            1,
            49
        ],
        "components": [
            [
                "build_charge",
                3
            ],
            [
                "active_combat_charge_increase",
                1
            ],
            [
                "combat_art",
                "TriAttack_Child"
            ],
            [
                "class_skill",
                null
            ],
            [
                "copysafe",
                []
            ],
            [
                "allowed_weapons",
                "item_system.is_weapon(unit, item)"
            ]
        ]
    }
]