[
    {
        "nid": "TRIANGLE",
        "name": "T.R.I.A.N.G.L.E",
        "desc": "Range 3-5 heavy damage attack.\nCan only target units adjacent to\n3 drones summoned by this unit.\nDoubles damage vs crit immune.",
        "icon_nid": "LTSkillIconSheet",
        "icon_index": [
            1,
            49
        ],
        "components": [
            [
                "class_skill",
                null
            ],
            [
                "copysafe",
                []
            ],
            [
                "ability",
                "TRIANGLE"
            ],
            [
                "drain_charge",
                1
            ],
            [
                "dynamic_damage_multiplier",
                "2 if combat_calcs.crit_avoid(unit2, unit.get_weapon()) > 900 else 1"
            ]
        ]
    }
]