[
    {
        "nid": "Undying",
        "name": "Undying",
        "desc": "<orange>(Enemy Level %)</> chance to halve damage received.",
        "icon_nid": "LTSkillIconSheet",
        "icon_index": [
            2,
            9
        ],
        "components": [
            [
                "class_skill",
                null
            ],
            [
                "eval_proc_rate",
                "target.level"
            ],
            [
                "defense_proc_with_target",
                "Undying_Proc"
            ],
            [
                "copysafe",
                []
            ]
        ]
    }
]