[
    {
        "nid": "Undying_Vigor",
        "name": "Undying Vigor",
        "desc": "Once per map, survives any attack with 1HP.\nCannot proc when at 1HP.\nDoes not function when <brown>Silenced</>.",
        "icon_nid": "Skills",
        "icon_index": [
            10,
            0
        ],
        "components": [
            [
                "class_skill",
                null
            ],
            [
                "blue",
                null
            ],
            [
                "copysafe",
                []
            ],
            [
                "TrueMiracle",
                null
            ],
            [
                "drain_charge",
                1
            ],
            [
                "condition",
                "unit.get_hp() > 1 and not 'Silenced' in unit.tags"
            ]
        ]
    }
]