[
    {
        "nid": "War_God_Rage_Plus",
        "name": "War God's Rage+",
        "desc": "Until next Player Phase, become an <indigo>Enemy2</> unit.\nWhile under this effect, STR/MAG +10, DEF/RES +6.",
        "icon_nid": "Adelbert_Icons",
        "icon_index": [
            2,
            0
        ],
        "components": [
            [
                "class_skill",
                null
            ],
            [
                "ability",
                "War_God_Rage"
            ],
            [
                "drain_charge",
                3
            ],
            [
                "copysafe",
                []
            ]
        ]
    }
]