[
    {
        "nid": "Wary_Fighter",
        "name": "Wary Fighter",
        "desc": "Neither unit nor foe can perform follow-up attacks.",
        "icon_nid": "LTSkillIconSheet",
        "icon_index": [
            4,
            32
        ],
        "components": [
            [
                "class_skill",
                null
            ],
            [
                "defense_speed",
                99
            ],
            [
                "attack_speed",
                -99
            ],
            [
                "copysafe",
                []
            ],
            [
                "tether_parameters",
                {
                    "cost": 40,
                    "level": 2
                }
            ]
        ]
    }
]