[
    {
        "nid": "We_Wont_Surrender",
        "name": "We Won't Surrender!",
        "desc": "<pink>Unique</>.\nIf this unit is dead while Coriandr is in the party:\nAfter battle, revive this unit. Coriandr's current HP will be halved.\nThen, lose this skill.",
        "icon_nid": "LTSkillIconSheet",
        "icon_index": [
            4,
            43
        ],
        "components": [
            [
                "class_skill",
                null
            ]
        ]
    }
]