[
    {
        "nid": "WeaponPrep_Plus",
        "name": "Weapon Prep+",
        "desc": "The amount of levels needed to increase weapon rank for <blue>Prepared Weapons</> is reduced.",
        "icon_nid": "LTSkillIconSheet",
        "icon_index": [
            0,
            43
        ],
        "components": [
            [
                "class_skill",
                null
            ],
            [
                "copysafe",
                []
            ]
        ]
    }
]