[
    {
        "nid": "Weighty_Block_Plus",
        "name": "Weighty Block+",
        "desc": "Adds <orange>(1/2 of Weapon Weight)</> to DEF/RES.",
        "icon_nid": "All_Skills",
        "icon_index": [
            15,
            18
        ],
        "components": [
            [
                "class_skill",
                null
            ],
            [
                "stat_change_expression",
                [
                    [
                        "DEF",
                        "unit.get_weapon().weight.value // 2"
                    ],
                    [
                        "RES",
                        "unit.get_weapon().weight.value // 2"
                    ]
                ]
            ],
            [
                "condition",
                "unit.get_weapon() and unit.get_weapon().weight"
            ],
            [
                "copysafe",
                []
            ]
        ]
    }
]