[
    {
        "nid": "Well_Done",
        "name": "Well Done",
        "desc": "Unit's current cooking status.",
        "icon_nid": "All_Skills",
        "icon_index": [
            3,
            35
        ],
        "components": []
    }
]