[
    {
        "nid": "WhirlingGalePlus",
        "name": "Whirling Gale",
        "desc": "Activated. <blue>Shove</> all units within 2 tiles of this unit 2 tiles away.",
        "icon_nid": "LTSkillIconSheet",
        "icon_index": [
            4,
            48
        ],
        "components": [
            [
                "class_skill",
                null
            ],
            [
                "copysafe",
                []
            ],
            [
                "ability",
                "WhirlingGale"
            ],
            [
                "drain_charge",
                3
            ]
        ]
    }
]