[
    {
        "nid": "Whirlwind_Staff_Proc",
        "name": "Whirlwind Staff",
        "desc": "<green>Staff Combat Art</>. Requires D Rank Staves.\n<green>Cleave</>. Cannot perform follow-up attacks nor <green>Multi</>.",
        "icon_nid": "All_Skills",
        "icon_index": [
            11,
            39
        ],
        "components": [
            [
                "combat_art_proc",
                null
            ],
            [
                "item_override",
                "Cleave_OR"
            ],
            [
                "cannot_double",
                null
            ],
            [
                "has_tags",
                [
                    "NoMulti"
                ]
            ]
        ]
    }
]