[
    {
        "nid": "Whisper_Stars",
        "name": "Whisper from Distant Stars",
        "desc": "When unit defeats a foe, or when a non-generic ally dies:\nSummon a Fallen Star at that location.\nFallen Stars have lowered targeting priority.",
        "icon_nid": "All_Skills",
        "icon_index": [
            6,
            19
        ],
        "components": [
            [
                "class_skill",
                null
            ],
            [
                "copysafe",
                []
            ]
        ]
    }
]