[
    {
        "nid": "WhiteVisage_Plus",
        "name": "White Visage+",
        "desc": "All allies on the field get +10% Hit.",
        "icon_nid": "LTSkillIconSheet",
        "icon_index": [
            1,
            41
        ],
        "components": [
            [
                "aura",
                "WhiteVisage_Child"
            ],
            [
                "aura_range",
                99
            ],
            [
                "aura_target",
                "ally"
            ],
            [
                "class_skill",
                null
            ],
            [
                "copysafe",
                []
            ],
            [
                "hide_aura",
                null
            ]
        ]
    }
]