[
    {
        "nid": "White_Mana",
        "name": "White Mana",
        "desc": "The unit's accumulation of white mana.",
        "icon_nid": "LTSkillIconSheet",
        "icon_index": [
            0,
            43
        ],
        "components": [
            [
                "stack",
                5
            ],
            [
                "lost_on_end_chapter",
                null
            ]
        ]
    }
]