[
    {
        "nid": "White_Knight_Plus",
        "name": "White Knight+",
        "desc": "<violet>Female</> allies within 2 spaces take 5 less damage.",
        "icon_nid": "LTSkillIconSheet",
        "icon_index": [
            0,
            44
        ],
        "components": [
            [
                "class_skill",
                null
            ],
            [
                "aura",
                "White_Knight_Child"
            ],
            [
                "aura_range",
                2
            ],
            [
                "aura_target",
                "ally"
            ],
            [
                "copysafe",
                []
            ]
        ]
    }
]