[
    {
        "nid": "Wicked_Darkness",
        "name": "Wicked Darkness",
        "desc": "Dark affinity allies within 3 spaces gain +10 Hit/Avoid. Enemies within 3 spaces gain <blue>Devil's Reversal</>.",
        "icon_nid": "LTSkillIconSheet",
        "icon_index": [
            1,
            41
        ],
        "components": [
            [
                "class_skill",
                null
            ],
            [
                "copysafe",
                [
                    "Wicked_Darkness_E"
                ]
            ],
            [
                "aura",
                "Wicked_Darkness_Child"
            ],
            [
                "aura_range",
                3
            ],
            [
                "aura_target",
                "ally"
            ],
            [
                "hide_aura",
                null
            ],
            [
                "tether_parameters",
                {
                    "cost": 30,
                    "level": 99
                }
            ]
        ]
    }
]