[
    {
        "nid": "Windward_Parry",
        "name": "Windward Parry",
        "desc": "<pink>Unique</>.\nIgnores the next instance of damage.\nRecharges when dealing a lethal attack with the <red>Fae Acius</>.",
        "icon_nid": "LTSkillIconSheet",
        "icon_index": [
            4,
            6
        ],
        "components": [
            [
                "drain_charge",
                1
            ],
            [
                "ignore_damage",
                null
            ],
            [
                "class_skill",
                null
            ],
            [
                "unit_flickering_tint",
                [
                    0,
                    255,
                    127
                ]
            ]
        ]
    }
]