[
    {
        "nid": "Winding_Chains_Child",
        "name": "Winding Chains Child",
        "desc": "",
        "icon_nid": "Skills",
        "icon_index": [
            0,
            0
        ],
        "components": [
            [
                "hidden",
                null
            ],
            [
                "event_after_combat",
                "Global Ability_Winding_Chains_Recharge"
            ]
        ]
    }
]