[
    {
        "nid": "WindWalk",
        "name": "Wind Walk",
        "desc": "Activated. Swap places with any ally on the map with Wind affinity. <green>Free Action</>. Usable up to thrice per turn.",
        "icon_nid": "LTSkillIconSheet",
        "icon_index": [
            6,
            38
        ],
        "components": [
            [
                "class_skill",
                null
            ],
            [
                "copysafe",
                []
            ],
            [
                "ability",
                "WindWalk"
            ],
            [
                "charges_per_turn",
                3
            ],
            [
                "tether_parameters",
                {
                    "cost": 50,
                    "level": 3
                }
            ]
        ]
    }
]