[
    {
        "nid": "Windsweep",
        "name": "Windsweep",
        "desc": "<green>Combat Art</>.\nIf unit's SPD exceeds foe's, foe cannot counter.",
        "icon_nid": "LTSkillIconSheet",
        "icon_index": [
            3,
            6
        ],
        "components": [
            [
                "class_skill",
                null
            ],
            [
                "copysafe",
                []
            ],
            [
                "drain_charge",
                2
            ],
            [
                "allowed_weapons",
                "item.weapon"
            ],
            [
                "combat_art",
                "Windsweep_Proc"
            ]
        ]
    }
]