[
    {
        "nid": "Wing_Gust",
        "name": "Wing Gust",
        "desc": "Unit can cast the <red>Wind</> spell.",
        "icon_nid": "LTSkillIconSheet",
        "icon_index": [
            1,
            35
        ],
        "components": [
            [
                "class_skill",
                null
            ],
            [
                "copysafe",
                []
            ],
            [
                "ability",
                "Wind_Ability"
            ],
            [
                "drain_charge",
                2
            ]
        ]
    }
]