[
    {
        "nid": "Winged_Guard",
        "name": "Winged Guard",
        "desc": "Nullifies effective damage against fliers.",
        "icon_nid": "LTSkillIconSheet",
        "icon_index": [
            1,
            45
        ],
        "components": [
            [
                "hidden_if_inactive",
                null
            ],
            [
                "negate_tags",
                [
                    "Flying"
                ]
            ],
            [
                "condition",
                "'Flying' in unit.tags"
            ]
        ]
    }
]