[
    {
        "nid": "Woozy",
        "name": "Woozy",
        "desc": "Unit suffers -1 MOV, -10 Hit/Crit,\n-2 damage dealt, +2 damage taken.\nLast until unit waits or initiates combat.",
        "icon_nid": "All_Skills",
        "icon_index": [
            5,
            34
        ],
        "components": [
            [
                "stat_change",
                [
                    [
                        "MOV",
                        -1
                    ]
                ]
            ],
            [
                "hit",
                -10
            ],
            [
                "crit",
                -10
            ],
            [
                "damage",
                -2
            ],
            [
                "resist",
                -2
            ],
            [
                "event_after_initiated_combat",
                "Global Ability_Centrifigually_Challenged_Clear"
            ],
            [
                "lost_on_end_chapter",
                null
            ]
        ]
    }
]