[
    {
        "nid": "ZoneOfControl",
        "name": "Zone of Control",
        "desc": "Enemies within 2 tiles suffer -3 MOV.",
        "icon_nid": "Skills",
        "icon_index": [
            4,
            7
        ],
        "components": [
            [
                "aura",
                "ZoneOfControl_Child"
            ],
            [
                "aura_range",
                2
            ],
            [
                "aura_target",
                "enemy"
            ],
            [
                "copysafe",
                []
            ],
            [
                "class_skill",
                null
            ],
            [
                "tether_parameters",
                {
                    "cost": 20,
                    "level": 1
                }
            ]
        ]
    }
]