[
    {
        "nid": "Abundance",
        "name": "Abundance",
        "desc": "Target anyone. No follow-up attacks, ignores DEF/RES.\nDeals damage equal to STR to target. If target has <blue>Scattering Petals</>, uses 200% of STR.\nIf lethal, gain a stack of <blue>Efflorescing</>. Can only gain 1 stack per chapter.",
        "icon_nid": "LTSkillIconSheet",
        "icon_index": [
            1,
            37
        ],
        "components": [
            [
                "spell",
                null
            ],
            [
                "target_unit",
                null
            ],
            [
                "alternate_damage_formula",
                "ZERO"
            ],
            [
                "alternate_resist_formula",
                "ZERO"
            ],
            [
                "min_range",
                1
            ],
            [
                "max_range",
                1
            ],
            [
                "eval_damage_any",
                "unit.get_stat('STR') if len([s for s in unit.skills if s.nid == 'Efflorescing']) < 20 else unit.get_stat('STR') * 2"
            ],
            [
                "item_tags",
                [
                    "AbilityItem"
                ]
            ],
            [
                "event_on_hit",
                "Global Ability_Abundance"
            ]
        ]
    }
]