[
    {
        "nid": "Affinity_Scroll",
        "name": "Affinity Scroll",
        "desc": "Changes the user's affinity.",
        "icon_nid": "tactics_ogre",
        "icon_index": [
            13,
            8
        ],
        "components": [
            [
                "usable",
                null
            ],
            [
                "target_ally",
                null
            ],
            [
                "uses",
                1
            ],
            [
                "uses_options",
                {
                    "lose_uses_on_miss": false,
                    "one_loss_per_combat": false
                }
            ],
            [
                "usable_in_base",
                null
            ],
            [
                "value",
                200
            ],
            [
                "event_after_combat_on_hit",
                "Global Item_Affinity_Scroll"
            ]
        ]
    }
]