[
    {
        "nid": "All_Mine",
        "name": "All Mine!",
        "desc": "Makes an item a PRF. ",
        "icon_nid": "All_Skills",
        "icon_index": [
            5,
            47
        ],
        "components": [
            [
                "spell",
                null
            ],
            [
                "target_ally",
                null
            ],
            [
                "min_range",
                0
            ],
            [
                "max_range",
                0
            ],
            [
                "item_tags",
                [
                    "AbilityItem"
                ]
            ],
            [
                "event_after_combat_even_miss",
                "Global Ability_All_Mine"
            ]
        ]
    }
]