[
    {
        "nid": "All_In",
        "name": "All-In",
        "desc": "Unt can consume 5 <blue>Cards</> to enter a random state.",
        "icon_nid": "Skills",
        "icon_index": [
            10,
            4
        ],
        "components": [
            [
                "min_range",
                0
            ],
            [
                "max_range",
                0
            ],
            [
                "event_on_hit",
                "Global Ability_All_In"
            ],
            [
                "eval_available",
                "(len([s for s in unit.skills if s.nid == 'Card']) == 5)"
            ],
            [
                "spell",
                null
            ],
            [
                "target_tile",
                null
            ],
            [
                "attack_after_combat",
                null
            ],
            [
                "item_tags",
                [
                    "AbilityItem"
                ]
            ]
        ]
    }
]