[
    {
        "nid": "Aloft_PlusPlus",
        "name": "Aloft++",
        "desc": "Until after next combat or until upkeep, target gains +2 MOV and <blue>Flying</>.\nUses refresh after battle.",
        "icon_nid": "{Ereshkigal} Staves",
        "icon_index": [
            5,
            0
        ],
        "components": [
            [
                "spell",
                null
            ],
            [
                "target_unit",
                null
            ],
            [
                "weapon_type",
                "Staff"
            ],
            [
                "weapon_rank",
                "A"
            ],
            [
                "magic",
                null
            ],
            [
                "status_on_hit",
                "Temp_Flying"
            ],
            [
                "min_range",
                1
            ],
            [
                "max_range",
                8
            ],
            [
                "c_uses",
                2
            ],
            [
                "uses_options",
                {
                    "lose_uses_on_miss": true,
                    "one_loss_per_combat": true
                }
            ],
            [
                "value",
                300
            ]
        ]
    }
]