[
    {
        "nid": "AoE_Override_3",
        "name": "AoE Override 3",
        "desc": "",
        "icon_nid": "Skills",
        "icon_index": [
            0,
            0
        ],
        "components": [
            [
                "enemy_blast_aoe",
                3
            ],
            [
                "item_tags",
                [
                    "NoMulti"
                ]
            ]
        ]
    }
]