[
    {
        "nid": "Apoteosi",
        "name": "Apoteosi",
        "desc": "Cleanses an ally's <brown>ailments</>, and grants them +3 STR/MAG/LCK and +1 MOV for 1 turn.\nThen, during next upkeep, casts this skill on self.",
        "icon_nid": "All_Skills",
        "icon_index": [
            2,
            38
        ],
        "components": [
            [
                "spell",
                null
            ],
            [
                "target_ally",
                null
            ],
            [
                "min_range",
                1
            ],
            [
                "max_range",
                1
            ],
            [
                "restore_no_target_restrict",
                null
            ],
            [
                "item_tags",
                [
                    "AbilityItem"
                ]
            ],
            [
                "status_on_hit",
                "Apoteosi_Effect"
            ],
            [
                "event_after_combat_even_miss",
                "Global Ability_Apoteosi_Set_Recast"
            ]
        ]
    }
]