[
    {
        "nid": "Ares_Saber",
        "name": "Ares Saber",
        "desc": "Can be used by any unit, as long as they are not <violet>Female</>.",
        "icon_nid": "tactics_ogre",
        "icon_index": [
            0,
            9
        ],
        "components": [
            [
                "weapon",
                null
            ],
            [
                "target_enemy",
                null
            ],
            [
                "min_range",
                1
            ],
            [
                "max_range",
                1
            ],
            [
                "damage",
                11
            ],
            [
                "hit",
                85
            ],
            [
                "crit",
                5
            ],
            [
                "weight",
                10
            ],
            [
                "weapon_type_exempt",
                "Sword"
            ],
            [
                "eval_available",
                "not 'Female' in unit.tags"
            ]
        ]
    }
]