[
    {
        "nid": "Armory",
        "name": "Armory",
        "desc": "Visits an Armory. <green>Free Action</>.",
        "icon_nid": "LTSkillIconSheet",
        "icon_index": [
            4,
            45
        ],
        "components": [
            [
                "spell",
                null
            ],
            [
                "target_ally",
                null
            ],
            [
                "item_tags",
                [
                    "AbilityItem"
                ]
            ],
            [
                "event_on_hit",
                "Global Ability_Spur_Armory"
            ],
            [
                "attack_after_combat",
                null
            ],
            [
                "eval_available",
                "not unit.generic and 'Temporary' not in unit.tags"
            ]
        ]
    }
]