[
    {
        "nid": "Backstab",
        "name": "Backstab!",
        "desc": "If unit is adjacent to an enemy with an ally on the opposite side, grants +50 crit.\nAfter combat, if a hit was landed, inflicts <brown>Toxin</> on the target.",
        "icon_nid": "{Ereshkigal} Sprite Sheet V1.4 Converted",
        "icon_index": [
            18,
            6
        ],
        "components": [
            [
                "weapon",
                null
            ],
            [
                "value",
                300
            ],
            [
                "target_enemy",
                null
            ],
            [
                "min_range",
                1
            ],
            [
                "max_range",
                1
            ],
            [
                "damage",
                8
            ],
            [
                "hit",
                85
            ],
            [
                "crit",
                0
            ],
            [
                "weight",
                7
            ],
            [
                "weapon_type",
                "Knife"
            ],
            [
                "weapon_rank",
                "C"
            ],
            [
                "status_after_combat_on_hit",
                "Toxin"
            ],
            [
                "status_on_equip",
                "Backstab"
            ]
        ]
    }
]