[
    {
        "nid": "Bamboo_Staff",
        "name": "Bamboo Staff",
        "desc": "Yamato only.",
        "icon_nid": "tactics_ogre",
        "icon_index": [
            3,
            0
        ],
        "components": [
            [
                "weapon",
                null
            ],
            [
                "target_enemy",
                null
            ],
            [
                "min_range",
                2
            ],
            [
                "max_range",
                2
            ],
            [
                "weapon_type",
                "Staff"
            ],
            [
                "damage",
                7
            ],
            [
                "hit",
                80
            ],
            [
                "weight",
                10
            ],
            [
                "crit",
                0
            ],
            [
                "prf_unit",
                [
                    "Yamato"
                ]
            ]
        ]
    }
]