[
    {
        "nid": "Barbed_Jacket",
        "name": "Barbed Jacket",
        "desc": "<indigo>Accessory</>.\nIf foe <green>initiates</>, inflict <brown>Laceration</> before combat.",
        "icon_nid": "tactics_ogre",
        "icon_index": [
            5,
            10
        ],
        "components": [
            [
                "accessory",
                null
            ],
            [
                "status_on_hold",
                "Barbed"
            ],
            [
                "value",
                300
            ]
        ]
    }
]