[
    {
        "nid": "Barkskin_Balm",
        "name": "Barkskin Balm",
        "desc": "Temporarily increases DEF by 5. This bonus decreases by 1/turn.",
        "icon_nid": "Consumable",
        "icon_index": [
            0,
            8
        ],
        "components": [
            [
                "usable",
                null
            ],
            [
                "value",
                200
            ],
            [
                "target_ally",
                null
            ],
            [
                "uses",
                3
            ],
            [
                "uses_options",
                {
                    "lose_uses_on_miss": false,
                    "one_loss_per_combat": false
                }
            ],
            [
                "map_hit_add_blend",
                [
                    85,
                    170,
                    0
                ]
            ],
            [
                "status_on_hit",
                "Barkskin"
            ]
        ]
    }
]