[
    {
        "nid": "Barren_Winter_Plus",
        "name": "Barren Winter+",
        "desc": "Winter only.\n+1 MT per dead, <green>unbanished</> ally (Max 18 MT).\nAfter combat, if a hit was landed, inflicts <brown>Chill</>.",
        "icon_nid": "Batima_Anima",
        "icon_index": [
            1,
            0
        ],
        "components": [
            [
                "weapon",
                null
            ],
            [
                "target_enemy",
                null
            ],
            [
                "min_range",
                3
            ],
            [
                "max_range",
                3
            ],
            [
                "eval_damage",
                "8 + min(10, len([u for u in game.get_all_units_in_party() if is_dead(u.nid) and 'Banished' not in u.tags]))"
            ],
            [
                "hit",
                75
            ],
            [
                "crit",
                0
            ],
            [
                "weight",
                8
            ],
            [
                "weapon_type",
                "Anima"
            ],
            [
                "map_hit_add_blend",
                [
                    85,
                    170,
                    255
                ]
            ],
            [
                "magic",
                null
            ],
            [
                "item_tags",
                [
                    "Ice"
                ]
            ],
            [
                "prf_unit",
                [
                    "Winter"
                ]
            ],
            [
                "status_after_combat_on_hit",
                "Chilled"
            ]
        ]
    }
]