[
    {
        "nid": "Bash",
        "name": "Bash",
        "desc": "MT = speed penalties on unit. When initiating, shoves target back 1 tile after combat.\nAfter combat, if a hit was landed, inflicts <brown>Exposed</> and <brown>Blunted</> on the target.",
        "icon_nid": "tactics_ogre",
        "icon_index": [
            5,
            7
        ],
        "components": [
            [
                "weapon",
                null
            ],
            [
                "target_enemy",
                null
            ],
            [
                "min_range",
                1
            ],
            [
                "max_range",
                1
            ],
            [
                "hit",
                115
            ],
            [
                "crit",
                0
            ],
            [
                "weight",
                0
            ],
            [
                "shove_on_end_combat",
                1
            ],
            [
                "eval_damage",
                "max(0, -unit.get_stat('SPD') + unit.stats['SPD'])"
            ],
            [
                "item_tags",
                [
                    "AbilityItem"
                ]
            ],
            [
                "statuses_after_combat_on_hit",
                [
                    "Exposed",
                    "Blunted"
                ]
            ],
            [
                "no_equip",
                null
            ]
        ]
    }
]