[
    {
        "nid": "Big_Cleave_OR",
        "name": "Big_Cleave_ORR",
        "desc": "",
        "icon_nid": "Skills",
        "icon_index": [
            0,
            0
        ],
        "components": [
            [
                "enemy_big_cleave_aoe",
                null
            ]
        ]
    }
]