[
    {
        "nid": "Blackjack",
        "name": "Blackjack",
        "desc": "<indigo>Accessory</>. <red>Locked</>.\nAfter <green>initiatied</> combat, if a hit was landed, inflicts <brown>Inflexible</>.",
        "icon_nid": "xvi icons ltinsert",
        "icon_index": [
            9,
            11
        ],
        "components": [
            [
                "accessory",
                null
            ],
            [
                "status_on_hold",
                "Blackjack_Effect"
            ],
            [
                "locked",
                null
            ]
        ]
    }
]