[
    {
        "nid": "Bloody_Tantrum",
        "name": "Bloody Tantrum",
        "desc": "Deals 25% Max HP damage to self or an ally.\nGain 5 stacks of <blue>Rage</>.",
        "icon_nid": "All_Skills",
        "icon_index": [
            11,
            42
        ],
        "components": [
            [
                "target_ally",
                null
            ],
            [
                "spell",
                null
            ],
            [
                "item_tags",
                [
                    "AbilityItem"
                ]
            ],
            [
                "min_range",
                0
            ],
            [
                "max_range",
                1
            ],
            [
                "eval_target_restrict_2",
                "target.get_hp() >= (target.get_max_hp() // 4)"
            ],
            [
                "event_on_hit",
                "Global Ability_Bloody_Tantrum"
            ]
        ]
    }
]