[
    {
        "nid": "Bloodforce_Plus",
        "name": "Bloodforce+",
        "desc": "Can spend 4 stacks of <blue>Blood</> as a <green>free action</>\nto <green>refresh</> self after the next action.\nAlso, gain 1 stack of <blue>Blood</>.",
        "icon_nid": "LTSkillIconSheet",
        "icon_index": [
            0,
            47
        ],
        "components": [
            [
                "target_ally",
                null
            ],
            [
                "min_range",
                0
            ],
            [
                "max_range",
                0
            ],
            [
                "event_on_hit",
                "Global Ability_Bloodforce"
            ],
            [
                "attack_after_combat",
                null
            ],
            [
                "eval_available",
                "len([s for s in unit.skills if s.nid == 'Blood']) == 4"
            ],
            [
                "spell",
                null
            ],
            [
                "statuses_on_hit",
                [
                    "Galeforce_Status",
                    "Blood"
                ]
            ],
            [
                "item_tags",
                [
                    "AbilityItem"
                ]
            ]
        ]
    }
]