[
    {
        "nid": "Bolt_Axe",
        "name": "Bolt Axe",
        "desc": "Deals magic damage.\nDuring own phase, maximum range is 2.",
        "icon_nid": "{Ereshkigal} Sprite Sheet V1.4 Converted",
        "icon_index": [
            4,
            2
        ],
        "components": [
            [
                "weapon",
                null
            ],
            [
                "value",
                400
            ],
            [
                "target_enemy",
                null
            ],
            [
                "min_range",
                1
            ],
            [
                "eval_max_range",
                "2 if game.phase.get_current() == unit.team else 1"
            ],
            [
                "damage",
                12
            ],
            [
                "hit",
                75
            ],
            [
                "crit",
                0
            ],
            [
                "weight",
                10
            ],
            [
                "weapon_type",
                "Axe"
            ],
            [
                "weapon_rank",
                "B"
            ],
            [
                "magic",
                null
            ],
            [
                "item_tags",
                [
                    "Thunder"
                ]
            ]
        ]
    }
]