[
    {
        "nid": "Breath_of_Dust",
        "name": "Breath of Dust",
        "desc": "Magical. Strikes the weaker of DEF or RES.\nIf foe has an <brown>Ailment</>, +5 damage dealt.",
        "icon_nid": "Batima_Stones",
        "icon_index": [
            2,
            0
        ],
        "components": [
            [
                "weapon",
                null
            ],
            [
                "magic",
                null
            ],
            [
                "alternate_resist_formula",
                "WORSE_DEFENSE"
            ],
            [
                "target_enemy",
                null
            ],
            [
                "value",
                0
            ],
            [
                "damage",
                6
            ],
            [
                "hit",
                80
            ],
            [
                "crit",
                0
            ],
            [
                "min_range",
                1
            ],
            [
                "max_range",
                3
            ],
            [
                "transform",
                null
            ],
            [
                "weapon_type",
                "Stone"
            ],
            [
                "weight",
                12
            ],
            [
                "prf_unit",
                [
                    "Bootes",
                    "Bootes_Final",
                    "Taker"
                ]
            ],
            [
                "unstealable",
                null
            ],
            [
                "status_on_equip",
                "Breath_of_Dust_effect"
            ]
        ]
    }
]