[
    {
        "nid": "Bridge_Axe",
        "name": "Bridge Axe",
        "desc": "Boosted damage when wielder\nor target is adjacent to --,\nCliff, Lake, or Sea terrain.\nRozette only.",
        "icon_nid": "zarg icons ltinsert",
        "icon_index": [
            16,
            2
        ],
        "components": [
            [
                "weapon",
                null
            ],
            [
                "target_enemy",
                null
            ],
            [
                "min_range",
                1
            ],
            [
                "max_range",
                1
            ],
            [
                "damage",
                9
            ],
            [
                "hit",
                90
            ],
            [
                "crit",
                0
            ],
            [
                "weight",
                20
            ],
            [
                "weapon_type_exempt",
                "Axe"
            ],
            [
                "prf_unit",
                [
                    "Rozette"
                ]
            ],
            [
                "status_on_equip",
                "Bridge_Axe"
            ]
        ]
    }
]