[
    {
        "nid": "Brilliance",
        "name": "Brilliance",
        "desc": "",
        "icon_nid": "{Ereshkigal} Light 15",
        "icon_index": [
            0,
            0
        ],
        "components": [
            [
                "weapon",
                null
            ],
            [
                "target_enemy",
                null
            ],
            [
                "damage",
                10
            ],
            [
                "hit",
                80
            ],
            [
                "weapon_type",
                "Light"
            ],
            [
                "weapon_rank",
                "B"
            ],
            [
                "magic",
                null
            ],
            [
                "weight",
                9
            ],
            [
                "crit",
                0
            ],
            [
                "value",
                400
            ],
            [
                "min_range",
                2
            ],
            [
                "max_range",
                2
            ],
            [
                "map_hit_add_blend",
                [
                    255,
                    255,
                    0
                ]
            ]
        ]
    }
]