[
    {
        "nid": "Bye",
        "name": "Bye",
        "desc": "Unit retreats.",
        "icon_nid": "LTSkillIconSheet",
        "icon_index": [
            3,
            42
        ],
        "components": [
            [
                "spell",
                null
            ],
            [
                "target_ally",
                null
            ],
            [
                "event_after_combat_on_hit",
                "Global Ability_Bye"
            ],
            [
                "item_tags",
                [
                    "AbilityItem"
                ]
            ]
        ]
    }
]