[
    {
        "nid": "Cannon_Wrench_Plus",
        "name": "Cannon Wrench+",
        "desc": "Installs a <red>Heavy Cannon+</> onto the Gigantes.",
        "icon_nid": "Ryan914_Collection",
        "icon_index": [
            35,
            0
        ],
        "components": [
            [
                "spell",
                null
            ],
            [
                "target_ally",
                null
            ],
            [
                "min_range",
                1
            ],
            [
                "max_range",
                1
            ],
            [
                "buff_ally",
                "Nothing"
            ],
            [
                "event_after_combat_even_miss",
                "Global Item_Wrench"
            ]
        ]
    }
]