[
    {
        "nid": "Castling",
        "name": "Castling",
        "desc": "Target any unit exactly 3 spaces away in a cardinal direction; move user 2 tiles forward and target 2 tiles back.\nIf the targeted unit is a <violet>Game Piece</>, they gain the same buff as <blue>Chessmaster</>.\n<green>Free Action</>.",
        "icon_nid": "LTSkillIconSheet",
        "icon_index": [
            5,
            45
        ],
        "components": [
            [
                "min_range",
                3
            ],
            [
                "max_range",
                3
            ],
            [
                "target_unit",
                null
            ],
            [
                "event_after_combat_on_hit",
                "Global Ability_Castling"
            ],
            [
                "eval_special_range",
                "x == 0 or y == 0"
            ],
            [
                "attack_after_combat",
                null
            ],
            [
                "spell",
                null
            ],
            [
                "shove_on_end_combat_initiate",
                -2
            ],
            [
                "pivot_on_end_combat_initiate",
                1
            ],
            [
                "item_tags",
                [
                    "AbilityItem"
                ]
            ]
        ]
    }
]