[
    {
        "nid": "Celestial_Extirpation",
        "name": "Celestial Extirpation",
        "desc": "<green>Free Action</>. Kills up to 5 generic allies, prioritizing Fallen Stars.\nFor each ally killed, the next attack has +5/-3 Damage Dealt/Received, and +5/+2 Critical Chance/Damage.\nAt max stacks, also grants an additional follow-up attack.",
        "icon_nid": "All_Skills",
        "icon_index": [
            6,
            27
        ],
        "components": [
            [
                "spell",
                null
            ],
            [
                "target_ally",
                null
            ],
            [
                "event_on_hit",
                "Global Ability_Celestial_Extirpation"
            ],
            [
                "item_tags",
                [
                    "AbilityItem"
                ]
            ],
            [
                "attack_after_combat",
                null
            ],
            [
                "eval_available",
                "any([u.generic for u in game.get_all_units() if u.team in ('player','other')])"
            ]
        ]
    }
]