[
    {
        "nid": "Champion_Belt",
        "name": "Champion's Belt",
        "desc": "<indigo>Accessory</>.\nSTR/MAG/SKL/SPD +2 while health is above 75%.",
        "icon_nid": "tactics_ogre",
        "icon_index": [
            9,
            1
        ],
        "components": [
            [
                "accessory",
                null
            ],
            [
                "value",
                300
            ],
            [
                "status_on_hold",
                "Champion"
            ]
        ]
    }
]