[
    {
        "nid": "Charybdis",
        "name": "Charybdis",
        "desc": "Sylvie only.\nIf unit kills while <blue>Overwatching</>, grant 2 SPD and 1 MOV to unit and allies within 3 tiles next turn.",
        "icon_nid": "xvi icons ltinsert",
        "icon_index": [
            24,
            3
        ],
        "components": [
            [
                "weapon",
                null
            ],
            [
                "target_enemy",
                null
            ],
            [
                "min_range",
                3
            ],
            [
                "max_range",
                3
            ],
            [
                "damage",
                8
            ],
            [
                "hit",
                70
            ],
            [
                "crit",
                10
            ],
            [
                "weight",
                15
            ],
            [
                "weapon_type",
                "Bow"
            ],
            [
                "effective_damage",
                {
                    "effective_tags": [
                        "Flying"
                    ],
                    "effective_multiplier": 3,
                    "effective_bonus_damage": 0,
                    "show_effectiveness_flash": true
                }
            ],
            [
                "prf_unit",
                [
                    "Sylvis"
                ]
            ]
        ]
    }
]