[
    {
        "nid": "Charging_Descent_OR_E",
        "name": "Charging Descent OR",
        "desc": "",
        "icon_nid": "Skills",
        "icon_index": [
            0,
            0
        ],
        "components": [
            [
                "max_range",
                5
            ],
            [
                "eval_target_restrict_2",
                "not has_skill(target, 'Hit_by_ChDe')"
            ],
            [
                "eval_special_range",
                "x == 0 or y == 0"
            ],
            [
                "pivot_on_end_combat_initiate",
                1
            ]
        ]
    }
]