[
    {
        "nid": "Chreos_Plus",
        "name": "Chr\u00e9os+",
        "desc": "Aislinn only. <red>Locked</>.\nMagical. Grants self <blue>Voltage</> after <green>initiated</> combat.\nIf <blue>Voltage</> stacks are divisible by 2, AoE +1.",
        "icon_nid": "xvi icons ltinsert",
        "icon_index": [
            3,
            2
        ],
        "components": [
            [
                "weapon",
                null
            ],
            [
                "target_enemy",
                null
            ],
            [
                "min_range",
                1
            ],
            [
                "max_range",
                1
            ],
            [
                "damage",
                10
            ],
            [
                "hit",
                80
            ],
            [
                "crit",
                0
            ],
            [
                "weight",
                10
            ],
            [
                "weapon_type",
                "Axe"
            ],
            [
                "prf_unit",
                [
                    "Aislinn"
                ]
            ],
            [
                "status_on_equip",
                "Chreos_Effect"
            ],
            [
                "eval_smartblast_aoe",
                "1 if has_skill(unit, 'Chreos_Stack') and len([s for s in unit.skills if s.nid == 'Chreos_Stack']) % 2 == 0 else 0"
            ],
            [
                "locked",
                null
            ],
            [
                "magic",
                null
            ]
        ]
    }
]