[
    {
        "nid": "Constricting_Net",
        "name": "Constricting Net",
        "desc": "Inflicts <brown>Inflexible</>.",
        "icon_nid": "{Mike} Butterfly Net",
        "icon_index": [
            0,
            0
        ],
        "components": [
            [
                "target_enemy",
                null
            ],
            [
                "min_range",
                1
            ],
            [
                "max_range",
                5
            ],
            [
                "uses",
                5
            ],
            [
                "uses_options",
                {
                    "lose_uses_on_miss": false,
                    "one_loss_per_combat": false
                }
            ],
            [
                "value",
                200
            ],
            [
                "status_on_hit",
                "Inflexible"
            ],
            [
                "eval_smartblast_aoe",
                "1 if has_skill(unit, 'Bolas') else 0"
            ],
            [
                "item_tags",
                [
                    "Throwing"
                ]
            ],
            [
                "usable",
                null
            ]
        ]
    }
]