[
    {
        "nid": "Consecration",
        "name": "Consecration",
        "desc": "Grants an ally the <blue>Consecrated</> buff, granting <blue>Miracle</> and immunity to <brown>ailments</>.",
        "icon_nid": "LTSkillIconSheet",
        "icon_index": [
            6,
            10
        ],
        "components": [
            [
                "target_ally",
                null
            ],
            [
                "min_range",
                1
            ],
            [
                "max_range",
                1
            ],
            [
                "status_on_hit",
                "Consecrated"
            ],
            [
                "hp_cost",
                5
            ],
            [
                "spell",
                null
            ],
            [
                "item_tags",
                [
                    "AbilityItem"
                ]
            ]
        ]
    }
]