[
    {
        "nid": "Consuming_Waters",
        "name": "Consuming Waters",
        "desc": "Summons a Mage or Healer to an adjacent space.",
        "icon_nid": "LTSkillIconSheet",
        "icon_index": [
            4,
            34
        ],
        "components": [
            [
                "target_tile",
                null
            ],
            [
                "empty_tile_target_restrict",
                null
            ],
            [
                "min_range",
                1
            ],
            [
                "max_range",
                1
            ],
            [
                "event_on_hit",
                "Global Ability_Consuming_Waters"
            ],
            [
                "spell",
                null
            ],
            [
                "item_tags",
                [
                    "AbilityItem"
                ]
            ]
        ]
    }
]