[
    {
        "nid": "Conversion",
        "name": "Conversion",
        "desc": "Convert a non-boss enemy\nat < 50% HP to your side\nas a temporary unit.",
        "icon_nid": "LTSkillIconSheet",
        "icon_index": [
            2,
            36
        ],
        "components": [
            [
                "spell",
                null
            ],
            [
                "target_enemy",
                null
            ],
            [
                "min_range",
                1
            ],
            [
                "max_range",
                1
            ],
            [
                "event_on_hit",
                "Global Ability_Conversion"
            ],
            [
                "eval_target_restrict_2",
                "not 'Boss' in target.tags and not 'Tile' in target.tags and (target.get_hp() <= target.get_max_hp() // 2)"
            ],
            [
                "item_tags",
                [
                    "AbilityItem"
                ]
            ]
        ]
    }
]