[
    {
        "nid": "Crowned_Blade",
        "name": "Crowned Blade",
        "desc": "Carna only.\nOn kill, gains +1 Might and +1 Weight.\n(Max Might: 18, Max Weight: 20)",
        "icon_nid": "jellyunicorns item icons ltinsert",
        "icon_index": [
            12,
            0
        ],
        "components": [
            [
                "weapon",
                null
            ],
            [
                "target_enemy",
                null
            ],
            [
                "min_range",
                1
            ],
            [
                "max_range",
                1
            ],
            [
                "damage",
                10
            ],
            [
                "hit",
                90
            ],
            [
                "crit",
                0
            ],
            [
                "weight",
                12
            ],
            [
                "weapon_type",
                "Sword"
            ],
            [
                "prf_unit",
                [
                    "Carna"
                ]
            ]
        ]
    }
]