[
    {
        "nid": "Dance",
        "name": "Dance",
        "desc": "<green>Refreshes</> an ally.",
        "icon_nid": "All_Skills",
        "icon_index": [
            7,
            51
        ],
        "components": [
            [
                "spell",
                null
            ],
            [
                "map_cast_sfx",
                "RefreshDanceMap"
            ],
            [
                "min_range",
                1
            ],
            [
                "max_range",
                1
            ],
            [
                "refresh",
                null
            ],
            [
                "target_ally",
                null
            ],
            [
                "item_tags",
                [
                    "AbilityItem"
                ]
            ]
        ]
    }
]