[
    {
        "nid": "Demon_Trident",
        "name": "Demon Trident",
        "desc": "Cannot perform follow-up attacks, but makes three attacks when <green>initiating</>.",
        "icon_nid": "{AtelierLabs} spear 3",
        "icon_index": [
            0,
            0
        ],
        "components": [
            [
                "weapon",
                null
            ],
            [
                "value",
                300
            ],
            [
                "target_enemy",
                null
            ],
            [
                "min_range",
                1
            ],
            [
                "max_range",
                1
            ],
            [
                "damage",
                3
            ],
            [
                "hit",
                60
            ],
            [
                "crit",
                0
            ],
            [
                "weight",
                12
            ],
            [
                "weapon_type",
                "Lance"
            ],
            [
                "weapon_rank",
                "C"
            ],
            [
                "no_double",
                null
            ],
            [
                "status_on_equip",
                "Make3Attacks"
            ]
        ]
    }
]