[
    {
        "nid": "Derringer",
        "name": "Derringer",
        "desc": "Cannot be countered. Inflicts <green>True Damage</>.\n<green>Cooldown 2</>.\nCan be used by any unit.",
        "icon_nid": "Ryan914_Collection",
        "icon_index": [
            20,
            0
        ],
        "components": [
            [
                "weapon",
                null
            ],
            [
                "value",
                400
            ],
            [
                "target_enemy",
                null
            ],
            [
                "min_range",
                1
            ],
            [
                "max_range",
                1
            ],
            [
                "damage",
                8
            ],
            [
                "hit",
                105
            ],
            [
                "crit",
                0
            ],
            [
                "weight",
                1
            ],
            [
                "alternate_damage_formula",
                "ZERO"
            ],
            [
                "alternate_resist_formula",
                "ZERO"
            ],
            [
                "item_tags",
                [
                    "TrueDamage",
                    "Gun"
                ]
            ],
            [
                "cooldown",
                2
            ],
            [
                "cannot_be_countered",
                null
            ]
        ]
    }
]