[
    {
        "nid": "Detonate_Target",
        "name": "Detonate",
        "desc": "Target an ally within 3 tiles. Cast a powerful AoE 1 explosion that inflicts <brown>Toxin</> at their position, killing them.",
        "icon_nid": "LTSkillIconSheet",
        "icon_index": [
            0,
            0
        ],
        "components": [
            [
                "target_ally",
                null
            ],
            [
                "spell",
                null
            ],
            [
                "min_range",
                1
            ],
            [
                "max_range",
                3
            ],
            [
                "event_after_combat_on_hit",
                "Global Ability_Detonate"
            ],
            [
                "item_tags",
                [
                    "AbilityItem"
                ]
            ]
        ]
    }
]