[
    {
        "nid": "Devil_Lance",
        "name": "Devil Lance",
        "desc": "<orange>(31 - LCK)%</> chance for user to also damage self when striking.",
        "icon_nid": "{LordGlenn} All Icons LordGlenn Pack 1",
        "icon_index": [
            19,
            2
        ],
        "components": [
            [
                "weapon",
                null
            ],
            [
                "target_enemy",
                null
            ],
            [
                "damage",
                17
            ],
            [
                "hit",
                75
            ],
            [
                "weapon_type",
                "Lance"
            ],
            [
                "weapon_rank",
                "D"
            ],
            [
                "weight",
                16
            ],
            [
                "crit",
                0
            ],
            [
                "status_on_equip",
                "Devils_Reversal_Weapon"
            ],
            [
                "value",
                200
            ],
            [
                "min_range",
                1
            ],
            [
                "max_range",
                1
            ]
        ]
    }
]