[
    {
        "nid": "Diagonal_Targetting_Override",
        "name": "Diagonal Targetting Override",
        "desc": "",
        "icon_nid": "Skills",
        "icon_index": [
            0,
            0
        ],
        "components": [
            [
                "eval_special_range",
                "(x == y) or (x == -y)"
            ]
        ]
    }
]