[
    {
        "nid": "DivineRod",
        "name": "Divine Rod",
        "desc": "Elias only. Restores 4 HP, then performs a 2 MT AoE attack on their location.",
        "icon_nid": "{Ereshkigal} Staves",
        "icon_index": [
            3,
            0
        ],
        "components": [
            [
                "spell",
                null
            ],
            [
                "weapon_type",
                "Staff"
            ],
            [
                "magic",
                null
            ],
            [
                "min_range",
                3
            ],
            [
                "max_range",
                3
            ],
            [
                "uses",
                4
            ],
            [
                "uses_options",
                {
                    "lose_uses_on_miss": false,
                    "one_loss_per_combat": false
                }
            ],
            [
                "event_on_hit",
                "Global Item_DivineRod"
            ],
            [
                "map_hit_add_blend",
                [
                    0,
                    170,
                    255
                ]
            ],
            [
                "heal",
                4
            ],
            [
                "target_ally",
                null
            ],
            [
                "prf_unit",
                [
                    "Elias"
                ]
            ]
        ]
    }
]