[
    {
        "nid": "Draining_Rune",
        "name": "Draining Rune",
        "desc": "Magical.\n<violet>Monster</>: Inflicts <brown>Enfeebled</> on hit.\n<violet>Dragon</>: Magical. Strikes the weaker of DEF or RES.",
        "icon_nid": "RWDragonstones",
        "icon_index": [
            7,
            0
        ],
        "components": [
            [
                "weapon",
                null
            ],
            [
                "eval_dragon_magic",
                "'Dragon' in unit.tags or 'FellDragon' in unit.tags"
            ],
            [
                "target_enemy",
                null
            ],
            [
                "value",
                400
            ],
            [
                "damage",
                9
            ],
            [
                "hit",
                80
            ],
            [
                "crit",
                0
            ],
            [
                "min_range",
                2
            ],
            [
                "max_range",
                2
            ],
            [
                "transform",
                null
            ],
            [
                "weapon_type",
                "Stone"
            ],
            [
                "weapon_rank",
                "B"
            ],
            [
                "weight",
                9
            ],
            [
                "status_on_equip",
                "Draining_Rune"
            ]
        ]
    }
]