[
    {
        "nid": "Dream_Of_Seven",
        "name": "Dream Of Seven",
        "desc": "Switches classes between Soldier/Halberdier and Mercenary/Hero.",
        "icon_nid": "All_Skills",
        "icon_index": [
            4,
            46
        ],
        "components": [
            [
                "min_range",
                0
            ],
            [
                "max_range",
                0
            ],
            [
                "event_on_hit",
                "Global Ability_Dream_Of_Seven"
            ],
            [
                "target_unit",
                null
            ],
            [
                "attack_after_combat",
                null
            ]
        ]
    }
]