[
    {
        "nid": "Dream_Of_Five",
        "name": "Dream Of Five",
        "desc": "Switch flags.",
        "icon_nid": "All_Skills",
        "icon_index": [
            6,
            46
        ],
        "components": [
            [
                "min_range",
                0
            ],
            [
                "max_range",
                0
            ],
            [
                "event_on_hit",
                "Global Ability_Dream_Of_Five"
            ],
            [
                "target_unit",
                null
            ],
            [
                "attack_after_combat",
                null
            ]
        ]
    }
]