[
    {
        "nid": "Dredge_Plus",
        "name": "Dredge+",
        "desc": "<green>Free Action</>.\nPull a non-boss unit adjacent to the user.",
        "icon_nid": "LTSkillIconSheet",
        "icon_index": [
            7,
            48
        ],
        "components": [
            [
                "min_range",
                1
            ],
            [
                "max_range",
                5
            ],
            [
                "no_map_hp_display",
                null
            ],
            [
                "event_after_combat_on_hit",
                "Global Ability_Dredge"
            ],
            [
                "target_unit",
                null
            ],
            [
                "eval_target_restrict_2",
                "not 'Boss' in target.tags"
            ],
            [
                "spell",
                null
            ],
            [
                "item_tags",
                [
                    "AbilityItem"
                ]
            ],
            [
                "attack_after_combat",
                null
            ]
        ]
    }
]