[
    {
        "nid": "Egg_Bomb",
        "name": "Egg Bomb",
        "desc": "Inflicts 10 <green>true damage</> in an AoE of 1.",
        "icon_nid": "Food_by_ZessDynamite",
        "icon_index": [
            4,
            10
        ],
        "components": [
            [
                "target_tile",
                null
            ],
            [
                "damage",
                10
            ],
            [
                "alternate_damage_formula",
                "ZERO"
            ],
            [
                "alternate_resist_formula",
                "ZERO"
            ],
            [
                "min_range",
                2
            ],
            [
                "max_range",
                3
            ],
            [
                "uses",
                3
            ],
            [
                "uses_options",
                {
                    "lose_uses_on_miss": false,
                    "one_loss_per_combat": false
                }
            ],
            [
                "value",
                200
            ],
            [
                "item_tags",
                [
                    "TrueDamage",
                    "Throwing"
                ]
            ],
            [
                "eval_smartblast_aoe",
                "2 if has_skill(unit, 'Bolas') else 1"
            ],
            [
                "usable",
                null
            ]
        ]
    }
]