[
    {
        "nid": "Elwind_Ability",
        "name": "Elwind",
        "desc": "Effective against <violet>Flying</> foes.",
        "icon_nid": "{Batima} Elwind (GBA-Style)",
        "icon_index": [
            0,
            0
        ],
        "components": [
            [
                "weapon",
                null
            ],
            [
                "target_enemy",
                null
            ],
            [
                "min_range",
                2
            ],
            [
                "max_range",
                2
            ],
            [
                "damage",
                7
            ],
            [
                "hit",
                90
            ],
            [
                "crit",
                0
            ],
            [
                "weight",
                5
            ],
            [
                "magic",
                null
            ],
            [
                "effective_damage",
                {
                    "effective_tags": [
                        "Flying"
                    ],
                    "effective_multiplier": 3,
                    "effective_bonus_damage": 0,
                    "show_effectiveness_flash": true
                }
            ],
            [
                "map_hit_add_blend",
                [
                    0,
                    170,
                    127
                ]
            ],
            [
                "weapon_type_exempt",
                "Anima"
            ],
            [
                "no_equip",
                null
            ],
            [
                "item_tags",
                [
                    "Wind",
                    "AbilityItem"
                ]
            ]
        ]
    }
]