[
    {
        "nid": "Eternal_Fog",
        "name": "Eternal Fog",
        "desc": "Fell Dragon only.\nMagical. Strikes the weaker of DEF or RES.\nCan counter from any range.",
        "icon_nid": "{Batima} Wyvernstone - Copia",
        "icon_index": [
            0,
            0
        ],
        "components": [
            [
                "weapon",
                null
            ],
            [
                "magic",
                null
            ],
            [
                "alternate_resist_formula",
                "WORSE_DEFENSE"
            ],
            [
                "target_enemy",
                null
            ],
            [
                "value",
                0
            ],
            [
                "damage",
                12
            ],
            [
                "hit",
                95
            ],
            [
                "crit",
                0
            ],
            [
                "min_range",
                1
            ],
            [
                "max_range",
                3
            ],
            [
                "transform",
                null
            ],
            [
                "weapon_type",
                "Stone"
            ],
            [
                "weight",
                10
            ],
            [
                "prf_unit",
                [
                    "Libra_False",
                    "Libra",
                    "Taker",
                    "Libra_P"
                ]
            ],
            [
                "locked",
                null
            ],
            [
                "unstealable",
                null
            ],
            [
                "status_on_equip",
                "Distant_Counter"
            ]
        ]
    }
]