[
    {
        "nid": "Excalipoor",
        "name": "Excalipoor",
        "desc": "A legendary weapon... allegedly.\nCannot miss. Refresh turn on kill.\n<green>Restock</>.",
        "icon_nid": "{LordGlenn} {ArchaneaIconProject} 2019",
        "icon_index": [
            15,
            0
        ],
        "components": [
            [
                "weapon",
                null
            ],
            [
                "target_enemy",
                null
            ],
            [
                "min_range",
                1
            ],
            [
                "max_range",
                1
            ],
            [
                "damage",
                7
            ],
            [
                "crit",
                0
            ],
            [
                "weight",
                5
            ],
            [
                "weapon_type",
                "Sword"
            ],
            [
                "weapon_rank",
                "E"
            ],
            [
                "c_uses",
                1
            ],
            [
                "uses_options",
                {
                    "lose_uses_on_miss": false,
                    "one_loss_per_combat": true
                }
            ],
            [
                "status_on_equip",
                "Galeforce_Weapon"
            ]
        ]
    }
]