[
    {
        "nid": "Execution_Yasukage",
        "name": "Execution",
        "desc": "",
        "icon_nid": "Skills",
        "icon_index": [
            0,
            0
        ],
        "components": [
            [
                "no_map_hp_display",
                null
            ],
            [
                "target_unit",
                null
            ],
            [
                "damage",
                999
            ],
            [
                "alternate_resist_formula",
                "ZERO"
            ],
            [
                "alternate_damage_formula",
                "ZERO"
            ],
            [
                "item_tags",
                [
                    "AbilityItem"
                ]
            ]
        ]
    }
]