[
    {
        "nid": "Fimbulvetr_Zhinn",
        "name": "Fimbulvetr",
        "desc": "",
        "icon_nid": "Anima",
        "icon_index": [
            0,
            4
        ],
        "components": [
            [
                "weapon",
                null
            ],
            [
                "target_enemy",
                null
            ],
            [
                "damage",
                14
            ],
            [
                "hit",
                80
            ],
            [
                "magic",
                null
            ],
            [
                "weight",
                11
            ],
            [
                "crit",
                0
            ],
            [
                "min_range",
                2
            ],
            [
                "max_range",
                2
            ],
            [
                "map_hit_add_blend",
                [
                    85,
                    170,
                    255
                ]
            ],
            [
                "weapon_type_exempt",
                "Anima"
            ],
            [
                "no_equip",
                null
            ],
            [
                "item_tags",
                [
                    "AbilityItem"
                ]
            ]
        ]
    }
]