[
    {
        "nid": "Firesweep_Lance",
        "name": "Firesweep Lance",
        "desc": "When <green>initiating</>, foe cannot counterattack.",
        "icon_nid": "{Lisandra Brave} Lance icon 003",
        "icon_index": [
            0,
            0
        ],
        "components": [
            [
                "weapon",
                null
            ],
            [
                "value",
                200
            ],
            [
                "target_enemy",
                null
            ],
            [
                "min_range",
                1
            ],
            [
                "max_range",
                1
            ],
            [
                "damage",
                6
            ],
            [
                "hit",
                85
            ],
            [
                "crit",
                0
            ],
            [
                "weight",
                11
            ],
            [
                "weapon_type",
                "Lance"
            ],
            [
                "weapon_rank",
                "D"
            ],
            [
                "status_on_equip",
                "Firesweep"
            ]
        ]
    }
]