[
    {
        "nid": "Flare_Bomb",
        "name": "Flare Bomb",
        "desc": "Deals 5 <green>true damage</> and <brown>Burns</> foes in an AoE of 1.",
        "icon_nid": "Ryan914_Collection",
        "icon_index": [
            14,
            0
        ],
        "components": [
            [
                "target_tile",
                null
            ],
            [
                "min_range",
                2
            ],
            [
                "max_range",
                3
            ],
            [
                "status_on_hit",
                "Burning"
            ],
            [
                "uses",
                5
            ],
            [
                "uses_options",
                {
                    "lose_uses_on_miss": false,
                    "one_loss_per_combat": false
                }
            ],
            [
                "value",
                200
            ],
            [
                "item_tags",
                [
                    "Throwing",
                    "TrueDamage"
                ]
            ],
            [
                "eval_smartblast_aoe",
                "2 if has_skill(unit, 'Bolas') else 1"
            ],
            [
                "damage",
                5
            ],
            [
                "alternate_damage_formula",
                "ZERO"
            ],
            [
                "alternate_resist_formula",
                "ZERO"
            ],
            [
                "usable",
                null
            ]
        ]
    }
]