[
    {
        "nid": "Flashbulb",
        "name": "Flashbulb",
        "desc": "Cube 3.0 only.\nInflicts <brown>Sleep</>.\n<green>Restock </> 2.",
        "icon_nid": "cube_icons",
        "icon_index": [
            1,
            0
        ],
        "components": [
            [
                "spell",
                null
            ],
            [
                "min_range",
                1
            ],
            [
                "max_range",
                1
            ],
            [
                "status_on_hit",
                "Sleep"
            ],
            [
                "target_enemy",
                null
            ],
            [
                "c_uses",
                2
            ],
            [
                "uses_options",
                {
                    "lose_uses_on_miss": true,
                    "one_loss_per_combat": true
                }
            ],
            [
                "prf_unit",
                [
                    "Cube"
                ]
            ]
        ]
    }
]