[
    {
        "nid": "ForgottenSpear",
        "name": "Forgotten Spear",
        "desc": "Keres only. Magical. Might is equal to <orange>(150% MAG)</>.",
        "icon_nid": "{LordGlenn} {ArchaneaIconProject} 2019",
        "icon_index": [
            21,
            2
        ],
        "components": [
            [
                "weapon",
                null
            ],
            [
                "target_enemy",
                null
            ],
            [
                "min_range",
                1
            ],
            [
                "max_range",
                1
            ],
            [
                "damage",
                0
            ],
            [
                "hit",
                100
            ],
            [
                "crit",
                0
            ],
            [
                "weight",
                0
            ],
            [
                "weapon_type",
                "Lance"
            ],
            [
                "prf_unit",
                [
                    "Keres"
                ]
            ],
            [
                "magic",
                null
            ],
            [
                "alternate_damage_formula",
                "MAG_AND_A_HALF"
            ],
            [
                "alternate_resist_formula",
                "MAGIC_DEFENSE"
            ]
        ]
    }
]