[
    {
        "nid": "FullMoon",
        "name": "Full Moon",
        "desc": "<green>Free Action</>. Swaps unit's STR and MAG.",
        "icon_nid": "LTSkillIconSheet",
        "icon_index": [
            1,
            38
        ],
        "components": [
            [
                "target_tile",
                null
            ],
            [
                "min_range",
                0
            ],
            [
                "max_range",
                0
            ],
            [
                "event_on_hit",
                "Global Ability_PackBond"
            ],
            [
                "spell",
                null
            ],
            [
                "attack_after_combat",
                null
            ],
            [
                "item_tags",
                [
                    "AbilityItem"
                ]
            ]
        ]
    }
]