[
    {
        "nid": "Gaia_Shield",
        "name": "Gaia Shield",
        "desc": "<indigo>Accessory</>.\n+1 CON.\nWhile on terrain, -3 damage received.",
        "icon_nid": "Gaia_Shield",
        "icon_index": [
            0,
            0
        ],
        "components": [
            [
                "accessory",
                null
            ],
            [
                "multi_status_on_hold",
                [
                    "Gaia_Shield_Effect",
                    "Gaia_Shield_Effect_Helper"
                ]
            ]
        ]
    }
]