[
    {
        "nid": "Gettem_Delay_1",
        "name": "Gettem!",
        "desc": "Moves an ally within 5 spaces to a tile within 5 spaces.",
        "icon_nid": "LTSkillIconSheet",
        "icon_index": [
            3,
            7
        ],
        "components": [
            [
                "spell",
                null
            ],
            [
                "target_ally",
                null
            ],
            [
                "magic",
                null
            ],
            [
                "min_range",
                1
            ],
            [
                "max_range",
                5
            ],
            [
                "item_tags",
                [
                    "AbilityItem"
                ]
            ],
            [
                "event_on_hit",
                "Global Ability_Gettem_1"
            ],
            [
                "attack_after_combat",
                null
            ]
        ]
    }
]