[
    {
        "nid": "Gospel",
        "name": "Gospel",
        "desc": "Parlak only.\nFoe cannot perform follow up attacks.\nAfter combat, if a hit was landed, inflicts <brown>Toxin</> on the target.",
        "icon_nid": "zarg icons ltinsert",
        "icon_index": [
            0,
            5
        ],
        "components": [
            [
                "weapon",
                null
            ],
            [
                "target_enemy",
                null
            ],
            [
                "damage",
                5
            ],
            [
                "weapon_type",
                "Light"
            ],
            [
                "magic",
                null
            ],
            [
                "weight",
                10
            ],
            [
                "crit",
                0
            ],
            [
                "value",
                0
            ],
            [
                "min_range",
                2
            ],
            [
                "max_range",
                2
            ],
            [
                "map_hit_add_blend",
                [
                    255,
                    255,
                    0
                ]
            ],
            [
                "prf_unit",
                [
                    "Parlak"
                ]
            ],
            [
                "hit",
                75
            ],
            [
                "status_after_combat_on_hit",
                "Toxin"
            ],
            [
                "status_on_equip",
                "Cannot_Be_Doubled"
            ]
        ]
    }
]