[
    {
        "nid": "Grave_Lance",
        "name": "Grave Lance",
        "desc": "Grinn only. <green>Brave</>.\nLCK +7 while equipped.",
        "icon_nid": "xvi icons ltinsert",
        "icon_index": [
            26,
            1
        ],
        "components": [
            [
                "weapon",
                null
            ],
            [
                "target_enemy",
                null
            ],
            [
                "damage",
                7
            ],
            [
                "hit",
                76
            ],
            [
                "weapon_type",
                "Lance"
            ],
            [
                "weight",
                9
            ],
            [
                "crit",
                0
            ],
            [
                "min_range",
                1
            ],
            [
                "max_range",
                1
            ],
            [
                "brave_on_attack",
                null
            ],
            [
                "stat_change",
                [
                    [
                        "LCK",
                        7
                    ]
                ]
            ],
            [
                "prf_unit",
                [
                    "Grinn"
                ]
            ]
        ]
    }
]