[
    {
        "nid": "Gravestone_Plus",
        "name": "Gravestone+",
        "desc": "Poggles only.\nMagical. Strikes the weaker of DEF or RES.\nIncreases in power as user's health drops. <orange>(+3 MT/5 HP)</>",
        "icon_nid": "Neutral",
        "icon_index": [
            0,
            16
        ],
        "components": [
            [
                "weapon",
                null
            ],
            [
                "magic",
                null
            ],
            [
                "alternate_resist_formula",
                "WORSE_DEFENSE"
            ],
            [
                "target_enemy",
                null
            ],
            [
                "value",
                0
            ],
            [
                "damage",
                6
            ],
            [
                "hit",
                85
            ],
            [
                "crit",
                0
            ],
            [
                "min_range",
                1
            ],
            [
                "max_range",
                1
            ],
            [
                "weapon_type",
                "Stone"
            ],
            [
                "weight",
                7
            ],
            [
                "prf_unit",
                [
                    "Poggles"
                ]
            ],
            [
                "unstealable",
                null
            ],
            [
                "status_on_equip",
                "Lash_Out_Plus"
            ]
        ]
    }
]