[
    {
        "nid": "GunpowderTome_Plus",
        "name": "Gunpowder Tome+",
        "desc": "Pao only.",
        "icon_nid": "{LordGlenn} All Icons LordGlenn Pack 1",
        "icon_index": [
            5,
            5
        ],
        "components": [
            [
                "weapon",
                null
            ],
            [
                "target_enemy",
                null
            ],
            [
                "min_range",
                2
            ],
            [
                "max_range",
                5
            ],
            [
                "damage",
                9
            ],
            [
                "hit",
                100
            ],
            [
                "crit",
                0
            ],
            [
                "weight",
                6
            ],
            [
                "weapon_type",
                "Anima"
            ],
            [
                "map_hit_add_blend",
                [
                    224,
                    96,
                    0
                ]
            ],
            [
                "magic",
                null
            ],
            [
                "prf_unit",
                [
                    "Pao"
                ]
            ],
            [
                "item_tags",
                [
                    "Fire"
                ]
            ]
        ]
    }
]