[
    {
        "nid": "Gunung_Override",
        "name": "Gunung",
        "desc": "Gerhana only.\nEffective against horses and armors, if unit has Earth affinity.\nUpon initiating and killing an enemy, unit's affinity becomes Wind.",
        "icon_nid": "jellyunicorns item icons ltinsert",
        "icon_index": [
            4,
            1
        ],
        "components": [
            [
                "effective_damage",
                {
                    "effective_tags": [
                        "Horse",
                        "Armor"
                    ],
                    "effective_multiplier": 3,
                    "effective_bonus_damage": 0,
                    "show_effectiveness_flash": true
                }
            ]
        ]
    }
]