[
    {
        "nid": "Handcuffs",
        "name": "Handcuffs",
        "desc": "<indigo>Accessory</>. <red>Locked</>.\nItem Slots -3.",
        "icon_nid": "tactics_ogre",
        "icon_index": [
            9,
            10
        ],
        "components": [
            [
                "accessory",
                null
            ],
            [
                "status_on_hold",
                "Handcuffed"
            ],
            [
                "locked",
                null
            ]
        ]
    }
]