[
    {
        "nid": "HeavySlam_Slam",
        "name": "Heavy Slam",
        "desc": "Warp to a space within 3 spaces, then perform a AoE attack (Mt = CON) centered on target location. Free action.",
        "icon_nid": null,
        "icon_index": [
            0,
            0
        ],
        "components": [
            [
                "enemy_blast_aoe",
                1
            ],
            [
                "attack_after_combat",
                null
            ],
            [
                "alternate_damage_formula",
                "HALF_CON"
            ],
            [
                "damage",
                0
            ],
            [
                "hit",
                100
            ],
            [
                "target_tile",
                null
            ],
            [
                "min_range",
                0
            ],
            [
                "max_range",
                0
            ],
            [
                "spell",
                null
            ],
            [
                "item_tags",
                [
                    "AbilityItem",
                    "Martial_Art"
                ]
            ]
        ]
    }
]