[
    {
        "nid": "Hidden_Knife",
        "name": "Hidden Knife",
        "desc": "Cannot perform follow-up attacks.\n<green>Free Action</>. <green>Cooldown 1</>.\nAfter combat, if a hit was landed, inflicts <brown>Toxin</> on the target.",
        "icon_nid": "{Ereshkigal} Sprite Sheet V1.4 Converted",
        "icon_index": [
            12,
            6
        ],
        "components": [
            [
                "weapon",
                null
            ],
            [
                "value",
                200
            ],
            [
                "target_enemy",
                null
            ],
            [
                "min_range",
                2
            ],
            [
                "max_range",
                2
            ],
            [
                "damage",
                0
            ],
            [
                "hit",
                105
            ],
            [
                "crit",
                0
            ],
            [
                "weight",
                1
            ],
            [
                "weapon_type",
                "Knife"
            ],
            [
                "weapon_rank",
                "D"
            ],
            [
                "status_after_combat_on_hit",
                "Toxin"
            ],
            [
                "no_double",
                null
            ],
            [
                "attack_after_combat",
                null
            ],
            [
                "cooldown",
                1
            ]
        ]
    }
]