[
    {
        "nid": "Holy_Guard",
        "name": "Holy Guard",
        "desc": "<indigo>Accessory</>.\nHalves all damage received from <violet>Monsters</>.",
        "icon_nid": "tactics_ogre",
        "icon_index": [
            5,
            2
        ],
        "components": [
            [
                "status_on_hold",
                "Holy_Guard"
            ],
            [
                "value",
                300
            ],
            [
                "accessory",
                null
            ]
        ]
    }
]