[
    {
        "nid": "Horseslayer",
        "name": "Horseslayer",
        "desc": "Effective against <violet>Cavalry</> and <violet>Beasts</>.",
        "icon_nid": "Lance",
        "icon_index": [
            0,
            7
        ],
        "components": [
            [
                "weapon",
                null
            ],
            [
                "target_enemy",
                null
            ],
            [
                "damage",
                7
            ],
            [
                "hit",
                70
            ],
            [
                "weapon_type",
                "Lance"
            ],
            [
                "weapon_rank",
                "D"
            ],
            [
                "weight",
                13
            ],
            [
                "crit",
                0
            ],
            [
                "value",
                200
            ],
            [
                "min_range",
                1
            ],
            [
                "max_range",
                1
            ],
            [
                "effective_damage",
                {
                    "effective_tags": [
                        "Horse",
                        "Beast"
                    ],
                    "effective_multiplier": 3,
                    "effective_bonus_damage": 0,
                    "show_effectiveness_flash": true
                }
            ]
        ]
    }
]