[
    {
        "nid": "Hyper_Laser",
        "name": "Hyper Laser",
        "desc": "Can only fire in cardinal and ordinal directions.\nCannot be countered, equipped, nor be stolen.\n<green>True Damage</>. <green>Cooldown 3</>.",
        "icon_nid": "Ryan914_Collection",
        "icon_index": [
            22,
            0
        ],
        "components": [
            [
                "weapon",
                null
            ],
            [
                "target_enemy",
                null
            ],
            [
                "min_range",
                1
            ],
            [
                "max_range",
                12
            ],
            [
                "damage",
                14
            ],
            [
                "hit",
                80
            ],
            [
                "crit",
                0
            ],
            [
                "weight",
                17
            ],
            [
                "alternate_damage_formula",
                "ZERO"
            ],
            [
                "alternate_resist_formula",
                "ZERO"
            ],
            [
                "item_tags",
                [
                    "TrueDamage",
                    "Gun"
                ]
            ],
            [
                "cooldown",
                3
            ],
            [
                "no_equip",
                null
            ],
            [
                "cannot_be_countered",
                null
            ],
            [
                "unstealable",
                null
            ],
            [
                "eval_special_range",
                "(x == 0 or y == 0) or (x == y or x == -y )"
            ]
        ]
    }
]