[
    {
        "nid": "Immolation",
        "name": "Immolation",
        "desc": "AoE 2, centered on the user. Cannot perform follow-up attacks nor counter. Upon starting turn with this tome equipped, cast it for free.",
        "icon_nid": "{LordGlenn} {ArchaneaIconProject} 2019",
        "icon_index": [
            26,
            3
        ],
        "components": [
            [
                "weapon",
                null
            ],
            [
                "value",
                500
            ],
            [
                "min_range",
                0
            ],
            [
                "max_range",
                0
            ],
            [
                "damage",
                5
            ],
            [
                "hit",
                90
            ],
            [
                "crit",
                0
            ],
            [
                "weight",
                20
            ],
            [
                "weapon_type",
                "Anima"
            ],
            [
                "weapon_rank",
                "A"
            ],
            [
                "map_hit_add_blend",
                [
                    224,
                    96,
                    0
                ]
            ],
            [
                "magic",
                null
            ],
            [
                "status_on_equip",
                "Immolation_Buff"
            ],
            [
                "enemy_blast_aoe",
                2
            ],
            [
                "no_double",
                null
            ],
            [
                "cannot_counter",
                null
            ],
            [
                "target_tile",
                null
            ],
            [
                "item_tags",
                [
                    "Fire"
                ]
            ]
        ]
    }
]