[
    {
        "nid": "Incorporeal_OR",
        "name": "Incorporeal OR",
        "desc": "",
        "icon_nid": "Skills",
        "icon_index": [
            0,
            0
        ],
        "components": [
            [
                "eval_available",
                "(not item.weapon and not item.weapon_type) or item.nid == 'Hades'"
            ]
        ]
    }
]