[
    {
        "nid": "Invincible",
        "name": "Invincible",
        "desc": "Cannot perform follow-up attacks nor <green>Multi</>. If equipped during upkeep, heal 5 HP.\nIf foe <green>initiates</>, heal 8 HP after combat. Healing from this weapon can only occur 4 times each chapter.",
        "icon_nid": "zarg icons ltinsert",
        "icon_index": [
            24,
            1
        ],
        "components": [
            [
                "weapon",
                null
            ],
            [
                "target_enemy",
                null
            ],
            [
                "damage",
                25
            ],
            [
                "hit",
                85
            ],
            [
                "weapon_type",
                "Lance"
            ],
            [
                "weight",
                20
            ],
            [
                "weapon_rank",
                "S"
            ],
            [
                "crit",
                0
            ],
            [
                "min_range",
                1
            ],
            [
                "max_range",
                1
            ],
            [
                "value",
                600
            ],
            [
                "multi_status_on_equip",
                [
                    "Invincible_Item_1",
                    "Invincible_Item_2"
                ]
            ],
            [
                "no_double",
                null
            ],
            [
                "item_tags",
                [
                    "NoMulti"
                ]
            ]
        ]
    }
]