[
    {
        "nid": "IronShield",
        "name": "Iron Shield",
        "desc": "<indigo>Accessory</>.\nA heavy iron shield.\n+2 DEF, -2 SPD.",
        "icon_nid": "tactics_ogre",
        "icon_index": [
            5,
            3
        ],
        "components": [
            [
                "value",
                200
            ],
            [
                "accessory",
                null
            ],
            [
                "status_on_hold",
                "Iron_Shield_Buff"
            ]
        ]
    }
]