[
    {
        "nid": "Iron_Staff",
        "name": "Iron Staff",
        "desc": "A heavy staff used for striking.",
        "icon_nid": "{LordGlenn} All Icons LordGlenn Pack 1",
        "icon_index": [
            10,
            8
        ],
        "components": [
            [
                "weapon",
                null
            ],
            [
                "target_enemy",
                null
            ],
            [
                "value",
                100
            ],
            [
                "min_range",
                1
            ],
            [
                "max_range",
                1
            ],
            [
                "weapon_type",
                "Staff"
            ],
            [
                "weapon_rank",
                "E"
            ],
            [
                "damage",
                6
            ],
            [
                "hit",
                90
            ],
            [
                "weight",
                7
            ],
            [
                "crit",
                0
            ]
        ]
    }
]