[
    {
        "nid": "Kunai_Plus",
        "name": "Kunai+",
        "desc": "Maru only.",
        "icon_nid": "jubby_Knife",
        "icon_index": [
            6,
            0
        ],
        "components": [
            [
                "weapon",
                null
            ],
            [
                "target_enemy",
                null
            ],
            [
                "min_range",
                1
            ],
            [
                "max_range",
                2
            ],
            [
                "damage",
                4
            ],
            [
                "hit",
                75
            ],
            [
                "crit",
                25
            ],
            [
                "weight",
                5
            ],
            [
                "weapon_type",
                "Knife"
            ],
            [
                "prf_unit",
                [
                    "Maru"
                ]
            ]
        ]
    }
]