[
    {
        "nid": "Lev",
        "name": "Lev",
        "desc": "Dark units only. On kill, restore a charge of <blue>Flicker Toss</>. +2 damage dealt for each <green>interaction</> unit <green>initiated</> this turn.",
        "icon_nid": "xvi icons ltinsert",
        "icon_index": [
            19,
            1
        ],
        "components": [
            [
                "weapon",
                null
            ],
            [
                "target_enemy",
                null
            ],
            [
                "min_range",
                1
            ],
            [
                "max_range",
                1
            ],
            [
                "damage",
                7
            ],
            [
                "hit",
                90
            ],
            [
                "crit",
                15
            ],
            [
                "weight",
                13
            ],
            [
                "weapon_type",
                "Lance"
            ],
            [
                "eval_available",
                "(unit.affinity and unit.affinity == 'Dark')  or any([s.has_affinities and 'Dark' in s.has_affinities.value for s in unit.skills])"
            ],
            [
                "status_on_hold",
                "Lev_Tracker"
            ],
            [
                "event_after_combat_on_hit",
                "Global Ability_Flicker_Toss_Recharge"
            ]
        ]
    }
]