[
    {
        "nid": "Lockpick",
        "name": "Lockpick",
        "desc": "<indigo>Accessory</>.\nOpens chests and doors.",
        "icon_nid": "Consumable",
        "icon_index": [
            0,
            10
        ],
        "components": [
            [
                "can_unlock",
                "True"
            ],
            [
                "accessory",
                null
            ],
            [
                "value",
                300
            ]
        ]
    }
]