[
    {
        "nid": "Locus_Plus",
        "name": "Locus+",
        "desc": "Nolenai only.\n+3 damage for each allied <violet>Mech</> in 3 spaces.",
        "icon_nid": "Ereshkigal_Light",
        "icon_index": [
            7,
            0
        ],
        "components": [
            [
                "weapon",
                null
            ],
            [
                "damage",
                8
            ],
            [
                "magic",
                null
            ],
            [
                "target_enemy",
                null
            ],
            [
                "min_range",
                2
            ],
            [
                "max_range",
                2
            ],
            [
                "hit",
                90
            ],
            [
                "crit",
                0
            ],
            [
                "weight",
                6
            ],
            [
                "weapon_type",
                "Light"
            ],
            [
                "prf_unit",
                [
                    "Nolenai"
                ]
            ],
            [
                "status_on_equip",
                "Locus_Effect_Plus"
            ]
        ]
    }
]