[
    {
        "nid": "Lunge_Override",
        "name": "Lunge Override",
        "desc": "",
        "icon_nid": "Skills",
        "icon_index": [
            0,
            0
        ],
        "components": [
            [
                "swap_on_end_combat",
                null
            ]
        ]
    }
]