[
    {
        "nid": "Lyrae",
        "name": "Lyrae",
        "desc": "Artemisia only. Multi-Weapon:\n<red>Alpha Lyrae</>\n<red>Beta Lyrae</>\n",
        "icon_nid": "xvi icons ltinsert",
        "icon_index": [
            19,
            3
        ],
        "components": [
            [
                "weapon_type",
                "Bow"
            ],
            [
                "multi_item",
                [
                    "Alpha_Lyrae",
                    "Beta_Lyrae"
                ]
            ],
            [
                "prf_unit",
                [
                    "Artemisia"
                ]
            ]
        ]
    }
]