[
    {
        "nid": "Magical_Stick",
        "name": "Magical Stick",
        "desc": "Calum only.\nMagical.\nAfter combat, if a hit was landed, gain <blue>Canter [2]</> until endstep.",
        "icon_nid": "xvi icons ltinsert",
        "icon_index": [
            16,
            4
        ],
        "components": [
            [
                "weapon",
                null
            ],
            [
                "target_enemy",
                null
            ],
            [
                "min_range",
                2
            ],
            [
                "max_range",
                2
            ],
            [
                "damage",
                6
            ],
            [
                "hit",
                90
            ],
            [
                "crit",
                0
            ],
            [
                "weight",
                4
            ],
            [
                "weapon_type",
                "Sword"
            ],
            [
                "prf_unit",
                [
                    "Calum"
                ]
            ],
            [
                "self_status_on_hit",
                "Canter2_Temp"
            ],
            [
                "magic",
                null
            ]
        ]
    }
]