[
    {
        "nid": "Magic_Override",
        "name": "Magic Override",
        "desc": "",
        "icon_nid": "Skills",
        "icon_index": [
            0,
            0
        ],
        "components": [
            [
                "magic",
                null
            ],
            [
                "alternate_damage_formula",
                "MAGIC_DAMAGE"
            ],
            [
                "alternate_resist_formula",
                "MAGIC_DEFENSE"
            ]
        ]
    }
]