[
    {
        "nid": "MercySwordPlus",
        "name": "Mercy Sword+",
        "desc": "Cannot perform follow-up attacks. +20 Avoid while equipped. Used for Offhand Attacks while held in inventory.",
        "icon_nid": "{LordGlenn} All Icons LordGlenn Pack 1",
        "icon_index": [
            0,
            0
        ],
        "components": [
            [
                "weapon",
                null
            ],
            [
                "value",
                0
            ],
            [
                "target_enemy",
                null
            ],
            [
                "min_range",
                1
            ],
            [
                "max_range",
                1
            ],
            [
                "damage",
                7
            ],
            [
                "hit",
                110
            ],
            [
                "crit",
                15
            ],
            [
                "weight",
                4
            ],
            [
                "weapon_type",
                "Sword"
            ],
            [
                "weapon_rank",
                "E"
            ],
            [
                "status_on_equip",
                "MercySword"
            ],
            [
                "no_double",
                null
            ]
        ]
    }
]