[
    {
        "nid": "Mine_Far",
        "name": "Mine",
        "desc": "Sets up to 3 traps that stops a unit's movement and deals 10 <green>non-combat damage</>.",
        "icon_nid": "{2WB} (Vanilla + Blitz) Mine",
        "icon_index": [
            0,
            0
        ],
        "components": [
            [
                "usable",
                null
            ],
            [
                "min_range",
                1
            ],
            [
                "max_range",
                5
            ],
            [
                "target_tile",
                null
            ],
            [
                "empty_tile_target_restrict",
                null
            ],
            [
                "event_on_hit",
                "Global Item_Mine"
            ],
            [
                "uses",
                3
            ],
            [
                "uses_options",
                {
                    "lose_uses_on_miss": false,
                    "one_loss_per_combat": false
                }
            ]
        ]
    }
]