[
    {
        "nid": "MobilityModulation",
        "name": "Mobility Modulation",
        "desc": "Gain +1 MOV and +5 critical chance for the remainder of the chapter. <green>Free action</>, stacking. Costs 1 stack of <blue>Modular</> to use.",
        "icon_nid": "LTSkillIconSheet",
        "icon_index": [
            2,
            5
        ],
        "components": [
            [
                "spell",
                null
            ],
            [
                "min_range",
                0
            ],
            [
                "max_range",
                0
            ],
            [
                "event_after_combat_on_hit",
                "Global Ability_MobilityModulation"
            ],
            [
                "attack_after_combat",
                null
            ],
            [
                "no_map_hp_display",
                null
            ],
            [
                "target_tile",
                null
            ],
            [
                "item_tags",
                [
                    "AbilityItem"
                ]
            ]
        ]
    }
]