[
    {
        "nid": "Monstrous_Crown_Plus",
        "name": "Monstrous Crown+",
        "desc": "<indigo>Accessory</>.\nGrants +2 to all stats to allied <violet>Monsters</> within 3 tiles (excludes user).\nUser gains +2 MAG/DEF/RES if at least 2 <violet>Monster</> allies are within 3 spaces.",
        "icon_nid": "tactics_ogre",
        "icon_index": [
            9,
            12
        ],
        "components": [
            [
                "accessory",
                null
            ],
            [
                "value",
                200
            ],
            [
                "status_on_hold",
                "Monstrous_Crown_Plus"
            ]
        ]
    }
]