[
    {
        "nid": "Multitool",
        "name": "The Multitool",
        "desc": "Capable of holding any weapon. Weapons held within gain Hit = (total number of weapons stored inside).\n",
        "icon_nid": "zarg icons ltinsert",
        "icon_index": [
            10,
            9
        ],
        "components": [
            [
                "value",
                0
            ],
            [
                "locked",
                null
            ],
            [
                "prf_unit",
                [
                    "Hammerlinde"
                ]
            ],
            [
                "multi_item",
                [
                    "Gear_Select"
                ]
            ],
            [
                "status_on_hold",
                "Multitool_Buff"
            ],
            [
                "item_tags",
                [
                    "AbilityItem"
                ]
            ]
        ]
    }
]