[
    {
        "nid": "Natual_Born_Captain",
        "name": "Captain's Call",
        "desc": "Summons an allied Cavalier.\nThe summoned ally's weapon type will cycle between Axes, Lances, and Swords each time they are summoned.",
        "icon_nid": "All_Skills",
        "icon_index": [
            11,
            52
        ],
        "components": [
            [
                "target_tile",
                null
            ],
            [
                "min_range",
                1
            ],
            [
                "max_range",
                1
            ],
            [
                "event_on_hit",
                "Global Ability_Natural_Born_Captain"
            ],
            [
                "spell",
                null
            ],
            [
                "item_tags",
                [
                    "AbilityItem"
                ]
            ]
        ]
    }
]