[
    {
        "nid": "No_Double_Override",
        "name": "No Double Override",
        "desc": "",
        "icon_nid": "Skills",
        "icon_index": [
            0,
            0
        ],
        "components": [
            [
                "no_double",
                null
            ]
        ]
    }
]