[
    {
        "nid": "NoktNinjaScroll",
        "name": "Ninja Scroll",
        "desc": "Describes Nokt's items and abilities.\n<red>Stance - Snake</> <red>Stance - Tiger</>\n<red>Stance - Bear</>\n<red>Jutsu - Shower</> <red>Jutsu - Mirage</>\n<red>Jutsu - Leafblade</> <red>Jutsu - Icewind</>\nCan also be consumed to\nraise Skill by 2 points.",
        "icon_nid": "Nokt Icons ltinsert",
        "icon_index": [
            7,
            0
        ],
        "components": [
            [
                "usable",
                null
            ],
            [
                "target_ally",
                null
            ],
            [
                "uses",
                1
            ],
            [
                "uses_options",
                {
                    "lose_uses_on_miss": false,
                    "one_loss_per_combat": false
                }
            ],
            [
                "permanent_stat_change",
                [
                    [
                        "SKL",
                        2
                    ]
                ]
            ],
            [
                "usable_in_base",
                null
            ],
            [
                "accessory",
                null
            ]
        ]
    }
]