[
    {
        "nid": "Oculi_Ring",
        "name": "Oculi Ring",
        "desc": "<indigo>Accessory</>\nAll stats, including MOV, +2.\nWhen attacking a foe, heal all allies within 3 spaces for half the damage dealt.",
        "icon_nid": "xvi icons ltinsert",
        "icon_index": [
            11,
            10
        ],
        "components": [
            [
                "accessory",
                null
            ],
            [
                "status_on_hold",
                "Oculi_Ring_Effect"
            ]
        ]
    }
]