[
    {
        "nid": "Ocular_Ray",
        "name": "Ocular Ray",
        "desc": "Can only fire in cardinal directions. Strikes all foes in a line AoE.\nCannot be countered, equipped, nor be stolen.\nDeals magical damage.",
        "icon_nid": "Neutral",
        "icon_index": [
            0,
            14
        ],
        "components": [
            [
                "weapon",
                null
            ],
            [
                "target_enemy",
                null
            ],
            [
                "min_range",
                1
            ],
            [
                "max_range",
                99
            ],
            [
                "damage",
                15
            ],
            [
                "hit",
                95
            ],
            [
                "crit",
                0
            ],
            [
                "weight",
                10
            ],
            [
                "no_equip",
                null
            ],
            [
                "cannot_be_countered",
                null
            ],
            [
                "unstealable",
                null
            ],
            [
                "eval_special_range",
                "x == 0 or y == 0"
            ],
            [
                "enemy_line_aoe",
                null
            ]
        ]
    }
]