[
    {
        "nid": "Ol_Reliables",
        "name": "<red>Ol' Reliables</>",
        "desc": "Multi-Item:\n<red>Shoulder Check</>\n<red>Tony's Fire</>\n<red>Tony's Miasma</>\n<red>Tony's Slasher</>",
        "icon_nid": "All_Skills",
        "icon_index": [
            13,
            45
        ],
        "components": [
            [
                "multi_item_hides_unavailable",
                null
            ],
            [
                "multi_item",
                [
                    "Shoulder_Check",
                    "Tony_Fire",
                    "Tony_Miasma",
                    "Tony_Slasher"
                ]
            ],
            [
                "item_tags",
                [
                    "AbilityItem"
                ]
            ]
        ]
    }
]