[
    {
        "nid": "Omni_Effective_Override",
        "name": "Omni Effective Override",
        "desc": "",
        "icon_nid": "Skills",
        "icon_index": [
            0,
            0
        ],
        "components": [
            [
                "effective_damage",
                {
                    "effective_tags": [
                        "Infantry",
                        "Mounted",
                        "Dragon",
                        "Flying",
                        "Monster",
                        "Beast",
                        "Horse",
                        "Armor",
                        "Magical",
                        "Wyvern"
                    ],
                    "effective_multiplier": 3,
                    "effective_bonus_damage": 0,
                    "show_effectiveness_flash": true
                }
            ]
        ]
    }
]