[
    {
        "nid": "One",
        "name": "One",
        "desc": "Sets every non-boss unit on\nthe field to 1 HP.",
        "icon_nid": "LTSkillIconSheet",
        "icon_index": [
            5,
            48
        ],
        "components": [
            [
                "spell",
                null
            ],
            [
                "target_ally",
                null
            ],
            [
                "event_after_combat_on_hit",
                "Global Ability_One"
            ],
            [
                "item_tags",
                [
                    "AbilityItem"
                ]
            ]
        ]
    }
]