[
    {
        "nid": "Paper_Charm",
        "name": "Paper Charm",
        "desc": "Grants self <blue>provoke</>\nand reflect all damage\nfor one turn.",
        "icon_nid": "LTSkillIconSheet",
        "icon_index": [
            4,
            49
        ],
        "components": [
            [
                "spell",
                null
            ],
            [
                "target_ally",
                null
            ],
            [
                "status_on_hit",
                "Paper_Charm_A"
            ],
            [
                "item_tags",
                [
                    "AbilityItem"
                ]
            ]
        ]
    }
]