[
    {
        "nid": "Pearl_Earring",
        "name": "Pearl Earring",
        "desc": "<indigo>Accessory</>\nHolder can swap positions with the bearer of the <indigo>Onyx Earring</> as a free action.",
        "icon_nid": "tactics_ogre",
        "icon_index": [
            15,
            12
        ],
        "components": [
            [
                "accessory",
                null
            ],
            [
                "status_on_hold",
                "Earring_Swap"
            ]
        ]
    }
]