[
    {
        "nid": "Persecution",
        "name": "Persecution",
        "desc": "Lichtschlaia only.\nInflicts <brown>Frozen</> on hit after combat.",
        "icon_nid": "Beansy_Dark",
        "icon_index": [
            15,
            0
        ],
        "components": [
            [
                "weapon",
                null
            ],
            [
                "target_enemy",
                null
            ],
            [
                "min_range",
                2
            ],
            [
                "max_range",
                2
            ],
            [
                "damage",
                7
            ],
            [
                "hit",
                70
            ],
            [
                "crit",
                10
            ],
            [
                "weight",
                9
            ],
            [
                "weapon_type",
                "Dark"
            ],
            [
                "map_hit_add_blend",
                [
                    72,
                    0,
                    65
                ]
            ],
            [
                "magic",
                null
            ],
            [
                "prf_unit",
                [
                    "Lichtschlaia"
                ]
            ],
            [
                "status_after_combat_on_hit",
                "Frozen"
            ]
        ]
    }
]