[
    {
        "nid": "PiercingBolt",
        "name": "Piercing Bolt",
        "desc": "AoE Line. Can only attack in cardinal directions.\nCannot perform follow-up attacks.",
        "icon_nid": "gabrielknightcrossbows",
        "icon_index": [
            0,
            5
        ],
        "components": [
            [
                "weapon",
                null
            ],
            [
                "target_enemy",
                null
            ],
            [
                "min_range",
                1
            ],
            [
                "max_range",
                3
            ],
            [
                "damage",
                10
            ],
            [
                "hit",
                80
            ],
            [
                "crit",
                0
            ],
            [
                "weight",
                20
            ],
            [
                "weapon_type",
                "Bow"
            ],
            [
                "effective_damage",
                {
                    "effective_tags": [
                        "Flying"
                    ],
                    "effective_multiplier": 3,
                    "effective_bonus_damage": 0,
                    "show_effectiveness_flash": true
                }
            ],
            [
                "prf_unit",
                [
                    "Puquewrf"
                ]
            ],
            [
                "c_uses",
                2
            ],
            [
                "uses_options",
                {
                    "lose_uses_on_miss": false,
                    "one_loss_per_combat": true
                }
            ],
            [
                "cannot_counter",
                null
            ],
            [
                "eval_special_range",
                "x == 0 or y == 0"
            ],
            [
                "enemy_line_aoe",
                null
            ],
            [
                "no_double",
                null
            ]
        ]
    }
]