[
    {
        "nid": "Powered_Core",
        "name": "Powered Core",
        "desc": "<indigo>Accessory</>.\nA potent energy reserve favored by\nmechanized units and their summoners.",
        "icon_nid": "tactics_ogre",
        "icon_index": [
            14,
            0
        ],
        "components": [
            [
                "accessory",
                null
            ],
            [
                "status_on_hold",
                "Powered_Core"
            ]
        ]
    }
]