[
    {
        "nid": "Predation",
        "name": "Predation",
        "desc": "Desia only. Magical.\n+5 damage if foe has an <brown>Ailment</>.",
        "icon_nid": "Neutral",
        "icon_index": [
            0,
            11
        ],
        "components": [
            [
                "weapon",
                null
            ],
            [
                "target_enemy",
                null
            ],
            [
                "value",
                0
            ],
            [
                "damage",
                8
            ],
            [
                "hit",
                80
            ],
            [
                "crit",
                0
            ],
            [
                "min_range",
                1
            ],
            [
                "max_range",
                1
            ],
            [
                "transform",
                null
            ],
            [
                "weapon_type",
                "Stone"
            ],
            [
                "weight",
                11
            ],
            [
                "prf_unit",
                [
                    "Desia"
                ]
            ],
            [
                "multi_status_on_equip",
                [
                    "Predation_Child"
                ]
            ],
            [
                "magic",
                null
            ]
        ]
    }
]