[
    {
        "nid": "Rainfall",
        "name": "Rainfall",
        "desc": "Spends all stacks of <blue>Convergeance</> to cleanse <brown>ailments</> and increase Max HP for allies in range.\nEvery 2 stacks of <blue>Convergeance</> increases the AoE of this ability, as well as the strength of the buff.",
        "icon_nid": "All_Skills",
        "icon_index": [
            7,
            44
        ],
        "components": [
            [
                "spell",
                null
            ],
            [
                "item_tags",
                [
                    "AbilityItem"
                ]
            ],
            [
                "eval_ally_blast_aoe",
                "max(1, len([s for s in unit.skills if s.nid == 'Convergeance']) // 2)"
            ],
            [
                "target_tile",
                null
            ],
            [
                "min_range",
                0
            ],
            [
                "max_range",
                0
            ],
            [
                "self_remove_skill",
                "Convergeance"
            ],
            [
                "eval_available",
                "has_skill(unit, 'Convergeance')"
            ],
            [
                "restore_no_target_restrict",
                null
            ],
            [
                "event_on_hit",
                "Global Ability_Rainfall"
            ]
        ]
    }
]