[
    {
        "nid": "Ray",
        "name": "Ray",
        "desc": "Cannot perform follow-up attacks.",
        "icon_nid": "{LordGlenn} All Icons LordGlenn Pack 1",
        "icon_index": [
            0,
            6
        ],
        "components": [
            [
                "weapon",
                null
            ],
            [
                "target_enemy",
                null
            ],
            [
                "damage",
                12
            ],
            [
                "hit",
                80
            ],
            [
                "weapon_type",
                "Light"
            ],
            [
                "weapon_rank",
                "C"
            ],
            [
                "magic",
                null
            ],
            [
                "weight",
                8
            ],
            [
                "crit",
                0
            ],
            [
                "value",
                300
            ],
            [
                "min_range",
                3
            ],
            [
                "max_range",
                3
            ],
            [
                "map_hit_add_blend",
                [
                    255,
                    255,
                    0
                ]
            ],
            [
                "no_double",
                null
            ]
        ]
    }
]