[
    {
        "nid": "Rescue_Card",
        "name": "Rescue Card",
        "desc": "Bring an ally to a space adjacent to the user. Range 7.",
        "icon_nid": "{Maxim} Amulet 1",
        "icon_index": [
            0,
            0
        ],
        "components": [
            [
                "uses",
                3
            ],
            [
                "uses_options",
                {
                    "lose_uses_on_miss": false,
                    "one_loss_per_combat": false
                }
            ],
            [
                "value",
                200
            ],
            [
                "sequence_item",
                [
                    "Rescue_Card_1",
                    "Rescue2"
                ]
            ],
            [
                "no_ai",
                null
            ],
            [
                "min_range",
                1
            ],
            [
                "max_range",
                7
            ],
            [
                "target_tile",
                null
            ],
            [
                "usable",
                null
            ]
        ]
    }
]