[
    {
        "nid": "Resonance",
        "name": "Resonance",
        "desc": "Shears only. AoE 3. Deals 1 <green>True Damage</>. <green>Free Action</>. Does not grant <blue>Analysis</>.\nNo crit, double, <green>multi</>. Ignores WTA. <green>Restock</> 3. <green>Cooldown</> 1.",
        "icon_nid": "{LordGlenn} All Icons LordGlenn Pack 1",
        "icon_index": [
            16,
            5
        ],
        "components": [
            [
                "weapon",
                null
            ],
            [
                "magic",
                null
            ],
            [
                "damage",
                1
            ],
            [
                "hit",
                125
            ],
            [
                "weight",
                12
            ],
            [
                "weapon_type",
                "Anima"
            ],
            [
                "map_hit_add_blend",
                [
                    0,
                    216,
                    79
                ]
            ],
            [
                "min_range",
                0
            ],
            [
                "max_range",
                0
            ],
            [
                "enemy_blast_aoe",
                3
            ],
            [
                "target_tile",
                null
            ],
            [
                "c_uses",
                3
            ],
            [
                "uses_options",
                {
                    "lose_uses_on_miss": false,
                    "one_loss_per_combat": true
                }
            ],
            [
                "custom_triangle_multiplier",
                0.0
            ],
            [
                "alternate_damage_formula",
                "ZERO"
            ],
            [
                "alternate_resist_formula",
                "ZERO"
            ],
            [
                "cooldown",
                1
            ],
            [
                "no_double",
                null
            ],
            [
                "attack_after_combat",
                null
            ],
            [
                "no_equip",
                null
            ],
            [
                "item_tags",
                [
                    "TrueDamage",
                    "NoMulti"
                ]
            ],
            [
                "prf_unit",
                [
                    "Shears"
                ]
            ],
            [
                "status_on_hold",
                "Resonance_Protection"
            ]
        ]
    }
]