[
    {
        "nid": "Ribbon",
        "name": "Ribbon",
        "desc": "<indigo>Accessory</>.\nIf Female, unit ignores all <brown>Ailments</>.\nOtherwise, LCK +5.",
        "icon_nid": "tactics_ogre",
        "icon_index": [
            14,
            11
        ],
        "components": [
            [
                "accessory",
                null
            ],
            [
                "value",
                300
            ],
            [
                "multi_status_on_hold",
                [
                    "Ribbon_Female",
                    "Ribbon_Other"
                ]
            ]
        ]
    }
]