[
    {
        "nid": "Sapphire_Ring",
        "name": "Sapphire Ring",
        "desc": "<indigo>Accessory</>\nOn the first turn of combat, heal 10% HP.",
        "icon_nid": "Boosters",
        "icon_index": [
            0,
            13
        ],
        "components": [
            [
                "accessory",
                null
            ],
            [
                "status_on_hold",
                "Sapphire_Ring"
            ]
        ]
    }
]