[
    {
        "nid": "Save_the_Queen_1",
        "name": "Save the Queen",
        "desc": "Moves an ally within 5 spaces to a tile within 3 spaces.",
        "icon_nid": "Skills",
        "icon_index": [
            7,
            7
        ],
        "components": [
            [
                "spell",
                null
            ],
            [
                "target_ally",
                null
            ],
            [
                "magic",
                null
            ],
            [
                "min_range",
                1
            ],
            [
                "store_unit",
                null
            ],
            [
                "max_range",
                5
            ],
            [
                "item_tags",
                [
                    "AbilityItem"
                ]
            ]
        ]
    }
]