[
    {
        "nid": "Scorch",
        "name": "Scorch",
        "desc": "",
        "icon_nid": "{LordGlenn} All Icons LordGlenn Pack 1",
        "icon_index": [
            6,
            5
        ],
        "components": [
            [
                "weapon",
                null
            ],
            [
                "target_enemy",
                null
            ],
            [
                "min_range",
                1
            ],
            [
                "max_range",
                1
            ],
            [
                "damage",
                12
            ],
            [
                "hit",
                80
            ],
            [
                "crit",
                0
            ],
            [
                "weight",
                8
            ],
            [
                "weapon_type",
                "Anima"
            ],
            [
                "weapon_rank",
                "B"
            ],
            [
                "map_hit_add_blend",
                [
                    255,
                    85,
                    0
                ]
            ],
            [
                "magic",
                null
            ],
            [
                "value",
                400
            ],
            [
                "item_tags",
                [
                    "Fire"
                ]
            ]
        ]
    }
]