[
    {
        "nid": "Secret_Book_Plus",
        "name": "Secret Book+",
        "desc": "Permanently raises Skill by 3 points.",
        "icon_nid": "Boosters",
        "icon_index": [
            0,
            2
        ],
        "components": [
            [
                "usable",
                null
            ],
            [
                "target_ally",
                null
            ],
            [
                "uses",
                1
            ],
            [
                "uses_options",
                {
                    "lose_uses_on_miss": false,
                    "one_loss_per_combat": false
                }
            ],
            [
                "permanent_stat_change",
                [
                    [
                        "SKL",
                        3
                    ]
                ]
            ],
            [
                "usable_in_base",
                null
            ],
            [
                "value",
                400
            ]
        ]
    }
]