[
    {
        "nid": "Seven_Set",
        "name": "Seven Set",
        "desc": "Lowers target unit's HP to the nearest multiple of 7.\n<green>Free Action</>. This is considered <green>Non-Combat Damage</>.",
        "icon_nid": "LTSkillIconSheet",
        "icon_index": [
            3,
            8
        ],
        "components": [
            [
                "spell",
                null
            ],
            [
                "item_tags",
                [
                    "AbilityItem"
                ]
            ],
            [
                "target_unit",
                null
            ],
            [
                "min_range",
                0
            ],
            [
                "global_range",
                null
            ],
            [
                "attack_after_combat",
                null
            ],
            [
                "event_on_hit",
                "Global Ability_Seven_Set"
            ],
            [
                "eval_target_restrict_2",
                "target.get_hp() > 7"
            ]
        ]
    }
]