[
    {
        "nid": "Sharpshooter",
        "name": "Sharpshooter",
        "desc": "<green>Free Action</>\nActivates <blue>Sharpshooter Stance</>.",
        "icon_nid": "LTSkillIconSheet",
        "icon_index": [
            0,
            28
        ],
        "components": [
            [
                "spell",
                null
            ],
            [
                "target_ally",
                null
            ],
            [
                "item_tags",
                [
                    "AbilityItem"
                ]
            ],
            [
                "attack_after_combat",
                null
            ],
            [
                "self_status_on_hit",
                "Sharpshooter_Stance"
            ],
            [
                "eval_available",
                "not has_skill(unit, 'Sharpshooter_Stance')"
            ]
        ]
    }
]