[
    {
        "nid": "Sharks_Arts",
        "name": "<red>Shark's Arts</>",
        "desc": "",
        "icon_nid": "LTSkillIconSheet",
        "icon_index": [
            5,
            42
        ],
        "components": [
            [
                "multi_item_hides_unavailable",
                null
            ],
            [
                "multi_item",
                [
                    "Haymaker",
                    "RightHook",
                    "Suplex",
                    "Roundhouse"
                ]
            ],
            [
                "item_tags",
                [
                    "AbilityItem",
                    "Martial_Art"
                ]
            ]
        ]
    }
]