[
    {
        "nid": "Sheep_AoE_Override",
        "name": "Sheep AoE Override",
        "desc": "",
        "icon_nid": "Skills",
        "icon_index": [
            0,
            0
        ],
        "components": [
            [
                "enemy_blast_aoe",
                2
            ],
            [
                "eval_target_restrict_2",
                "'Boss' not in unit2.tags"
            ]
        ]
    }
]