[
    {
        "nid": "Short_Spear",
        "name": "Short Spear",
        "desc": "",
        "icon_nid": "Lance",
        "icon_index": [
            0,
            16
        ],
        "components": [
            [
                "weapon",
                null
            ],
            [
                "target_enemy",
                null
            ],
            [
                "damage",
                9
            ],
            [
                "hit",
                60
            ],
            [
                "weapon_type",
                "Lance"
            ],
            [
                "weapon_rank",
                "C"
            ],
            [
                "weight",
                12
            ],
            [
                "crit",
                0
            ],
            [
                "value",
                300
            ],
            [
                "min_range",
                2
            ],
            [
                "max_range",
                2
            ]
        ]
    }
]