[
    {
        "nid": "Skyflow_Bullet_Plus",
        "name": "Skyflow Bullet+",
        "desc": "Spend one stack of <blue>Convergeance</> to strike an adjacent enemy (6 MT, Magical)\nIf a Wind ally is within 2 spaces, the attack gains +1 Max Range.\nIf a Water ally is within 2 spaces, the attack gains damage equal to 25% of unit's Max HP.",
        "icon_nid": "All_Skills",
        "icon_index": [
            4,
            18
        ],
        "components": [
            [
                "weapon",
                null
            ],
            [
                "magic",
                null
            ],
            [
                "item_tags",
                [
                    "AbilityItem"
                ]
            ],
            [
                "stack_cost",
                "Convergeance"
            ],
            [
                "min_range",
                1
            ],
            [
                "eval_max_range",
                "2 if any([u.affinity == 'Wind' or any([s.has_affinities and 'Wind' in s.has_affinities.value for s in u.skills]) for u in get_allies_within_distance(unit.position, 2) if u.nid != unit.nid]) else 1"
            ],
            [
                "eval_damage",
                "10 + (unit.get_max_hp() // 4) if any([u.affinity == 'Water' or any([s.has_affinities and 'Water' in s.has_affinities.value for s in u.skills]) for u in get_allies_within_distance(unit.position, 2) if u.nid != unit.nid]) else 10"
            ],
            [
                "target_enemy",
                null
            ],
            [
                "no_double",
                null
            ]
        ]
    }
]