[
    {
        "nid": "Slither_Through",
        "name": "Slither Through",
        "desc": "Activated. Move to a tile 3 tiles away in a straight line. <green>Free Action</>.",
        "icon_nid": "ZessDynamiteSkillsys",
        "icon_index": [
            7,
            24
        ],
        "components": [
            [
                "spell",
                null
            ],
            [
                "no_ai",
                null
            ],
            [
                "min_range",
                3
            ],
            [
                "max_range",
                3
            ],
            [
                "target_tile",
                null
            ],
            [
                "eval_special_range",
                "x == 0 or y == 0"
            ],
            [
                "empty_tile_target_restrict",
                null
            ],
            [
                "attack_after_combat",
                null
            ],
            [
                "event_on_hit",
                "Global Ability_Warp"
            ],
            [
                "eval_target_restrict_2",
                "movement_funcs.check_weakly_traversable(unit, target_pos)"
            ],
            [
                "item_tags",
                [
                    "AbilityItem"
                ]
            ]
        ]
    }
]