[
    {
        "nid": "SMG",
        "name": "SMG",
        "desc": "<green>Brave</>. Inflicts <green>True Damage</>.\n<green>Cooldown 2</>.\nCan be used by any unit.",
        "icon_nid": "Ryan914_Collection",
        "icon_index": [
            21,
            0
        ],
        "components": [
            [
                "weapon",
                null
            ],
            [
                "value",
                400
            ],
            [
                "target_enemy",
                null
            ],
            [
                "min_range",
                2
            ],
            [
                "max_range",
                2
            ],
            [
                "damage",
                6
            ],
            [
                "hit",
                85
            ],
            [
                "crit",
                0
            ],
            [
                "weight",
                6
            ],
            [
                "alternate_damage_formula",
                "ZERO"
            ],
            [
                "alternate_resist_formula",
                "ZERO"
            ],
            [
                "item_tags",
                [
                    "TrueDamage",
                    "Gun"
                ]
            ],
            [
                "cooldown",
                2
            ],
            [
                "brave_on_attack",
                null
            ]
        ]
    }
]