[
    {
        "nid": "Smith_Sack",
        "name": "Smith's Sack",
        "desc": "A sack of weapons. Contents may vary.",
        "icon_nid": "Consumable",
        "icon_index": [
            0,
            2
        ],
        "components": [
            [
                "locked",
                null
            ],
            [
                "multi_item",
                []
            ]
        ]
    }
]