[
    {
        "nid": "Soot_Satchel",
        "name": "Soot Satchel",
        "desc": "<indigo>Accessory</>.\nAfter <green>initiated</> combat, if a hit was landed, inflicts <brown>Burning</> on the target.",
        "icon_nid": "tactics_ogre",
        "icon_index": [
            10,
            15
        ],
        "components": [
            [
                "status_on_hold",
                "Burning_Strikes"
            ],
            [
                "accessory",
                null
            ],
            [
                "value",
                200
            ]
        ]
    }
]