[
    {
        "nid": "Spirited_Exsanguination",
        "name": "Exsanguination",
        "desc": "Unit can spend 10 HP/50% current HP (whichever's highest) to gain 2 stacks of <blue>Spectral Beacon</>.",
        "icon_nid": "LTSkillIconSheet",
        "icon_index": [
            5,
            48
        ],
        "components": [
            [
                "spell",
                null
            ],
            [
                "target_unit",
                null
            ],
            [
                "min_range",
                0
            ],
            [
                "max_range",
                0
            ],
            [
                "eval_hp_cost",
                "max(10, unit.get_hp() // 2)"
            ],
            [
                "event_on_hit",
                "Global Ability_Spirited_Exsanguination"
            ],
            [
                "item_tags",
                [
                    "AbilityItem"
                ]
            ]
        ]
    }
]