[
    {
        "nid": "Sprint_1",
        "name": "Sprint",
        "desc": "",
        "icon_nid": "LTSkillIconSheet",
        "icon_index": [
            0,
            33
        ],
        "components": [
            [
                "min_range",
                0
            ],
            [
                "max_range",
                0
            ],
            [
                "store_unit",
                null
            ],
            [
                "target_ally",
                null
            ],
            [
                "attack_after_combat",
                null
            ],
            [
                "spell",
                null
            ],
            [
                "item_tags",
                [
                    "AbilityItem"
                ]
            ]
        ]
    }
]