[
    {
        "nid": "Steal_Plus",
        "name": "Steal+",
        "desc": "Steal unequipped weapons, items, and accessories from enemies.\nUnit's CON must exceed item's weight.",
        "icon_nid": "Skills",
        "icon_index": [
            7,
            10
        ],
        "components": [
            [
                "min_range",
                1
            ],
            [
                "max_range",
                1
            ],
            [
                "target_enemy",
                null
            ],
            [
                "steal_con",
                null
            ],
            [
                "spell",
                null
            ],
            [
                "item_tags",
                [
                    "Steal",
                    "AbilityItem"
                ]
            ]
        ]
    }
]