[
    {
        "nid": "Steel_Bow",
        "name": "Steel Bow",
        "desc": "",
        "icon_nid": "Bow",
        "icon_index": [
            0,
            1
        ],
        "components": [
            [
                "weapon",
                null
            ],
            [
                "target_enemy",
                null
            ],
            [
                "damage",
                9
            ],
            [
                "hit",
                70
            ],
            [
                "weapon_type",
                "Bow"
            ],
            [
                "weapon_rank",
                "D"
            ],
            [
                "weight",
                9
            ],
            [
                "crit",
                0
            ],
            [
                "value",
                200
            ],
            [
                "min_range",
                2
            ],
            [
                "max_range",
                2
            ],
            [
                "effective_damage",
                {
                    "effective_tags": [
                        "Flying"
                    ],
                    "effective_multiplier": 3,
                    "effective_bonus_damage": 0,
                    "show_effectiveness_flash": true
                }
            ]
        ]
    }
]