[
    {
        "nid": "Storm_Restore",
        "name": "Restore",
        "desc": "Removes most <brown>Ailments</>.\n<green>Restock</>.",
        "icon_nid": "Staff",
        "icon_index": [
            0,
            5
        ],
        "components": [
            [
                "spell",
                null
            ],
            [
                "target_ally",
                null
            ],
            [
                "magic",
                null
            ],
            [
                "value",
                300
            ],
            [
                "min_range",
                1
            ],
            [
                "max_range",
                1
            ],
            [
                "restore",
                null
            ],
            [
                "c_uses",
                2
            ],
            [
                "uses_options",
                {
                    "lose_uses_on_miss": false,
                    "one_loss_per_combat": false
                }
            ],
            [
                "ally_blast_aoe",
                1
            ]
        ]
    }
]