[
    {
        "nid": "Sunflare_Bangle",
        "name": "Sunflare Bangle",
        "desc": "Grants <blue>Sunflare Shield</> to one ally.\n<green>Cooldown 1</>.\nCannot be stolen.",
        "icon_nid": "vanilla_items",
        "icon_index": [
            48,
            0
        ],
        "components": [
            [
                "spell",
                null
            ],
            [
                "target_ally",
                null
            ],
            [
                "min_range",
                1
            ],
            [
                "global_range",
                null
            ],
            [
                "unstealable",
                null
            ],
            [
                "buff_ally",
                "Sunflare_Shield"
            ],
            [
                "cooldown",
                1
            ],
            [
                "eval_target_restrict_2",
                "has_skill(target, 'Sunflare_Gift')"
            ],
            [
                "event_after_combat_even_miss",
                "Global Item_Solfrid_Bangles"
            ]
        ]
    }
]