[
    {
        "nid": "Swap",
        "name": "Swap",
        "desc": "Switch places with the target.",
        "icon_nid": "LTSkillIconSheet",
        "icon_index": [
            1,
            36
        ],
        "components": [
            [
                "target_unit",
                null
            ],
            [
                "min_range",
                1
            ],
            [
                "max_range",
                1
            ],
            [
                "eval_target_restrict_2",
                "'Tile' not in target.tags"
            ],
            [
                "swap",
                null
            ],
            [
                "spell",
                null
            ],
            [
                "item_tags",
                [
                    "AbilityItem"
                ]
            ]
        ]
    }
]