[
    {
        "nid": "Swap_with_Friends",
        "name": "Swap with Friends",
        "desc": "<green>Free Action</>\nSwap places with target <blue>Friended</> unit.\nThen, <green>refresh</> target's turn.",
        "icon_nid": "BernIcons",
        "icon_index": [
            1,
            0
        ],
        "components": [
            [
                "swap_on_end_combat",
                null
            ],
            [
                "spell",
                null
            ],
            [
                "eval_target_restrict_2",
                "has_skill(target,'Friended') and target.nid != unit.nid"
            ],
            [
                "global_range",
                null
            ],
            [
                "min_range",
                1
            ],
            [
                "attack_after_combat",
                null
            ],
            [
                "target_ally",
                null
            ],
            [
                "item_tags",
                [
                    "AbilityItem"
                ]
            ],
            [
                "refresh_no_target_restrict",
                null
            ]
        ]
    }
]