[
    {
        "nid": "Thief",
        "name": "Thief",
        "desc": "Steal items from enemies.\nCON must equal or exceed item's weight.",
        "icon_nid": "Staff",
        "icon_index": [
            0,
            12
        ],
        "components": [
            [
                "spell",
                null
            ],
            [
                "value",
                300
            ],
            [
                "min_range",
                1
            ],
            [
                "max_range",
                5
            ],
            [
                "weapon_type",
                "Staff"
            ],
            [
                "weapon_rank",
                "C"
            ],
            [
                "uses",
                3
            ],
            [
                "uses_options",
                {
                    "lose_uses_on_miss": false,
                    "one_loss_per_combat": false
                }
            ],
            [
                "map_hit_add_blend",
                [
                    255,
                    238,
                    238
                ]
            ],
            [
                "target_enemy",
                null
            ],
            [
                "steal_con",
                null
            ],
            [
                "magic",
                null
            ]
        ]
    }
]