[
    {
        "nid": "Three_Range_Override",
        "name": "3 Range Override",
        "desc": "",
        "icon_nid": "Skills",
        "icon_index": [
            0,
            0
        ],
        "components": [
            [
                "min_range",
                3
            ],
            [
                "max_range",
                3
            ]
        ]
    }
]