[
    {
        "nid": "Tianlong_Jian_1",
        "name": "Tianlong Jian",
        "desc": "Thyra only.\n1 range. Upon completing an Act, gain +2 mt/+5 hit.",
        "icon_nid": "tianlong_1",
        "icon_index": [
            0,
            0
        ],
        "components": [
            [
                "weapon",
                null
            ],
            [
                "target_enemy",
                null
            ],
            [
                "min_range",
                1
            ],
            [
                "max_range",
                1
            ],
            [
                "damage",
                10
            ],
            [
                "hit",
                65
            ],
            [
                "crit",
                15
            ],
            [
                "weight",
                18
            ],
            [
                "weapon_type",
                "Sword"
            ],
            [
                "eval_available",
                "unit.nid == 'Thyra'"
            ]
        ]
    }
]