[
    {
        "nid": "Together",
        "name": "Together",
        "desc": "Both Gemini will have their Max HP reduced by 5.\nSummons the other Gemini to remain on the field.",
        "icon_nid": "LTSkillIconSheet",
        "icon_index": [
            4,
            44
        ],
        "components": [
            [
                "target_tile",
                null
            ],
            [
                "empty_tile_target_restrict",
                null
            ],
            [
                "min_range",
                1
            ],
            [
                "max_range",
                1
            ],
            [
                "event_on_hit",
                "Global Ability_Together"
            ],
            [
                "spell",
                null
            ],
            [
                "item_tags",
                [
                    "AbilityItem"
                ]
            ]
        ]
    }
]