[
    {
        "nid": "Torch",
        "name": "Torch",
        "desc": "Increases user's sight range in fog of war by 5 for 5 turns.",
        "icon_nid": "Consumable",
        "icon_index": [
            0,
            11
        ],
        "components": [
            [
                "value",
                200
            ],
            [
                "uses",
                5
            ],
            [
                "uses_options",
                {
                    "lose_uses_on_miss": false,
                    "one_loss_per_combat": true
                }
            ],
            [
                "target_ally",
                null
            ],
            [
                "usable",
                null
            ],
            [
                "usable_in_base",
                null
            ],
            [
                "status_on_hit",
                "Vision_Plus"
            ]
        ]
    }
]