[
    {
        "nid": "Tornado_Blow",
        "name": "Tornado Blow",
        "desc": "Push an adjacent foe until they collide with an obstacle.",
        "icon_nid": "All_Skills",
        "icon_index": [
            3,
            20
        ],
        "components": [
            [
                "target_enemy",
                null
            ],
            [
                "min_range",
                1
            ],
            [
                "max_range",
                1
            ],
            [
                "eval_target_restrict_2",
                "'Tile' not in target.tags"
            ],
            [
                "spell",
                null
            ],
            [
                "item_tags",
                [
                    "AbilityItem"
                ]
            ],
            [
                "shove_flexible_on_end_combat_initiate",
                99
            ]
        ]
    }
]