[
    {
        "nid": "TrainingManual",
        "name": "Training Manual",
        "desc": "Gives the user 25 EXP.\nUnaffected by bonuses to EXP gain.",
        "icon_nid": "zarg icons ltinsert",
        "icon_index": [
            9,
            8
        ],
        "components": [
            [
                "usable",
                null
            ],
            [
                "value",
                350
            ],
            [
                "target_ally",
                null
            ],
            [
                "uses",
                3
            ],
            [
                "uses_options",
                {
                    "lose_uses_on_miss": false,
                    "one_loss_per_combat": false
                }
            ],
            [
                "usable_in_base",
                null
            ],
            [
                "event_on_hit",
                "Global Item_TrainingManual"
            ]
        ]
    }
]