[
    {
        "nid": "TRIANGLE",
        "name": "T.R.I.A.N.G.L.E.",
        "desc": "Targeted Resonating Implosion Artillery\nNegating Guard and Luck Efficiency\nCombines STR+MAG, targets the\nweaker of the foe's defenses.\nBlasts through critical prevention.",
        "icon_nid": "LTSkillIconSheet",
        "icon_index": [
            1,
            49
        ],
        "components": [
            [
                "weapon",
                null
            ],
            [
                "no_equip",
                null
            ],
            [
                "target_enemy",
                null
            ],
            [
                "min_range",
                3
            ],
            [
                "max_range",
                5
            ],
            [
                "hit",
                100
            ],
            [
                "damage",
                22
            ],
            [
                "crit",
                200
            ],
            [
                "alternate_damage_formula",
                "BOTH_DAMAGE"
            ],
            [
                "alternate_resist_formula",
                "WORSE_DEFENSE"
            ],
            [
                "eval_target_restrict_2",
                "len([u for u in get_units_within_distance(unit2) if u.get_field('Summoner') == unit.nid and u.klass == 'Drone']) >= 3"
            ],
            [
                "item_tags",
                [
                    "AbilityItem"
                ]
            ]
        ]
    }
]