[
    {
        "nid": "Twister_Hold",
        "name": "Twister Hold",
        "desc": "<brown>Freeze</> an enemy within 3 spaces.",
        "icon_nid": "All_Skills",
        "icon_index": [
            1,
            35
        ],
        "components": [
            [
                "target_enemy",
                null
            ],
            [
                "spell",
                null
            ],
            [
                "status_on_hit",
                "Frozen"
            ],
            [
                "min_range",
                1
            ],
            [
                "max_range",
                3
            ],
            [
                "item_tags",
                [
                    "AbilityItem"
                ]
            ]
        ]
    }
]