[
    {
        "nid": "Tyrant_Execution",
        "name": "Tyrant's Execution",
        "desc": "Tyrant Skill. <green>Free Action</>.\nDeal 999 damage to foe with 50% or less HP remaining within 5 spaces.",
        "icon_nid": "All_Skills",
        "icon_index": [
            10,
            37
        ],
        "components": [
            [
                "target_enemy",
                null
            ],
            [
                "min_range",
                1
            ],
            [
                "max_range",
                5
            ],
            [
                "item_tags",
                [
                    "AbilityItem"
                ]
            ],
            [
                "spell",
                null
            ],
            [
                "eval_target_restrict_2",
                "target.get_hp() <= (target.get_max_hp() // 2)"
            ],
            [
                "attack_after_combat",
                null
            ],
            [
                "damage",
                999
            ]
        ]
    }
]