[
    {
        "nid": "Ugne_Lance",
        "name": "Ugne's Lance",
        "desc": "Ugne only.\nUsable regardless of weapon rank.",
        "icon_nid": "tactics_ogre",
        "icon_index": [
            3,
            9
        ],
        "components": [
            [
                "weapon",
                null
            ],
            [
                "target_enemy",
                null
            ],
            [
                "min_range",
                1
            ],
            [
                "max_range",
                1
            ],
            [
                "damage",
                9
            ],
            [
                "hit",
                85
            ],
            [
                "crit",
                0
            ],
            [
                "weight",
                7
            ],
            [
                "weapon_type_exempt",
                "Lance"
            ],
            [
                "prf_unit",
                [
                    "Ugne"
                ]
            ]
        ]
    }
]