[
    {
        "nid": "Volleyshot",
        "name": "Volleyshot",
        "desc": "A rain of arrows. AoE 1. Cannot perform follow-up attacks nor counter.\n<green>Restock</>.",
        "icon_nid": "jellyunicorns item icons ltinsert",
        "icon_index": [
            11,
            4
        ],
        "components": [
            [
                "weapon",
                null
            ],
            [
                "value",
                300
            ],
            [
                "target_enemy",
                null
            ],
            [
                "min_range",
                2
            ],
            [
                "max_range",
                2
            ],
            [
                "damage",
                3
            ],
            [
                "hit",
                60
            ],
            [
                "crit",
                0
            ],
            [
                "weight",
                14
            ],
            [
                "weapon_type",
                "Bow"
            ],
            [
                "weapon_rank",
                "C"
            ],
            [
                "effective_damage",
                {
                    "effective_tags": [
                        "Flying"
                    ],
                    "effective_multiplier": 3,
                    "effective_bonus_damage": 0,
                    "show_effectiveness_flash": true
                }
            ],
            [
                "enemy_blast_aoe",
                1
            ],
            [
                "no_double",
                null
            ],
            [
                "cannot_counter",
                null
            ],
            [
                "c_uses",
                3
            ],
            [
                "uses_options",
                {
                    "lose_uses_on_miss": false,
                    "one_loss_per_combat": false
                }
            ]
        ]
    }
]