[
    {
        "nid": "Witch_Cane",
        "name": "Witch's Cane",
        "desc": "Lady Crone only.\nInflicts <brown>Blind (50)</> and <brown>Weaken</> on foes within 4 spaces.\n<green>Restock</>.",
        "icon_nid": "{LordGlenn} All Icons LordGlenn Pack 1",
        "icon_index": [
            11,
            8
        ],
        "components": [
            [
                "spell",
                null
            ],
            [
                "target_tile",
                null
            ],
            [
                "weapon_type",
                "Staff"
            ],
            [
                "magic",
                null
            ],
            [
                "enemy_blast_aoe",
                4
            ],
            [
                "min_range",
                0
            ],
            [
                "max_range",
                0
            ],
            [
                "statuses_after_combat_on_hit",
                [
                    "Blinded",
                    "Weakened"
                ]
            ],
            [
                "c_uses",
                2
            ],
            [
                "uses_options",
                {
                    "lose_uses_on_miss": false,
                    "one_loss_per_combat": false
                }
            ],
            [
                "prf_unit",
                [
                    "Crone"
                ]
            ]
        ]
    }
]