[
    {
        "name": "Reinforcements",
        "trigger": "turn_change",
        "level_nid": "12",
        "condition": "True",
        "commands": [],
        "only_once": false,
        "priority": 20,
        "_source": [
            "if;game.level_vars.get('reins_L', 0) >= 1",
            "inc_level_var;reins_L;1",
            "if;game.level_vars.get('reins_L', 0) % 2 != 0",
            "create_unit;112;Position=0,10;copy_stats",
            "center_cursor;0,10;immediate",
            "flicker_cursor;0,10",
            "end",
            "end",
            "if;game.level_vars.get('reins_R', 0) >= 1",
            "inc_level_var;reins_R;1",
            "if;game.level_vars.get('reins_R', 0) % 2 != 0",
            "create_unit;113_flier;Position=19,11;copy_stats",
            "center_cursor;19,11;immediate",
            "flicker_cursor;19,11",
            "end",
            "end"
        ]
    }
]