[
    {
        "name": "Intro",
        "trigger": "level_start",
        "level_nid": "15",
        "condition": "True",
        "commands": [],
        "only_once": false,
        "priority": 20,
        "_source": [
            "trigger_script;Global Get_Next_Chapter",
            "arrange_formation",
            "prep;t",
            "trigger_script;Global Global_End_Preps",
            "trigger_script;Global Music_Battle_Start"
        ]
    }
]