[
    {
        "name": "Reinforcements",
        "trigger": "turn_change",
        "level_nid": "25",
        "condition": "any_unit_in_region('ReinforcementZone', team='player')",
        "commands": [],
        "only_once": false,
        "priority": 20,
        "_source": [
            "if;game.level_vars.get('reins', 0) != 1",
            "add_group;Reinforcements;Reinforcements;fade;closest",
            "move_cursor;130_flier",
            "flicker_cursor;130_flier",
            "move_cursor;131_flier",
            "flicker_cursor;131_flier",
            "level_var;reins;1",
            "end"
        ]
    }
]