[
    {
        "name": "Rein1",
        "trigger": "turn_change",
        "level_nid": "28",
        "condition": "any_unit_in_region('Rein1', team='player')",
        "commands": [],
        "only_once": false,
        "priority": 20,
        "_source": [
            "if;game.level_vars.get('reins', 0) != 1",
            "add_group;Rein1;Rein1;fade;closest",
            "move_cursor;117",
            "flicker_cursor;117",
            "move_cursor;118",
            "flicker_cursor;118",
            "level_var;reins;1",
            "end",
            "",
            ""
        ]
    }
]