[
    {
        "name": "Intro",
        "trigger": "level_start",
        "level_nid": "31",
        "condition": "True",
        "commands": [],
        "only_once": false,
        "priority": 20,
        "_source": [
            "trigger_script;Global Get_Next_Chapter",
            "arrange_formation",
            "level_var;houses_visited;0",
            "speak;;\u2028Pressing both switches\u2028will summon a bridge\u2028to the throne room.;;;hint;NumLines=3;Width=200",
            "prep;t",
            "trigger_script;Global Global_End_Preps",
            "trigger_script;Global Music_Battle_Start"
        ]
    }
]