[
    {
        "name": "Wall_HP",
        "trigger": "combat_end",
        "level_nid": "35",
        "condition": "'wall' in unit2.nid",
        "commands": [],
        "only_once": false,
        "priority": 20,
        "_source": [
            "if;unit2.nid == 'wall_2'",
            "set_current_hp;wall_3;{e:unit2.get_hp()}",
            "elif;unit2.nid == 'wall_3'",
            "set_current_hp;wall_2;{e:unit2.get_hp()}",
            "end"
        ]
    }
]