[
    {
        "name": "Win_Condition_Alter",
        "trigger": "unit_death",
        "level_nid": "44",
        "condition": "not unit2 and unit.team == 'enemy' or unit.team == 'enemy2'",
        "commands": [],
        "only_once": false,
        "priority": 15,
        "_source": [
            "#To account for poison kills",
            "if;unit.nid == '101' and is_dead('102') and any([s.fatal_damage for s in unit.skills])",
            "    win_game",
            "end",
            "if;unit.nid == '102' and is_dead('101') and any([s.fatal_damage for s in unit.skills])",
            "    win_game",
            "end"
        ]
    }
]