[
    {
        "name": "Loss_Condition",
        "trigger": "unit_death",
        "level_nid": "50",
        "condition": "unit.nid == 'defend'",
        "commands": [],
        "only_once": false,
        "priority": 25,
        "_source": [
            "trigger_script;Global Global_Loss"
        ]
    }
]