[
    {
        "name": "Reinforcements",
        "trigger": "turn_change",
        "level_nid": "50",
        "condition": "True",
        "commands": [],
        "only_once": false,
        "priority": 20,
        "_source": [
            "if;game.turncount == 3",
            "add_group;rein1;rein1;;closest",
            "center_cursor;109;immediate",
            "flicker_cursor;109",
            "center_cursor;110;immediate",
            "flicker_cursor;110",
            "elif;game.turncount == 4",
            "add_group;rein2;rein2;;closest",
            "center_cursor;111;immediate",
            "flicker_cursor;111",
            "center_cursor;112;immediate",
            "flicker_cursor;112",
            "elif;game.turncount == 5",
            "add_group;rein3;rein3;;closest",
            "center_cursor;113;immediate",
            "flicker_cursor;113",
            "center_cursor;114;immediate",
            "flicker_cursor;114",
            "end"
        ]
    }
]