[
    {
        "name": "Win_Condition",
        "trigger": "turn_change",
        "level_nid": "50",
        "condition": "game.turncount == 7",
        "commands": [],
        "only_once": false,
        "priority": 20,
        "_source": [
            "win_game"
        ]
    }
]