[
    {
        "name": "Wall_Break",
        "trigger": "unit_death",
        "level_nid": "51",
        "condition": "'wall' in unit.nid",
        "commands": [],
        "only_once": false,
        "priority": 20,
        "_source": [
            "show_layer;wall;fade"
        ]
    }
]