[
    {
        "name": "Win_Condition_Alter",
        "trigger": "unit_death",
        "level_nid": "53",
        "condition": "not unit2 and unit.team == 'enemy' or unit.team == 'enemy2'",
        "commands": [],
        "only_once": false,
        "priority": 15,
        "_source": [
            "#To account for poison kills",
            "if;not any([u for u in game.get_enemy_units() if u.nid != unit.nid]) and any([s.fatal_damage for s in unit.skills])",
            "    win_game",
            "end"
        ]
    }
]