[
    {
        "name": "Capture",
        "trigger": "unit_wait",
        "level_nid": "55",
        "condition": "unit.ai == 'Capture_Green' and 'Flagbearer' in [u.nid for u in get_units_within_distance(unit.position, 1)]",
        "commands": [],
        "only_once": false,
        "priority": 10,
        "_source": [
            "if;not is_dead(unit.nid)",
            "    pair_up;Flagbearer;{unit}",
            "end"
        ]
    }
]