[
    {
        "name": "Win_Condition",
        "trigger": "Arrive",
        "level_nid": "60",
        "condition": "True",
        "commands": [],
        "only_once": false,
        "priority": 20,
        "_source": [
            "win_game",
            "",
            "",
            "",
            "",
            "",
            "",
            "",
            "",
            "",
            ""
        ]
    }
]