[
    {
        "name": "Reinforcements",
        "trigger": "turn_change",
        "level_nid": "63",
        "condition": "True",
        "commands": [],
        "only_once": false,
        "priority": 20,
        "_source": [
            "if;{v:houses_visited} >= 3",
            "if;{v:reins} != 1",
            "add_group;Reinforcements;Reinforcements;fade;closest",
            "move_cursor;Rein1_flier",
            "flicker_cursor;Rein1_flier",
            "move_cursor;Rein2_flier",
            "flicker_cursor;Rein2_flier",
            "move_cursor;Rein3_flier",
            "flicker_cursor;Rein3_flier",
            "move_cursor;Rein4_flier",
            "flicker_cursor;Rein4_flier",
            "level_var;reins;1",
            "end",
            "end",
            ""
        ]
    }
]