[
    {
        "name": "Door_Break",
        "trigger": "unit_death",
        "level_nid": "66",
        "condition": "'Door' in unit.nid",
        "commands": [],
        "only_once": false,
        "priority": 20,
        "_source": [
            "if;unit.nid == 'Door_T'",
            "    show_layer;DoorT;fade",
            "    remove_region;Door_T",
            "elif;unit.nid == 'Door_BL_1'",
            "    show_layer;DoorB",
            "    remove_region;Door_B",
            "    remove_unit;Door_BL_2;immediate",
            "elif;unit.nid == 'Door_BL_2'",
            "    show_layer;DoorB",
            "    remove_region;Door_B",
            "    remove_unit;Door_BL_1;immediate",
            "end"
        ]
    }
]