[
    {
        "name": "Reinforcements",
        "trigger": null,
        "level_nid": "68",
        "condition": "True",
        "commands": [],
        "only_once": false,
        "priority": 20,
        "_source": [
            "if;game.turncount % 3 == 0",
            "    add_group;Reinforcements;Reinforcements;fade;closest",
            "    move_cursor;116",
            "    flicker_cursor;116",
            "    move_cursor;117",
            "    flicker_cursor;117",
            "end"
        ]
    }
]