[
    {
        "name": "Door_Unlock",
        "trigger": "Door",
        "level_nid": "69",
        "condition": "'Door' in region.nid",
        "commands": [],
        "only_once": false,
        "priority": 20,
        "_source": [
            "if;region.nid == 'Door_L'",
            "    remove_unit;Door_L;immediate",
            "    show_layer;Door_L;fade",
            "elif;region.nid == 'Door_B'",
            "    remove_unit;Door_B;immediate",
            "    show_layer;Door_B;fade",
            "elif;region.nid == 'Door_R'",
            "    remove_unit;Door_R;immediate",
            "    show_layer;Door_R;fade",
            "end",
            "unlock;{unit}",
            "has_attacked;{unit}"
        ]
    }
]