[
    {
        "name": "Intro",
        "trigger": "level_start",
        "level_nid": "77",
        "condition": "True",
        "commands": [],
        "only_once": false,
        "priority": 20,
        "_source": [
            "trigger_script;Global Get_Next_Chapter",
            "pair_up;Flagbearer;101_short",
            "map_anim;LightBlue_Highlight;0,12;permanent",
            "map_anim;LightBlue_Highlight;1,12;permanent",
            "map_anim;LightBlue_Highlight;2,12;permanent",
            "map_anim;LightBlue_Highlight;3,12;permanent",
            "map_anim;LightBlue_Highlight;3,12;permanent",
            "map_anim;Yellow_Highlight;14,1;permanent",
            "map_anim;Yellow_Highlight;14,2;permanent",
            "speak;;Rescue the green unit and bring them to your zone (blue) to win. The enemy will try to do the same with their zone (yellow).;;;hint;NumLines=4;Width=200",
            "arrange_formation",
            "prep;t",
            "trigger_script;Global Global_End_Preps",
            "trigger_script;Global Music_Battle_Start",
            ""
        ]
    }
]