[
    {
        "name": "Reinforcements",
        "trigger": "turn_change",
        "level_nid": "80",
        "condition": "True",
        "commands": [],
        "only_once": false,
        "priority": 20,
        "_source": [
            "if;game.turncount == 3",
            "    add_group;T3;T3;;closest",
            "    move_cursor;T3_1_short",
            "    flicker_cursor;T3_1_short",
            "    move_cursor;T3_2_short",
            "    flicker_cursor;T3_2_short",
            "move_cursor;T3_3_grounded",
            "    flicker_cursor;T3_3_grounded",
            "    move_cursor;T3_4_grounded",
            "    flicker_cursor;T3_4_grounded",
            "elif;game.turncount == 5",
            "    add_group;T5;T5;;closest",
            "    move_cursor;T5_1_grounded",
            "    flicker_cursor;T5_1_grounded",
            "    move_cursor;T5_2_grounded",
            "    flicker_cursor;T5_2_grounded",
            "move_cursor;T5_3_grounded",
            "    flicker_cursor;T5_3_grounded",
            "    move_cursor;T5_4_short",
            "    flicker_cursor;T5_4_short",
            "#elif;game.turncount == 5",
            "#    add_group;Rein_3;Rein_3;;closest",
            "#    move_cursor;111_grounded",
            "#    flicker_cursor;111_grounded",
            "#    move_cursor;112_grounded",
            "#    flicker_cursor;112_grounded",
            "#    move_cursor;113_grounded",
            "#    flicker_cursor;113_grounded",
            "end"
        ]
    }
]