[
    {
        "name": "Reinforcements",
        "trigger": "turn_change",
        "level_nid": "82",
        "condition": "game.turncount == 3",
        "commands": [],
        "only_once": false,
        "priority": 20,
        "_source": [
            "add_group;rein1;rein1;;closest",
            "center_cursor;114_long;immediate",
            "flicker_cursor;114_long",
            "center_cursor;115_long;immediate",
            "flicker_cursor;115_long",
            ""
        ]
    }
]