[
    {
        "name": "Door_Unlock",
        "trigger": "Door",
        "level_nid": "88",
        "condition": "'Door' in region.nid or 'door' in region.nid",
        "commands": [],
        "only_once": false,
        "priority": 20,
        "_source": [
            "if;region.nid == 'Door1'",
            "    remove_unit;door_1;immediate",
            "    remove_unit;door_2;immediate",
            "    show_layer;door1",
            "elif;region.nid == 'Door2'",
            "    remove_unit;door_3;immediate",
            "    show_layer;door2",
            "elif;region.nid == 'Door3'",
            "    remove_unit;door_4;immediate",
            "    show_layer;door3",
            "elif;region.nid == 'Door4'",
            "    remove_unit;door_5;immediate",
            "    show_layer;door4",
            "end",
            "unlock;{unit}",
            "has_attacked;{unit}",
            ""
        ]
    }
]