[
    {
        "name": "Reinforcements_2",
        "trigger": "turn_change",
        "level_nid": "8",
        "condition": "game.level_vars.get('infinites') == 1",
        "commands": [],
        "only_once": false,
        "priority": 30,
        "_source": [
            "if;game.turncount % 2 == 0",
            "    create_unit;112;Position=8,9;copy_stats",
            "    center_cursor;8,9;immediate",
            "    flicker_cursor;8,9",
            "else",
            "    create_unit;113;Position=0,3;copy_stats",
            "    center_cursor;0,3;immediate",
            "    flicker_cursor;0,3",
            "end"
        ]
    }
]