[
    {
        "name": "Key_Point_Gain",
        "trigger": "unit_death",
        "level_nid": "92",
        "condition": "has_skill(unit, 'Key_Holder')",
        "commands": [],
        "only_once": false,
        "priority": 20,
        "_source": [
            "inc_level_var;key_points;1",
            "alert;Gained 1 Key Point!",
            ""
        ]
    }
]