[
    {
        "name": "Run_Info",
        "trigger": "roam_press_info",
        "level_nid": "Act_3",
        "condition": "True",
        "commands": [],
        "only_once": false,
        "priority": 20,
        "_source": [
            "trigger_script;Global Menu_Run_Info"
        ]
    }
]