[
    {
        "name": "z. Event - Chess",
        "trigger": null,
        "level_nid": "Act_3",
        "condition": "True",
        "commands": [],
        "only_once": false,
        "priority": 20,
        "_source": [
            "trigger_script;Global Get_Next_Chapter",
            "#",
            "level_var;options;['1|Take places <icon>event_fight</><icon>event_stratagem</><icon>event_mystery</>','2|Steal the crown <icon>event_accessory</>']",
            "level_var;HasChess;False",
            "for;CHECK_REQ;[u.nid for u in game.get_units_in_party()]",
            "    if;has_skill('{CHECK_REQ}', 'Capture_Piece')",
            "        level_var;HasChess;True",
            "    end",
            "endf",
            "if;v('HasChess')",
            "    level_var;options;v('options') + ['3|Bow to the king <icon>event_hp</><icon>event_stratagem</>']",
            "end",
            "speak;;Before you, the rolling hills of the landscape abruptly fall away,|into an eerie pattern of alternating black and white squares.|On the other side of the massive board stand sixteen stone statues, in varied garbs and boasting varied weaponry.|One at their back, boasting a sword and crown, comes to life and gestures for you to take places opposite them.;center;NumLines=3;DialogBox=menu_bg_parchment",
            "#",
            "choice;moist;What will you do?;v('options');200;expression",
            "end_skip",
            "#",
            "if;'{v:moist}' == '1'",
            "    speak;;Your forces arrange as the stone-wrought king directs.|Once all are in position, the statues draw their weapons, and combat begins.;center;NumLines=3;DialogBox=menu_bg_parchment",
            "    set_next_chapter;EV_Chess",
            "    game_var;in_combat;1",
            "    game_var;next_reward;'Normal'",
            "    win_game",
            "elif;'{v:moist}' == '2'",
            "    speak;;The statue is ancient and slow to move.|You easily dart up and pluck the crown straight from its head.|It howls in anger - an ancient snarl, like granite crashing and shattering -|but fails to pursue as you escape into the wilds.;center;NumLines=3;DialogBox=menu_bg_parchment",
            "    give_item;convoy;StoneCirclet",
            "    win_game",
            "elif;'{v:moist}' == '3'",
            "    speak;;It seems one among your group recognizes this king,|as none other than the ancient lord of the chess board.|They exchange words in a tongue you do not recognize,|one built out of notation and piece-positions, gambits and sacrifices.|Eventually, the statues step aside, allowing you passage.|The pawns bind your wounds with moth-chewed bandages,|and the queen hands you a tablet containing a mystic stratagem.;center;NumLines=3;DialogBox=menu_bg_parchment",
            "    for;party_unit;[u for u in game.get_units_in_party() if u.get_hp() > 1]",
            "        set_current_hp;{party_unit};{e:u('{party_unit}').get_hp() + 7}",
            "    endf",
            "    alert;All allies heal 7 HP!",
            "    trigger_script_with_args;Global Global_Give_Stratagem;stratagem,ChessmanStep",
            "    win_game",
            "end"
        ]
    }
]