[
    {
        "name": "z. Event - Yusha",
        "trigger": null,
        "level_nid": "Act_1A",
        "condition": "True",
        "commands": [],
        "only_once": false,
        "priority": 20,
        "_source": [
            "speak;;A young boy walks up to you.|\"I want to slay a dragon!\", he exclaims.|You're not sure why, but you feel compelled to help him.;center;NumLines=3;DialogBox=menu_bg_parchment",
            "load_unit;Yusha;player",
            "table;portrait;u('Yusha').portrait_nid;;Alignment=top;EntryType=type_portrait;expression",
            "speak;;Yusha has joined the party!;bottom;;;;;;menu_bg_parchment",
            "remove_table;portrait",
            "trigger_script_with_args;Global Global_Give_Exp;receiver,{e:game.get_unit('Yusha')},amount,{v:accumulated_exp},alert,No",
            "trigger_script_with_args;Global Global_Give_WEXP;receiver,{e:game.get_unit('Yusha')},amount,{v:accumulated_wexp},alert,No",
            "set_current_hp;{e:game.get_unit('Yusha')};99",
            "game_var;hero_quest;1",
            "trigger_script;Global Get_Next_Chapter",
            "win_game"
        ]
    }
]