[
    {
        "name": "Talk_Vendor",
        "trigger": "on_talk",
        "level_nid": "Act_Ophie",
        "condition": "unit2.nid in ['vendor']",
        "commands": [],
        "only_once": false,
        "priority": 20,
        "_source": [
            "shop;{unit};{e:','.join([i for i in {v:vendor_items}])};vendor;1,1,1,1,1;{e:'vendor' + '{v:vendor_nids}'}",
            "add_talk;{v:main_unit};{unit2}"
        ]
    }
]