[
    {
        "name": "z. Event - Construct",
        "trigger": null,
        "level_nid": "Act_1",
        "condition": "True",
        "commands": [],
        "only_once": false,
        "priority": 20,
        "_source": [
            "speak;;\u2028An old, rusted-out mechanical soldier sits by the roadside.|Its internals still look protected, but it might need some fluid to lubricate the gears.;center;NumLines=3;DialogBox=menu_bg_parchment",
            "level_var;choices;['2|Fix the machine with blood  <icon>event_hp_down</><icon>event_mystery</><icon>event_fragments</>','3|Disassemble it <icon>event_money</>']",
            "game_var;unit_list;[]",
            "for;PARTY_UNIT;[u.nid for u in game.get_units_in_party()]",
            "    for;PARTY_ITEM;[i.uid for i in u('{PARTY_UNIT}').items if i.nid == 'Vulnerary']",
            "        game_var;unit_list;v('unit_list') + ['{PARTY_UNIT}']",
            "    endf",
            "endf",
            "for;PARTY_ITEM;[i.uid for i in game.get_party('Player').items if i.nid == 'Vulnerary']",
            "    game_var;unit_list;v('unit_list') + ['convoy']",
            "endf",
            "if;len(v('unit_list') >= 1)",
            "    level_var;choices;['1|Fix the machine with a Vulnerary <icon>event_item_down</><icon>event_mystery</><icon>event_fragments</>'] + v('choices')",
            "end",
            "choice;construct;What do you do?;v('choices');200;expression",
            "end_skip",
            "if;'{v:construct}' == '1'",
            "    speak;;\u2028You dig through your bags and pour in Vulneraries, dripping medicine into the ancient machine.|Slowly, its gears begin to turn, and the construct creaks to life.|Grateful, it offers to serve you.;center;NumLines=3;DialogBox=menu_bg_parchment",
            "    remove_item;{e:v('unit_list')[-1]};Vulnerary",
            "    load_unit;Construct;player",
            "    trigger_script_with_args;Global Global_Give_Exp;receiver,{e:game.get_unit('Construct')},amount,{v:accumulated_exp},alert,No",
            "    trigger_script_with_args;Global Global_Give_WEXP;receiver,{e:game.get_unit('Construct')},amount,{v:accumulated_wexp},alert,No",
            "    set_current_hp;{e:game.get_unit('Construct')};99",
            "    trigger_script_with_args;Global Global_Give_Currency;amount,50,currency_type,Fragments",
            "    win_game",
            "elif;'{v:construct}' == '2'",
            "    speak;;\u2028You take weapons and slit your palms, dripping blood into the ancient machine.|Slowly, its gears begin to turn, and the construct creaks to life.|Grateful, it offers to serve you.;center;NumLines=3;DialogBox=menu_bg_parchment",
            "    for;party_unit;[u for u in game.get_units_in_party() if u.get_hp() > 4]",
            "        set_current_hp;{party_unit};{e:game.get_unit('{party_unit}').get_hp() - 4}",
            "    endf",
            "    alert;All units lose 4 HP!",
            "    load_unit;Construct;player",
            "    trigger_script_with_args;Global Global_Give_Exp;receiver,{e:game.get_unit('Construct')},amount,{v:accumulated_exp},alert,No",
            "    trigger_script_with_args;Global Global_Give_WEXP;receiver,{e:game.get_unit('Construct')},amount,{v:accumulated_wexp},alert,No",
            "    set_current_hp;{e:game.get_unit('Construct')};99",
            "    trigger_script_with_args;Global Global_Give_Currency;amount,50,currency_type,Fragments",
            "elif;'{v:construct}' == '3'",
            "    speak;;You pry open the iron husk and take out its still-functioning parts, finding a few that would sell for good prices.;center;NumLines=3;DialogBox=menu_bg_parchment",
            "    give_money;250",
            "end",
            "trigger_script;Global Get_Next_Chapter",
            "win_game"
        ]
    }
]