[
    {
        "name": "z. Event - Affinity Orb",
        "trigger": null,
        "level_nid": "Act_3A",
        "condition": "True",
        "commands": [],
        "only_once": false,
        "priority": 20,
        "_source": [
            "speak;;As you wander deeper and deeper into the fog, the weather begins to intensify.|One minute the sun beats down on you, the next moment it starts to hail, and yet the next you hear thunder roar and the winds howl.|As you press on, you finally reach the center of the odd storm - a small statue, with 10 orbs, nestled in, each gleaming with the power of different elements.|Somehow you feel compelled to take one, and your party seems to be the same - but the one they want to take all differs.;center;NumLines=5;DialogBox=menu_bg_parchment",
            "lvar;choices;[]",
            "if;any([u.affinity == 'Fire' for u in game.get_units_in_party()])",
            "    level_var;choices;v('choices') + ['1|Take the burning orb <icon>event_mystery</>']",
            "end",
            "if;any([u.affinity == 'Thunder' for u in game.get_units_in_party()])",
            "    level_var;choices;v('choices') + ['2|Take the electrifying orb <icon>event_mystery</>']",
            "end",
            "if;any([u.affinity == 'Ice' for u in game.get_units_in_party()])",
            "    level_var;choices;v('choices') + ['3|Take the chilling orb <icon>event_mystery</>']",
            "end",
            "if;any([u.affinity == 'Wind' for u in game.get_units_in_party()])",
            "    level_var;choices;v('choices') + ['4|Take the howling orb <icon>event_mystery</>']",
            "end",
            "if;any([u.affinity == 'Earth' for u in game.get_units_in_party()])",
            "    level_var;choices;v('choices') + ['5|Take the earthen orb <icon>event_mystery</>']",
            "end",
            "if;any([u.affinity == 'Water' for u in game.get_units_in_party()])",
            "    level_var;choices;v('choices') + ['6|Take the sodden orb <icon>event_mystery</>']",
            "end",
            "if;any([u.affinity == 'Light' for u in game.get_units_in_party()])",
            "    level_var;choices;v('choices') + ['7|Take the shining orb <icon>event_mystery</>']",
            "end",
            "if;any([u.affinity == 'Dark' for u in game.get_units_in_party()])",
            "    level_var;choices;v('choices') + ['8|Take the shrouded orb <icon>event_mystery</>']",
            "end",
            "if;any([u.affinity == 'Anima' for u in game.get_units_in_party()])",
            "    level_var;choices;v('choices') + ['9|Take the magical orb <icon>event_mystery</>']",
            "end",
            "level_var;choices;v('choices') + ['10|Take the empty orb <icon>event_mystery</>']",
            "#",
            "choice;the_orb;Pick which orb?;v('choices');200;Dimensions=8,1;expression",
            "s;;You're filled with an enchanting sensation, as the element of the orb seeps into all of you.;center;NumLines=3;DialogBox=menu_bg_parchment",
            "#",
            "if;'{v:the_orb}' == '1'",
            "    for;party_unit;[u.nid for u in game.get_units_in_party()]",
            "        change_stats;{party_unit};STR,2;immediate",
            "        give_skill;{party_unit};Fire_Orb;no_banner",
            "    endf",
            "    end_skip",
            "    speak;;All units +2 STR!{br}All units gain Fire affinity!;center;DialogBox=menu_bg_parchment",
            "elif;'{v:the_orb}' == '2'",
            "    for;party_unit;[u.nid for u in game.get_units_in_party()]",
            "        change_stats;{party_unit};SKL,2;immediate",
            "        give_skill;{party_unit};Thunder_Orb;no_banner",
            "    endf",
            "    end_skip",
            "    speak;;All units +2 SKL!{br}All units gain Thunder affinity!;center;DialogBox=menu_bg_parchment",
            "elif;'{v:the_orb}' == '3'",
            "    for;party_unit;[u.nid for u in game.get_units_in_party()]",
            "        change_stats;{party_unit};RES,2;immediate",
            "        give_skill;{party_unit};Ice_Orb;no_banner",
            "    endf",
            "    end_skip",
            "    speak;;All units +2 RES!{br}All units gain Ice affinity!;center;DialogBox=menu_bg_parchment",
            "elif;'{v:the_orb}' == '4'",
            "    for;party_unit;[u.nid for u in game.get_units_in_party()]",
            "        change_stats;{party_unit};SPD,2;immediate",
            "        give_skill;{party_unit};Wind_Orb;no_banner",
            "    endf",
            "    end_skip",
            "    speak;;All units +2 SPD!{br}All units gain Wind affinity!;center;DialogBox=menu_bg_parchment",
            "elif;'{v:the_orb}' == '5'",
            "    for;party_unit;[u.nid for u in game.get_units_in_party()]",
            "        change_stats;{party_unit};DEF,2;immediate",
            "        give_skill;{party_unit};Earth_Orb;no_banner",
            "    endf",
            "    end_skip",
            "    speak;;All units +2 DEF!{br}All units gain Earth affinity!;center;DialogBox=menu_bg_parchment",
            "elif;'{v:the_orb}' == '6'",
            "    for;party_unit;[u.nid for u in game.get_units_in_party()]",
            "        change_stats;{party_unit};HP,3;immediate",
            "        give_skill;{party_unit};Water_Orb;no_banner",
            "    endf",
            "    end_skip",
            "    speak;;All units +3 Max HP!{br}All units gain Water affinity!;center;DialogBox=menu_bg_parchment",
            "elif;'{v:the_orb}' == '7'",
            "    for;party_unit;[u.nid for u in game.get_units_in_party()]",
            "        change_stats;{party_unit};LCK,2;immediate",
            "        give_skill;{party_unit};Light_Orb;no_banner",
            "    endf",
            "    end_skip",
            "    speak;;All units +2 LCK!{br}All units gain Light affinity!;center;DialogBox=menu_bg_parchment",
            "elif;'{v:the_orb}' == '8'",
            "    for;party_unit;[u.nid for u in game.get_units_in_party()]",
            "        change_stats;{party_unit};MAG,2;immediate",
            "        give_skill;{party_unit};Dark_Orb;no_banner",
            "    endf",
            "    end_skip",
            "    speak;;All units +2 MAG!{br}All units gain Dark affinity!;center;DialogBox=menu_bg_parchment",
            "elif;'{v:the_orb}' == '9'",
            "    for;party_unit;[u.nid for u in game.get_units_in_party()]",
            "        change_stats;{party_unit};STR,1,MAG,1;immediate",
            "        give_skill;{party_unit};Anima_Orb;no_banner",
            "    endf",
            "    end_skip",
            "    speak;;All units +1 STR and MAG!{br}All units gain Anima affinity!;center;DialogBox=menu_bg_parchment",
            "elif;'{v:the_orb}' == '10'",
            "    trigger_script_with_args;Global Global_Give_Exp;receiver,all,amount,75,alert,No",
            "    for;party_unit;[u.nid for u in game.get_units_in_party()]",
            "        give_skill;{party_unit};Null_Orb;no_banner",
            "    endf",
            "    end_skip",
            "    speak;;All units +75 EXP!{br}All units gain Null affinity!;center;DialogBox=menu_bg_parchment",
            "end",
            "trigger_script;Global Get_Next_Chapter",
            "win_game",
            ""
        ]
    }
]