[
    {
        "name": "Talk_Contractor",
        "trigger": "on_talk",
        "level_nid": "Act_1A",
        "condition": "unit2.nid in ['contractor']",
        "commands": [],
        "only_once": false,
        "priority": 20,
        "_source": [
            "trigger_script;Global Contract_Display"
        ]
    }
]