[
    {
        "name": "z. Event - Promotion",
        "trigger": null,
        "level_nid": "Act_1",
        "condition": "True",
        "commands": [],
        "only_once": false,
        "priority": 20,
        "_source": [
            "speak;;An overwhelming force seems to pierce through the Fog.|You aren't quite sure what it is, but there's something about it that forces you to freeze in place.|Such is its might.|As you ponder what to do next, a voice begins to creep its way into your mind.|\"How pitiful. With that level of strength, you have no hope of conquering this Fog.|Let alone challenging me.|How about this, then?|I will grant a great power upon one of your party.|Some would call it a... promotion.\";center;NumLines=5;DialogBox=menu_bg_parchment",
            "choice;promoter;Who to Promote?;[u.nid for u in game.get_units_in_party() if get_klass(u).tier <= 1 and any([x for x in game.get_data('Character_Upgrades') if x.unit_nid == u.nid and x.upgrade_type == 'Promotion'])];Dimensions=8,1;EntryType=type_dex_unit;expression",
            "lvar;raw_set;[x.value_1 for x in game.get_data('Character_Upgrades') if x.unit_nid == '{v:promoter}' and x.upgrade_type == 'Promotion']",
            "lvar;new_klass;{v:raw_set}[0]",
            "promote;{v:promoter};{v:new_klass};silent",
            "if;u('{v:promoter}').get_field('Promoted_Weapon')",
            "    for;wep;[x for x in u('{v:promoter}').get_field('Promoted_Weapon').split(',')]",
            "        if;'{wep}' == 'Sword'",
            "            give_skill;{v:promoter};HiddenSword;;no_banner",
            "        elif;'{wep}' == 'Lance'",
            "            give_skill;{v:promoter};HiddenLanceAccess;;no_banner",
            "        elif;'{wep}' == 'Axe'",
            "            give_skill;{v:promoter};HiddenAxe;;no_banner",
            "        elif;'{wep}' == 'Bow'",
            "            give_skill;{v:promoter};HiddenBow;;no_banner",
            "        elif;'{wep}' == 'Knife'",
            "            give_skill;{v:promoter};HiddenKnife;;no_banner",
            "        elif;'{wep}' == 'Anima'",
            "            give_skill;{v:promoter};HiddenAnimaAccess;;no_banner",
            "        elif;'{wep}' == 'Light'",
            "            give_skill;{v:promoter};HiddenLightAccess;;no_banner",
            "        elif;'{wep}' == 'Dark'",
            "            give_skill;{v:promoter};HiddenDark;;no_banner",
            "        elif;'{wep}' == 'Staff'",
            "            give_skill;{v:promoter};HiddenStaff;;no_banner",
            "        elif;'{wep}' == 'Stone'",
            "            give_skill;{v:promoter};HiddenStone;;no_banner",
            "        end",
            "    endf",
            "end",
            "if;'{v:promoter}' == 'Gemini_F'",
            "    promote;Gemini_M;Trickster;silent",
            "elif;'{v:promoter}' == 'Gemini_M'",
            "    promote;Gemini_F;Assassin;silent",
            "end",
            "alert;{v:promoter} has promoted!",
            "speak;;\"I look forward to our inevitable meeting!\"|The voice trails off, and the force surrounding you begins to lessen in pressure.|Just what was that?|You aren't sure why you were given this power, but you may as well make use of it.;center;NumLines=5;DialogBox=menu_bg_parchment",
            "trigger_script;Global Get_Next_Chapter",
            "win_game",
            ""
        ]
    }
]