[
    {
        "name": "Talk_Tuneup_Shop",
        "trigger": "on_talk",
        "level_nid": "Act_2A",
        "condition": "unit2.nid in ['tuneup']",
        "commands": [],
        "only_once": false,
        "priority": 20,
        "_source": [
            "trigger_script;Global Talk_TuneUp"
        ]
    }
]