[
    {
        "name": "z. Event - Skill_Merchant_Returns",
        "trigger": null,
        "level_nid": "Act_3A",
        "condition": "True",
        "commands": [],
        "only_once": false,
        "priority": 20,
        "_source": [
            "speak;;\"The Skill Merchant, and his familiar froggy head, return!|This time, though, there's a worrying glint in his eyes...|\"...and I have even finer skills to teach than before! Come on, you can't possibly say no this time!\"\";center;NumLines=5;DialogBox=menu_bg_parchment",
            "textbox;money;\"Money: \" + str(game.get_money());top_right;100;expression",
            "if;game.get_money() >= 1000",
            "    choice;frog;What will you do?;['1|Let him work <icon>event_mystery</>','2|Request specifics (1000g) <icon>event_mystery</><icon>event_money_down</>','3|Donate a skill <icon>event_mystery</><icon>event_money</>'];200;expression",
            "else",
            "    choice;frog;What will you do?;['1|Personal tutoring (150g) <icon>event_exp</><icon>event_stratagem</>','3|Sell a skill <icon>event_mystery</><icon>event_money</>'];200;expression",
            "end",
            "remove_table;money",
            "end_skip",
            "if;'{v:frog}' == '1'",
            "    speak;;The glint in his eyes get even more worrying.|\"...Oh? You'll let me choose what to teach?|I've got some wonderful ideas, then...\";center;NumLines=3;DialogBox=menu_bg_parchment",
            "    choice;p_unit;Who to teach?;[u.nid + '|' + u.name for u in game.get_units_in_party()];100;Dimensions=8,1;expression",
            "    lvar;rando_skill;game.get_random_choice([s.nid for s in DB.skills if s.components.get('copysafe') and s.nid not in [x.nid for x in u('{v:p_unit}').skills]])",
            "    give_skill;{v:p_unit};{v:rando_skill}",
            "    for;skills;[s for s in get_skill(u('{v:p_unit}'),'{v:rando_skill}').copysafe.value]",
            "        give_skill;{v:p_unit};{skills};no_banner",
            "    endf",
            "elif;'{v:frog}' == '2'",
            "    speak;;The Skill Merchant pulls open a massive list of skills,|and asks what you'd like to learn.;center;NumLines=3;DialogBox=menu_bg_parchment",
            "    choice;p_unit;Who to teach?;[u.nid + '|' + u.name for u in game.get_units_in_party()];100;Dimensions=8,1;expression",
            "    choice;skill_gain;Take a skill;[s.nid + '|' + s.name for s in DB.skills if s.components.get('copysafe') and s.nid not in [x.nid for x in u('{v:p_unit}').skills]];Dimensions=8,2;EntryType=type_skill;expression",
            "    give_skill;{e:u('{v:p_unit}')};{v:skill_gain}",
            "    for;skills;[s for s in get_skill(u('{v:p_unit}'),'{v:skill_gain}').copysafe.value]",
            "        give_skill;{v:p_unit};{skills};no_banner",
            "    endf",
            "    give_money;-1000;no_banner",
            "elif;'{v:frog}' == '3'",
            "    speak;;The Skill Merchant appreciates your donation of raw material.|He'll surely be able to sell it to someone else!;center;NumLines=3;DialogBox=menu_bg_parchment",
            "    choice;p_unit;Who gives a skill?;[u.nid + '|' + u.name for u in game.get_units_in_party()];100;Dimensions=8,1;expression",
            "    level_var;skill_merc_money;500",
            "    choice;skill_remove;Remove a skill;[s.nid + '|' + s.name for s in u('{v:p_unit}').skills if s.class_skill];Dimensions=5,1;EntryType=type_skill;expression",
            "    if;get_skill(u('{v:p_unit}'),'{v:skill_remove}').shit",
            "        level_var;skill_merc_money;100",
            "    end",
            "    if;get_skill(u('{v:p_unit}'),'{v:skill_remove}').copysafe",
            "        for;skills;[s for s in get_skill(u('{v:p_unit}'),'{v:skill_remove}').copysafe.value]",
            "            remove_skill;{v:p_unit};{skills};no_banner",
            "        endf",
            "    end",
            "    remove_skill;{e:u('{v:p_unit}')};{v:skill_remove}",
            "    give_money;{v:skill_merc_money}",
            "end",
            "trigger_script;Global Get_Next_Chapter",
            "win_game"
        ]
    }
]