[
    {
        "name": "z. Event - Skill_Merchant",
        "trigger": null,
        "level_nid": "Act_1",
        "condition": "True",
        "commands": [],
        "only_once": false,
        "priority": 20,
        "_source": [
            "speak;;\"I am the legendary Skill Merchant!\", says the bizarre, frog-headed figure who just appeared in front of you. \"Study before me, and I shall teach your warriors my finest skills!\";center;NumLines=5;DialogBox=menu_bg_parchment",
            "level_var;skills;['Pivot','Reposition','Shove','Swap','Draw_Back']",
            "textbox;money;\"Money: \" + str(game.get_money());top_right;100;expression",
            "if;game.get_money() >= 400",
            "    choice;frog;What will you do?;['1|Personal tutoring (150g) <icon>event_exp</><icon>event_stratagem</>','2|Group-wide lecturing (400g) <icon>event_exp</><icon>event_stratagem</>','3|Call out the liar <icon>event_essence</>'];200;expression",
            "elif;game.get_money() >= 150 and game.get_money() < 400",
            "    choice;frog;What will you do?;['1|Personal tutoring (150g) <icon>event_exp</><icon>event_stratagem</>','3|Call out the liar <icon>event_essence</>'];200;expression",
            "else",
            "    choice;frog;What will you do?;['3|Call out the liar <icon>event_essence</>'];200;expression",
            "end",
            "remove_table;money",
            "end_skip",
            "if;'{v:frog}' == '1'",
            "    speak;;You pay tuition and send a party member in to learn from the Skill Merchant.|They appear to have learned from the experience.;center;NumLines=3;DialogBox=menu_bg_parchment",
            "    choice;p_unit;Who to teach?;[u.nid + '|' + u.name for u in game.get_units_in_party()];100;Dimensions=8,1;expression",
            "    give_skill;{v:p_unit};{e:game.get_random_choice({v:skills})}",
            "    trigger_script_with_args;Global Global_Give_Exp;receiver,{v:p_unit},amount,200,alert,Yes",
            "    give_money;-150;no_banner",
            "elif;'{v:frog}' == '2'",
            "    speak;;You pay frankly exorbitant tuition and bring your whole party in to learn from the Skill Merchant.|It's unclear how, but you've all learned something new from the experience.;center;NumLines=3;DialogBox=menu_bg_parchment",
            "    for;p_unit;[u for u in game.get_all_units_in_party()]",
            "        if;not is_dead('{p_unit}')",
            "            give_skill;{p_unit};{e:game.get_random_choice({v:skills})}",
            "        end",
            "    endf",
            "    trigger_script_with_args;Global Global_Give_Exp;receiver,all,amount,100,alert,Yes",
            "    give_money;-400;no_banner",
            "elif;'{v:frog}' == '3'",
            "    speak;;The \"legendary Skill Merchant\" is outraged at your denial of his fame, and your unwillingness to pay his tuition. You threaten to report him to the authorities for fraud.|\"How dare you!\", he exclaims. \"The Oculi may rule over us, but I'm no toady to them. I refuse to be locked up!\" For whatever reason, he believes your bluff, and scampers off.;center;NumLines=5;DialogBox=menu_bg_parchment",
            "    trigger_script_with_args;Global Global_Give_Currency;amount,100,currency_type,Essence",
            "end",
            "game_var;skill_merchant_seen;True",
            "trigger_script;Global Get_Next_Chapter",
            "win_game"
        ]
    }
]