[
    {
        "name": "z. Event - Hunter",
        "trigger": null,
        "level_nid": "Act_2",
        "condition": "True",
        "commands": [],
        "only_once": false,
        "priority": 20,
        "_source": [
            "speak;;The Titanic cyclops, roars one final time before you land a final blow, and the hunter looses an arrow through its single eye.{w} They examine the body, before signaling to come closer. As a reward for assisting them with this bounty, they hold out a quiver and bow, and a potion.;center;NumLines=5;DialogBox=menu_bg_parchment",
            "speak;;The quiver and bow appears both blessed and cursed - it offers you the chance to become an unparalleled sniper - but only a sniper, and you doubt you'd be able to let go of it.{w} The yellow potion softly bubbles, and then turns green. Perhaps you'll gain a new ability...;center;NumLines=5;DialogBox=menu_bg_parchment",
            "choice;hunter;Which will you take?;['1|The quiver <icon>event_item</><icon>event_stratagem</>','2|The potion <icon>event_item</>'];200;expression",
            "end_skip",
            "if;'{v:hunter}' == '1'",
            "    speak;;You pick the quiver - perhaps someone who's rather skilled should use it.;center;NumLines=3;DialogBox=menu_bg_parchment",
            "    choice;p_unit;Who to give the quiver to?;[u.nid + '|' + u.name for u in game.get_units_in_party() if len([i for i in u.items if item_system.is_accessory(u, i) and i.locked]) < item_funcs.get_num_accessories(u)];100;Dimensions=8,1;expression",
            "    give_item;{v:p_unit};Orions_Quiver",
            "    give_wexp;{v:p_unit};Bow;25",
            "    give_item;{v:p_unit};Silver_Bow",
            "    trigger_script_with_args;Global Global_Give_Exp;receiver,{v:p_unit},amount,75,alert,Yes",
            "elif;'{v:hunter}' == '2'",
            "    speak;;You pick the potion, and wonder what skill you might get.;center;NumLines=3;DialogBox=menu_bg_parchment",
            "    give_item;convoy;Skill_Potion",
            "end",
            "trigger_script;Global Get_Next_Chapter",
            "win_game"
        ]
    }
]