[
    {
        "name": "Talk_Ticket_Man",
        "trigger": "on_talk",
        "level_nid": "Act_2",
        "condition": "unit2.nid in ['ticketguy']",
        "commands": [],
        "only_once": false,
        "priority": 20,
        "_source": [
            "if;RECORDS.get('the_show_unlocked')",
            "    choice;show;Take the stage?;Yes,No",
            "    if;v('show') == 'Yes'",
            "        game_var;Alter_Act;2",
            "        trigger_script;Global Get_Next_Chapter",
            "        win_game",
            "    else",
            "        finish",
            "    end",
            "else",
            "    uu;{unit};Left;Man2;Right",
            "    s;Man2;You will need a ticket to watch the show.|If you don't have one, you will have to find one somewhere.|Perhaps a performer would be able to help you...",
            "    rr;{unit};Man2",
            "    if;RECORDS.get('has_show_ticket')",
            "        alert;You show your ticket to the Usher...",
            "        uu;{unit};Left;Man2;Right",
            "        s;Man2;Ah, yes, we have been expecting you.|Right this way...",
            "        rr;{unit};Man2",
            "        create_record;the_show_unlocked;1",
            "        choice;show;Take the stage?;Yes,No",
            "        if;v('show') == 'Yes'",
            "            game_var;Alter_Act;2",
            "            trigger_script;Global Get_Next_Chapter",
            "            win_game",
            "        else",
            "            finish",
            "        end",
            "    else",
            "        alert;You do not possess a ticket...",
            "        create_record;need_show_ticket;1",
            "    end",
            "end",
            ""
        ]
    }
]