[
    {
        "name": "z. Event - Strongmen",
        "trigger": null,
        "level_nid": "Act_2A",
        "condition": "True",
        "commands": [],
        "only_once": false,
        "priority": 20,
        "_source": [
            "trigger_script;Global Get_Next_Chapter",
            "speak;;You come across a group of strongmen having a weightlifting competition. They offer for a member of your group to join in.;center;NumLines=3;DialogBox=menu_bg_parchment",
            "choice;weights;What will you do?;['1|Participate  <icon>event_mystery</><icon>event_essence</>','2|Ask for their workout routines  <icon>event_stratagem</>'];200;expression",
            "end_skip",
            "if;'{v:weights}' == '1'",
            "    level_var;high_con;0",
            "    for;party_unit;[u.nid for u in game.get_units_in_party()]",
            "        if;u('{party_unit}').get_stat('CON') > {v:high_con}",
            "            level_var;high_con;u('{party_unit}').get_stat('CON')",
            "        end",
            "    endf",
            "    if;{v:high_con} >= 13",
            "        speak;;Your bulkiest party member out-lifts the rest of the competition.|The strongmen, impressed, award your group with a prize.;center;NumLines=3;DialogBox=menu_bg_parchment",
            "        give_item;convoy;The_Lifter",
            "    elif;{v:high_con} > 9 and {v:high_con} <= 12",
            "        speak;;Your bulkiest party member does reasonably well, but does not finish first.|The strongmen award your group a prize in recognition of their strength.;center;NumLines=3;DialogBox=menu_bg_parchment",
            "        give_item;convoy;Energy_Ring_Plus",
            "    else",
            "        speak;;Your bulkiest party member does not fare well, barely even matching up to the group.|They give you a Body Ring and encourage you to try again in the future.;center;NumLines=3;DialogBox=menu_bg_parchment",
            "        give_item;convoy;Body_Ring_Plus",
            "    end",
            "    trigger_script_with_args;Global Global_Give_Currency;currency_type,Essence,amount,75",
            "elif;'{v:weights}' == '2'",
            "    speak;;The strongmen are, as most strongmen are, eager to share their secrets. You find your training regimens to be much improved.;center;NumLines=3;DialogBox=menu_bg_parchment",
            "    trigger_script_with_args;Global Global_Give_Stratagem;stratagem,Strongman_Strength",
            "end",
            "win_game"
        ]
    }
]