[
    {
        "name": "z. Event - Portal",
        "trigger": null,
        "level_nid": "Act_2",
        "condition": "True",
        "commands": [],
        "only_once": false,
        "priority": 20,
        "_source": [
            "speak;;Perched on a hill before you is a crackling, magical portal.|The metal framework is unstable, and its Fragments are on the verge of collapsing...|but there's a chance it could still function as is.|Who knows where it might lead, or what might come through?.;center;NumLines=3;DialogBox=menu_bg_parchment",
            "#",
            "choice;bag;What will you do?;['1|Repair the portal <icon>event_mystery</>','2|Step through the portal <icon>event_hp_down</><icon>event_exp</><icon>event_item</>','3|Disassemble the portal <icon>event_chance</><icon>event_fragments</><icon>event_hp_down</>'];200;expression",
            "end_skip",
            "#",
            "if;'{v:bag}' == '1'",
            "    speak;;You fix the portal, and a mysterious warrior steps through!|After some confusion, they offer to join your cause.;center;NumLines=3;DialogBox=menu_bg_parchment",
            "    level_var;pool;[u for u in {v:Full_Gacha_Pool} if u not in RECORDS.get('Available_Units') and u not in [x.nid for x in game.get_all_units_in_party()] and u not in [x.nid for x in game.get_all_units_in_party('Shuffle')]]",
            "    if;len(v('pool')) >= 1",
            "        trigger_script;Global Summon_Unit",
            "    else",
            "        trigger_script_with_args;Global Summon_Event_Unit;event_name,portal",
            "    end",
            "elif;'{v:bag}' == '2'",
            "    speak;;One of your party members goes through the gate.|They return moments later with harrowed eyes and tales of terror,|clutching a bloodstained weapon of bizarre make.;center;NumLines=3;DialogBox=menu_bg_parchment",
            "    level_var;poisoned;game.get_units_in_party()[game.get_random(0, len(game.get_units_in_party()) - 1)].nid",
            "    set_current_hp;{e:game.get_unit('{v:poisoned}')};{e:max(game.get_unit('{v:poisoned}').get_hp() - 10, 1)}",
            "    alert;{e:game.get_unit('{v:poisoned}').name} took 10 damage!",
            "    trigger_script_with_args;Global Global_Give_Exp;receiver,{e:game.get_unit('{v:poisoned}')},amount,200,alert,Yes",
            "    trigger_script_with_args;Global Global_Reward_Choice;item_type,weapon,rarity,rare",
            "else",
            "    level_var;success;game.get_random(0,9)",
            "    if;{v:success} < 3",
            "        speak;;You step up to the portal...|and manage to turn it off safely, extracting its Fragments for future use.;center;NumLines=3;DialogBox=menu_bg_parchment",
            "        trigger_script_with_args;Global Global_Give_Currency;amount,100,currency_type,Fragments",
            "    else",
            "        speak;;You step up to the portal...|and it explodes in your face!;center;NumLines=3;DialogBox=menu_bg_parchment",
            "        level_var;poisoned;game.get_units_in_party()[game.get_random(0, len(game.get_units_in_party()) - 1)].nid",
            "        set_current_hp;{e:game.get_unit('{v:poisoned}')};{e:max(game.get_unit('{v:poisoned}').get_hp() - 5, 1)}",
            "        alert;{e:game.get_unit('{v:poisoned}').name} took 5 damage!",
            "    end",
            "end",
            "trigger_script;Global Get_Next_Chapter",
            "win_game"
        ]
    }
]