[
    {
        "name": "z. Event - Dragon",
        "trigger": null,
        "level_nid": "Act_3",
        "condition": "True",
        "commands": [],
        "only_once": false,
        "priority": 20,
        "_source": [
            "speak;;In a cave, high in the mountains, lies a sleeping dragon. This beast is more gargantuan than any you've seen, its head the size of a house, its chest the size of a castle.{w} And tucked on its tongue amidst its open mouth, glittering in the dark, is a silvered Master Seal.;center;DialogBox=menu_bg_parchment;NumLines=5",
            "#",
            "choice;dragon;;['1|Take the seal <icon>event_chance</><icon>event_hp_down</><icon>master_seal</>','2|Steal a scale <icon>event_hp_down</><icon>event_item</><icon>event_item</>','3|Leave'];200;expression",
            "end_skip",
            "#",
            "if;'{v:dragon}' == '1'",
            "    level_var;success;game.get_random(0,9)",
            "    if;{v:success} < 5",
            "        speak;;A member of your party climbs between the cage of fangs...|and comes back safely, holding the artifact and a glimmering shard in hand.;center;NumLines=3;DialogBox=menu_bg_parchment",
            "        trigger_script_with_args;Global Global_Give_Currency;currency_type,Master_Seals,amount,1",
            "        trigger_script_with_args;Global Global_Give_Currency;currency_type,Spark_Shard,amount,1",
            "    else",
            "        speak;;A member of your party climbs between the cage of fangs...|which suddenly snaps shut. They scramble out, badly wounded but with artifact and a glimmering shard in hand.;center;NumLines=3;DialogBox=menu_bg_parchment",
            "        trigger_script_with_args;Global Global_Give_Currency;currency_type,Master_Seals,amount,1",
            "        trigger_script_with_args;Global Global_Give_Currency;currency_type,Spark_Shard,amount,1",
            "        level_var;poisoned;game.get_units_in_party()[game.get_random(0, len(game.get_units_in_party()) - 1)].nid",
            "        set_current_hp;{e:game.get_unit('{v:poisoned}')};{e:max(game.get_unit('{v:poisoned}').get_hp() - 20, 1)}",
            "        alert;{e:game.get_unit('{v:poisoned}').name} took 20 damage!",
            "    end",
            "elif;'{v:dragon}' == '2'",
            "    level_var;success;game.get_random(0,9)",
            "    if;{v:success} < 5",
            "        speak;;A member of your party reaches out to the dragon's side...|and pulls three beautiful, shining scales and a glimmering shard free.;center;NumLines=3;DialogBox=menu_bg_parchment;NumLines=3",
            "        give_item;convoy;Dragonshield",
            "        give_item;convoy;Dragonshield",
            "        give_item;convoy;Dragonshield_Plus",
            "        trigger_script_with_args;Global Global_Give_Currency;currency_type,Spark_Shard,amount,1",
            "    else",
            "        speak;;A member of your party reaches out to the dragon's side...|but it twists suddenly, slamming them against the wall. You quickly flee, scales and a shard in hand.;center;NumLines=3;DialogBox=menu_bg_parchment;NumLines=3",
            "        give_item;convoy;Dragonshield",
            "        give_item;convoy;Dragonshield",
            "        give_item;convoy;Dragonshield_Plus",
            "        trigger_script_with_args;Global Global_Give_Currency;currency_type,Spark_Shard,amount,1",
            "        level_var;poisoned;game.get_units_in_party()[game.get_random(0, len(game.get_units_in_party()) - 1)].nid",
            "        set_current_hp;{e:game.get_unit('{v:poisoned}')};{e:max(game.get_unit('{v:poisoned}').get_hp() - 20, 1)}",
            "        alert;{e:game.get_unit('{v:poisoned}').name} took 20 damage!",
            "    end",
            "elif;'{v:dragon}' == '3'",
            "    speak;;The sheer bulk of this monster is not something even the Fell Dragon dares to trifle with.;center;NumLines=2;DialogBox=menu_bg_parchment",
            "end",
            "trigger_script;Global Get_Next_Chapter",
            "win_game",
            "",
            ""
        ]
    }
]