[
    {
        "name": "z. Event - Voice_Sub",
        "trigger": null,
        "level_nid": "Act_2",
        "condition": "True",
        "commands": [],
        "only_once": false,
        "priority": 20,
        "_source": [
            "choice;Skill_Choice;Discard which?;[s.nid + '|' + s.name for s in u('{v:Remove_From_Unit}').skills if s.class_skill];Dimensions=5,1;Alignment=right;EntryType=type_skill;expression;backable",
            "if;'{v:Skill_Choice}' != 'BACK'",
            "    if;get_skill(u('{v:Remove_From_Unit}'),'{v:Skill_Choice}').copysafe",
            "        for;skills;[s for s in get_skill(u('{v:Remove_From_Unit}'),'{v:Skill_Choice}').copysafe.value]",
            "            remove_skill;{v:Remove_From_Unit};{skills};no_banner",
            "        endf",
            "        ",
            "    end",
            "    if;get_skill(u('{v:Remove_From_Unit}'),'{v:Skill_Choice}').subskills",
            "        for;skills;[s for s in get_skill(u('{v:Remove_From_Unit}'),'{v:Skill_Choice}').subskills.value]",
            "            remove_skill;{v:Remove_From_Unit};{skills};no_banner",
            "        endf",
            "    end",
            "    remove_skill;{v:Remove_From_Unit};{v:Skill_Choice}",
            "    trigger_script_with_args;Global Global_Give_Exp;receiver,{v:Remove_From_Unit},amount,100,alert,Yes",
            "    trigger_script_with_args;Global Global_Reward_Choice;item_type,weapon,rarity,rare",
            "    win_game",
            "else",
            "    unchoice",
            "end"
        ]
    }
]