[
    {
        "name": "z. Event - Limit Breaker",
        "trigger": null,
        "level_nid": "Act_3",
        "condition": "True",
        "commands": [],
        "only_once": false,
        "priority": 20,
        "_source": [
            "trigger_script;Global Get_Next_Chapter",
            "speak;;Suddenly, the sky splits open, and a blinding light shines through the fog.|A voice speaks to you, seemingly through your mind.|\"I long for the day we meet in battle. But you will not satisfy me with your current strength.\"|\"A boon, then, for the one who is most worthy. Choose wisely.\";center;NumLines=5;DialogBox=menu_bg_parchment",
            "choice;whomst;Who will you choose?;[u.nid + '|' + u.name for u in game.get_units_in_party()];Dimensions=8,1;EntryType=type_unit;expression",
            "end_skip",
            "speak;;\"Very well. And what is the strength you most desire?\";center;NumLines=5;DialogBox=menu_bg_parchment",
            "choice;what;What do you desire most?;['1|Unlock even further potential  <icon>event_mystery</>','2|Let my attributes grow stronger  <icon>event_mystery</>','3|Grant me a surge of power <icon>event_exp</>'];200;expression",
            "end_skip",
            "if;'{v:what}' == '1'",
            "    speak;;\"To new heights, then.|Reach a new precipice, and one day, you may become my better.\";center;NumLines=5;DialogBox=menu_bg_parchment",
            "    change_unit_level_cap;{e:u('{v:whomst}')};5",
            "    alert;Level Cap +5!",
            "elif;'{v:what}' == '2'",
            "    speak;;\"Become a true master.|Focus on your strengths, and use them to challenge me.\";center;NumLines=5;DialogBox=menu_bg_parchment",
            "    change_stat_cap_modifiers;{e:u('{v:whomst}')};HP,5,STR,5,MAG,5,SKL,5,SPD,5,DEF,5,RES,5,LCK,5",
            "    alert;All stat caps +5!",
            "elif;'{v:what}' == '3'",
            "    speak;;\"A small burst of power may help you find the end of the journey.|Now take this power, and come find me at the end of everything.\";center;NumLines=5;DialogBox=menu_bg_parchment",
            "    trigger_script_with_args;Global Global_Give_Exp;receiver,{v:whomst},amount,500,alert,Yes",
            "end",
            "win_game",
            ""
        ]
    }
]