[
    {
        "name": "Events",
        "trigger": null,
        "level_nid": "Act_1",
        "condition": "True",
        "commands": [],
        "only_once": false,
        "priority": 20,
        "_source": [
            "level_var;possible_events;['swordmaster','smelly_bag','fungi','wyrm_sculpture','gemini','wagon','inheritance','vulncrate','strongman','music_man','skill_merchant','BLOODSTORM','mageswarriors','actors','armory','character_death','future_rift','construct','retiree','crypt','bombs','niceday','hire','gambling','affinity']",
            "level_var;pool;[u for u in {v:Full_Gacha_Pool} if u not in RECORDS.get('Available_Units') and u not in [x.nid for x in game.get_all_units_in_party()] and u not in [x.nid for x in game.get_all_units_in_party('Shuffle')]]",
            "if;len(game.get_units_in_party('Reserves')) >= 2",
            "    level_var;possible_events;v('possible_events') + ['mansion']",
            "end",
            "if;not u('Shackled')",
            "    level_var;possible_events;v('possible_events') + ['shackled']",
            "end",
            "if;RECORDS.get('game_clear') and not RECORDS.get('ex_note_4') and not game.game_vars.get('ophie_engaged', 0) == 1",
            "    level_var;possible_events;v('possible_events') + ['yusha']",
            "end",
            "for;promo_member;[u for u in game.get_units_in_party()]",
            "    if;get_klass('{promo_member}').tier <= 1 and any([x for x in game.get_data('Character_Upgrades') if x.unit_nid == '{promo_member}' and x.upgrade_type == 'Promotion'])",
            "        lvar;can_promo_event;1",
            "    end",
            "endf",
            "if;v('can_promo_event', 0) == 1",
            "    level_var;possible_events;v('possible_events') + ['promotion']",
            "end",
            "level_var;chosen;game.get_random_choice([e for e in v('possible_events') if e not in v('seen_events')])",
            "game_var;seen_events;v('seen_events') + [v('chosen')]",
            "transition",
            "change_background;BlackBackground",
            "transition",
            "for;party_unit;[u for u in game.get_units_in_party()]",
            "    if;has_skill(u('{party_unit}'), 'Mythwalker')",
            "        trigger_script_with_args;Global Global_Give_Exp;receiver,{party_unit},amount,50,alert,No",
            "    end",
            "endf",
            "if;RECORDS.get('Event_EXP_level')",
            "    level_var;event_exp;10 * RECORDS.get('Event_EXP_level')",
            "    trigger_script_with_args;Global Global_Give_Exp;receiver,all,amount,{v:event_exp},alert,No",
            "end",
            "if;game.level_vars.get('back_gemini', 0) != 0",
            "    change_party;{v:back_gemini};Flex",
            "    remove_tag;{v:back_gemini};Blacklist",
            "end",
            "trigger_script;Global Global_Event_Rewards",
            "if;'{v:chosen}' == 'swordmaster'",
            "    trigger_script;Act_1 z. Event - Swordmaster",
            "elif;'{v:chosen}' == 'smelly_bag'",
            "    trigger_script;Act_1 z. Event - Smelly Bag",
            "elif;'{v:chosen}' == 'fungi'",
            "    trigger_script;Act_1 z. Event - Fungi Fort",
            "elif;'{v:chosen}' == 'wyrm_sculpture'",
            "    trigger_script;Act_1 z. Event - Wyrmslayer",
            "elif;'{v:chosen}' == 'gemini'",
            "    trigger_script;Act_1 z. Event - Gemini",
            "elif;'{v:chosen}' == 'wagon'",
            "    trigger_script;Act_1 z. Event - Wagon",
            "elif;'{v:chosen}' == 'inheritance'",
            "    trigger_script;Act_1 z. Event - Inheritance",
            "elif;'{v:chosen}' == 'vulncrate'",
            "    trigger_script;Act_1 z. Event - Med_Clinic",
            "elif;'{v:chosen}' == 'shackled'",
            "    trigger_script;Act_1 z. Event - Shackled One",
            "elif;'{v:chosen}' == 'strongman'",
            "    trigger_script;Act_1 z. Event - Strongmen",
            "elif;'{v:chosen}' == 'music_man'",
            "    trigger_script;Act_1 z. Event - Music_Man",
            "elif;'{v:chosen}' == 'skill_merchant'",
            "    trigger_script;Act_1 z. Event - Skill_Merchant",
            "elif;'{v:chosen}' == 'BLOODSTORM'",
            "    trigger_script;z. Event - BLOODSTORM",
            "elif;'{v:chosen}' == 'mageswarriors'",
            "    trigger_script;z. Event - Factions",
            "elif;'{v:chosen}' == 'actors'",
            "    trigger_script;z. Event - Actors",
            "elif;'{v:chosen}' == 'armory'",
            "    trigger_script;z. Event - Armory",
            "elif;'{v:chosen}' == 'bombs'",
            "    trigger_script;z. Event - Bombs",
            "elif;'{v:chosen}' == 'niceday'",
            "    trigger_script;z. Event - NiceDay",
            "elif;'{v:chosen}' == 'character_death'",
            "    trigger_script;Act_1 z. Event - Character_Death",
            "elif;'{v:chosen}' == 'hire'",
            "    trigger_script;Act_1 z. Event - Hire",
            "elif;'{v:chosen}' == 'future_rift'",
            "    trigger_script;Act_1 z. Event - Future Rift",
            "elif;'{v:chosen}' == 'mansion'",
            "    trigger_script;Act_1 z. Event - Mansion",
            "elif;'{v:chosen}' == 'construct'",
            "    trigger_script;Act_1 z. Event - Construct",
            "elif;'{v:chosen}' == 'retiree'",
            "    trigger_script;Act_1 z. Event - Retiree",
            "elif;'{v:chosen}' == 'crypt'",
            "    trigger_script;Act_1 z. Event - Crypt",
            "elif;'{v:chosen}' == 'gambling'",
            "    trigger_script;Act_1 z. Event - Gambling",
            "elif;'{v:chosen}' == 'yusha'",
            "    trigger_script;z. Event - Yusha",
            "elif;'{v:chosen}' == 'promotion'",
            "    trigger_script;z. Event - Promotion",
            "elif;'{v:chosen}' == 'affinity'",
            "    trigger_script;z. Event - Affinity Orb",
            "end",
            "",
            ""
        ]
    }
]