[
    {
        "name": "Bootes_Dead",
        "trigger": "combat_end",
        "level_nid": "Bootes",
        "condition": "is_dead('Bootes')",
        "commands": [],
        "only_once": true,
        "priority": 20,
        "_source": [
            "win_game",
            "",
            ""
        ]
    }
]