[
    {
        "name": "Intro",
        "trigger": "level_start",
        "level_nid": "Boss_Extra",
        "condition": "True",
        "commands": [],
        "only_once": false,
        "priority": 20,
        "_source": [
            "trigger_script;Global Boss_Level",
            "level_var;all_trial_skills;['Nope','Mano','Savant','Deflect','Isolate','Level_Drain','Tri_Devastation','Countdown','Cream_of_Crop','Morass']",
            "lvar;used_trial_skills;[]",
            "lvar;trial_skill_1;'Nothing'",
            "lvar;trial_skill_2;'Nothing'",
            "lvar;trial_skill_3;'Nothing'",
            "give_skill;Edryd_Extra;Block_Nope;no_banner",
            "lvar;countdown;99",
            "#level_var;new_skill;game.get_random_choice([x for x in {v:all_trial_skills} if x not in {v:used_trial_skills}])",
            "change_background;BlackBackground",
            "transition",
            "arrange_formation",
            "change_background",
            "show_layer;three_points;immediate",
            "show_layer;pits;immediate",
            "show_layer;more_points;immediate",
            "show_layer;details;immediate",
            "transition",
            "end_skip",
            "",
            "prep;t;Invitation_to_Darkness",
            "trigger_script;Global Global_End_Preps",
            "",
            "#Story",
            ""
        ]
    }
]