[
    {
        "name": "Reinforcements_Turn_Based",
        "trigger": null,
        "level_nid": "Boss_Extra",
        "condition": "True",
        "commands": [],
        "only_once": false,
        "priority": 20,
        "_source": [
            "if;game.turncount > 3 and game.turncount % 3 == 0",
            "    create_unit;117;Position=2,1;copy_stats",
            "    center_cursor;2,1;immediate",
            "    flicker_cursor;2,1",
            "    create_unit;118;Position=24,1;copy_stats",
            "    center_cursor;24,1;immediate",
            "    flicker_cursor;24,1",
            "end",
            "if;game.turncount > 2 and (game.turncount + 1) % 3 == 0",
            "    create_unit;122;Position=12,20;copy_stats",
            "    center_cursor;12,20;immediate",
            "    flicker_cursor;12,20",
            "    create_unit;123;Position=14,20;copy_stats",
            "    center_cursor;14,20;immediate",
            "    flicker_cursor;14,20",
            "end",
            "if;game.turncount > 1 and (game.turncount + 2) % 3 == 0",
            "    create_unit;120;Position=7,0;copy_stats",
            "    center_cursor;7,0;immediate",
            "    flicker_cursor;7,0",
            "    create_unit;121;Position=19,0;copy_stats",
            "    center_cursor;19,0;immediate",
            "    flicker_cursor;19,0",
            "end",
            ""
        ]
    }
]