[
    {
        "name": "Intro",
        "trigger": "level_start",
        "level_nid": "Coalition",
        "condition": "True",
        "commands": [],
        "only_once": false,
        "priority": 20,
        "_source": [
            "trigger_script;Global Get_Next_Chapter",
            "trigger_script;Global Boss_Level",
            "change_team;Edryd_T;other",
            "if;RECORDS.get('Act_2_Power_level') > 0",
            "    add_group;hm;hm;immediate",
            "    give_skill;Boss1;HP_Double;no_banner",
            "    set_current_hp;Boss1;999",
            "    give_skill;Boss2;HP_Double;no_banner",
            "    set_current_hp;Boss2;999",
            "    give_skill;Boss3;HP_Double;no_banner",
            "    set_current_hp;Boss3;999",
            "    give_skill;Boss4;HP_Double;no_banner",
            "    set_current_hp;Boss4;999",
            "    give_skill;Boss5;HP_Double;no_banner",
            "    set_current_hp;Boss5;999",
            "    remove_item;Boss2;Aloft;no_banner",
            "end",
            "arrange_formation",
            "level_var;win_con;0",
            "end_skip",
            "prep;t",
            "trigger_script;Global Global_End_Preps",
            "change_team;Edryd_T;player",
            "center_cursor;Edryd_T;immediate",
            "flicker_cursor;Edryd_T",
            "multi_add_portrait;Edryd;Left;Player;Right",
            "speak;Edryd;Damn, they've already made it this far?|It won't be much longer until the main army shows up.|We don't have much time.|If they destroy the Gate, we're all doomed, right?|We'll have to hurry to its defense.",
            "multi_remove_portrait;Edryd;Player",
            "center_cursor;Boss1;immediate",
            "flicker_cursor;Boss1",
            "add_portrait;SoldierRed;Right",
            "speak;SoldierRed;So, the Scale and her lackey are already here?|Unfortunate, but we're prepared for this.|We need only to hold them off until Fabien and Chantal arrive.|The Lux Coalition will be the ones to snuff out the Oculi once and for all!|Soldiers, to arms!",
            "remove_portrait;SoldierRed",
            "trigger_script;Global Music_Battle_Start"
        ]
    }
]