[
    {
        "name": "Wall_HP",
        "trigger": "combat_end",
        "level_nid": "Dawnbreak",
        "condition": "'Snag' in unit2.nid",
        "commands": [],
        "only_once": false,
        "priority": 20,
        "_source": [
            "if;unit2.nid == 'Snag_1'",
            "    set_current_hp;Snag_2;{e:unit2.get_hp()}",
            "elif;unit2.nid == 'Snag_2'",
            "    set_current_hp;Snag_1;{e:unit2.get_hp()}",
            "end",
            ""
        ]
    }
]