[
    {
        "name": "Fight_Faenia_Sotirios",
        "trigger": "combat_start",
        "level_nid": "Dawnbreak",
        "condition": "check_pair('Sotirios_T', 'Faenia_2')",
        "commands": [],
        "only_once": true,
        "priority": 20,
        "_source": [
            "multi_add_portrait;Faenia_2;Left;Sotirios_T;Right",
            "speak;Faenia_2;Grandfather!",
            "speak;Sotirios_T;Ah, shoot.|I was hoping we wouldn't need to meet on this battlefield...",
            "speak;Faenia_2;I... don't want to fight...",
            "speak;Sotirios_T;Nor do I.|Look, let's agree to pull our punches, eh?|Winner lets the loser sneak away.|Nobody else needs to know.",
            "bop;Faenia_2",
            "speak;Faenia_2;Ok!",
            "multi_remove_portrait;Sotirios_T;Faenia_2",
            ""
        ]
    }
]