[
    {
        "name": "Intro",
        "trigger": "level_start",
        "level_nid": "EV_Crypt",
        "condition": "True",
        "commands": [],
        "only_once": false,
        "priority": 20,
        "_source": [
            "for;enemy_unit;[u for u in game.level.units if u.team in ['enemy', 'enemy2']]",
            "    level_var;level_plus;1 + int({v:Game_Level})",
            "    if;RECORDS.get('current_density') > 10",
            "        change_stat_cap_modifiers;{enemy_unit};HP,20,STR,10,MAG,10,SKL,10,SPD,10,LCK,10,DEF,10,RES,10",
            "        for;stat_list;get_klass('{enemy_unit}').growths.keys()",
            "            set_growths;{enemy_unit};{stat_list},{e:int(get_klass('{enemy_unit}').growths.get('{stat_list}', 0) * 1.25)}",
            "        endf",
            "    end",
            "    autolevel_to;{enemy_unit};{v:level_plus};fixed;no_warn",
            "endf",
            "trigger_script;Global Get_Next_Chapter",
            "arrange_formation",
            "prep;t",
            "trigger_script;Global Global_End_Preps",
            "trigger_script;Global Music_Battle_Start"
        ]
    }
]