[
    {
        "name": "Outro",
        "trigger": "level_end",
        "level_nid": "EV_Fungi",
        "condition": "True",
        "commands": [],
        "only_once": false,
        "priority": 20,
        "_source": [
            "trigger_script;Global Global_Battle_Cleanup",
            "if;not game.level_vars.get('escaped', 0) == 1",
            "    give_item;convoy;Poison_Pellets",
            "    give_item;convoy;Exacerbator",
            "end"
        ]
    }
]