[
    {
        "name": "Prometheus Phase 2",
        "trigger": "combat_end",
        "level_nid": "EV_Prometheus",
        "condition": "get_skill('Prometheus_E', 'Legend').data['charge'] == 0 or not any([u for u in game.get_enemy_units() if u.generic])",
        "commands": [],
        "only_once": true,
        "priority": 20,
        "_source": [
            "give_item;{unit};Option",
            "remove_skill;Prometheus_E;Bound",
            "remove_item;Prometheus_E;Option;no_banner",
            "remove_item;Prometheus_E;Silver_Lance;no_banner",
            "give_item;Prometheus_E;Libera_Me;no_banner",
            "for;ENEMY_UNIT;[u.nid for u in game.get_enemy_units()]",
            "change_ai;{ENEMY_UNIT};Pursue",
            "endf"
        ]
    }
]