[
    {
        "name": "Intro",
        "trigger": "level_start",
        "level_nid": "EV_Quartet",
        "condition": "True",
        "commands": [],
        "only_once": false,
        "priority": 20,
        "_source": [
            "level_var;level_plus;5 + int({v:Game_Level})",
            "if;RECORDS.get('current_density') > 10",
            "    change_stat_cap_modifiers;Stranger;HP,20,STR,10,MAG,10,SKL,10,SPD,10,LCK,10,DEF,10,RES,10",
            "    for;stat_list;get_klass('Stranger').growths.keys()",
            "        set_growths;Stranger;{stat_list},{e:int(get_klass('Stranger').growths.get('{stat_list}', 0) * 1.25)}",
            "    endf",
            "    change_stat_cap_modifiers;Stranger_2;HP,20,STR,10,MAG,10,SKL,10,SPD,10,LCK,10,DEF,10,RES,10",
            "    for;stat_list;get_klass('Stranger_2').growths.keys()",
            "        set_growths;Stranger_2;{stat_list},{e:int(get_klass('Stranger_2').growths.get('{stat_list}', 0) * 1.25)}",
            "    endf",
            "    change_stat_cap_modifiers;Stranger_3;HP,20,STR,10,MAG,10,SKL,10,SPD,10,LCK,10,DEF,10,RES,10",
            "    for;stat_list;get_klass('Stranger_3').growths.keys()",
            "        set_growths;Stranger_3;{stat_list},{e:int(get_klass('Stranger_3').growths.get('{stat_list}', 0) * 1.25)}",
            "    endf",
            "    change_stat_cap_modifiers;Stranger_4;HP,20,STR,10,MAG,10,SKL,10,SPD,10,LCK,10,DEF,10,RES,10",
            "    for;stat_list;get_klass('Stranger_4').growths.keys()",
            "        set_growths;Stranger_4;{stat_list},{e:int(get_klass('Stranger_4').growths.get('{stat_list}', 0) * 1.25)}",
            "    endf",
            "end",
            "autolevel_to;Stranger;{v:level_plus};fixed;no_warn",
            "autolevel_to;Stranger_2;{v:level_plus};fixed;no_warn",
            "autolevel_to;Stranger_3;{v:level_plus};fixed;no_warn",
            "autolevel_to;Stranger_4;{v:level_plus};fixed;no_warn",
            "trigger_script;Global Get_Next_Chapter",
            "arrange_formation",
            "prep;t",
            "trigger_script;Global Global_End_Preps",
            "trigger_script;Global Music_Battle_Start",
            ""
        ]
    }
]