[
    {
        "name": "Escape",
        "trigger": "Escape",
        "level_nid": "EV_Thieves",
        "condition": "True",
        "commands": [],
        "only_once": false,
        "priority": 20,
        "_source": [
            "remove_unit;{unit}",
            "trigger_script;EV_Thieves Win_Condition"
        ]
    }
]