[
    {
        "name": "Intro",
        "trigger": "level_start",
        "level_nid": "Fabien",
        "condition": "True",
        "commands": [],
        "only_once": false,
        "priority": 20,
        "_source": [
            "gvar;Alter_Act;1",
            "trigger_script;Global Get_Next_Chapter",
            "trigger_script;Global Boss_Level",
            "level_var;deployed_units;[]",
            "change_team;Edryd_T;other",
            "change_background;BlackBackground",
            "transition",
            "change_background",
            "resurrect;Edryd_T;no_warn",
            "set_current_hp;Edryd_T;99",
            "add_unit;Edryd_T;10,5;immediate",
            "if;RECORDS.get('Act_2_Power_level') == 0",
            "    set_skill_data;Fabien;Legend;charge;0",
            "    set_skill_data;Chantal;Legend;charge;0",
            "    level_var;directions;['Southwest','West','South','Southeast','East']",
            "elif;RECORDS.get('Act_2_Power_level') > 0",
            "    show_layer;hallways",
            "    add_group;hm_1;hm_1;immediate",
            "    level_var;directions;['Southwest','West','South','Southeast','East','Northeast','Northwest']",
            "end",
            "if;RECORDS.get('game_clear') and not RECORDS.get('ex_note_5')",
            "    give_item;108;Key_Part_B;no_banner",
            "end",
            "transition",
            "center_cursor;Edryd_T;immediate",
            "flicker_cursor;Edryd_T",
            "multi_add_portrait;Edryd;Left;Player;Right",
            "speak;Edryd;Looks like they've brought the brunt of their army...|As well as two generals.|We may be in trouble here...",
            "multi_remove_portrait;Edryd;Player",
            "center_cursor;Fabien;immediate",
            "flicker_cursor;Fabien",
            "multi_add_portrait;Fabien;MidLeft;Chantal;FarLeft;Player;MidRight;Edryd;FarRight",
            "speak;Fabien;This need not be difficult, fiends!|I'm feeling rather charitable today, even!|Hand over the Scale, dead or alive, and I'll let the rest of you go!|Not a bad deal, eh?|You should be happy the Great Fabien was here!",
            "speak;Edryd;*sigh*|One of *those* types, huh?|And what do you mean, hand over the Scale?|Are you not here for the Gate?",
            "speak;Fabien;Nay, that was but a ruse!|Of course, if that's what it takes,|I will nobly tear that wretched door apart and kill us all.|But our goal was simply to lure you out!|Honestly, I'm surprised it worked so well.",
            "speak;Chantal;The rest of the Lux are off holding back the rest of the Oculi...|Did you have no faith, Fabien?|This was planned for months...",
            "speak;Fabien;Details, Chantal.|I don't care for them.|Now then, twig man.|Are we doing this the easy way, or the fun way?",
            "speak;Edryd;You have a bizarre sense of-|Oh, nevermind.|Draw your weapons.|While I still stand, so does this Gate!",
            "multi_remove_portrait;Player;Edryd",
            "speak;Fabien;Well, I tried.|Looks like we're in for a rough one.|But fear not, my dearest Chantal.|I shall be ever your protector,|until I no longer draw breath.",
            "speak;Chantal;Yes...|Of course, Fabien.",
            "remove_portrait;Fabien",
            "speak;Chantal;...|But if either of us is to die for the other...|I'd sooner it be me, darling...",
            "remove_portrait;Chantal",
            "arrange_formation",
            "end_skip",
            "prep;t;;Check Seals;true;Menu_Seal_Check",
            "trigger_script;Global Global_End_Preps",
            "change_team;Edryd_T;player",
            "center_cursor;Fabien;immediate",
            "flicker_cursor;Fabien",
            "multi_add_portrait;Fabien;Left;Chantal;Right",
            "speak;Fabien;Now, let us strike!|They shall fear the wrath of-",
            "speak;Chantal;Fabien, no need to be hasty.|Let us hide ourselves, and wait for an opportune moment.",
            "speak;Fabien;Very well, Chantal.|We'll do it your way this time.|They will fear the wrath of the Lux!|...in due time.",
            "multi_remove_portrait;Fabien;Chantal",
            "remove_unit;Fabien",
            "remove_unit;Chantal",
            "#For the reinforcements on turn 6/7",
            "level_var;direction1;game.get_random_choice({v:directions})",
            "level_var;direction2;game.get_random_choice({v:directions})",
            "trigger_script;Global Music_Battle_Start"
        ]
    }
]