[
    {
        "name": "Ability_Mockery_Break",
        "trigger": null,
        "level_nid": null,
        "condition": "True",
        "commands": [],
        "only_once": false,
        "priority": 20,
        "_source": [
            "give_item;{unit};{item};no_banner",
            "",
            "lvar;mockery;{item}",
            "lvar;mockery_uses;{e:get_item(u('{unit}'),v('mockery')).uses.value * 2}",
            "",
            "if;v('mockery_uses') <= 64",
            "    ",
            "    remove_item_component;{unit};{item};uses",
            "    remove_item_component;{unit};{item};uses_options",
            "    remove_item;{unit};{item};no_banner",
            "    ",
            "    give_item;{unit};{v:mockery}",
            "    add_item_component;{unit};{v:mockery};uses;{v:mockery_uses}",
            "    set_item_data;{unit};{item};uses;{e:get_item(game.get_unit('{unit}'),{item}).uses.value}",
            "    add_item_component;{unit};{item};uses_options;[['OneLossPerCombat (T/F)', 'F', \"Doubling doesn't cost extra uses\"]]",
            "    modify_item_component;{unit};{item};damage;3;additive",
            "    modify_item_component;{unit};{item};hit;10;additive",
            "    modify_item_component;{unit};{item};crit;5;additive",
            "    equip_item;{unit};{v:mockery}",
            "else",
            "    remove_item;{unit};{item};no_banner",
            "    give_item;{unit};Adoration",
            "end",
            "if;RECORDS.get('Ralio_4')",
            "    give_item;{unit};Knights_Oath_Plus;no_banner",
            "    give_skill;{unit};Frost_Shivs_Plus;no_banner",
            "else",
            "    give_item;{unit};Knights_Oath;no_banner",
            "    give_skill;{unit};Frost_Shivs;no_banner",
            "end"
        ]
    }
]