[
    {
        "name": "Ability_Astral_Storm_Recharge",
        "trigger": null,
        "level_nid": null,
        "condition": "True",
        "commands": [],
        "only_once": false,
        "priority": 20,
        "_source": [
            "if;get_skill(unit, 'Astral_Storm').data['charge'] < 5",
            "    trigger_script_with_args;Global Global Recharge;charge_tgt,{e:unit},charge_up,Astral_Storm,charge_val,1",
            "end",
            "if;get_skill(unit, 'Astral_Storm_Plus').data['charge'] < 5",
            "    trigger_script_with_args;Global Global Recharge;charge_tgt,{e:unit},charge_up,Astral_Storm_Plus,charge_val,1",
            "end",
            "remove_skill;{unit};Illusion;1;no_banner",
            "remove_skill;{unit};Illusion_Plus;1;no_banner"
        ]
    }
]