[
    {
        "name": "Ability_Celestial_Extirpation",
        "trigger": null,
        "level_nid": null,
        "condition": "True",
        "commands": [],
        "only_once": false,
        "priority": 20,
        "_source": [
            "remove_skill;{unit};Telescope_Lens_Stack;5;no_banner;no_warn",
            "lvar;sort_generics;[x.nid for x in game.get_all_units() if x.team in ('player','other') and x.generic]",
            "lvar;sort_generics;sorted(game.level_vars.get('sort_generics'), key=lambda u: has_skill(u, 'Fallen_Star_Properties'), reverse=True)",
            "lvar;star_counter;0",
            "for;star_killing;[u for u in {v:sort_generics}]",
            "    kill_unit;{star_killing}",
            "    give_skill;{unit};Celestial_Extirpation_Stack;no_banner",
            "    inc_level_var;star_counter;1",
            "    if;{v:star_counter} >= 5",
            "        finish",
            "    end",
            "endf",
            ""
        ]
    }
]