[
    {
        "name": "Get_Blacksmith_Pool",
        "trigger": null,
        "level_nid": null,
        "condition": "True",
        "commands": [],
        "only_once": false,
        "priority": 20,
        "_source": [
            "if;game.game_vars.get('Floor') and RECORDS.get('Game_Speed') == 1",
            "    if;{v:Floor} <= 7",
            "        level_var;cur_wep_pool;{v:wep_pool_D}",
            "    elif;{v:Floor} > 7 and {v:Floor} <= 15",
            "        level_var;cur_wep_pool;{v:wep_pool_C} + {v:wep_pool_D}",
            "    elif;{v:Floor} > 15 and {v:Floor} <= 22",
            "        level_var;cur_wep_pool;{v:wep_pool_C} + {v:wep_pool_D}",
            "    elif;{v:Floor} > 22 and {v:Floor} <= 30",
            "        level_var;cur_wep_pool;{v:wep_pool_B} + {v:wep_pool_C} + {v:wep_pool_D}",
            "    elif;{v:Floor} > 30 and {v:Floor} <= 37",
            "        level_var;cur_wep_pool;{v:wep_pool_B} + {v:wep_pool_C} + {v:wep_pool_D}",
            "    else",
            "        level_var;cur_wep_pool;{v:wep_pool_A} + {v:wep_pool_B} + {v:wep_pool_C} + {v:wep_pool_D}",
            "    end",
            "elif;game.game_vars.get('Floor') and RECORDS.get('Game_Speed') == 2",
            "    if;{v:Floor} <= 5",
            "        level_var;cur_wep_pool;{v:wep_pool_D}",
            "    elif;{v:Floor} > 5 and {v:Floor} <= 10",
            "        level_var;cur_wep_pool;{v:wep_pool_C} + {v:wep_pool_D}",
            "    elif;{v:Floor} > 10 and {v:Floor} <= 15",
            "        level_var;cur_wep_pool;{v:wep_pool_C} + {v:wep_pool_D}",
            "    elif;{v:Floor} > 15 and {v:Floor} <= 20 ",
            "        level_var;cur_wep_pool;{v:wep_pool_B} + {v:wep_pool_C} + {v:wep_pool_D}",
            "    elif;{v:Floor} > 20 and {v:Floor} <= 25",
            "        level_var;cur_wep_pool;{v:wep_pool_B} + {v:wep_pool_C} + {v:wep_pool_D}",
            "    else",
            "        level_var;cur_wep_pool;{v:wep_pool_A} + {v:wep_pool_B} + {v:wep_pool_C} + {v:wep_pool_D}",
            "    end",
            "end",
            ""
        ]
    }
]