[
    {
        "name": "Ability_Turn_Relay_Lose",
        "trigger": "unit_wait",
        "level_nid": null,
        "condition": "any([has_skill(x, 'TurnRelay_Partner') for x in game.get_player_units()])",
        "commands": [],
        "only_once": false,
        "priority": 20,
        "_source": [
            "if;any([u for u in game.get_player_units() if has_skill(u, 'TurnRelay_Partner') and not (u.traveler and has_skill(game.get_unit(u.traveler), 'TurnRelay'))])",
            "    for;turn_relay_dudes;[u for u in game.get_player_units() if has_skill(u, 'TurnRelay_Partner') and not (u.traveler and has_skill(game.get_unit(u.traveler), 'TurnRelay'))]",
            "        remove_skill;{turn_relay_dudes};TurnRelay_Partner;no_banner",
            "    endf",
            "end"
        ]
    }
]