[
    {
        "name": "Item_Mine_Trigger",
        "trigger": "Mine",
        "level_nid": null,
        "condition": "True",
        "commands": [],
        "only_once": false,
        "priority": 20,
        "_source": [
            "remove_map_anim;Square;{unit}",
            "remove_region;{e:unit.position}",
            "map_anim;AOE_Fireball;{unit}",
            "give_skill;{unit};Mine;no_banner",
            "if;unit.get_hp() <= 10 and not any([s.fatal_block for s in unit.skills])",
            "    kill_unit;{unit}",
            "    if;game.game_vars.get('game_over' , 0) == 1",
            "        trigger_script;Global Global_Loss",
            "    end",
            "else",
            "    set_current_hp;{unit};{e:unit.get_hp() - 10}",
            "end",
            "remove_skill;{unit};Mine;no_banner",
            "has_finished;{unit}",
            ""
        ]
    }
]