[
    {
        "name": "Item_Skill_Potion",
        "trigger": null,
        "level_nid": null,
        "condition": "True",
        "commands": [],
        "only_once": false,
        "priority": 20,
        "_source": [
            "lvar;all_skills;[s.nid for s in DB.skills if s.components.get('copysafe')]",
            "lvar;potion_skill_1;game.get_random_choice({v:all_skills})",
            "lvar;potion_skill_2;game.get_random_choice([x for x in {v:all_skills} if x != '{v:potion_skill_1}'])",
            "choice;skill_potion_skill;Gain which skill?;['{v:potion_skill_1}','{v:potion_skill_2}'];EntryType=type_skill;expression",
            "give_skill;{unit};{v:skill_potion_skill}",
            "if;get_skill(u('{unit}'), '{v:skill_potion_skill}').copysafe",
            "    for;skills;[s for s in get_skill(u('{unit}'),'{v:skill_potion_skill}').copysafe.value]",
            "        give_skill;{unit};{skills};no_banner",
            "    endf",
            "end",
            ""
        ]
    }
]