[
    {
        "name": "Ability_Strike_Again_Attack",
        "trigger": "combat_end",
        "level_nid": null,
        "condition": "has_skill(unit, 'Striking_Again')",
        "commands": [],
        "only_once": false,
        "priority": 20,
        "_source": [
            "reset;{unit}",
            "lvar;Strike_Again_Reset;1",
            ""
        ]
    }
]