[
    {
        "name": "Ability_Reinforce",
        "trigger": null,
        "level_nid": null,
        "condition": "True",
        "commands": [],
        "only_once": false,
        "priority": 20,
        "_source": [
            "if;game.get_money() < 250",
            "    choice;HeidiReinforceChoice;Call in reinforcements?;1x|1 Pegasus (100 Gold),No|Don't call reinforcements",
            "    #;;center",
            "else",
            "    choice;HeidiReinforceChoice;Call in reinforcements?;1x|1 Pegasus (100 Gold),3x|3 Pegasi (250 Gold),No|Don't call reinforcements",
            "    #;;center",
            "end",
            "if;item.nid == 'Reinforce_Plus'",
            "    lvar;r_klass;'Falcoknight'",
            "else",
            "    lvar;r_klass;'Sky_Knight'",
            "end",
            "if;\"{var:HeidiReinforceChoice}\" == '1x'",
            "    make_generic;;{e:'{v:r_klass}'};1;player;None;Sellsword",
            "    autolevel_to;{created_unit};{e:unit.level};fixed",
            "    give_skill;{created_unit};No_Trade;no_banner",
            "    add_tag;{created_unit};Temporary",
            "    trigger_script_with_args;Global Give_Summon_Weapon;rarity,common,summon_unit,{e:'{created_unit}'}",
            "    for;summon_item;[i.uid for i in u('{created_unit}').items]",
            "        add_item_component;{created_unit};{summon_item};locked;no_warn",
            "    endf",
            "    set_stats;{created_unit};HP,10;immediate",
            "    add_unit;{created_unit};{unit};fade;closest",
            "    give_money;-100",
            "elif;\"{var:HeidiReinforceChoice}\" == '3x'",
            "    make_generic;;{e:'{v:r_klass}'};1;player;None;Sellsword",
            "    autolevel_to;{created_unit};{e:unit.level};fixed",
            "    give_skill;{created_unit};No_Trade;no_banner",
            "    add_tag;{created_unit};Temporary",
            "    trigger_script_with_args;Global Give_Summon_Weapon;rarity,common,summon_unit,{e:'{created_unit}'}",
            "    for;summon_item;[i.uid for i in u('{created_unit}').items]",
            "        add_item_component;{created_unit};{summon_item};locked;no_warn",
            "    endf",
            "    set_stats;{created_unit};HP,10;immediate",
            "    add_unit;{created_unit};{unit};fade;closest",
            "    make_generic;;{e:'{v:r_klass}'};1;player;None;Sellsword;;Javelin",
            "    autolevel_to;{created_unit};{e:unit.level};fixed",
            "    give_skill;{created_unit};No_Trade;no_banner",
            "    add_tag;{created_unit};Temporary",
            "    trigger_script_with_args;Global Give_Summon_Weapon;rarity,common,summon_unit,{e:'{created_unit}'}",
            "    for;summon_item;[i.uid for i in u('{created_unit}').items]",
            "        add_item_component;{created_unit};{summon_item};locked;no_warn",
            "    endf",
            "    set_stats;{created_unit};HP,10;immediate",
            "    add_unit;{created_unit};{unit};fade;closest",
            "    make_generic;;{e:'{v:r_klass}'};1;player;None;Sellsword",
            "    autolevel_to;{created_unit};{e:unit.level};fixed",
            "    give_skill;{created_unit};No_Trade;no_banner",
            "    add_tag;{created_unit};Temporary",
            "    trigger_script_with_args;Global Give_Summon_Weapon;rarity,common,summon_unit,{e:'{created_unit}'}",
            "    for;summon_item;[i.uid for i in u('{created_unit}').items]",
            "        add_item_component;{created_unit};{summon_item};locked;no_warn",
            "    endf",
            "    set_stats;{created_unit};HP,10;immediate",
            "    add_unit;{created_unit};{unit};fade;closest",
            "    give_money;-250",
            "end"
        ]
    }
]