[
    {
        "name": "Ability_Protocol_GUARD",
        "trigger": "unit_wait",
        "level_nid": null,
        "condition": "has_skill(unit,'GUARD_spotted') or has_skill(unit,'GUARD_spotted_Plus')",
        "commands": [],
        "only_once": false,
        "priority": 20,
        "_source": [
            "if;get_skill(u('HOUND_M79'), 'Protocol_HUNT').data['charge'] >= 1 and has_skill(unit,'GUARD_spotted_Plus')",
            "    interact_unit;HOUND_M79;{unit};hit1;GUARD_Attack_Plus;force_no_animation",
            "elif;get_skill(u('HOUND_M79'), 'Protocol_HUNT').data['charge'] >= 1 and has_skill(unit,'GUARD_spotted')",
            "    interact_unit;HOUND_M79;{unit};hit1;GUARD_Attack;force_no_animation",
            "end"
        ]
    }
]