[
    {
        "name": "Ability_Elevate_Potential_Apply",
        "trigger": null,
        "level_nid": null,
        "condition": "True",
        "commands": [],
        "only_once": false,
        "priority": 20,
        "_source": [
            "for;wep_type;[w for w in u('{unit2}').wexp]",
            "    if;u('{unit2}').wexp.get('{wep_type}') > 0",
            "        give_wexp;{unit2};{wep_type};15;no_banner",
            "    end",
            "endf",
            ""
        ]
    }
]