[
    {
        "name": "Death_Ashley",
        "trigger": "combat_end",
        "level_nid": null,
        "condition": "(is_dead('Ashley') or is_dead('Ashley_2')) and u('Ashley_2')",
        "commands": [],
        "only_once": false,
        "priority": 20,
        "_source": [
            "if;is_dead('Ashley') and not is_dead('Ashley_2')",
            "    kill_unit;Ashley_2",
            "elif;is_dead('Ashley_2') and not is_dead('Ashley')",
            "    kill_unit;Ashley",
            "end",
            ""
        ]
    }
]