[
    {
        "name": "Item_NoktJutsu_Summer2Fall",
        "trigger": null,
        "level_nid": null,
        "condition": "True",
        "commands": [],
        "only_once": false,
        "priority": 20,
        "_source": [
            "level_var;NoktCloneKnives;['NoktStance_Bear','NoktStance_Snake','NoktStance_Tiger']",
            "",
            "for;NoktMirageLoop;range(2)",
            "",
            "make_generic;;Ninja;1;player;None;Phantom",
            "autolevel_to;{created_unit};{e:unit.level};fixed",
            "set_unit_field;{created_unit};Summoner;unit.nid",
            "set_unit_field;{created_unit};Summoned_by;'Jutsu_Mirage'",
            "give_item;{created_unit};{e:game.get_random_choice({v:NoktCloneKnives})};no_banner",
            "give_skill;{created_unit};No_Trade;no_banner",
            "give_skill;{created_unit};FleetingMirage;no_banner",
            "add_tag;{created_unit};Temporary",
            "add_tag;{created_unit};Nokt_Stance_User",
            "add_tag;{created_unit};NoRescue",
            "for;summon_item;[i.uid for i in u('{created_unit}').items]",
            "add_item_component;{created_unit};{summon_item};locked;no_warn",
            "endf",
            "add_unit;{created_unit};{unit};swoosh;closest",
            "",
            "endf",
            "",
            "",
            "",
            "remove_item;{unit};NoktJutsu_Mirage;no_banner",
            "give_item;{unit};NoktJutsu_Leafblade;no_banner"
        ]
    }
]