[
    {
        "name": "Ability_Break_Verse",
        "trigger": null,
        "level_nid": null,
        "condition": "True",
        "commands": [],
        "only_once": false,
        "priority": 20,
        "_source": [
            "if;v('curr_verse') != 'Nothing'",
            "    remove_item_from_multiitem;{unit};Scripture;{v:curr_verse}",
            "end",
            ""
        ]
    }
]