[
    {
        "name": "Ability_Onset_Of_Blades",
        "trigger": "combat_start",
        "level_nid": null,
        "condition": "has_skill(unit, 'Onset_of_Blades')",
        "commands": [],
        "only_once": false,
        "priority": 20,
        "_source": [
            "if;not any([u for u in game.get_player_units() if u._finished and not u.generic]) and skill_system.check_enemy(unit, unit2)",
            "    give_skill;{unit};Blade_Dance;{unit};no_banner",
            "end"
        ]
    }
]