[
    {
        "name": "Ability_MalevolantBlight",
        "trigger": null,
        "level_nid": null,
        "condition": "True",
        "commands": [],
        "only_once": false,
        "priority": 99,
        "_source": [
            "transition;close;;160,36,160",
            "for;poisoned;[u.nid for u in game.get_enemy_units() if any([s.negative for s in u.skills])]",
            "    give_skill;{poisoned};Disrupted;no_banner",
            "    give_skill;{poisoned};Toxin;no_banner",
            "    give_skill;{poisoned};Toxin;no_banner",
            "endf",
            "wait;200",
            "transition;open;;160,36,160",
            ""
        ]
    }
]