[
    {
        "name": "Ability_Like_Water_Retaliate",
        "trigger": null,
        "level_nid": null,
        "condition": "True",
        "commands": [],
        "only_once": false,
        "priority": 20,
        "_source": [
            "if;unit2 and unit2.team not in ['player', 'other'] and not unit2.is_dying",
            "    set_current_hp;{unit2};{e:max(1, unit2.get_hp() - unit.get_stat('RES'))}",
            "end"
        ]
    }
]