[
    {
        "name": "Ability_Cheer_Stacks_Reset",
        "trigger": null,
        "level_nid": null,
        "condition": "True",
        "commands": [],
        "only_once": false,
        "priority": 20,
        "_source": [
            "lvar;Cheer_Stacks;0",
            ""
        ]
    }
]