[
    {
        "name": "Ability_Defensive_Field",
        "trigger": null,
        "level_nid": null,
        "condition": "True",
        "commands": [],
        "only_once": false,
        "priority": 20,
        "_source": [
            "if;unit2 and unit2.team in ['enemy', 'enemy2'] or has_skill(unit, 'Berserk') or has_skill(unit2, 'Berserk')",
            "    for;D_FIELD_PARENT;[s.parent_skill.owner_nid for s in unit.skills if s.nid == 'Defensive_Field_A']",
            "        give_skill;{D_FIELD_PARENT};Heat",
            "        if;len([s for s in u('{D_FIELD_PARENT}').skills if s.nid == 'Heat']) >= 3",
            "            remove_skill;{D_FIELD_PARENT};Defensive_Field_S",
            "        end",
            "    endf",
            "    if;has_skill(unit, 'Defensive_Field_S')",
            "        give_skill;{unit};Heat",
            "        if;len([s for s in unit.skills if s.nid == 'Heat']) >= 3",
            "            remove_skill;{unit};Defensive_Field_S",
            "        end",
            "    end",
            "end"
        ]
    }
]