[
    {
        "name": "Global Get_Trial_Room",
        "trigger": null,
        "level_nid": null,
        "condition": "True",
        "commands": [],
        "only_once": false,
        "priority": 20,
        "_source": [
            "gvar;in_trial_room;7",
            "if;(RECORDS.get('Game_Speed') == 1 and {v:Floor} == 14) or (RECORDS.get('Game_Speed') == 2 and {v:Floor} == 9)",
            "    gvar;in_trial_room;1",
            "elif;(RECORDS.get('Game_Speed') == 1 and {v:Floor} == 29) or (RECORDS.get('Game_Speed') == 2 and {v:Floor} == 19)",
            "    gvar;in_trial_room;2",
            "elif;(RECORDS.get('Game_Speed') == 1 and {v:Floor} == 44) or (RECORDS.get('Game_Speed') == 2 and {v:Floor} == 29)",
            "    gvar;in_trial_room;3",
            "elif;(RECORDS.get('Game_Speed') == 1 and {v:Floor} == 48) or (RECORDS.get('Game_Speed') == 2 and {v:Floor} == 33)",
            "    gvar;in_trial_room;4",
            "end"
        ]
    }
]