[
    {
        "name": "Ability_Gambit_Crit",
        "trigger": null,
        "level_nid": null,
        "condition": "True",
        "commands": [],
        "only_once": false,
        "priority": 20,
        "_source": [
            "give_skill;{unit};Card;;no_banner",
            ""
        ]
    }
]