[
    {
        "name": "Ability_Breaking_the_Ice",
        "trigger": null,
        "level_nid": null,
        "condition": "True",
        "commands": [],
        "only_once": false,
        "priority": 20,
        "_source": [
            "lvar;break_ice_heal;0",
            "if;has_skill(unit, 'Breaking_The_Ice_Plus')",
            "    for;break_ice_stacks;[x for x in range(len([s for s in unit.skills if s.nid == 'Snow_Blessing_Plus']))]",
            "        inc_level_var;break_ice_heal;2",
            "    endf",
            "else",
            "    for;break_ice_stacks;[x for x in range(len([s for s in unit.skills if s.nid == 'Snow_Blessing']))]",
            "        inc_level_var;break_ice_heal;2",
            "    endf",
            "end",
            "set_current_hp;{unit};{e:unit.get_hp() + {v:break_ice_heal}}",
            "if;len([u for u in game.get_player_units()]) >= 2",
            "    lvar;sort_hp_players;[x.nid for x in game.get_player_units() if x.nid != unit.nid]",
            "    lvar;sort_hp_players;sorted(game.level_vars.get('sort_hp_players'), key=lambda x: game.get_unit(x).get_hp())",
            "    lvar;lowest_hp_unit;str({v:sort_hp_players}[0])",
            "    set_current_hp;{v:lowest_hp_unit};{e:u('{v:lowest_hp_unit}').get_hp() + {v:break_ice_heal}}",
            "end",
            "remove_skill;{unit};Snow_Blessing;4;no_banner;no_warn",
            "remove_skill;{unit};Snow_Blessing_Plus;6;no_banner;no_warn",
            "for;bad_guys;[u.nid for u in get_units_within_distance(unit.position, 2, team='enemy')]",
            "    give_skill;{bad_guys};Chilled;no_banner",
            "endf",
            "for;bad_guys;[u.nid for u in get_units_within_distance(unit.position, 2, team='enemy2')]",
            "    give_skill;{bad_guys};Chilled;no_banner",
            "endf",
            ""
        ]
    }
]