[
    {
        "name": "Ability_Gettem_1",
        "trigger": null,
        "level_nid": null,
        "condition": "True",
        "commands": [],
        "only_once": false,
        "priority": 20,
        "_source": [
            "level_var;gettem_target;unit2.nid",
            "remove_unit;{unit2};swoosh",
            ""
        ]
    }
]