[
    {
        "name": "Item_DeathDance",
        "trigger": "combat_end",
        "level_nid": null,
        "condition": "item.nid == 'Death_Dance' and v('dd_lock') and v('dd_lock') == 1",
        "commands": [],
        "only_once": false,
        "priority": 20,
        "_source": [
            "if;any(p.attacker is unit and (p.main_attacker is unit or p.attacker is p.main_attacker.strike_partner) for p in [x for x in playback if x.nid in ('mark_crit')])",
            "    if;any([u.nid for u in game.get_player_units() if u.nid != unit.nid and u._finished])",
            "        lvar;dd_ally;game.get_random_choice([u.nid for u in game.get_all_units(True) if u.team == unit.team and u.nid != unit.nid and u._finished])",
            "        reset;{v:dd_ally}",
            "        give_skill;{v:dd_ally};Death_Dance_Buff;{unit}",
            "        lvar;dd_lock;2",
            "    end",
            "end",
            ""
        ]
    }
]