[
    {
        "name": "Ability_FleetingMirage",
        "trigger": null,
        "level_nid": null,
        "condition": "True",
        "commands": [],
        "only_once": false,
        "priority": 20,
        "_source": [
            "move_cursor;{unit}",
            "remove_unit;{unit};swoosh",
            "remove_tag;{unit};Deployed"
        ]
    }
]