[
    {
        "name": "Ability_Ghostmaker Kill",
        "trigger": null,
        "level_nid": null,
        "condition": "True",
        "commands": [],
        "only_once": false,
        "priority": 20,
        "_source": [
            "make_generic;;Ghost;1;{e:unit.team};Pursue;Phantom;;Phantom_Knife",
            "autolevel_to;{created_unit};{e:unit.level};fixed",
            "give_skill;{created_unit};No_Trade;no_banner",
            "add_tag;{created_unit};Temporary",
            "for;summon_item;[i.uid for i in u('{created_unit}').items]",
            "    add_item_component;{created_unit};{summon_item};locked;no_warn",
            "endf",
            "set_stats;{created_unit};HP,10;immediate",
            "if;'{e:unit.team}' == 'player'",
            "    change_ai;{created_unit};None",
            "end",
            "add_unit;{created_unit};{unit};fade;closest",
            "#any([s.nid == 'Ghostmaker_Buff' for s in unit.skills]) and unit2.is_dying",
            ""
        ]
    }
]