[
    {
        "name": "Ability_DeathThroes_Expire",
        "trigger": null,
        "level_nid": null,
        "condition": "True",
        "commands": [],
        "only_once": false,
        "priority": 20,
        "_source": [
            "center_cursor;{unit};immediate",
            "wait;100",
            "kill_unit;{unit}",
            "wait;100"
        ]
    }
]