[
    {
        "name": "Item_Type_Manual",
        "trigger": null,
        "level_nid": null,
        "condition": "True",
        "commands": [],
        "only_once": false,
        "priority": 20,
        "_source": [
            "choice;type_choice;Add which Type?;Infantry,Magical,Horse,Armor,Flying,Wyvern,Dragon,Beast,Monster,Female,Game Piece,Mech;Dimensions=8,1",
            "if;'{v:type_choice}' == 'Game Piece'",
            "    add_tag;{unit};Chess",
            "else",
            "    add_tag;{unit};{e:'{v:type_choice}'}",
            "end"
        ]
    }
]