[
    {
        "name": "Ability_Obsidian_Fortress",
        "trigger": null,
        "level_nid": null,
        "condition": "True",
        "commands": [],
        "only_once": false,
        "priority": 20,
        "_source": [
            "inc_level_var;obs_counter;1",
            "for;obsidian;[u.position for u in game.get_player_units() if u.affinity == 'Earth' or any([s.has_affinities and 'Earth' in s.has_affinities.value for s in u.skills])];no_warn",
            "    add_region;{e:'obs_wall' + '{v:obs_counter}'};{e:({obsidian}[0] - 1, {obsidian}[1] - 1)};3,3;status;Obsidian_Defense;1",
            "    map_anim;Target_Brown_Square;{obsidian};permanent",
            "    inc_level_var;obs_counter;1",
            "endf",
            ""
        ]
    }
]