[
    {
        "name": "Summon_Event_Unit",
        "trigger": null,
        "level_nid": null,
        "condition": "True",
        "commands": [],
        "only_once": false,
        "priority": 20,
        "_source": [
            "if;'{e:event_name}' == 'portal'",
            "    level_var;new_unit;'Frexi'",
            "elif;'{e:event_name}' == 'slavers'",
            "    level_var;new_unit;'Bart'",
            "elif;'{e:event_name}' == 'armory'",
            "    level_var;new_unit;'Wayland'",
            "    if;'{e:second_unit}' == 'Yes'",
            "        level_var;new_unit_2;'Amakuni'",
            "    end",
            "end",
            "load_unit;{v:new_unit};player",
            "table;portrait;u('{v:new_unit}').portrait_nid;;Alignment=top;EntryType=type_portrait;expression",
            "speak;;{e:game.get_unit('{v:new_unit}').name} has joined the party!;bottom;;;;;;menu_bg_parchment",
            "trigger_script_with_args;Global Global_Give_Exp;receiver,{e:game.get_unit('{v:new_unit}')},amount,{v:accumulated_exp},alert,No",
            "trigger_script_with_args;Global Global_Give_WEXP;receiver,{e:game.get_unit('{v:new_unit}')},amount,{v:accumulated_wexp},alert,No",
            "trigger_script_with_args;Global Tonics_Apply;receiver,{e:game.get_unit('{v:new_unit}')}",
            "remove_table;portrait",
            "if;v('new_unit_2', 0) != 0",
            "    load_unit;{v:new_unit_2};player",
            "    table;portrait;u('{v:new_unit_2}').portrait_nid;;Alignment=top;EntryType=type_portrait;expression",
            "    speak;;{e:game.get_unit('{v:new_unit_2}').name} has joined the party!;bottom;;;;;;menu_bg_parchment",
            "    trigger_script_with_args;Global Global_Give_Exp;receiver,{e:game.get_unit('{v:new_unit_2}')},amount,{v:accumulated_exp},alert,No",
            "    trigger_script_with_args;Global Global_Give_WEXP;receiver,{e:game.get_unit('{v:new_unit_2}')},amount,{v:accumulated_wexp},alert,No",
            "    trigger_script_with_args;Global Tonics_Apply;receiver,{e:game.get_unit('{v:new_unit_2}')}",
            "    remove_table;portrait",
            "end",
            ""
        ]
    }
]