[
    {
        "name": "Ability_MalevolantBlightRecharge",
        "trigger": "combat_end",
        "level_nid": null,
        "condition": "any([s.nid == 'Malevolent_Blight' for s in unit.skills]) and any([s.blinded for s in unit2.skills]) and any([s.nid == 'Toxin' for s in unit2.skills]) and unit2.is_dying",
        "commands": [],
        "only_once": false,
        "priority": 20,
        "_source": [
            "if;get_skill(unit, 'Malevolent_Blight') and get_skill(unit, 'Malevolent_Blight').data['charge'] == 0",
            "set_skill_data;{unit};Malevolent_Blight;charge;1",
            "end"
        ]
    }
]