[
    {
        "name": "Item_Compartment_Delete",
        "trigger": "unit_wait",
        "level_nid": null,
        "condition": "get_item(unit, 'Compartment')",
        "commands": [],
        "only_once": false,
        "priority": 20,
        "_source": [
            "for;comp_items;[i.uid for i in get_item(unit, 'Compartment').subitems]",
            "    if;game.get_item({comp_items}).uses and game.get_item({comp_items}).data.get('uses') <= 0",
            "        remove_item_from_multiitem;{unit};Compartment;{comp_items}",
            "    end",
            "endf",
            ""
        ]
    }
]