[
    {
        "name": "Ability_Draconic_Impulse",
        "trigger": null,
        "level_nid": null,
        "condition": "True",
        "commands": [],
        "only_once": false,
        "priority": 20,
        "_source": [
            "if;has_skill(unit, 'Tidal_Surge') and unit.get_hp() > 1",
            "    trigger_script;Global Ability_Tidal_Surge_Ailment",
            "end",
            "if;not is_dead(unit.nid)",
            "    map_anim;MapPoisonShock;{unit}",
            "end",
            "wait;200",
            "if;has_skill(unit, 'Draconic_Impulse_Plus')",
            "    set_current_hp;{unit};{e:max(1,unit.get_hp() - 2)}",
            "else",
            "    if;unit.get_hp() <= 4",
            "        kill_unit;{unit}",
            "        if;game.game_vars.get('game_over' , 0) == 1",
            "            trigger_script;Global Global_Loss",
            "        end",
            "    else",
            "        set_current_hp;{unit};{e:unit.get_hp() - 4}",
            "    end",
            "end",
            "if;has_skill(unit,'Charging_Descent_P')",
            "    set_skill_data;{unit};Charging_Descent_P;charge;min(get_skill(unit,'Charging_Descent_P').data['charge'] + 1, get_skill(unit,'Charging_Descent_P').data['total_charge'])",
            "end"
        ]
    }
]