[
    {
        "name": "Item_Retrieve_item",
        "trigger": null,
        "level_nid": null,
        "condition": "True",
        "commands": [],
        "only_once": false,
        "priority": 20,
        "_source": [
            "choice;retrieve_tgt;Which item to retrieve?;[i.nid for i in get_item(unit, 'Hammerne_Sack').subitems];EntryType=type_base_item;expression",
            "give_item;{unit};{v:retrieve_tgt}",
            "remove_item_from_multiitem;{unit};Hammerne_Sack;{v:retrieve_tgt}",
            "level_var;hammerne_retrieve;True"
        ]
    }
]