[
    {
        "name": "Ability_Growing_Evershine",
        "trigger": null,
        "level_nid": null,
        "condition": "True",
        "commands": [],
        "only_once": false,
        "priority": 20,
        "_source": [
            "level_var;evershine;game.get_random(0,1)",
            "if;{v:evershine} == 0",
            "    give_skill;{unit};Evershine_STR",
            "else",
            "    give_skill;{unit};Evershine_MAG",
            "end"
        ]
    }
]