[
    {
        "name": "Set_Elite_Level",
        "trigger": null,
        "level_nid": null,
        "condition": "True",
        "commands": [],
        "only_once": false,
        "priority": 20,
        "_source": [
            "trigger_script;Get_Current_Act",
            "if;v('current_act') == 1",
            "    level_var;level_plus;1 + int({v:Game_Level})",
            "elif;v('current_act') == 2",
            "    level_var;level_plus;3 + int({v:Game_Level})",
            "else",
            "    level_var;level_plus;5 + int({v:Game_Level})",
            "end",
            "for;enemy_unit;[u.nid for u in game.level.units if u.team in ['enemy', 'enemy2'] and 'Tile' not in u.tags]",
            "    if;RECORDS.get('current_density') > 10",
            "        change_stat_cap_modifiers;{enemy_unit};HP,20,STR,10,MAG,10,SKL,10,SPD,10,LCK,10,DEF,10,RES,10",
            "        if;u('{enemy_unit}').generic",
            "            for;stat_list;get_klass('{enemy_unit}').growths.keys()",
            "                set_growths;{enemy_unit};{stat_list},{e:int(get_klass('{enemy_unit}').growths.get('{stat_list}', 0) * 1.25)}",
            "            endf",
            "        else",
            "            for;stat_list;u('{enemy_unit}').growths.keys()",
            "                set_growths;{enemy_unit};{stat_list},{e:int(u('{enemy_unit}').growths.get('{stat_list}', 0) * 1.25)}",
            "            endf",
            "        end",
            "    end",
            "    autolevel_to;{enemy_unit};{v:level_plus};fixed;no_warn",
            "endf",
            ""
        ]
    }
]