[
    {
        "name": "Item_Shadefetters",
        "trigger": null,
        "level_nid": null,
        "condition": "True",
        "commands": [],
        "only_once": false,
        "priority": 20,
        "_source": [
            "change_team;{unit2};player",
            "add_tag;{unit2};Temporary",
            "for;lock_item;[i.uid for i in unit2.items]",
            "    add_item_component;{unit2};{lock_item};locked",
            "endf",
            "give_skill;{unit2};No_Trade;no_banner"
        ]
    }
]