[
    {
        "name": "Give_Summon_Weapon_With_Ban",
        "trigger": null,
        "level_nid": null,
        "condition": "True",
        "commands": [],
        "only_once": false,
        "priority": 20,
        "_source": [
            "if;'{e:rarity}' == 'epic'",
            "    trigger_script_with_args;Global Get_Weapon_Pool;rarity,epic",
            "elif;'{e:rarity}' == 'rare'",
            "    trigger_script_with_args;Global Get_Weapon_Pool;rarity,rare",
            "else",
            "    trigger_script_with_args;Global Get_Weapon_Pool;rarity,common",
            "end",
            "level_var;s_weapon_types;[]",
            "#Get usable weapon types",
            "for;wep_type;[w for w in u('{e:summon_unit}').wexp]",
            "    if;get_klass(u('{e:summon_unit}').nid).wexp_gain.get('{wep_type}').usable",
            "        level_var;s_weapon_types;{v:s_weapon_types} + ['{wep_type}']",
            "        set_wexp;{e:summon_unit};{wep_type};51;no_banner",
            "    end",
            "endf",
            "level_var;s_droppable_weapons;[]",
            "for;weapons;[w for w in {v:cur_wep_pool} if w not in {v:banned_items} and DB.items.get(w).weapon_type.value in {v:s_weapon_types}]",
            "    level_var;s_droppable_weapons;{v:s_droppable_weapons} + ['{weapons}']",
            "endf",
            "#Give weapon",
            "give_item;{e:summon_unit};{e:game.get_random_choice({v:s_droppable_weapons})};no_banner",
            ""
        ]
    }
]