[
    {
        "name": "Ability_Seven_Circles_End",
        "trigger": null,
        "level_nid": null,
        "condition": "True",
        "commands": [],
        "only_once": false,
        "priority": 20,
        "_source": [
            "if;unit2",
            "    if;unit2.get_hp() < {v:circle_start_hp}",
            "        lvar;regain_hp;({v:circle_start_hp} - unit2.get_hp()) // 2",
            "    else",
            "        lvar;regain_hp;0",
            "    end",
            "    set_current_hp;{unit2};{e:unit2.get_hp() + {v:regain_hp}}",
            "end",
            ""
        ]
    }
]