[
    {
        "name": "Item_Hoard_Item",
        "trigger": null,
        "level_nid": null,
        "condition": "True",
        "commands": [],
        "only_once": false,
        "priority": 20,
        "_source": [
            "choice;hoard_item;Which item to hoard?;[i.uid for i in unit.items if i.nid != 'Bag_of_Hoarding' and not i.locked and not i.locked_2];EntryType=type_game_item;expression",
            "add_item_component;{unit};{v:hoard_item};unavailable",
            "remove_item;{unit};{v:hoard_item};no_banner",
            "add_item_to_multiitem;{unit};Bag_of_Hoarding;{v:hoard_item}",
            ""
        ]
    }
]