[
    {
        "name": "Death_Escort",
        "trigger": "unit_death",
        "level_nid": null,
        "condition": "has_skill(unit, 'Escort_Tag')",
        "commands": [],
        "only_once": false,
        "priority": 20,
        "_source": [
            "alert;Contract failed!",
            "#Reset to inactive state",
            "game_var;current_contract;'inactive'",
            "game_var;contract_length;99",
            "game_var;contract_reward;'None'",
            ""
        ]
    }
]