[
    {
        "name": "Ability_Gods_Image_Cleanup",
        "trigger": null,
        "level_nid": null,
        "condition": "True",
        "commands": [],
        "only_once": false,
        "priority": 19,
        "_source": [
            "if;has_item('False_Vessel', nid='Ayla')",
            "    for;image;[i.uid for i in get_item(unit, 'False_Vessel').subitems if i.data['uses'] == 0]",
            "        remove_item_from_multiitem;{unit};False_Vessel;{image}",
            "    endf",
            "end",
            "if;has_item('Perfect_Vessel', nid='Ayla')",
            "    for;image;[i.uid for i in get_item(unit, 'Perfect_Vessel').subitems if i.data['uses'] == 0]",
            "        remove_item_from_multiitem;{unit};Perfect_Vessel;{image}",
            "    endf",
            "end"
        ]
    }
]