[
    {
        "name": "Item_Destiny_Plume",
        "trigger": "level_end",
        "level_nid": null,
        "condition": "True",
        "commands": [],
        "only_once": false,
        "priority": 25,
        "_source": [
            "for;party_unit;[u.nid for u in game.get_all_units_in_party() if has_skill(u, 'Destiny_End')]",
            "remove_skill;{party_unit};Destiny_End;no_banner",
            "kill_unit;{party_unit}",
            "if;not any([unit for unit in game.get_units_in_party() if not unit.dead and not unit.is_dying and 'Tile' not in unit.tags and 'Temporary' not in unit.tags])",
            "trigger_script;Global Global_Loss",
            "end",
            "endf"
        ]
    }
]