[
    {
        "name": "Ability_Lunar_Eclipse",
        "trigger": null,
        "level_nid": null,
        "condition": "True",
        "commands": [],
        "only_once": false,
        "priority": 20,
        "_source": [
            "make_generic;;Ghost;1;player;None;Phantom",
            "set_unit_field;{created_unit};Summoner;unit.nid",
            "set_unit_field;{created_unit};Summoned_by;'Whisper_Stars'",
            "give_skill;{created_unit};No_Trade;no_banner",
            "give_skill;{created_unit};Fallen_Star_Properties;no_banner",
            "set_name;{created_unit};Fallen Star",
            "set_stats;{created_unit};HP,1;immediate",
            "add_tag;{created_unit};Temporary",
            "add_unit;{created_unit};{unit};warp;closest",
            "#Telescope Lens",
            "for;fallen_stars;[u.nid for u in game.get_player_units() if has_skill(u, 'Telescope_Lens')]",
            "    give_skill;{fallen_stars};Telescope_Lens_Stack;no_banner",
            "endf",
            ""
        ]
    }
]