[
    {
        "name": "Ability_Summon_Lanceritter",
        "trigger": null,
        "level_nid": null,
        "condition": "True",
        "commands": [],
        "only_once": false,
        "priority": 20,
        "_source": [
            "if;game.level_vars.get('lanceritter', 1) != 1",
            "    make_generic;;Lance_Knight;1;other;Pursue;Phantom",
            "    trigger_script_with_args;Global Give_Summon_Weapon;rarity,common,summon_unit,{e:'{created_unit}'}",
            "    for;summ_item;[i.uid for i in created_unit.items]",
            "        add_item_component;{created_unit};{summ_item};locked;no_warn",
            "    endf",
            "    autolevel_to;{created_unit};{e:unit.level};fixed",
            "    set_unit_field;{created_unit};Summoner;unit.nid",
            "    set_unit_field;{created_unit};Summoned_by;'Summon_Lanceritter'",
            "    give_skill;{created_unit};No_Trade;no_banner",
            "    set_stats;{created_unit};HP,10;immediate",
            "    add_tag;{created_unit};Temporary",
            "    add_unit;{created_unit};{v:lanceritter};warp;push",
            "end",
            ""
        ]
    }
]