[
    {
        "name": "Ability_Suppressive_Fire_Shot",
        "trigger": "Garvey_Shot",
        "level_nid": null,
        "condition": "True",
        "commands": [],
        "only_once": false,
        "priority": 20,
        "_source": [
            "if;not skill_system.check_ally(unit, u('Garvey'))",
            "    give_skill;Garvey;Garvey_Override;;no_banner",
            "    interact_unit;Garvey;{unit};;force_no_animation",
            "    remove_skill;Garvey;Garvey_Override;no_banner",
            "end",
            "if;not is_dead(unit.nid)",
            "    set_unit_field;{unit};Supression;{e:int(-1 * utils.calculate_distance(unit.position, unit.previous_position))}",
            "    give_skill;{unit};Suppressed;no_banner",
            "    reset;{unit}",
            "end",
            "trigger_script;Global Ability_Suppressive_Fire_Remove",
            ""
        ]
    }
]