[
    {
        "name": "Ability_Spirited_Exsanguination",
        "trigger": null,
        "level_nid": null,
        "condition": "True",
        "commands": [],
        "only_once": false,
        "priority": 20,
        "_source": [
            "give_skill;{unit};Spectral_Beacon;no_banner",
            "give_skill;{unit};Spectral_Beacon"
        ]
    }
]