[
    {
        "name": "Ability_Ophie_Emblem",
        "trigger": "turn_change",
        "level_nid": null,
        "condition": "True",
        "commands": [],
        "only_once": false,
        "priority": 20,
        "_source": [
            "if;game.game_vars.get('in_combat', 0) == 1",
            "    for;ophies;[u.nid for u in game.get_player_units() if has_skill(u, 'Ophie_Emblem')]",
            "        for;not_ophies;[x.nid for x in game.get_player_units() if not has_skill(x, 'Ophie_Emblem')]",
            "            if;u('{not_ophies}').get_field('Ophie_Points') and game.get_random(1, 100) <= 4 * int(u('{not_ophies}').get_field('Ophie_Points'))",
            "                give_skill;{not_ophies};Ophie_Emblem;no_banner",
            "                change_portrait;{not_ophies};Ophie",
            "                #set_name;{not_ophies};Ophie",
            "                #change_affinity;{not_ophies};Fire",
            "                change_unit_desc;{not_ophies};A strong-hearted renegade who often acts before he thinks.",
            "            end",
            "        endf",
            "    endf",
            "end"
        ]
    }
]