[
    {
        "name": "Ability_Rhythm_Crescendo",
        "trigger": null,
        "level_nid": null,
        "condition": "True",
        "commands": [],
        "only_once": false,
        "priority": 20,
        "_source": [
            "set_skill_data;{unit};Rhythms_Crescendo;charge;{e:get_skill(unit, 'Rhythms_Crescendo').data['charge'] - 1}",
            "if;has_skill(unit, 'Anima_Crescendo_Proc')",
            "    remove_skill;{unit};NatureTempo;2;no_banner",
            "elif;has_skill(unit, 'Light_Crescendo_Proc')",
            "    remove_skill;{unit};FaithTempo;2;no_banner",
            "else",
            "    remove_skill;{unit};ShadowTempo;2;no_banner",
            "end"
        ]
    }
]