[
    {
        "name": "Ability_Expendable_Revive",
        "trigger": "turn_change",
        "level_nid": null,
        "condition": "v('expnd_revive', 0) >= 1",
        "commands": [],
        "only_once": false,
        "priority": 20,
        "_source": [
            "inc_level_var;expnd_cost_mult;1",
            "lvar;expnd_cost;100 ** {v:expnd_cost_mult}",
            "choice;expnd_choice;Revive the Platoon for {v:expnd_cost} gold?;Yes,No;backable",
            "if;'{v:expnd_choice}' == 'Yes' and game.get_money() >= {v:expnd_cost}",
            "    give_money;{e:-1 * {v:expnd_cost}};no_banner",
            "    resurrect;Platoon",
            "    set_current_hp;Platoon;999",
            "    add_unit;Platoon;{v:expnd_death_loc};swoosh;closest",
            "elif;'{v:expnd_choice}' == 'Yes' and game.get_money() < {v:expnd_cost}",
            "    alert;Not enough money!",
            "end",
            "lvar;expnd_revive;0",
            ""
        ]
    }
]