[
    {
        "name": "Ability_Razor_Gale_Start",
        "trigger": null,
        "level_nid": null,
        "condition": "unit2 and has_skill(unit, 'Razor_Gale')",
        "commands": [],
        "only_once": false,
        "priority": 20,
        "_source": [
            "if;unit2 and has_skill(unit, 'Razor_Gale')",
            "    lvar;razor_pos_start;unit2.position",
            "end"
        ]
    }
]