[
    {
        "name": "Ability_Half_Light_End",
        "trigger": null,
        "level_nid": null,
        "condition": "True",
        "commands": [],
        "only_once": false,
        "priority": 20,
        "_source": [
            "if;v('half_light_pos', 1) != 1",
            "    for;bad_guys;[u.nid for u in get_units_within_distance({v:half_light_pos}, 3)]",
            "        if;u('{bad_guys}').team in ['enemy','enemy2']",
            "            set_current_hp;{bad_guys};{e:max(u('{bad_guys}').get_hp() - {v:half_light_damage}, 1)}",
            "        end",
            "    endf",
            "end",
            ""
        ]
    }
]