[
    {
        "name": "Ability_PocketComb",
        "trigger": null,
        "level_nid": null,
        "condition": "True",
        "commands": [],
        "only_once": false,
        "priority": 20,
        "_source": [
            "if;'LGFG_Dejected' in [skill.nid for skill in unit.skills]",
            "    remove_skill;{unit};LGFG_Dejected;no_banner",
            "    give_skill;{unit};LGFG_Confident",
            "    if;'RuleOfCool' in [skill.nid for skill in unit.skills]",
            "        give_skill;{unit};LGFG_RuleOfCool;no_banner",
            "    end",
            "end",
            ""
        ]
    }
]