[
    {
        "name": "Ability_Iron_Crafter",
        "trigger": null,
        "level_nid": null,
        "condition": "True",
        "commands": [],
        "only_once": false,
        "priority": 20,
        "_source": [
            "give_item;{unit};Iron_Scrap",
            ""
        ]
    }
]