[
    {
        "name": "Ability_Metamorphosis",
        "trigger": null,
        "level_nid": null,
        "condition": "True",
        "commands": [],
        "only_once": false,
        "priority": 20,
        "_source": [
            "lvar;all_unit_auras;[s.nid for s in unit.skills if s.aura and s.class_skill]",
            "lvar;unit_auras;[s.nid for s in unit.skills if s.aura and s.class_skill]",
            "if;len({v:unit_auras}) > 1",
            "    choice;aura_choice;Remove which aura?;v('unit_auras');Dimensions=6,2;EntryType=type_skill;expression",
            "    if;get_skill(unit,'{v:aura_choice}').copysafe",
            "        for;skills;[s for s in get_skill(unit,'{v:aura_choice}').copysafe.value]",
            "            remove_skill;{unit};{skills};no_banner",
            "        endf",
            "    end",
            "    if;get_skill(unit,'{v:aura_choice}').subskills",
            "        for;skills;[s for s in get_skill(unit,'{v:aura_choice}').subskills.value]",
            "            remove_skill;{unit};{skills};no_banner",
            "        endf",
            "    end",
            "    remove_skill;{unit};{v:aura_choice};no_banner",
            "    lvar;unit_auras;[s.nid for s in unit.skills if s.aura and s.class_skill]",
            "    choice;aura_choice;Remove which aura?;v('unit_auras');Dimensions=6,2;EntryType=type_skill;expression",
            "    if;get_skill(unit,'{v:aura_choice}').copysafe",
            "        for;skills;[s for s in get_skill(unit,'{v:aura_choice}').copysafe.value]",
            "            remove_skill;{unit};{skills};no_banner",
            "        endf",
            "    end",
            "    if;get_skill(unit,'{v:aura_choice}').subskills",
            "        for;skills;[s for s in get_skill(unit,'{v:aura_choice}').subskills.value]",
            "            remove_skill;{unit};{skills};no_banner",
            "        endf",
            "    end",
            "    remove_skill;{unit};{v:aura_choice};no_banner",
            "    lvar;all_auras;[s.nid for s in DB.skills if s.components.get('aura') and s.components.get('copysafe') and s.nid not in {v:all_unit_auras}]",
            "    if;item.nid == 'Metamorphosis'",
            "        lvar;metamorph_aura;game.get_random_choice({v:all_auras})",
            "    else",
            "        lvar;aura_1;game.get_random_choice({v:all_auras})",
            "        lvar;aura_2;game.get_random_choice([x for x in {v:all_auras} if x != '{v:aura_1}'])",
            "        choice;metamorph_aura;Gain which skill?;['{v:aura_1}', '{v:aura_2}'];EntryType=type_skill;expression",
            "    end",
            "    give_skill;{unit};{v:metamorph_aura}",
            "    if;get_skill(unit, '{v:metamorph_aura}').copysafe",
            "        for;skills;[s for s in get_skill(unit,'{v:metamorph_aura}').copysafe.value]",
            "            give_skill;{unit};{skills};no_banner",
            "        endf",
            "    end",
            "end",
            ""
        ]
    }
]