[
    {
        "name": "Ability_Hollowed_Death",
        "trigger": "unit_death",
        "level_nid": null,
        "condition": "has_skill(unit, 'Hollowed')",
        "commands": [],
        "only_once": false,
        "priority": 20,
        "_source": [
            "add_tag;{unit};Banished"
        ]
    }
]