[
    {
        "name": "Ability_Celestial_Step_Debuff",
        "trigger": null,
        "level_nid": null,
        "condition": "True",
        "commands": [],
        "only_once": false,
        "priority": 20,
        "_source": [
            "for;enemy;[u.nid for u in get_units_within_distance(unit, 1) if u.team in ['enemy', 'enemy2']]",
            "    give_skill;{enemy};Weakened;no_banner",
            "endf",
            "for;enemy;[u.nid for u in get_units_within_distance(unit, 1) if u.team in ['enemy', 'enemy2']]",
            "    give_skill;{enemy};Weakened;no_banner",
            "endf"
        ]
    }
]