[
    {
        "name": "Get_Playable_Units",
        "trigger": null,
        "level_nid": null,
        "condition": "True",
        "commands": [],
        "only_once": false,
        "priority": 20,
        "_source": [
            "#Specify alive for only living units, all to include dead ones",
            "if;'{e:state}' == 'alive'",
            "    lvar;all_playable_units;[u.nid for u in game.get_units_in_party()] + [u.nid for u in game.get_units_in_party('Flex')] + [u.nid for u in game.get_units_in_party('Shuffle')]",
            "elif;'{e:state}' == 'all'",
            "    lvar;all_playable_units;[u.nid for u in game.get_all_units_in_party()] + [u.nid for u in game.get_all_units_in_party('Flex')] + [u.nid for u in game.get_all_units_in_party('Shuffle')]",
            "end"
        ]
    }
]