[
    {
        "name": "Special_Ophie_Quest",
        "trigger": "level_start",
        "level_nid": null,
        "condition": "game.level.nid in ['Act_1', 'Act_2', 'Act_3', 'Act_1A', 'Act_2A', 'Act_3A']",
        "commands": [],
        "only_once": false,
        "priority": 90,
        "_source": [
            "if;game.game_vars.get('Ophie_Mode', 0) == 1",
            "    for;myunit;[u for u in game.get_units_in_party() if u.nid not in {v:TLT_Cast} and not has_skill(u, 'Ophie_Emblem')]",
            "        add_tag;{myunit};Banished",
            "        kill_unit;{myunit}",
            "    endf",
            "end",
            "if;len([u for u in game.get_units_in_party() if has_skill(u, 'Ophie_Emblem')]) >= 5 and not game.game_vars.get('Ophie_Mode', 0) == 1",
            "    gvar;Ophie_Mode;1",
            "    for;deadunits;[u for u in game.get_all_units_in_party() if u.nid not in {v:TLT_Cast} and is_dead(u.nid) and not has_skill(u, 'Ophie_Emblem')]",
            "        add_tag;{deadunits};Banished",
            "    endf",
            "    for;myunit;[u for u in game.get_units_in_party() if u.nid not in {v:TLT_Cast} and not has_skill(u, 'Ophie_Emblem')]",
            "        add_tag;{myunit};Banished",
            "        kill_unit;{myunit}",
            "    endf",
            "    for;tlt_pog;[u for u in {v:TLT_Cast} if u != 'Ophie']",
            "        load_unit;{tlt_pog};player;None",
            "        trigger_script_with_args;Global Global_Give_Exp;receiver,{e:game.get_unit('{tlt_pog}')},amount,{v:accumulated_exp},alert,No",
            "        trigger_script_with_args;Global Global_Give_WEXP;receiver,{e:game.get_unit('{tlt_pog}')},amount,{v:accumulated_wexp},alert,No",
            "        if;game.game_vars.get('active_tonic', 0)",
            "            trigger_script_with_args;Global Tonics_Apply;receiver,{e:game.get_unit('{tlt_pog}')}",
            "        end",
            "        set_current_hp;{tlt_pog};99",
            "    endf",
            "    change_team;Player;other",
            "end"
        ]
    }
]