[
    {
        "name": "Item_TimeShare_Trigger",
        "trigger": null,
        "level_nid": null,
        "condition": "True",
        "commands": [],
        "only_once": false,
        "priority": 20,
        "_source": [
            "has_finished;{unit}",
            "remove_skill;{unit};TimeShared;no_banner"
        ]
    }
]