[
    {
        "name": "Ability_WhirlingGale",
        "trigger": null,
        "level_nid": null,
        "condition": "True",
        "commands": [],
        "only_once": false,
        "priority": 20,
        "_source": [
            "give_skill;{unit};WhirlingGaleHelper;;no_banner"
        ]
    }
]