[
    {
        "name": "Ability_Rallying_Ruse",
        "trigger": null,
        "level_nid": null,
        "condition": "True",
        "commands": [],
        "only_once": false,
        "priority": 20,
        "_source": [
            "if;has_skill(unit, 'Rallying_Ruse')",
            "    for;foe;[u.nid for u in get_units_within_distance(unit.position, 2) if u.team in ['enemy','enemy2']]",
            "        give_skill;{foe};Rallying_Ruse_Debuff;{unit};no_banner",
            "    endf",
            "end",
            ""
        ]
    }
]