[
    {
        "name": "Item_Soak",
        "trigger": null,
        "level_nid": null,
        "condition": "True",
        "commands": [],
        "only_once": false,
        "priority": 20,
        "_source": [
            "add_region;{eval:target_pos};{eval:target_pos};1,1;terrain;11;1",
            "map_anim;LightBlue_Highlight;{eval:target_pos}"
        ]
    }
]