[
    {
        "name": "Ability_DeathThroes_Proc",
        "trigger": "unit_death",
        "level_nid": null,
        "condition": "has_skill(unit, 'Deaths_Door')",
        "commands": [],
        "only_once": false,
        "priority": 10,
        "_source": [
            "game_var;death_throes_possessor;\"{f:{e:unit.nid}.Possessor}\"",
            "add_unit;{v:death_throes_possessor};{position};fade;closest",
            "if;has_skill(v('death_throes_possessor'), 'Undeath')",
            "    set_stats;{v:death_throes_possessor};HP,{e:min(len([skill.nid for skill in u(v('death_throes_possessor')).skills if skill.nid == 'Undying_Will']) // 4 + u(v('death_throes_possessor')).get_max_hp(), len([skill.nid for skill in u(v('death_throes_possessor')).skills if skill.nid == 'Undying_Will']))};immediate",
            "    set_unit_field;{v:death_throes_possessor};Undeath_Current_HP;u(v('death_throes_possessor')).get_max_hp()",
            "    set_current_hp;{v:death_throes_possessor};999",
            "else",
            "    set_current_hp;{v:death_throes_possessor};{e:u(v('death_throes_possessor')).get_max_hp() // 4 + u(v('death_throes_possessor')).get_hp()}",
            "end"
        ]
    }
]