[
    {
        "name": "Ability_Over_Garden_Wall",
        "trigger": "level_end",
        "level_nid": null,
        "condition": "any([has_skill(u, 'Over_the_Garden_Walls') for u in game.get_player_units()])",
        "commands": [],
        "only_once": false,
        "priority": 20,
        "_source": [
            "for;gardeners;[u for u in game.get_player_units() if has_skill(u, 'Over_the_Garden_Walls')]",
            "    if;u('{gardeners}').traveler and not has_skill(u('{gardeners}'), 'Garden_Wall_Recharge')",
            "        lvar;garden_traveler_string;u('{gardeners}').traveler",
            "        lvar;garden_traveler;u('{v:garden_traveler_string}').nid",
            "        give_skill;{v:garden_traveler};Blooming_Flower",
            "        set_current_hp;{v:garden_traveler};{e:int(u('{v:garden_traveler}').get_hp() * 0.8)}",
            "        give_skill;{unit};Garden_Wall_Recharge;no_banner",
            "    end",
            "endf",
            ""
        ]
    }
]