[
    {
        "name": "Ability_Data_Collection_Start",
        "trigger": "level_start",
        "level_nid": null,
        "condition": "u('Advertiser')",
        "commands": [],
        "only_once": false,
        "priority": 99,
        "_source": [
            "level_var;AdvertiserCon;u('Advertiser').stats['CON']",
            "level_var;AdvertiserStr;u('Advertiser').stats['STR']",
            "level_var;AdvertiserMag;u('Advertiser').stats['MAG']",
            "level_var;AdvertiserSkl;u('Advertiser').stats['SKL']",
            "level_var;AdvertiserLck;u('Advertiser').stats['LCK']",
            "level_var;AdvertiserDef;u('Advertiser').stats['DEF']",
            "level_var;AdvertiserRes;u('Advertiser').stats['RES']",
            "level_var;AdvertiserSpd;u('Advertiser').stats['SPD']",
            "level_var;AdvertiserMov;u('Advertiser').stats['MOV']",
            ""
        ]
    }
]