[
    {
        "name": "Global Revive",
        "trigger": null,
        "level_nid": null,
        "condition": "True",
        "commands": [],
        "only_once": false,
        "priority": 20,
        "_source": [
            "level_var;revive_amt;0.5",
            "level_var;loyalty;False",
            "for;FAITH;[unitx.nid for unitx in game.get_units_in_party() if has_skill(unitx, 'Faith')]",
            "    level_var;revive_amt;max(v('revive_amt'), 0.5 + 0.1 * len([skill.nid for skill in u('{FAITH}').skills if skill.nid == 'Faith']))",
            "endf",
            "resurrect;{e:to_revive}",
            "if;has_skill(v('revival'), 'Undeath')",
            "    set_stats;{e:to_revive};HP,{e:max(int(len([skill.nid for skill in u('{e:to_revive}').skills if skill.nid == 'Undying_Will']) * v('revive_amt')), 1)};immediate",
            "    set_unit_field;{e:to_revive};Undeath_Current_HP;u('{e:to_revive}').get_hp()",
            "else",
            "    set_current_hp;{e:to_revive};{e:max(int(u('{e:to_revive}').get_max_hp() * v('revive_amt')), 1)}",
            "end",
            "if;'{e:to_revive}' == 'Gemini_F'",
            "    resurrect;Gemini_M",
            "    set_current_hp;Gemini_M;{e:max(int(u('Gemini_M').get_max_hp() * v('revive_amt')), 1)}",
            "elif;'{e:to_revive}' == 'Gemini_M'",
            "    resurrect;Gemini_F",
            "    set_current_hp;Gemini_F;{e:max(int(u('Gemini_F').get_max_hp() * v('revive_amt')), 1)}",
            "end",
            "for;LOYALTY;[unitx.nid for unitx in game.get_units_in_party() if has_skill(unitx, 'Command_Loyalty')]",
            "    level_var;loyalty;True",
            "endf",
            "if;v('loyalty')",
            "    give_skill;{e:to_revive};Loyal;no_banner",
            "end",
            "trigger_script;Global Ability_Ironman",
            "trigger_script;Global Ability_Blighted_Scorn",
            "#Remove locked 2",
            "if;any([i.uid for i in u('{e:to_revive}').items if i.locked_2])",
            "    for;item_locked;[i.uid for i in u('{e:to_revive}').items if i.locked_2];no_warn",
            "        remove_item_component;{e:to_revive};{item_locked};locked_2;no_warn",
            "    endf",
            "end",
            ""
        ]
    }
]