[
    {
        "name": "Item_Steak",
        "trigger": null,
        "level_nid": null,
        "condition": "True",
        "commands": [],
        "only_once": false,
        "priority": 20,
        "_source": [
            "set_unit_field;{unit};Hit_Points;{e:unit.stats['CON']}",
            "change_stat_cap_modifiers;{unit};HP,{f:{e:unit}.Hit_Points}",
            "change_stats;{unit};HP,{f:{e:unit}.Hit_Points}",
            "give_skill;{unit};Steak_Consumed;no_banner"
        ]
    }
]