[
    {
        "name": "Item_TrainingManual",
        "trigger": null,
        "level_nid": null,
        "condition": "True",
        "commands": [],
        "only_once": false,
        "priority": 20,
        "_source": [
            "give_exp;{unit};25",
            "wait;1"
        ]
    }
]