[
    {
        "name": "Grigol_Death",
        "trigger": "combat_end",
        "level_nid": "GrigolBoss",
        "condition": "is_dead('Grigol_Boss')",
        "commands": [],
        "only_once": true,
        "priority": 20,
        "_source": [
            "if;RECORDS.get('Act_3_Power_level') > 0 and v('boss_kills', 0) >= 4",
            "    win_game",
            "elif;RECORDS.get('Act_3_Power_level') == 0 and v('boss_kills', 0) >= 2",
            "    win_game",
            "end",
            ""
        ]
    }
]