[
    {
        "name": "Boss_Death",
        "trigger": "unit_death",
        "level_nid": "GrigolBoss",
        "condition": "'Boss' in unit.tags and unit.team == 'enemy' and unit.nid != 'Grigol_Boss'",
        "commands": [],
        "only_once": false,
        "priority": 20,
        "_source": [
            "inc_level_var;boss_kills;1",
            "if;RECORDS.get('Act_3_Power_level') > 0",
            "    change_objective_simple;Defeat Grigol,Defeat Bosses {v:boss_kills} / 4",
            "    lvar;obj_simple;'Defeat Grigol,Defeat Bosses {v:boss_kills} / 4'",
            "    if;v('boss_kills', 0) >= 4 and is_dead('Grigol_Boss')",
            "        win_game",
            "    end",
            "else",
            "    if;v('boss_kills', 0) >= 2 and is_dead('Grigol_Boss')",
            "        win_game",
            "    end",
            "end",
            ""
        ]
    }
]