[
    {
        "name": "Alpha_Arrow",
        "trigger": "combat_end",
        "level_nid": "GrigolBoss",
        "condition": "'Boss' in unit.tags and u('Boss_SN') and u('Boss_SN').position and has_skill(u('Boss_SN'), 'Formation_Alpha_Status')",
        "commands": [],
        "only_once": false,
        "priority": 20,
        "_source": [
            "if;unit2.position and game.phase.get_current() != unit2.team and skill_system.check_enemy(unit, unit2) and not v('charge_started') and not has_skill(unit2, 'Suspicious') and not v('can_follow_up_P') == 1",
            "    level_var;charge_started;1",
            "    if;not is_dead(unit2.nid)",
            "        if;u('Boss_SN')._finished",
            "            level_var;charger_finished;1",
            "        else",
            "            level_var;charger_finished;2",
            "        end",
            "        give_skill;Boss_SN;Alpha_Arrow_Helper;no_banner",
            "        interact_unit;Boss_SN;{unit2};Ability=Iron_Bow",
            "        if;{v:charger_finished} == 2",
            "            reset;Boss_SN",
            "        end",
            "    end",
            "    level_var;charge_started;0",
            "end",
            ""
        ]
    }
]