[
    {
        "name": "Door_HP",
        "trigger": "combat_end",
        "level_nid": "Loreia",
        "condition": "'door' in unit2.nid",
        "commands": [],
        "only_once": false,
        "priority": 20,
        "_source": [
            "if;unit2.nid == 'door_3_1'",
            "    set_current_hp;door_3_2;{e:unit2.get_hp()}",
            "elif;unit2.nid == 'door_3_2'",
            "    set_current_hp;door_3_1;{e:unit2.get_hp()}",
            "elif;unit2.nid == 'door_4_1'",
            "    set_current_hp;door_4_2;{e:unit2.get_hp()}",
            "elif;unit2.nid == 'door_4_2'",
            "    set_current_hp;door_4_1;{e:unit2.get_hp()}",
            "elif;unit2.nid == 'door_5_1'",
            "    set_current_hp;door_5_2;{e:unit2.get_hp()}",
            "elif;unit2.nid == 'door_5_2'",
            "    set_current_hp;door_5_1;{e:unit2.get_hp()}",
            "elif;unit2.nid == 'door_6_1'",
            "    set_current_hp;door_6_2;{e:unit2.get_hp()}",
            "elif;unit2.nid == 'door_6_2'",
            "    set_current_hp;door_6_1;{e:unit2.get_hp()}",
            "end"
        ]
    }
]