[
    {
        "name": "Reinforcements_1",
        "trigger": "turn_change",
        "level_nid": "Lupus",
        "condition": "RECORDS.get('Act_1_Power_level') > 0 and game.turncount in [6, 8]",
        "commands": [],
        "only_once": false,
        "priority": 20,
        "_source": [
            "create_unit;121;Position=16,0;copy_stats",
            "center_cursor;16,0;immediate",
            "flicker_cursor;16,0",
            "create_unit;122;Position=17,0;copy_stats",
            "center_cursor;17,0;immediate",
            "flicker_cursor;17,0",
            ""
        ]
    }
]