[
    {
        "name": "Outro",
        "trigger": "level_end",
        "level_nid": "Lupus",
        "condition": "True",
        "commands": [],
        "only_once": false,
        "priority": 20,
        "_source": [
            "add_portrait;Loreia;Right",
            "speak;Loreia;Just a bit further!|There's a dense forest ahead where we can lose them!",
            "remove_portrait;Loreia",
            "change_team;Loreia_T;other",
            "trigger_script;Global Global_Battle_Cleanup",
            ""
        ]
    }
]