[
    {
        "name": "Intro",
        "trigger": "level_start",
        "level_nid": "Machine",
        "condition": "True",
        "commands": [],
        "only_once": false,
        "priority": 20,
        "_source": [
            "gvar;Alter_Act;1",
            "#trigger_script;Get_Next_Chapter (Global Get_Next_Chapter)",
            "trigger_script;Global Boss_Level",
            "level_var;deployed_units;[]",
            "change_background;BlackBackground",
            "transition",
            "show_layer;middle_layer",
            "show_layer;topmost_layer",
            "if;RECORDS.get('Act_3_Power_level') > 0",
            "    give_skill;machine_1;HP_Double;no_banner",
            "    set_current_hp;machine_1;999",
            "    give_skill;machine_2;HP_Double;no_banner",
            "    set_current_hp;machine_2;999",
            "    give_skill;machine_3;HP_Double;no_banner",
            "    set_current_hp;machine_3;999",
            "    give_skill;machine_4;HP_Double;no_banner",
            "    set_current_hp;machine_4;999",
            "    show_layer;topmost_layer_hard;immediate",
            "    hide_layer;topmost_layer;immediate",
            "    show_layer;hard_mode;immediate",
            "    show_layer;hard_mode_2;immediate",
            "    show_layer;hard_mode_3;immediate",
            "    add_group;hm_1;hm_1;immediate;closest",
            "    give_skill;AFDD;The_Cogs_Turn;no_banner",
            "end",
            "change_background",
            "transition",
            "center_cursor;AFDD;immediate",
            "flicker_cursor;AFDD",
            "add_portrait;Player;Right",
            "speak;AFDD;FELL DRAGON DETECTED.|ACTIVATING DEFENSIVE PROTOCOLS.|MUST PROTECT THE WORLD.;top",
            "remove_portrait;Player",
            "set_skill_data;AFDD;Legend;charge;0",
            "end_skip",
            "speak;;Use the INFO key to examine the stats and skills of the machines.;center;NumLines=3;DialogBox=menu_bg_parchment",
            "arrange_formation",
            "end_skip",
            "prep;t;;Check Seals;true;Menu_Seal_Check",
            "trigger_script;Global Global_End_Preps",
            "level_var;rein_timer;0",
            "level_var;druid_timer;0",
            "level_var;activated;1",
            "trigger_script;Global Music_Battle_Start"
        ]
    }
]