[
    {
        "name": "Old_Reward",
        "trigger": null,
        "level_nid": "Nikume",
        "condition": "False",
        "commands": [],
        "only_once": false,
        "priority": 20,
        "_source": [
            "if;len([u for u in game.get_units_in_party() if 'Temporary' not in u.tags and u.nid not in ['Player','Gemini_M','Gemini_F']]) > 0",
            "choice;i_am_two;Choose an ally to duplicate;[u.nid + '|' + u.name for u in game.get_units_in_party() if 'Temporary' not in u.tags and u.nid not in ['Player','Gemini_M','Gemini_F']];100;Dimensions=8,1;Alignment=center;expression",
            "create_unit;{e:u('{v:i_am_two}')};{e:u('{v:i_am_two}').name + '2'};{e:u('{v:i_am_two}').level};copy_stats",
            "recruit_generic;{e:u('{v:i_am_two}').name + '2'};{e:u('{v:i_am_two}').name + '2'};{e:u('{v:i_am_two}').name + '2'}",
            "for;copy_skill;[s.nid for s in u('{v:i_am_two}').skills if s.class_skill]",
            "give_skill;{e:u('{v:i_am_two}').name + '2'};{copy_skill};no_banner",
            "endf",
            "alert;A clone has joined the party!",
            "end"
        ]
    }
]