[
    {
        "name": "Win Condition",
        "trigger": "combat_end",
        "level_nid": "Serpens",
        "condition": "is_dead('Serpens')",
        "commands": [],
        "only_once": true,
        "priority": 20,
        "_source": [
            "win_game"
        ]
    }
]