[
    {
        "name": "Dancing_with_Death",
        "trigger": "unit_death",
        "level_nid": "Solfrid",
        "condition": "unit2 and not unit2.is_dying and unit.nid == 'Solfrid'",
        "commands": [],
        "only_once": false,
        "priority": 20,
        "_source": [
            "if;unit.traveler",
            "    lvar;Solfrid_old_friend;unit.traveler",
            "    separate;Solfrid",
            "    add_unit;{e:u('{v:Solfrid_old_friend}')};Solfrid;fade;closest",
            "    add_tag;{e:u('{v:Solfrid_old_friend}')};Deployed",
            "end",
            "",
            "if;get_charge(unit, 'Burning_Desire') > 0",
            "    resurrect;Solfrid",
            "    set_current_hp;Solfrid;999",
            "    set_skill_data;Solfrid;Burning_Desire;charge;get_charge(unit, 'Burning_Desire') - 1",
            "    ",
            "    lvar;summon_killer;1",
            "    if;unit2.get_field('Summoner') and u(unit2.get_field('Summoner')).position",
            "        if;not v('solfrid_meme', 0) == 1        ",
            "            u;Solfrid;Right",
            "            s;Solfrid;Thought you could fool me with a mere minion?|You'll find I have quite a keen eye!",
            "            r;Solfrid",
            "            lvar;solfrid_meme;1",
            "        end",
            "        lvar;summon_killer;2",
            "    end",
            "    if;v('summon_killer') == 1",
            "        remove_tag;{unit2};Deployed",
            "        if;not any([u for u in game.units if u.team == 'player' and not u.dead and not u.is_dying and 'Tile' not in u.tags and 'Deployed' in u.tags and not u.nid == unit.nid])",
            "            game_var;game_over;1",
            "        end",
            "        if;unit2.traveler",
            "            lvar;dancing_traveler;unit2.traveler",
            "            remove_skill;{e:unit2.traveler};Pair_Up_Fat;;no_banner",
            "            trigger_script_with_args;Ability_Pair_Up_Undo;guy,{e:unit2.nid}",
            "            separate;{unit2}",
            "            add_unit;{e:u('{v:dancing_traveler}')};{unit2};fade;closest",
            "        end",
            "        center_cursor;{unit2}",
            "        flicker_cursor;{unit2}",
            "        pair_up;{unit2};Solfrid",
            "    else",
            "        remove_tag;{e:u(unit2.get_field('Summoner'))};Deployed",
            "        if;not any([u for u in game.units if u.team == 'player' and not u.dead and not u.is_dying and 'Tile' not in u.tags and 'Deployed' in u.tags and not u.nid == unit.nid])",
            "            game_var;game_over;1",
            "        end",
            "        if;u(unit2.get_field('Summoner')).traveler",
            "            lvar;dancing_traveler;u(unit2.get_field('Summoner')).traveler",
            "            remove_skill;{e:u(unit2.get_field('Summoner')).traveler};Pair_Up_Fat;;no_banner",
            "            trigger_script_with_args;Ability_Pair_Up_Undo;guy,{e:u(unit2.get_field('Summoner')).nid}",
            "            separate;{e:u(unit2.get_field('Summoner'))}",
            "            add_unit;{e:u('{v:dancing_traveler}')};{e:u(unit2.get_field('Summoner'))};fade;closest",
            "        end",
            "        center_cursor;{e:u(unit2.get_field('Summoner'))}",
            "        flicker_cursor;{e:u(unit2.get_field('Summoner'))}",
            "        pair_up;{e:u(unit2.get_field('Summoner'))};Solfrid",
            "    end",
            "    #summon pylons",
            "    if;not v('solfrid_meme_2', 0) == 1 ",
            "        u;Solfrid;Right",
            "        s;Solfrid;The Herdsman had quite a trove of knowledge, you know.|Here's a little trick he tried to use against us...",
            "        r;Solfrid",
            "        lvar;solfrid_meme_2;1",
            "    end",
            "    lvar;pylon_positions;['top', 'top_right', 'bot_right', 'top_left', 'bot_left']",
            "    lvar;pos_1;game.get_random_choice({v:pylon_positions})",
            "    lvar;pos_2;game.get_random_choice([x for x in {v:pylon_positions} if x != '{v:pos_1}'])",
            "    lvar;pos_3;game.get_random_choice([x for x in {v:pylon_positions} if x != '{v:pos_1}' and x != '{v:pos_2}'])",
            "    if;RECORDS.get('Act_2_Power_level') == 0",
            "        if;get_charge(unit, 'Burning_Desire') == 1",
            "            lvar;pylon_loop;[v('pos_1'), v('pos_2')]",
            "        else",
            "            lvar;pylon_loop;[v('pos_1')]",
            "        end",
            "    else",
            "        if;get_charge(unit, 'Burning_Desire') == 1",
            "            lvar;pylon_loop;[v('pos_1'), v('pos_2'), v('pos_3')]",
            "        elif;get_charge(unit, 'Burning_Desire') == 2",
            "            lvar;pylon_loop;[v('pos_1'), v('pos_2')]",
            "        else",
            "            lvar;pylon_loop;[v('pos_1')]",
            "        end",
            "    end",
            "    for;pylon_spawns;[x for x in {v:pylon_loop}]",
            "        if;'{pylon_spawns}' == 'top'",
            "            add_unit;{e:'pylon_' + '{v:pylon_counter}'};13,3;warp;push",
            "            center_cursor;{e:'pylon_' + '{v:pylon_counter}'}",
            "            flicker_cursor;{e:'pylon_' + '{v:pylon_counter}'}",
            "        elif;'{pylon_spawns}' == 'top_right'",
            "            add_unit;{e:'pylon_' + '{v:pylon_counter}'};23,6;warp;push",
            "            center_cursor;{e:'pylon_' + '{v:pylon_counter}'}",
            "            flicker_cursor;{e:'pylon_' + '{v:pylon_counter}'}",
            "        elif;'{pylon_spawns}' == 'top_left'",
            "            add_unit;{e:'pylon_' + '{v:pylon_counter}'};4,7;warp;push",
            "            center_cursor;{e:'pylon_' + '{v:pylon_counter}'}",
            "            flicker_cursor;{e:'pylon_' + '{v:pylon_counter}'}",
            "        elif;'{pylon_spawns}' == 'bot_right'",
            "            add_unit;{e:'pylon_' + '{v:pylon_counter}'};24,16;warp;push",
            "            center_cursor;{e:'pylon_' + '{v:pylon_counter}'}",
            "            flicker_cursor;{e:'pylon_' + '{v:pylon_counter}'}",
            "        elif;'{pylon_spawns}' == 'bot_left'",
            "            add_unit;{e:'pylon_' + '{v:pylon_counter}'};5,18;warp;push",
            "            center_cursor;{e:'pylon_' + '{v:pylon_counter}'}",
            "            flicker_cursor;{e:'pylon_' + '{v:pylon_counter}'}",
            "        end",
            "        inc_level_var;pylon_counter;1",
            "    endf",
            "else",
            "    win_game",
            "end",
            ""
        ]
    }
]