[
    {
        "name": "Intro",
        "trigger": "level_start",
        "level_nid": "Tournament",
        "condition": "True",
        "commands": [],
        "only_once": false,
        "priority": 20,
        "_source": [
            "trigger_script;Global Get_Next_Chapter",
            "change_background;BlackBackground",
            "transition",
            "change_background",
            "lvar;current_round;1",
            "lvar;next_round;1",
            "add_group;group1;group1;immediate",
            "if;RECORDS.get('Act_1_Power_level') > 0",
            "    add_unit;102;8,5;immediate",
            "end",
            "center_cursor;9,9;immediate",
            "arrange_formation",
            "set_game_board_bounds;5;3;11;9",
            "trigger_script;Global Set_Elite_Level",
            "set_skill_data;Vulpecula_E;Legend;charge;0",
            "set_skill_data;Scutum_E;Legend;charge;0",
            "transition",
            "prep;t",
            "trigger_script;Global Global_End_Preps",
            "u;Bootes;Right",
            "speak;Bootes;I welcome you all to our annual tournament.|I hope to see a strong showing this year!|Now, let the battles commence!",
            "r;Bootes",
            "end_skip",
            "speak;;Once all foes are defeated, end your turn to proceed to the next round.;center;NumLines=3;DialogBox=menu_bg_parchment",
            "trigger_script;Global Music_Battle_Start"
        ]
    }
]