[
    {
        "name": "HM: Rein_Trigger",
        "trigger": "turn_change",
        "level_nid": "Trial_F",
        "condition": "RECORDS.get('Act_4_Power_level') > 0 and any_unit_in_region('hm_rein_zone', team='player')",
        "commands": [],
        "only_once": true,
        "priority": 20,
        "_source": [
            "level_var;infinites;1"
        ]
    }
]