[
    {
        "name": "HM: Combat_Start_Trinity",
        "trigger": "combat_start",
        "level_nid": "Trinity",
        "condition": "RECORDS.get('Act_3_Power_level') > 0 and (unit.nid == 'Trinity_B' or unit2.nid == 'Trinity_B')",
        "commands": [],
        "only_once": false,
        "priority": 20,
        "_source": [
            "if;not game.level_vars.get('hm_grigol', 0)",
            "    lvar;hm_grigol;1",
            "end"
        ]
    }
]