[
    {
        "name": "Loss_Condition",
        "trigger": "time_region_complete",
        "level_nid": "Uprising",
        "condition": "'Aur_Trial_Zone' in region.nid",
        "commands": [],
        "only_once": false,
        "priority": 20,
        "_source": [
            "trigger_script;Global Global_Loss",
            ""
        ]
    }
]