[
    {
        "name": "9. Class_Change",
        "trigger": null,
        "level_nid": "X",
        "condition": "True",
        "commands": [],
        "only_once": false,
        "priority": 20,
        "_source": [
            "if;'{v:player}' == 'Hetja' and get_klass('{v:player}').nid != 'Sword_Bonewalker'",
            "    if;get_klass('{v:player}').nid == 'Sword_Knight'",
            "        promote;{v:player};Dark_Knight;silent",
            "    elif;get_klass('{v:player}').nid == 'Mage_Armor_Anima'",
            "        promote;{v:player};Arbiter_Sword;silent",
            "    elif;get_klass('{v:player}').nid == 'Wyvern_Rider'",
            "        promote;{v:player};Wyvern_Knight;silent",
            "    end",
            "else",
            "    promote;{v:player};{v:new_klass};silent",
            "end",
            "if;u('{v:player}').get_field('Promoted_Weapon')",
            "    for;wep;[x for x in u('{v:player}').get_field('Promoted_Weapon').split(',')]",
            "        if;'{wep}' == 'Sword'",
            "            give_skill;{v:player};HiddenSword;;no_banner",
            "        elif;'{wep}' == 'Lance'",
            "            give_skill;{v:player};HiddenLanceAccess;;no_banner",
            "        elif;'{wep}' == 'Axe'",
            "            give_skill;{v:player};HiddenAxe;;no_banner",
            "        elif;'{wep}' == 'Bow'",
            "            give_skill;{v:player};HiddenBow;;no_banner",
            "        elif;'{wep}' == 'Knife'",
            "            give_skill;{v:player};HiddenKnife;;no_banner",
            "        elif;'{wep}' == 'Anima'",
            "            give_skill;{v:player};HiddenAnimaAccess;;no_banner",
            "        elif;'{wep}' == 'Light'",
            "            give_skill;{v:player};HiddenLightAccess;;no_banner",
            "        elif;'{wep}' == 'Dark'",
            "            give_skill;{v:player};HiddenDark;;no_banner",
            "        elif;'{wep}' == 'Staff'",
            "            give_skill;{v:player};HiddenStaff;;no_banner",
            "        elif;'{wep}' == 'Stone'",
            "            give_skill;{v:player};HiddenStone;;no_banner",
            "        end",
            "    endf",
            "end",
            "if;'{v:player}' == 'Gemini_F'",
            "    promote;Gemini_M;Trickster;silent",
            "end",
            "if;'{v:player}' == 'CIEL'",
            "    set_stats;{v:player};MAG,30;immediate",
            "end",
            "if;'{v:player}' == 'Kolbane'",
            "    change_portrait;Kolbane;kolbane_promo",
            "end"
        ]
    }
]