[
    {
        "name": "b. Bar_Functions",
        "trigger": "Bar",
        "level_nid": "X",
        "condition": "True",
        "commands": [],
        "only_once": false,
        "priority": 20,
        "_source": [
            "if;not RECORDS.get('bar_first_time')",
            "    speak;;This thing just fell out of the sky, it's for you, I'm assuming?|When I picked it up, your creepy friends over there suddenly started talking!|It freaked me out a little.|Anyway, just take it.",
            "    speak;;The <icon>tether</>Spirit Tether will allow you to speak to your allies.|The Tether requires a certain amount of Charge in order to function.|The amount needed to speak to an ally may vary as you learn more about them.|Charge can be regained by venturing out into the Fog, at a rate of 1 charge per room traveled.|Speaking to your allies can have various benefits. Give it a try!;center;NumLines=5;DialogBox=menu_bg_parchment",
            "    create_record;bar_first_time;1",
            "    for;friendos;[u.nid for u in game.get_player_units() if u.nid != 'Player']",
            "        add_talk;Player;{friendos}",
            "    endf",
            "    finish",
            "end",
            "if;RECORDS.get('bar_notif_second_time') and not RECORDS.get('bar_second_time')",
            "    create_record;bar_second_time;1",
            "    speak;;Looks like your pals aren't the only place this thing draws power from.|There's also a few other methods of recharging the manual mentions...",
            "    speak;;You can now purchase new skills from the bar.|These will cost charges from your <icon>tether</>Spirit Tether, and will be added to the wardrobe once purchased.|Additionally, you may also use the bar to summon any ally you know, once per visit.|Lastly, you can use other resources to charge the <icon>tether</>Spirit Tether.;center;NumLines=5;DialogBox=menu_bg_parchment",
            "    speak;;Got all that?|Well, it'll make more sense once you try it out.",
            "    finish",
            "end",
            "if;RECORDS.get('need_show_ticket') and not RECORDS.get('has_show_ticket')",
            "    create_record;has_show_ticket;1",
            "    speak;;A ticket for the show?|....|Heh... I guess the time has finally come.|Here, this will get you in.",
            "    alert;Received a ticket to the show!",
            "    speak;;I will warn you though...|I'm quite familiar with the story you'll find there.|I do hope you're a fan of... tragedy.",
            "    finish",
            "end",
            "if;RECORDS.get('bar_notif_second_time')",
            "    choice;bar_choice;What will you do?;['1|Purchase Skills','2|Summon Ally','3|Charge Tether','4|Help'];backable;expression",
            "    if;'{v:bar_choice}' == '1'",
            "        if;RECORDS.get('Density_8_Cleared')",
            "            lvar;highest_skills;4",
            "        elif;RECORDS.get('Density_6_Cleared')",
            "            lvar;highest_skills;3",
            "        elif;RECORDS.get('Density_4_Cleared')",
            "            lvar;highest_skills;2",
            "        elif;RECORDS.get('Density_2_Cleared')",
            "            lvar;highest_skills;1",
            "        else",
            "            lvar;highest_skills;0",
            "        end",
            "        level_var;purchaseable_skills;[s.nid for s in DB.skills if s.nid not in RECORDS.get('purchased_skills') and s.components.get('tether_parameters') and s.components.get('tether_parameters').value.get('level') <= v('highest_skills')]",
            "        level_var;purchaseable_skills;{v:purchaseable_skills} + [s.nid for s in DB.skills if s.nid in RECORDS.get('contract_skills_obtained') and s.nid not in RECORDS.get('purchased_skills')]",
            "        lvar;sorted_shop_skills;sorted(game.level_vars.get('purchaseable_skills'), key=lambda s: DB.skills.get(s).name)",
            "        if;len({v:sorted_shop_skills}) > 0",
            "            textbox;charge;\"<icon>tether</>Charge: \" + str(RECORDS.get('tether_charges')) + ' / ' + str(RECORDS.get('max_tether_charges'));top_left;130;expression",
            "            textbox;skill_cost;\"<blue>Cost: </>\" + \"{e:DB.skills.get('{v:ss_choice_choice_hover}').components.get('tether_parameters').value.get('cost')}\";top_right;80;1;BG=menu_bg_parchment;expression",
            "            choice;ss_choice;Purchase which skill?;v('sorted_shop_skills');Alignment=bottom;Dimensions=6,2;EntryType=type_skill;EventNid=b. Skill Shop;expression;backable",
            "        else",
            "            alert;No skills left to buy!",
            "        end",
            "    elif;'{v:bar_choice}' == '2'",
            "        level_var;talkable_friends;[u.nid for u in game.get_units_in_party() if not u.position and u.nid not in ['Yasukage','Libra_P'] and (RECORDS.get(u.nid + '_convos') < 3 or (RECORDS.get(u.nid + '_convos') < 4 and RECORDS.get('SI_unlocked')))]",
            "        if;v('bar_summon_used')",
            "            alert;Already summoned!",
            "        elif;len({v:talkable_friends}) > 0",
            "            textbox;rank;\"Progress: D\" if RECORDS.get('{v:summon_ally_choice_hover}' + '_convos') == 1 else \"Progress: C\" if RECORDS.get('{v:summon_ally_choice_hover}' + '_convos') == 2 else \"Progress: B\";right;80;1;BG=menu_bg_parchment;expression",
            "            choice;summon_ally;Summon whom?;{v:talkable_friends};;;left;Dimensions=8,1;EntryType=type_unit;expression;backable",
            "            remove_table;rank",
            "            if;'{v:summon_ally}' != 'BACK'",
            "                add_unit;{v:summon_ally};20,12;swoosh",
            "                center_cursor;{v:summon_ally}",
            "                flicker_cursor;{v:summon_ally}",
            "                add_talk;Player;{v:summon_ally}",
            "                game_var;bar_summon_used;1",
            "            end",
            "        else",
            "            alert;Nobody to summon!",
            "        end",
            "    elif;'{v:bar_choice}' == '3'",
            "        textbox;essence;\"<icon>event_essence</>\" + str(RECORDS.get('Essence'));top_left;75;expression",
            "        textbox;flame;\"<icon>event_flame</>\" + str(RECORDS.get('Flame'));top;75;expression",
            "        textbox;fragments;\"<icon>event_fragments</>\" + str(RECORDS.get('Fragments'));top_right;75;expression",
            "        textbox;charges;\"<icon>tether</>Charge: \" + str(RECORDS.get('tether_charges')) + ' / ' + str(RECORDS.get('max_tether_charges'));bottom;130;NumLines=1;expression",
            "        choice;exchange;Use which currency?;['1|50 Essence','2|20 Flame','3|25 Fragments'];;;center;EventNid=b. Tether Charge;expression;persist",
            "        remove_table;essence",
            "        remove_table;flame",
            "        remove_table;fragments",
            "        remove_table;charges",
            "    elif;'{v:bar_choice}' == '4'",
            "        choice;bar_help;Which topic?;Spirit Tether,Bar Functions;backable",
            "        if;'{v:bar_help}' == 'Spirit Tether'",
            "            speak;;The <icon>tether</>Spirit Tether will allow you to speak to your allies.|The Tether requires a certain amount of Charge in order to function.|The amount needed to speak to an ally may vary as you learn more about them.|Charge can be regained by venturing out into the Fog, at a rate of 1 charge per room traveled.|Speaking to your allies can have various benefits. Give it a try!;center;NumLines=5;DialogBox=menu_bg_parchment",
            "        elif;'{v:bar_help}' == 'Bar Functions'",
            "            speak;;You can purchase new skills from the bar.|These will cost charges from your <icon>tether</>Spirit Tether, and will be added to the wardrobe once purchased.|Additionally, you may also use the bar to summon any ally you know, once per visit.|Lastly, you can use other resources to charge the <icon>tether</>Spirit Tether.;center;NumLines=5;DialogBox=menu_bg_parchment",
            "        end",
            "    end",
            "else",
            "    s;;Need a refresher?{w} Sure thing.",
            "    speak;;The <icon>tether</>Spirit Tether will allow you to speak to your allies.|The Tether requires a certain amount of Charge in order to function.|The amount needed to speak to an ally may vary as you learn more about them.|Charge can be regained by venturing out into the Fog, at a rate of 1 charge per room traveled.|Speaking to your allies can have various benefits. Give it a try!;center;NumLines=5;DialogBox=menu_bg_parchment",
            "end"
        ]
    }
]