[
    {
        "name": "z. Unit_Menu",
        "trigger": "roam_press_aux",
        "level_nid": "X",
        "condition": "True",
        "commands": [],
        "only_once": false,
        "priority": 20,
        "_source": [
            "open_unit_management;;scroll",
            ""
        ]
    }
]