[
    {
        "nid": "28",
        "name": "Visit",
        "tilemap": "28",
        "bg_tilemap": null,
        "party": "Player",
        "music": {},
        "objective": {
            "simple": "Visit {v:houses_visited} / 3 houses",
            "win": "Visit 3 houses",
            "loss": "All allies defeated"
        },
        "roam": false,
        "roam_unit": null,
        "go_to_overworld": false,
        "should_record": true,
        "tags": [
            "Act2_Map",
            "Act3_Map"
        ],
        "units": [
            {
                "nid": "101",
                "variant": null,
                "level": 1,
                "klass": "Citizen",
                "faction": "Phantom",
                "starting_items": [],
                "starting_skills": [],
                "team": "enemy",
                "ai": "Pursue",
                "roam_ai": null,
                "ai_group": null,
                "starting_position": [
                    3,
                    7
                ],
                "starting_traveler": null,
                "generic": true
            },
            {
                "nid": "102",
                "variant": null,
                "level": 1,
                "klass": "Citizen",
                "faction": "Phantom",
                "starting_items": [],
                "starting_skills": [],
                "team": "enemy",
                "ai": "Pursue",
                "roam_ai": null,
                "ai_group": null,
                "starting_position": [
                    4,
                    7
                ],
                "starting_traveler": null,
                "generic": true
            },
            {
                "nid": "103",
                "variant": null,
                "level": 1,
                "klass": "Citizen",
                "faction": "Phantom",
                "starting_items": [],
                "starting_skills": [],
                "team": "enemy",
                "ai": "Defend",
                "roam_ai": null,
                "ai_group": "Middle",
                "starting_position": [
                    9,
                    6
                ],
                "starting_traveler": null,
                "generic": true
            },
            {
                "nid": "104",
                "variant": null,
                "level": 1,
                "klass": "Citizen",
                "faction": "Phantom",
                "starting_items": [],
                "starting_skills": [],
                "team": "enemy",
                "ai": "Defend",
                "roam_ai": null,
                "ai_group": "Middle",
                "starting_position": [
                    9,
                    8
                ],
                "starting_traveler": null,
                "generic": true
            },
            {
                "nid": "105",
                "variant": null,
                "level": 1,
                "klass": "Citizen",
                "faction": "Phantom",
                "starting_items": [],
                "starting_skills": [],
                "team": "enemy",
                "ai": "Defend",
                "roam_ai": null,
                "ai_group": null,
                "starting_position": [
                    6,
                    12
                ],
                "starting_traveler": null,
                "generic": true
            },
            {
                "nid": "106",
                "variant": null,
                "level": 1,
                "klass": "Citizen",
                "faction": "Phantom",
                "starting_items": [],
                "starting_skills": [],
                "team": "enemy",
                "ai": "Attack",
                "roam_ai": null,
                "ai_group": null,
                "starting_position": [
                    10,
                    15
                ],
                "starting_traveler": null,
                "generic": true
            },
            {
                "nid": "107",
                "variant": null,
                "level": 1,
                "klass": "Citizen",
                "faction": "Phantom",
                "starting_items": [],
                "starting_skills": [],
                "team": "enemy",
                "ai": "Attack",
                "roam_ai": null,
                "ai_group": null,
                "starting_position": [
                    12,
                    15
                ],
                "starting_traveler": null,
                "generic": true
            },
            {
                "nid": "108",
                "variant": null,
                "level": 1,
                "klass": "Citizen",
                "faction": "Phantom",
                "starting_items": [],
                "starting_skills": [],
                "team": "enemy",
                "ai": "Attack",
                "roam_ai": null,
                "ai_group": null,
                "starting_position": [
                    3,
                    13
                ],
                "starting_traveler": null,
                "generic": true
            },
            {
                "nid": "109",
                "variant": null,
                "level": 1,
                "klass": "Citizen",
                "faction": "Phantom",
                "starting_items": [],
                "starting_skills": [],
                "team": "enemy",
                "ai": "Defend",
                "roam_ai": null,
                "ai_group": "MidForests",
                "starting_position": [
                    12,
                    8
                ],
                "starting_traveler": null,
                "generic": true
            },
            {
                "nid": "110",
                "variant": null,
                "level": 1,
                "klass": "Citizen",
                "faction": "Phantom",
                "starting_items": [],
                "starting_skills": [],
                "team": "enemy",
                "ai": "Defend",
                "roam_ai": null,
                "ai_group": "MidForests",
                "starting_position": [
                    13,
                    7
                ],
                "starting_traveler": null,
                "generic": true
            },
            {
                "nid": "111",
                "variant": null,
                "level": 1,
                "klass": "Citizen",
                "faction": "Phantom",
                "starting_items": [],
                "starting_skills": [],
                "team": "enemy",
                "ai": "Attack",
                "roam_ai": null,
                "ai_group": null,
                "starting_position": [
                    16,
                    3
                ],
                "starting_traveler": null,
                "generic": true
            },
            {
                "nid": "112",
                "variant": null,
                "level": 1,
                "klass": "Citizen",
                "faction": "Phantom",
                "starting_items": [],
                "starting_skills": [],
                "team": "enemy",
                "ai": "Defend",
                "roam_ai": null,
                "ai_group": null,
                "starting_position": [
                    12,
                    4
                ],
                "starting_traveler": null,
                "generic": true
            },
            {
                "nid": "113",
                "variant": null,
                "level": 1,
                "klass": "Citizen",
                "faction": "Phantom",
                "starting_items": [],
                "starting_skills": [],
                "team": "enemy",
                "ai": "Defend",
                "roam_ai": null,
                "ai_group": null,
                "starting_position": [
                    11,
                    12
                ],
                "starting_traveler": null,
                "generic": true
            },
            {
                "nid": "114",
                "variant": null,
                "level": 1,
                "klass": "Citizen",
                "faction": "Phantom",
                "starting_items": [],
                "starting_skills": [],
                "team": "enemy",
                "ai": "Defend",
                "roam_ai": null,
                "ai_group": "BR",
                "starting_position": [
                    16,
                    13
                ],
                "starting_traveler": null,
                "generic": true
            },
            {
                "nid": "116",
                "variant": null,
                "level": 1,
                "klass": "Citizen",
                "faction": "Phantom",
                "starting_items": [],
                "starting_skills": [],
                "team": "enemy",
                "ai": "Defend",
                "roam_ai": null,
                "ai_group": "BR",
                "starting_position": [
                    17,
                    12
                ],
                "starting_traveler": null,
                "generic": true
            },
            {
                "nid": "115",
                "variant": null,
                "level": 1,
                "klass": "Citizen",
                "faction": "Phantom",
                "starting_items": [],
                "starting_skills": [],
                "team": "enemy",
                "ai": "Defend",
                "roam_ai": null,
                "ai_group": null,
                "starting_position": [
                    17,
                    7
                ],
                "starting_traveler": null,
                "generic": true
            },
            {
                "nid": "117",
                "variant": null,
                "level": 1,
                "klass": "Citizen",
                "faction": "Phantom",
                "starting_items": [],
                "starting_skills": [],
                "team": "enemy",
                "ai": "Pursue",
                "roam_ai": null,
                "ai_group": null,
                "starting_position": null,
                "starting_traveler": null,
                "generic": true
            },
            {
                "nid": "118",
                "variant": null,
                "level": 1,
                "klass": "Citizen",
                "faction": "Phantom",
                "starting_items": [],
                "starting_skills": [],
                "team": "enemy",
                "ai": "Pursue",
                "roam_ai": null,
                "ai_group": null,
                "starting_position": null,
                "starting_traveler": null,
                "generic": true
            },
            {
                "nid": "119",
                "variant": null,
                "level": 1,
                "klass": "Citizen",
                "faction": "Phantom",
                "starting_items": [],
                "starting_skills": [],
                "team": "enemy",
                "ai": "Pursue",
                "roam_ai": null,
                "ai_group": null,
                "starting_position": null,
                "starting_traveler": null,
                "generic": true
            },
            {
                "nid": "120",
                "variant": null,
                "level": 1,
                "klass": "Citizen",
                "faction": "Phantom",
                "starting_items": [],
                "starting_skills": [],
                "team": "enemy",
                "ai": "Pursue",
                "roam_ai": null,
                "ai_group": null,
                "starting_position": null,
                "starting_traveler": null,
                "generic": true
            }
        ],
        "regions": [
            {
                "nid": "Formation_1",
                "region_type": "formation",
                "position": [
                    3,
                    4
                ],
                "size": [
                    1,
                    1
                ],
                "sub_nid": "",
                "condition": "True",
                "time_left": null,
                "only_once": false,
                "interrupt_move": false
            },
            {
                "nid": "Formation_2",
                "region_type": "formation",
                "position": [
                    4,
                    4
                ],
                "size": [
                    1,
                    1
                ],
                "sub_nid": null,
                "condition": "True",
                "time_left": null,
                "only_once": false,
                "interrupt_move": false
            },
            {
                "nid": "Formation_3",
                "region_type": "formation",
                "position": [
                    3,
                    3
                ],
                "size": [
                    1,
                    1
                ],
                "sub_nid": null,
                "condition": "True",
                "time_left": null,
                "only_once": false,
                "interrupt_move": false
            },
            {
                "nid": "Formation_4",
                "region_type": "formation",
                "position": [
                    4,
                    3
                ],
                "size": [
                    1,
                    1
                ],
                "sub_nid": null,
                "condition": "True",
                "time_left": null,
                "only_once": false,
                "interrupt_move": false
            },
            {
                "nid": "Formation_5",
                "region_type": "formation",
                "position": [
                    5,
                    3
                ],
                "size": [
                    1,
                    1
                ],
                "sub_nid": null,
                "condition": "True",
                "time_left": null,
                "only_once": false,
                "interrupt_move": false
            },
            {
                "nid": "VisitT",
                "region_type": "event",
                "position": [
                    12,
                    2
                ],
                "size": [
                    1,
                    1
                ],
                "sub_nid": "Visit",
                "condition": "unit.team == 'player'",
                "time_left": null,
                "only_once": true,
                "interrupt_move": false
            },
            {
                "nid": "VisitL",
                "region_type": "event",
                "position": [
                    5,
                    10
                ],
                "size": [
                    1,
                    1
                ],
                "sub_nid": "Visit",
                "condition": "unit.team == 'player'",
                "time_left": null,
                "only_once": true,
                "interrupt_move": false
            },
            {
                "nid": "VisitR",
                "region_type": "event",
                "position": [
                    15,
                    10
                ],
                "size": [
                    1,
                    1
                ],
                "sub_nid": "Visit",
                "condition": "unit.team == 'player'",
                "time_left": null,
                "only_once": true,
                "interrupt_move": false
            },
            {
                "nid": "Rein1",
                "region_type": "normal",
                "position": [
                    11,
                    0
                ],
                "size": [
                    9,
                    16
                ],
                "sub_nid": "",
                "condition": "True",
                "time_left": null,
                "only_once": false,
                "interrupt_move": false
            },
            {
                "nid": "Rein2",
                "region_type": "normal",
                "position": [
                    0,
                    11
                ],
                "size": [
                    11,
                    5
                ],
                "sub_nid": null,
                "condition": "True",
                "time_left": null,
                "only_once": false,
                "interrupt_move": false
            }
        ],
        "unit_groups": [
            {
                "nid": "Rein1",
                "units": [
                    "117",
                    "118"
                ],
                "positions": {
                    "117": [
                        2,
                        0
                    ],
                    "118": [
                        5,
                        0
                    ]
                }
            },
            {
                "nid": "Rein2",
                "units": [
                    "119",
                    "120"
                ],
                "positions": {
                    "119": [
                        9,
                        15
                    ],
                    "120": [
                        13,
                        15
                    ]
                }
            }
        ],
        "ai_groups": [
            {
                "nid": "MidForests",
                "trigger_threshold": 1
            },
            {
                "nid": "BR",
                "trigger_threshold": 1
            },
            {
                "nid": "Middle",
                "trigger_threshold": 1
            }
        ]
    }
]