[
    {
        "nid": "49",
        "name": "Escort",
        "tilemap": "49",
        "bg_tilemap": null,
        "party": "Player",
        "music": {},
        "objective": {
            "simple": "Escort Civilian",
            "win": "Escort",
            "loss": "All allies defeated,Civilian dies"
        },
        "roam": false,
        "roam_unit": null,
        "go_to_overworld": false,
        "should_record": true,
        "tags": [
            "Act2_Map",
            "Act3_Map"
        ],
        "units": [
            {
                "nid": "Civilian",
                "variant": null,
                "level": 10,
                "klass": "Citizen",
                "faction": "Civilian",
                "starting_items": [
                    [
                        "Seers_Eye",
                        false
                    ]
                ],
                "starting_skills": [
                    "Protect_Tag"
                ],
                "team": "other",
                "ai": "Flee_Generic",
                "roam_ai": null,
                "ai_group": "",
                "starting_position": [
                    1,
                    0
                ],
                "starting_traveler": null,
                "generic": true
            },
            {
                "nid": "101",
                "variant": null,
                "level": 1,
                "klass": "Citizen",
                "faction": "Phantom",
                "starting_items": [],
                "starting_skills": [],
                "team": "enemy",
                "ai": "Defend",
                "roam_ai": null,
                "ai_group": "",
                "starting_position": [
                    11,
                    2
                ],
                "starting_traveler": null,
                "generic": true
            },
            {
                "nid": "102",
                "variant": null,
                "level": 1,
                "klass": "Citizen",
                "faction": "Phantom",
                "starting_items": [],
                "starting_skills": [],
                "team": "enemy",
                "ai": "Defend",
                "roam_ai": null,
                "ai_group": "",
                "starting_position": [
                    12,
                    7
                ],
                "starting_traveler": null,
                "generic": true
            },
            {
                "nid": "103",
                "variant": null,
                "level": 1,
                "klass": "Citizen",
                "faction": "Phantom",
                "starting_items": [],
                "starting_skills": [],
                "team": "enemy",
                "ai": "Attack",
                "roam_ai": null,
                "ai_group": "",
                "starting_position": [
                    8,
                    9
                ],
                "starting_traveler": null,
                "generic": true
            },
            {
                "nid": "104",
                "variant": null,
                "level": 1,
                "klass": "Citizen",
                "faction": "Phantom",
                "starting_items": [],
                "starting_skills": [],
                "team": "enemy",
                "ai": "Defend",
                "roam_ai": null,
                "ai_group": "",
                "starting_position": [
                    6,
                    12
                ],
                "starting_traveler": null,
                "generic": true
            },
            {
                "nid": "105",
                "variant": null,
                "level": 1,
                "klass": "Citizen",
                "faction": "Phantom",
                "starting_items": [],
                "starting_skills": [],
                "team": "enemy",
                "ai": "Defend",
                "roam_ai": null,
                "ai_group": "",
                "starting_position": [
                    5,
                    1
                ],
                "starting_traveler": null,
                "generic": true
            },
            {
                "nid": "106",
                "variant": null,
                "level": 1,
                "klass": "Citizen",
                "faction": "Phantom",
                "starting_items": [],
                "starting_skills": [],
                "team": "enemy",
                "ai": "Attack",
                "roam_ai": null,
                "ai_group": "",
                "starting_position": [
                    6,
                    4
                ],
                "starting_traveler": null,
                "generic": true
            },
            {
                "nid": "107",
                "variant": null,
                "level": 1,
                "klass": "Citizen",
                "faction": "Phantom",
                "starting_items": [],
                "starting_skills": [],
                "team": "enemy",
                "ai": "Defend",
                "roam_ai": null,
                "ai_group": "boss",
                "starting_position": [
                    3,
                    8
                ],
                "starting_traveler": null,
                "generic": true
            },
            {
                "nid": "108",
                "variant": null,
                "level": 3,
                "klass": "Citizen",
                "faction": "Phantom",
                "starting_items": [],
                "starting_skills": [
                    "Boss_Tag"
                ],
                "team": "enemy",
                "ai": "Guard",
                "roam_ai": null,
                "ai_group": "boss",
                "starting_position": [
                    1,
                    8
                ],
                "starting_traveler": null,
                "generic": true
            },
            {
                "nid": "109",
                "variant": null,
                "level": 1,
                "klass": "Citizen",
                "faction": "Phantom",
                "starting_items": [],
                "starting_skills": [],
                "team": "enemy",
                "ai": "Defend",
                "roam_ai": null,
                "ai_group": "",
                "starting_position": [
                    9,
                    5
                ],
                "starting_traveler": null,
                "generic": true
            },
            {
                "nid": "110",
                "variant": null,
                "level": 1,
                "klass": "Citizen",
                "faction": "Phantom",
                "starting_items": [],
                "starting_skills": [],
                "team": "enemy",
                "ai": "Pursue",
                "roam_ai": null,
                "ai_group": "",
                "starting_position": [
                    4,
                    10
                ],
                "starting_traveler": null,
                "generic": true
            },
            {
                "nid": "111_long",
                "variant": null,
                "level": 1,
                "klass": "Citizen",
                "faction": "Phantom",
                "starting_items": [],
                "starting_skills": [],
                "team": "enemy",
                "ai": "Pursue",
                "roam_ai": null,
                "ai_group": "",
                "starting_position": null,
                "starting_traveler": null,
                "generic": true
            },
            {
                "nid": "112_long",
                "variant": null,
                "level": 1,
                "klass": "Citizen",
                "faction": "Phantom",
                "starting_items": [],
                "starting_skills": [],
                "team": "enemy",
                "ai": "Pursue",
                "roam_ai": null,
                "ai_group": "",
                "starting_position": null,
                "starting_traveler": null,
                "generic": true
            },
            {
                "nid": "113_long",
                "variant": null,
                "level": 1,
                "klass": "Citizen",
                "faction": "Phantom",
                "starting_items": [],
                "starting_skills": [],
                "team": "enemy",
                "ai": "Pursue",
                "roam_ai": null,
                "ai_group": "",
                "starting_position": null,
                "starting_traveler": null,
                "generic": true
            },
            {
                "nid": "114_long",
                "variant": null,
                "level": 1,
                "klass": "Citizen",
                "faction": "Phantom",
                "starting_items": [],
                "starting_skills": [],
                "team": "enemy",
                "ai": "Pursue",
                "roam_ai": null,
                "ai_group": "",
                "starting_position": null,
                "starting_traveler": null,
                "generic": true
            },
            {
                "nid": "door_1",
                "variant": null,
                "level": 1,
                "klass": "Door20",
                "faction": "Wall",
                "starting_items": [],
                "starting_skills": [],
                "team": "enemy",
                "ai": "None",
                "roam_ai": null,
                "ai_group": "",
                "starting_position": [
                    4,
                    0
                ],
                "starting_traveler": null,
                "generic": true
            },
            {
                "nid": "door_2",
                "variant": null,
                "level": 1,
                "klass": "Door20",
                "faction": "Wall",
                "starting_items": [],
                "starting_skills": [],
                "team": "enemy",
                "ai": "None",
                "roam_ai": null,
                "ai_group": "",
                "starting_position": [
                    3,
                    4
                ],
                "starting_traveler": null,
                "generic": true
            },
            {
                "nid": "door_3",
                "variant": null,
                "level": 1,
                "klass": "Door20",
                "faction": "Wall",
                "starting_items": [],
                "starting_skills": [],
                "team": "enemy",
                "ai": "None",
                "roam_ai": null,
                "ai_group": "",
                "starting_position": [
                    3,
                    12
                ],
                "starting_traveler": null,
                "generic": true
            }
        ],
        "regions": [
            {
                "nid": "Formation_1",
                "region_type": "formation",
                "position": [
                    15,
                    2
                ],
                "size": [
                    1,
                    1
                ],
                "sub_nid": "",
                "condition": "True",
                "time_left": null,
                "only_once": false,
                "interrupt_move": false
            },
            {
                "nid": "Formation_2",
                "region_type": "formation",
                "position": [
                    15,
                    3
                ],
                "size": [
                    1,
                    1
                ],
                "sub_nid": null,
                "condition": "True",
                "time_left": null,
                "only_once": false,
                "interrupt_move": false
            },
            {
                "nid": "Formation_3",
                "region_type": "formation",
                "position": [
                    15,
                    4
                ],
                "size": [
                    1,
                    1
                ],
                "sub_nid": null,
                "condition": "True",
                "time_left": null,
                "only_once": false,
                "interrupt_move": false
            },
            {
                "nid": "Formation_4",
                "region_type": "formation",
                "position": [
                    15,
                    5
                ],
                "size": [
                    1,
                    1
                ],
                "sub_nid": null,
                "condition": "True",
                "time_left": null,
                "only_once": false,
                "interrupt_move": false
            },
            {
                "nid": "Formation_5",
                "region_type": "formation",
                "position": [
                    15,
                    6
                ],
                "size": [
                    1,
                    1
                ],
                "sub_nid": null,
                "condition": "True",
                "time_left": null,
                "only_once": false,
                "interrupt_move": false
            },
            {
                "nid": "Escape",
                "region_type": "event",
                "position": [
                    5,
                    13
                ],
                "size": [
                    4,
                    1
                ],
                "sub_nid": "Escape",
                "condition": "unit.team == 'other'",
                "time_left": null,
                "only_once": false,
                "interrupt_move": false
            },
            {
                "nid": "Door_1",
                "region_type": "event",
                "position": [
                    3,
                    0
                ],
                "size": [
                    3,
                    1
                ],
                "sub_nid": "Door",
                "condition": "unit.can_unlock(region)",
                "time_left": null,
                "only_once": true,
                "interrupt_move": false
            },
            {
                "nid": "Door_2",
                "region_type": "event",
                "position": [
                    2,
                    4
                ],
                "size": [
                    3,
                    1
                ],
                "sub_nid": "Door",
                "condition": "unit.can_unlock(region)",
                "time_left": null,
                "only_once": true,
                "interrupt_move": false
            },
            {
                "nid": "Door_3",
                "region_type": "event",
                "position": [
                    2,
                    12
                ],
                "size": [
                    3,
                    1
                ],
                "sub_nid": "Door",
                "condition": "unit.can_unlock(region)",
                "time_left": null,
                "only_once": true,
                "interrupt_move": false
            },
            {
                "nid": "Chest_1",
                "region_type": "event",
                "position": [
                    2,
                    5
                ],
                "size": [
                    1,
                    1
                ],
                "sub_nid": "Chest",
                "condition": "unit.can_unlock(region)",
                "time_left": null,
                "only_once": true,
                "interrupt_move": false
            },
            {
                "nid": "Chest_2",
                "region_type": "event",
                "position": [
                    1,
                    13
                ],
                "size": [
                    1,
                    1
                ],
                "sub_nid": "Chest",
                "condition": "unit.can_unlock(region)",
                "time_left": null,
                "only_once": true,
                "interrupt_move": false
            }
        ],
        "unit_groups": [],
        "ai_groups": [
            {
                "nid": "boss",
                "trigger_threshold": 1
            }
        ]
    }
]