[
    {
        "nid": "55",
        "name": "Capture the Flag",
        "tilemap": "55",
        "bg_tilemap": null,
        "party": "Player",
        "music": {},
        "objective": {
            "simple": "Bring flag to ally zone",
            "win": "Capture the Flag",
            "loss": "All allies defeated,The Flag is lost"
        },
        "roam": false,
        "roam_unit": null,
        "go_to_overworld": false,
        "should_record": true,
        "tags": [
            "Act2_Map",
            "Act3_Map"
        ],
        "units": [
            {
                "nid": "Flagbearer",
                "variant": null,
                "level": 1,
                "klass": "Flagbearer",
                "faction": "Flagbearer",
                "starting_items": [],
                "starting_skills": [
                    "Protect_Tag",
                    "RescueMe"
                ],
                "team": "other",
                "ai": "None",
                "roam_ai": null,
                "ai_group": "",
                "starting_position": [
                    8,
                    6
                ],
                "starting_traveler": null,
                "generic": true
            },
            {
                "nid": "101",
                "variant": null,
                "level": 1,
                "klass": "Citizen",
                "faction": "Phantom",
                "starting_items": [],
                "starting_skills": [],
                "team": "enemy",
                "ai": "Capture_Green",
                "roam_ai": null,
                "ai_group": "",
                "starting_position": [
                    3,
                    1
                ],
                "starting_traveler": null,
                "generic": true
            },
            {
                "nid": "102",
                "variant": null,
                "level": 1,
                "klass": "Citizen",
                "faction": "Phantom",
                "starting_items": [],
                "starting_skills": [],
                "team": "enemy",
                "ai": "Attack_Ignore_Green",
                "roam_ai": null,
                "ai_group": "",
                "starting_position": [
                    6,
                    3
                ],
                "starting_traveler": null,
                "generic": true
            },
            {
                "nid": "103",
                "variant": null,
                "level": 1,
                "klass": "Citizen",
                "faction": "Phantom",
                "starting_items": [],
                "starting_skills": [],
                "team": "enemy",
                "ai": "Capture_Green",
                "roam_ai": null,
                "ai_group": "",
                "starting_position": [
                    10,
                    3
                ],
                "starting_traveler": null,
                "generic": true
            },
            {
                "nid": "104",
                "variant": null,
                "level": 1,
                "klass": "Citizen",
                "faction": "Phantom",
                "starting_items": [],
                "starting_skills": [],
                "team": "enemy",
                "ai": "Capture_Green",
                "roam_ai": null,
                "ai_group": "",
                "starting_position": [
                    14,
                    10
                ],
                "starting_traveler": null,
                "generic": true
            },
            {
                "nid": "105",
                "variant": null,
                "level": 1,
                "klass": "Citizen",
                "faction": "Phantom",
                "starting_items": [],
                "starting_skills": [],
                "team": "enemy",
                "ai": "Capture_Green",
                "roam_ai": null,
                "ai_group": "",
                "starting_position": [
                    13,
                    6
                ],
                "starting_traveler": null,
                "generic": true
            },
            {
                "nid": "106",
                "variant": null,
                "level": 1,
                "klass": "Citizen",
                "faction": "Phantom",
                "starting_items": [],
                "starting_skills": [],
                "team": "enemy",
                "ai": "Capture_Green",
                "roam_ai": null,
                "ai_group": "",
                "starting_position": [
                    12,
                    9
                ],
                "starting_traveler": null,
                "generic": true
            },
            {
                "nid": "107",
                "variant": null,
                "level": 1,
                "klass": "Citizen",
                "faction": "Phantom",
                "starting_items": [],
                "starting_skills": [],
                "team": "enemy",
                "ai": "Pursue_Ignore_Green",
                "roam_ai": null,
                "ai_group": "",
                "starting_position": [
                    7,
                    9
                ],
                "starting_traveler": null,
                "generic": true
            },
            {
                "nid": "108",
                "variant": null,
                "level": 1,
                "klass": "Citizen",
                "faction": "Phantom",
                "starting_items": [],
                "starting_skills": [],
                "team": "enemy",
                "ai": "Pursue_Ignore_Green",
                "roam_ai": null,
                "ai_group": "",
                "starting_position": [
                    3,
                    5
                ],
                "starting_traveler": null,
                "generic": true
            }
        ],
        "regions": [
            {
                "nid": "Formation_1",
                "region_type": "formation",
                "position": [
                    2,
                    9
                ],
                "size": [
                    1,
                    1
                ],
                "sub_nid": "",
                "condition": "True",
                "time_left": null,
                "only_once": false,
                "interrupt_move": false
            },
            {
                "nid": "Formation_2",
                "region_type": "formation",
                "position": [
                    2,
                    8
                ],
                "size": [
                    1,
                    1
                ],
                "sub_nid": null,
                "condition": "True",
                "time_left": null,
                "only_once": false,
                "interrupt_move": false
            },
            {
                "nid": "Formation_3",
                "region_type": "formation",
                "position": [
                    1,
                    8
                ],
                "size": [
                    1,
                    1
                ],
                "sub_nid": null,
                "condition": "True",
                "time_left": null,
                "only_once": false,
                "interrupt_move": false
            },
            {
                "nid": "Formation_4",
                "region_type": "formation",
                "position": [
                    1,
                    9
                ],
                "size": [
                    1,
                    1
                ],
                "sub_nid": null,
                "condition": "True",
                "time_left": null,
                "only_once": false,
                "interrupt_move": false
            },
            {
                "nid": "Ally_Zone",
                "region_type": "normal",
                "position": [
                    1,
                    10
                ],
                "size": [
                    2,
                    2
                ],
                "sub_nid": "",
                "condition": "True",
                "time_left": null,
                "only_once": false,
                "interrupt_move": false
            },
            {
                "nid": "Enemy_Zone",
                "region_type": "event",
                "position": [
                    12,
                    1
                ],
                "size": [
                    2,
                    2
                ],
                "sub_nid": "Enemy_Capture_Zone",
                "condition": "unit.traveler",
                "time_left": null,
                "only_once": false,
                "interrupt_move": false
            },
            {
                "nid": "Chest",
                "region_type": "event",
                "position": [
                    3,
                    11
                ],
                "size": [
                    1,
                    1
                ],
                "sub_nid": "Chest",
                "condition": "unit.can_unlock(region)",
                "time_left": null,
                "only_once": true,
                "interrupt_move": false
            }
        ],
        "unit_groups": [],
        "ai_groups": []
    }
]