[
    {
        "nid": "80",
        "name": "Defense",
        "tilemap": "80",
        "bg_tilemap": null,
        "party": "Player",
        "music": {},
        "objective": {
            "simple": "Defend Houses,{e:game.turncount} / 6",
            "win": "Defend",
            "loss": "All allies defeated, any House is seized"
        },
        "roam": false,
        "roam_unit": null,
        "go_to_overworld": false,
        "should_record": true,
        "tags": [
            "Act3_Map"
        ],
        "units": [
            {
                "nid": "Wall_L",
                "variant": null,
                "level": 1,
                "klass": "Wall60",
                "faction": "Wall",
                "starting_items": [],
                "starting_skills": [],
                "team": "enemy2",
                "ai": "None",
                "roam_ai": null,
                "ai_group": "",
                "starting_position": [
                    3,
                    13
                ],
                "starting_traveler": null,
                "generic": true
            },
            {
                "nid": "Wall_M_1",
                "variant": null,
                "level": 1,
                "klass": "Wall60",
                "faction": "Wall",
                "starting_items": [],
                "starting_skills": [],
                "team": "enemy2",
                "ai": "None",
                "roam_ai": null,
                "ai_group": "",
                "starting_position": [
                    7,
                    16
                ],
                "starting_traveler": null,
                "generic": true
            },
            {
                "nid": "Wall_M_2",
                "variant": null,
                "level": 1,
                "klass": "Wall60",
                "faction": "Wall",
                "starting_items": [],
                "starting_skills": [],
                "team": "enemy2",
                "ai": "None",
                "roam_ai": null,
                "ai_group": "",
                "starting_position": [
                    8,
                    16
                ],
                "starting_traveler": null,
                "generic": true
            },
            {
                "nid": "Wall_R_1",
                "variant": null,
                "level": 1,
                "klass": "Wall60",
                "faction": "Wall",
                "starting_items": [],
                "starting_skills": [],
                "team": "enemy2",
                "ai": "None",
                "roam_ai": null,
                "ai_group": "",
                "starting_position": [
                    12,
                    11
                ],
                "starting_traveler": null,
                "generic": true
            },
            {
                "nid": "Wall_R_2",
                "variant": null,
                "level": 1,
                "klass": "Wall60",
                "faction": "Wall",
                "starting_items": [],
                "starting_skills": [],
                "team": "enemy2",
                "ai": "None",
                "roam_ai": null,
                "ai_group": "",
                "starting_position": [
                    12,
                    10
                ],
                "starting_traveler": null,
                "generic": true
            },
            {
                "nid": "101",
                "variant": null,
                "level": 1,
                "klass": "Citizen",
                "faction": "Phantom",
                "starting_items": [],
                "starting_skills": [],
                "team": "enemy",
                "ai": "Pursue",
                "roam_ai": null,
                "ai_group": "",
                "starting_position": [
                    7,
                    6
                ],
                "starting_traveler": null,
                "generic": true
            },
            {
                "nid": "102",
                "variant": null,
                "level": 1,
                "klass": "Citizen",
                "faction": "Phantom",
                "starting_items": [],
                "starting_skills": [],
                "team": "enemy",
                "ai": "Pursue",
                "roam_ai": null,
                "ai_group": "",
                "starting_position": [
                    8,
                    7
                ],
                "starting_traveler": null,
                "generic": true
            },
            {
                "nid": "103_flier",
                "variant": null,
                "level": 1,
                "klass": "Citizen",
                "faction": "Phantom",
                "starting_items": [],
                "starting_skills": [],
                "team": "enemy",
                "ai": "Pursue",
                "roam_ai": null,
                "ai_group": "",
                "starting_position": [
                    10,
                    6
                ],
                "starting_traveler": null,
                "generic": true
            },
            {
                "nid": "104_short",
                "variant": null,
                "level": 1,
                "klass": "Citizen",
                "faction": "Phantom",
                "starting_items": [],
                "starting_skills": [],
                "team": "enemy",
                "ai": "Seize",
                "roam_ai": null,
                "ai_group": "",
                "starting_position": [
                    2,
                    13
                ],
                "starting_traveler": null,
                "generic": true
            },
            {
                "nid": "105_short",
                "variant": null,
                "level": 1,
                "klass": "Citizen",
                "faction": "Phantom",
                "starting_items": [],
                "starting_skills": [],
                "team": "enemy",
                "ai": "Seize",
                "roam_ai": null,
                "ai_group": "",
                "starting_position": [
                    14,
                    13
                ],
                "starting_traveler": null,
                "generic": true
            },
            {
                "nid": "106_short",
                "variant": null,
                "level": 1,
                "klass": "Citizen",
                "faction": "Phantom",
                "starting_items": [],
                "starting_skills": [],
                "team": "enemy",
                "ai": "Seize",
                "roam_ai": null,
                "ai_group": "",
                "starting_position": [
                    15,
                    12
                ],
                "starting_traveler": null,
                "generic": true
            },
            {
                "nid": "107",
                "variant": null,
                "level": 1,
                "klass": "Citizen",
                "faction": "Phantom",
                "starting_items": [],
                "starting_skills": [],
                "team": "enemy",
                "ai": "Guard",
                "roam_ai": null,
                "ai_group": "",
                "starting_position": [
                    7,
                    10
                ],
                "starting_traveler": null,
                "generic": true
            },
            {
                "nid": "108",
                "variant": null,
                "level": 1,
                "klass": "Citizen",
                "faction": "Phantom",
                "starting_items": [],
                "starting_skills": [],
                "team": "enemy",
                "ai": "Guard",
                "roam_ai": null,
                "ai_group": "",
                "starting_position": [
                    8,
                    10
                ],
                "starting_traveler": null,
                "generic": true
            },
            {
                "nid": "109_short",
                "variant": null,
                "level": 1,
                "klass": "Citizen",
                "faction": "Phantom",
                "starting_items": [],
                "starting_skills": [],
                "team": "enemy",
                "ai": "Seize",
                "roam_ai": null,
                "ai_group": "",
                "starting_position": [
                    1,
                    7
                ],
                "starting_traveler": null,
                "generic": true
            },
            {
                "nid": "110_short",
                "variant": null,
                "level": 1,
                "klass": "Citizen",
                "faction": "Phantom",
                "starting_items": [],
                "starting_skills": [],
                "team": "enemy",
                "ai": "Seize_NoE2",
                "roam_ai": null,
                "ai_group": "",
                "starting_position": [
                    0,
                    9
                ],
                "starting_traveler": null,
                "generic": true
            },
            {
                "nid": "111_short",
                "variant": null,
                "level": 1,
                "klass": "Citizen",
                "faction": "Phantom",
                "starting_items": [],
                "starting_skills": [],
                "team": "enemy",
                "ai": "Seize_Focus",
                "roam_ai": null,
                "ai_group": "",
                "starting_position": [
                    0,
                    12
                ],
                "starting_traveler": null,
                "generic": true
            },
            {
                "nid": "112_short",
                "variant": null,
                "level": 1,
                "klass": "Citizen",
                "faction": "Phantom",
                "starting_items": [],
                "starting_skills": [],
                "team": "enemy",
                "ai": "Defend_Ignore_Enemy2",
                "roam_ai": null,
                "ai_group": "BL",
                "starting_position": [
                    0,
                    16
                ],
                "starting_traveler": null,
                "generic": true
            },
            {
                "nid": "113_short",
                "variant": null,
                "level": 1,
                "klass": "Citizen",
                "faction": "Phantom",
                "starting_items": [],
                "starting_skills": [],
                "team": "enemy",
                "ai": "Defend_Ignore_Enemy2",
                "roam_ai": null,
                "ai_group": "BL",
                "starting_position": [
                    2,
                    17
                ],
                "starting_traveler": null,
                "generic": true
            },
            {
                "nid": "114_flier",
                "variant": null,
                "level": 1,
                "klass": "Citizen",
                "faction": "Phantom",
                "starting_items": [],
                "starting_skills": [],
                "team": "enemy",
                "ai": "Defend_Ignore_Enemy2",
                "roam_ai": null,
                "ai_group": "",
                "starting_position": [
                    14,
                    19
                ],
                "starting_traveler": null,
                "generic": true
            },
            {
                "nid": "T3_1_short",
                "variant": null,
                "level": 1,
                "klass": "Citizen",
                "faction": "Phantom",
                "starting_items": [],
                "starting_skills": [],
                "team": "enemy",
                "ai": "Seize_Focus",
                "roam_ai": null,
                "ai_group": "",
                "starting_position": null,
                "starting_traveler": null,
                "generic": true
            },
            {
                "nid": "T3_2_short",
                "variant": null,
                "level": 1,
                "klass": "Citizen",
                "faction": "Phantom",
                "starting_items": [],
                "starting_skills": [],
                "team": "enemy",
                "ai": "Seize_Focus",
                "roam_ai": null,
                "ai_group": "",
                "starting_position": null,
                "starting_traveler": null,
                "generic": true
            },
            {
                "nid": "T3_3_grounded",
                "variant": null,
                "level": 1,
                "klass": "Citizen",
                "faction": "Phantom",
                "starting_items": [],
                "starting_skills": [],
                "team": "enemy",
                "ai": "Seize",
                "roam_ai": null,
                "ai_group": "",
                "starting_position": null,
                "starting_traveler": null,
                "generic": true
            },
            {
                "nid": "T3_4_grounded",
                "variant": null,
                "level": 1,
                "klass": "Citizen",
                "faction": "Phantom",
                "starting_items": [],
                "starting_skills": [],
                "team": "enemy",
                "ai": "Seize",
                "roam_ai": null,
                "ai_group": "",
                "starting_position": null,
                "starting_traveler": null,
                "generic": true
            },
            {
                "nid": "T5_1_grounded",
                "variant": null,
                "level": 1,
                "klass": "Citizen",
                "faction": "Phantom",
                "starting_items": [],
                "starting_skills": [],
                "team": "enemy",
                "ai": "Seize_NoE2",
                "roam_ai": null,
                "ai_group": "",
                "starting_position": null,
                "starting_traveler": null,
                "generic": true
            },
            {
                "nid": "T5_2_grounded",
                "variant": null,
                "level": 1,
                "klass": "Citizen",
                "faction": "Phantom",
                "starting_items": [],
                "starting_skills": [],
                "team": "enemy",
                "ai": "Seize_NoE2",
                "roam_ai": null,
                "ai_group": "",
                "starting_position": null,
                "starting_traveler": null,
                "generic": true
            },
            {
                "nid": "T5_3_grounded",
                "variant": null,
                "level": 1,
                "klass": "Citizen",
                "faction": "Phantom",
                "starting_items": [],
                "starting_skills": [],
                "team": "enemy",
                "ai": "Seize_NoE2",
                "roam_ai": null,
                "ai_group": "",
                "starting_position": null,
                "starting_traveler": null,
                "generic": true
            },
            {
                "nid": "T5_4_short",
                "variant": null,
                "level": 1,
                "klass": "Citizen",
                "faction": "Phantom",
                "starting_items": [],
                "starting_skills": [],
                "team": "enemy",
                "ai": "Seize_NoE2",
                "roam_ai": null,
                "ai_group": "",
                "starting_position": null,
                "starting_traveler": null,
                "generic": true
            }
        ],
        "regions": [
            {
                "nid": "Enemy_Seize_1",
                "region_type": "event",
                "position": [
                    5,
                    7
                ],
                "size": [
                    1,
                    1
                ],
                "sub_nid": "Enemy_Seize",
                "condition": "unit.team in ['enemy', 'enemy2']",
                "time_left": null,
                "only_once": false,
                "interrupt_move": false
            },
            {
                "nid": "Enemy_Seize_2",
                "region_type": "event",
                "position": [
                    10,
                    7
                ],
                "size": [
                    1,
                    1
                ],
                "sub_nid": "Enemy_Seize",
                "condition": "unit.team in ['enemy', 'enemy2']",
                "time_left": null,
                "only_once": false,
                "interrupt_move": false
            },
            {
                "nid": "Enemy_Seize_3",
                "region_type": "event",
                "position": [
                    5,
                    12
                ],
                "size": [
                    1,
                    1
                ],
                "sub_nid": "Enemy_Seize",
                "condition": "unit.team in ['enemy', 'enemy2']",
                "time_left": null,
                "only_once": false,
                "interrupt_move": false
            },
            {
                "nid": "Enemy_Seize_4",
                "region_type": "event",
                "position": [
                    10,
                    12
                ],
                "size": [
                    1,
                    1
                ],
                "sub_nid": "Enemy_Seize",
                "condition": "unit.team in ['enemy', 'enemy2']",
                "time_left": null,
                "only_once": false,
                "interrupt_move": false
            },
            {
                "nid": "1",
                "region_type": "formation",
                "position": [
                    6,
                    4
                ],
                "size": [
                    1,
                    1
                ],
                "sub_nid": "",
                "condition": "True",
                "time_left": null,
                "only_once": false,
                "interrupt_move": false
            },
            {
                "nid": "2",
                "region_type": "formation",
                "position": [
                    7,
                    4
                ],
                "size": [
                    1,
                    1
                ],
                "sub_nid": "",
                "condition": "True",
                "time_left": null,
                "only_once": false,
                "interrupt_move": false
            },
            {
                "nid": "3",
                "region_type": "formation",
                "position": [
                    8,
                    4
                ],
                "size": [
                    1,
                    1
                ],
                "sub_nid": "",
                "condition": "True",
                "time_left": null,
                "only_once": false,
                "interrupt_move": false
            },
            {
                "nid": "4",
                "region_type": "formation",
                "position": [
                    9,
                    4
                ],
                "size": [
                    1,
                    1
                ],
                "sub_nid": "",
                "condition": "True",
                "time_left": null,
                "only_once": false,
                "interrupt_move": false
            },
            {
                "nid": "5",
                "region_type": "formation",
                "position": [
                    10,
                    4
                ],
                "size": [
                    1,
                    1
                ],
                "sub_nid": "",
                "condition": "True",
                "time_left": null,
                "only_once": false,
                "interrupt_move": false
            },
            {
                "nid": "6",
                "region_type": "formation",
                "position": [
                    8,
                    3
                ],
                "size": [
                    1,
                    1
                ],
                "sub_nid": "",
                "condition": "True",
                "time_left": null,
                "only_once": false,
                "interrupt_move": false
            }
        ],
        "unit_groups": [
            {
                "nid": "T3",
                "units": [
                    "T3_1_short",
                    "T3_2_short",
                    "T3_3_grounded",
                    "T3_4_grounded"
                ],
                "positions": {
                    "T3_1_short": [
                        7,
                        19
                    ],
                    "T3_2_short": [
                        8,
                        19
                    ],
                    "T3_3_grounded": [
                        13,
                        0
                    ],
                    "T3_4_grounded": [
                        15,
                        1
                    ]
                }
            },
            {
                "nid": "T5",
                "units": [
                    "T5_1_grounded",
                    "T5_2_grounded",
                    "T5_3_grounded",
                    "T5_4_short"
                ],
                "positions": {
                    "T5_1_grounded": [
                        15,
                        14
                    ],
                    "T5_2_grounded": [
                        15,
                        15
                    ],
                    "T5_3_grounded": [
                        0,
                        12
                    ],
                    "T5_4_short": [
                        0,
                        9
                    ]
                }
            }
        ],
        "ai_groups": [
            {
                "nid": "BL",
                "trigger_threshold": 1
            }
        ]
    }
]