[
    {
        "nid": "Act_3A",
        "name": "Stage Selection",
        "tilemap": "Sideshow_3",
        "bg_tilemap": "Sky",
        "party": "Player",
        "music": {},
        "objective": {
            "simple": "",
            "win": "",
            "loss": ""
        },
        "roam": true,
        "roam_unit": "Player",
        "go_to_overworld": false,
        "should_record": false,
        "tags": [],
        "units": [],
        "regions": [
            {
                "nid": "Secret",
                "region_type": "event",
                "position": [
                    7,
                    2
                ],
                "size": [
                    1,
                    1
                ],
                "sub_nid": "Secret",
                "condition": "game.game_vars.get('demon_quest', 0) == 2 and  not game.game_vars.get('in_subroom', 0) == 1 and not game.game_vars.get('ophie_engaged', 0) == 1",
                "time_left": null,
                "only_once": false,
                "interrupt_move": false
            }
        ],
        "unit_groups": [],
        "ai_groups": []
    }
]