[
    {
        "nid": "Adrius",
        "name": "Trial: The Attendant",
        "tilemap": "Boss_1",
        "bg_tilemap": null,
        "party": "Player",
        "music": {},
        "objective": {
            "simple": "Defeat Adrius",
            "win": "Defeat Adrius",
            "loss": "All allies defeated"
        },
        "roam": false,
        "roam_unit": null,
        "go_to_overworld": false,
        "should_record": true,
        "tags": [
            "Trial_Map"
        ],
        "units": [
            {
                "nid": "Adrius",
                "team": "enemy",
                "ai": "Guard",
                "roam_ai": null,
                "ai_group": null,
                "starting_position": [
                    7,
                    19
                ],
                "starting_traveler": null,
                "generic": false
            },
            {
                "nid": "113",
                "variant": null,
                "level": 8,
                "klass": "Mercenary",
                "faction": "Oculi",
                "starting_items": [
                    [
                        "Armorslayer",
                        false
                    ]
                ],
                "starting_skills": [],
                "team": "enemy",
                "ai": "Defend",
                "roam_ai": null,
                "ai_group": "1",
                "starting_position": [
                    6,
                    16
                ],
                "starting_traveler": null,
                "generic": true
            },
            {
                "nid": "114",
                "variant": null,
                "level": 8,
                "klass": "Shaman",
                "faction": "Oculi",
                "starting_items": [
                    [
                        "Flux",
                        false
                    ]
                ],
                "starting_skills": [],
                "team": "enemy",
                "ai": "Defend",
                "roam_ai": null,
                "ai_group": "1",
                "starting_position": [
                    6,
                    15
                ],
                "starting_traveler": null,
                "generic": true
            },
            {
                "nid": "115",
                "variant": null,
                "level": 8,
                "klass": "Sky_Knight",
                "faction": "Oculi",
                "starting_items": [
                    [
                        "Iron_Lance",
                        false
                    ]
                ],
                "starting_skills": [],
                "team": "enemy",
                "ai": "Defend",
                "roam_ai": null,
                "ai_group": "",
                "starting_position": [
                    9,
                    18
                ],
                "starting_traveler": null,
                "generic": true
            },
            {
                "nid": "116",
                "variant": null,
                "level": 8,
                "klass": "Sky_Knight",
                "faction": "Oculi",
                "starting_items": [
                    [
                        "Iron_Lance",
                        false
                    ]
                ],
                "starting_skills": [],
                "team": "enemy",
                "ai": "Defend",
                "roam_ai": null,
                "ai_group": "",
                "starting_position": [
                    9,
                    21
                ],
                "starting_traveler": null,
                "generic": true
            },
            {
                "nid": "117",
                "variant": null,
                "level": 8,
                "klass": "Fighter",
                "faction": "Oculi",
                "starting_items": [
                    [
                        "Halberd",
                        false
                    ]
                ],
                "starting_skills": [],
                "team": "enemy",
                "ai": "Defend",
                "roam_ai": null,
                "ai_group": "1",
                "starting_position": [
                    6,
                    23
                ],
                "starting_traveler": null,
                "generic": true
            },
            {
                "nid": "118",
                "variant": null,
                "level": 8,
                "klass": "Monk",
                "faction": "Oculi",
                "starting_items": [
                    [
                        "Shine",
                        false
                    ]
                ],
                "starting_skills": [],
                "team": "enemy",
                "ai": "Defend",
                "roam_ai": null,
                "ai_group": "1",
                "starting_position": [
                    6,
                    24
                ],
                "starting_traveler": null,
                "generic": true
            },
            {
                "nid": "119",
                "variant": null,
                "level": 8,
                "klass": "Cleric",
                "faction": "Oculi",
                "starting_items": [
                    [
                        "Patch",
                        false
                    ]
                ],
                "starting_skills": [],
                "team": "enemy",
                "ai": "Heal",
                "roam_ai": null,
                "ai_group": "",
                "starting_position": [
                    6,
                    20
                ],
                "starting_traveler": null,
                "generic": true
            },
            {
                "nid": "121",
                "variant": null,
                "level": 8,
                "klass": "Fighter",
                "faction": "Oculi",
                "starting_items": [
                    [
                        "Iron_Axe",
                        false
                    ]
                ],
                "starting_skills": [],
                "team": "enemy",
                "ai": "Pursue",
                "roam_ai": null,
                "ai_group": "",
                "starting_position": [
                    3,
                    17
                ],
                "starting_traveler": null,
                "generic": true
            },
            {
                "nid": "122",
                "variant": null,
                "level": 8,
                "klass": "Mercenary",
                "faction": "Oculi",
                "starting_items": [
                    [
                        "Iron_Sword",
                        false
                    ]
                ],
                "starting_skills": [],
                "team": "enemy",
                "ai": "Pursue",
                "roam_ai": null,
                "ai_group": "",
                "starting_position": [
                    3,
                    22
                ],
                "starting_traveler": null,
                "generic": true
            },
            {
                "nid": "120",
                "variant": null,
                "level": 8,
                "klass": "Cavalier",
                "faction": "Oculi",
                "starting_items": [
                    [
                        "Steel_Lance",
                        false
                    ]
                ],
                "starting_skills": [],
                "team": "enemy",
                "ai": "Defend",
                "roam_ai": null,
                "ai_group": "2",
                "starting_position": [
                    11,
                    16
                ],
                "starting_traveler": null,
                "generic": true
            },
            {
                "nid": "125",
                "variant": null,
                "level": 8,
                "klass": "Cavalier",
                "faction": "Oculi",
                "starting_items": [
                    [
                        "Steel_Lance",
                        false
                    ]
                ],
                "starting_skills": [],
                "team": "enemy",
                "ai": "Defend",
                "roam_ai": null,
                "ai_group": "2",
                "starting_position": [
                    11,
                    23
                ],
                "starting_traveler": null,
                "generic": true
            },
            {
                "nid": "123",
                "variant": null,
                "level": 8,
                "klass": "Archer",
                "faction": "Oculi",
                "starting_items": [
                    [
                        "Longbow",
                        false
                    ]
                ],
                "starting_skills": [],
                "team": "enemy",
                "ai": "Defend",
                "roam_ai": null,
                "ai_group": "2",
                "starting_position": [
                    11,
                    15
                ],
                "starting_traveler": null,
                "generic": true
            },
            {
                "nid": "124",
                "variant": null,
                "level": 8,
                "klass": "Archer",
                "faction": "Oculi",
                "starting_items": [
                    [
                        "Longbow",
                        false
                    ]
                ],
                "starting_skills": [],
                "team": "enemy",
                "ai": "Defend",
                "roam_ai": null,
                "ai_group": "2",
                "starting_position": [
                    11,
                    24
                ],
                "starting_traveler": null,
                "generic": true
            },
            {
                "nid": "126",
                "variant": null,
                "level": 8,
                "klass": "Manakete",
                "faction": "Oculi",
                "starting_items": [
                    [
                        "Fire_Stone",
                        false
                    ]
                ],
                "starting_skills": [],
                "team": "enemy",
                "ai": "Defend",
                "roam_ai": null,
                "ai_group": "3",
                "starting_position": [
                    11,
                    19
                ],
                "starting_traveler": null,
                "generic": true
            },
            {
                "nid": "127",
                "variant": null,
                "level": 8,
                "klass": "Manakete",
                "faction": "Oculi",
                "starting_items": [
                    [
                        "Fire_Stone",
                        false
                    ]
                ],
                "starting_skills": [],
                "team": "enemy",
                "ai": "Defend",
                "roam_ai": null,
                "ai_group": "3",
                "starting_position": [
                    11,
                    20
                ],
                "starting_traveler": null,
                "generic": true
            },
            {
                "nid": "101",
                "variant": null,
                "level": 8,
                "klass": "Beastkin",
                "faction": "Oculi",
                "starting_items": [
                    [
                        "Shadow_Stone",
                        false
                    ]
                ],
                "starting_skills": [],
                "team": "enemy",
                "ai": "Pursue",
                "roam_ai": null,
                "ai_group": "",
                "starting_position": null,
                "starting_traveler": null,
                "generic": true
            },
            {
                "nid": "102",
                "variant": null,
                "level": 8,
                "klass": "Beastkin",
                "faction": "Oculi",
                "starting_items": [
                    [
                        "Shadow_Stone",
                        false
                    ]
                ],
                "starting_skills": [],
                "team": "enemy",
                "ai": "Pursue",
                "roam_ai": null,
                "ai_group": "",
                "starting_position": null,
                "starting_traveler": null,
                "generic": true
            },
            {
                "nid": "103",
                "variant": null,
                "level": 8,
                "klass": "Wyvern_Chaser",
                "faction": "Oculi",
                "starting_items": [
                    [
                        "Poison_Point",
                        false
                    ]
                ],
                "starting_skills": [],
                "team": "enemy",
                "ai": "Pursue",
                "roam_ai": null,
                "ai_group": "",
                "starting_position": null,
                "starting_traveler": null,
                "generic": true
            },
            {
                "nid": "104",
                "variant": null,
                "level": 8,
                "klass": "Wyvern_Chaser",
                "faction": "Oculi",
                "starting_items": [
                    [
                        "Poison_Point",
                        false
                    ]
                ],
                "starting_skills": [],
                "team": "enemy",
                "ai": "Pursue",
                "roam_ai": null,
                "ai_group": "",
                "starting_position": null,
                "starting_traveler": null,
                "generic": true
            },
            {
                "nid": "105",
                "variant": null,
                "level": 8,
                "klass": "Ninja",
                "faction": "Oculi",
                "starting_items": [
                    [
                        "Iron_Knife",
                        false
                    ]
                ],
                "starting_skills": [],
                "team": "enemy",
                "ai": "Defend",
                "roam_ai": null,
                "ai_group": "",
                "starting_position": null,
                "starting_traveler": null,
                "generic": true
            },
            {
                "nid": "106",
                "variant": null,
                "level": 8,
                "klass": "Ninja",
                "faction": "Oculi",
                "starting_items": [
                    [
                        "Iron_Knife",
                        false
                    ]
                ],
                "starting_skills": [],
                "team": "enemy",
                "ai": "Defend",
                "roam_ai": null,
                "ai_group": "",
                "starting_position": null,
                "starting_traveler": null,
                "generic": true
            }
        ],
        "regions": [
            {
                "nid": "E_1",
                "region_type": "normal",
                "position": [
                    19,
                    14
                ],
                "size": [
                    1,
                    1
                ],
                "sub_nid": "",
                "condition": "True",
                "time_left": null,
                "only_once": false,
                "interrupt_move": false
            },
            {
                "nid": "E_2",
                "region_type": "normal",
                "position": [
                    20,
                    14
                ],
                "size": [
                    1,
                    1
                ],
                "sub_nid": null,
                "condition": "True",
                "time_left": null,
                "only_once": false,
                "interrupt_move": false
            },
            {
                "nid": "E_3",
                "region_type": "normal",
                "position": [
                    18,
                    14
                ],
                "size": [
                    1,
                    1
                ],
                "sub_nid": null,
                "condition": "True",
                "time_left": null,
                "only_once": false,
                "interrupt_move": false
            },
            {
                "nid": "E_4",
                "region_type": "normal",
                "position": [
                    18,
                    15
                ],
                "size": [
                    1,
                    1
                ],
                "sub_nid": null,
                "condition": "True",
                "time_left": null,
                "only_once": false,
                "interrupt_move": false
            },
            {
                "nid": "E_5",
                "region_type": "normal",
                "position": [
                    20,
                    15
                ],
                "size": [
                    1,
                    1
                ],
                "sub_nid": null,
                "condition": "True",
                "time_left": null,
                "only_once": false,
                "interrupt_move": false
            },
            {
                "nid": "E_6",
                "region_type": "normal",
                "position": [
                    19,
                    15
                ],
                "size": [
                    1,
                    1
                ],
                "sub_nid": null,
                "condition": "True",
                "time_left": null,
                "only_once": false,
                "interrupt_move": false
            },
            {
                "nid": "Formation_1",
                "region_type": "formation",
                "position": [
                    2,
                    19
                ],
                "size": [
                    1,
                    1
                ],
                "sub_nid": null,
                "condition": "True",
                "time_left": null,
                "only_once": false,
                "interrupt_move": false
            },
            {
                "nid": "Formation_2",
                "region_type": "formation",
                "position": [
                    2,
                    20
                ],
                "size": [
                    1,
                    1
                ],
                "sub_nid": null,
                "condition": "True",
                "time_left": null,
                "only_once": false,
                "interrupt_move": false
            },
            {
                "nid": "Formation_3",
                "region_type": "formation",
                "position": [
                    1,
                    19
                ],
                "size": [
                    1,
                    1
                ],
                "sub_nid": null,
                "condition": "True",
                "time_left": null,
                "only_once": false,
                "interrupt_move": false
            },
            {
                "nid": "Formation_4",
                "region_type": "formation",
                "position": [
                    1,
                    20
                ],
                "size": [
                    1,
                    1
                ],
                "sub_nid": null,
                "condition": "True",
                "time_left": null,
                "only_once": false,
                "interrupt_move": false
            },
            {
                "nid": "Formation_5",
                "region_type": "formation",
                "position": [
                    0,
                    19
                ],
                "size": [
                    1,
                    1
                ],
                "sub_nid": null,
                "condition": "True",
                "time_left": null,
                "only_once": false,
                "interrupt_move": false
            },
            {
                "nid": "Formation_6",
                "region_type": "formation",
                "position": [
                    0,
                    20
                ],
                "size": [
                    1,
                    1
                ],
                "sub_nid": null,
                "condition": "True",
                "time_left": null,
                "only_once": false,
                "interrupt_move": false
            },
            {
                "nid": "rein_zone",
                "region_type": "normal",
                "position": [
                    10,
                    15
                ],
                "size": [
                    4,
                    10
                ],
                "sub_nid": null,
                "condition": "True",
                "time_left": null,
                "only_once": false,
                "interrupt_move": false
            }
        ],
        "unit_groups": [
            {
                "nid": "rein1",
                "units": [
                    "101",
                    "102"
                ],
                "positions": {
                    "101": [
                        0,
                        19
                    ],
                    "102": [
                        0,
                        20
                    ]
                }
            },
            {
                "nid": "rein2",
                "units": [
                    "103",
                    "104"
                ],
                "positions": {
                    "103": [
                        0,
                        15
                    ],
                    "104": [
                        0,
                        24
                    ]
                }
            },
            {
                "nid": "ninjas",
                "units": [
                    "105",
                    "106"
                ],
                "positions": {
                    "105": [
                        9,
                        18
                    ],
                    "106": [
                        9,
                        21
                    ]
                }
            }
        ],
        "ai_groups": [
            {
                "nid": "3",
                "trigger_threshold": 1
            },
            {
                "nid": "1",
                "trigger_threshold": 1
            },
            {
                "nid": "2",
                "trigger_threshold": 1
            }
        ]
    }
]