[
    {
        "nid": "EV_Prometheus",
        "name": "Event: Prometheus",
        "tilemap": "Prometheus",
        "bg_tilemap": null,
        "party": "Player",
        "music": {},
        "objective": {
            "simple": "Defeat Prometheus",
            "win": "Defeat boss",
            "loss": "All allies defeated"
        },
        "roam": false,
        "roam_unit": null,
        "go_to_overworld": false,
        "should_record": true,
        "tags": [],
        "units": [
            {
                "nid": "101",
                "variant": null,
                "level": 1,
                "klass": "World_Engine",
                "faction": "Phantom",
                "starting_items": [
                    [
                        "Silver_Lance",
                        false
                    ]
                ],
                "starting_skills": [
                    "Distant_Counter"
                ],
                "team": "enemy",
                "ai": "Guard",
                "roam_ai": null,
                "ai_group": "",
                "starting_position": [
                    3,
                    5
                ],
                "starting_traveler": null,
                "generic": true
            },
            {
                "nid": "102",
                "variant": null,
                "level": 1,
                "klass": "World_Engine",
                "faction": "Phantom",
                "starting_items": [
                    [
                        "Silver_Lance",
                        false
                    ]
                ],
                "starting_skills": [
                    "Distant_Counter"
                ],
                "team": "enemy",
                "ai": "Guard",
                "roam_ai": null,
                "ai_group": "",
                "starting_position": [
                    7,
                    1
                ],
                "starting_traveler": null,
                "generic": true
            },
            {
                "nid": "103",
                "variant": null,
                "level": 1,
                "klass": "World_Engine",
                "faction": "Phantom",
                "starting_items": [
                    [
                        "Silver_Lance",
                        false
                    ]
                ],
                "starting_skills": [
                    "Distant_Counter"
                ],
                "team": "enemy",
                "ai": "Guard",
                "roam_ai": null,
                "ai_group": "",
                "starting_position": [
                    11,
                    5
                ],
                "starting_traveler": null,
                "generic": true
            },
            {
                "nid": "104",
                "variant": null,
                "level": 1,
                "klass": "World_Engine",
                "faction": "Phantom",
                "starting_items": [
                    [
                        "Silver_Lance",
                        false
                    ]
                ],
                "starting_skills": [
                    "Distant_Counter"
                ],
                "team": "enemy",
                "ai": "Guard",
                "roam_ai": null,
                "ai_group": "",
                "starting_position": [
                    7,
                    9
                ],
                "starting_traveler": null,
                "generic": true
            },
            {
                "nid": "105",
                "variant": null,
                "level": 1,
                "klass": "World_Engine",
                "faction": "Phantom",
                "starting_items": [
                    [
                        "Silver_Lance",
                        false
                    ]
                ],
                "starting_skills": [
                    "Distant_Counter"
                ],
                "team": "enemy",
                "ai": "Guard",
                "roam_ai": null,
                "ai_group": "",
                "starting_position": [
                    4,
                    2
                ],
                "starting_traveler": null,
                "generic": true
            },
            {
                "nid": "106",
                "variant": null,
                "level": 1,
                "klass": "World_Engine",
                "faction": "Phantom",
                "starting_items": [
                    [
                        "Silver_Lance",
                        false
                    ]
                ],
                "starting_skills": [
                    "Distant_Counter"
                ],
                "team": "enemy",
                "ai": "Guard",
                "roam_ai": null,
                "ai_group": "",
                "starting_position": [
                    10,
                    2
                ],
                "starting_traveler": null,
                "generic": true
            },
            {
                "nid": "107",
                "variant": null,
                "level": 1,
                "klass": "World_Engine",
                "faction": "Phantom",
                "starting_items": [
                    [
                        "Silver_Lance",
                        false
                    ]
                ],
                "starting_skills": [
                    "Distant_Counter"
                ],
                "team": "enemy",
                "ai": "Guard",
                "roam_ai": null,
                "ai_group": "",
                "starting_position": [
                    10,
                    8
                ],
                "starting_traveler": null,
                "generic": true
            },
            {
                "nid": "108",
                "variant": null,
                "level": 1,
                "klass": "World_Engine",
                "faction": "Phantom",
                "starting_items": [
                    [
                        "Silver_Lance",
                        false
                    ]
                ],
                "starting_skills": [
                    "Distant_Counter"
                ],
                "team": "enemy",
                "ai": "Guard",
                "roam_ai": null,
                "ai_group": "",
                "starting_position": [
                    4,
                    8
                ],
                "starting_traveler": null,
                "generic": true
            },
            {
                "nid": "Prometheus_E",
                "team": "enemy",
                "ai": "Pursue",
                "roam_ai": null,
                "ai_group": "",
                "starting_position": [
                    7,
                    5
                ],
                "starting_traveler": null,
                "generic": false
            }
        ],
        "regions": [
            {
                "nid": "F_1",
                "region_type": "formation",
                "position": [
                    11,
                    10
                ],
                "size": [
                    1,
                    1
                ],
                "sub_nid": "",
                "condition": "True",
                "time_left": null,
                "only_once": false,
                "interrupt_move": false
            },
            {
                "nid": "F_2",
                "region_type": "formation",
                "position": [
                    13,
                    9
                ],
                "size": [
                    1,
                    1
                ],
                "sub_nid": null,
                "condition": "True",
                "time_left": null,
                "only_once": false,
                "interrupt_move": false
            },
            {
                "nid": "F_3",
                "region_type": "formation",
                "position": [
                    12,
                    0
                ],
                "size": [
                    1,
                    1
                ],
                "sub_nid": null,
                "condition": "True",
                "time_left": null,
                "only_once": false,
                "interrupt_move": false
            },
            {
                "nid": "F_4",
                "region_type": "formation",
                "position": [
                    5,
                    0
                ],
                "size": [
                    1,
                    1
                ],
                "sub_nid": null,
                "condition": "True",
                "time_left": null,
                "only_once": false,
                "interrupt_move": false
            },
            {
                "nid": "F_5",
                "region_type": "formation",
                "position": [
                    2,
                    8
                ],
                "size": [
                    1,
                    1
                ],
                "sub_nid": null,
                "condition": "True",
                "time_left": null,
                "only_once": false,
                "interrupt_move": false
            },
            {
                "nid": "F_6",
                "region_type": "formation",
                "position": [
                    3,
                    10
                ],
                "size": [
                    1,
                    1
                ],
                "sub_nid": null,
                "condition": "True",
                "time_left": null,
                "only_once": false,
                "interrupt_move": false
            }
        ],
        "unit_groups": [],
        "ai_groups": []
    }
]