[
    {
        "nid": "Fabien",
        "name": "Boss: The Lovers",
        "tilemap": "Boss_3",
        "bg_tilemap": null,
        "party": "Player",
        "music": {},
        "objective": {
            "simple": "Defeat Bosses",
            "win": "Defeat Bosses",
            "loss": "All allies defeated, The Gate falls"
        },
        "roam": false,
        "roam_unit": null,
        "go_to_overworld": false,
        "should_record": true,
        "tags": [
            "Boss_Map"
        ],
        "units": [
            {
                "nid": "Gate",
                "variant": null,
                "level": 1,
                "klass": "Wall60",
                "faction": "Wall",
                "starting_items": [],
                "starting_skills": [],
                "team": "other",
                "ai": "None",
                "roam_ai": null,
                "ai_group": "",
                "starting_position": [
                    10,
                    3
                ],
                "starting_traveler": null,
                "generic": true
            },
            {
                "nid": "Edryd_T",
                "team": "player",
                "ai": "None",
                "roam_ai": null,
                "ai_group": null,
                "starting_position": [
                    10,
                    5
                ],
                "starting_traveler": null,
                "generic": false
            },
            {
                "nid": "Fabien",
                "team": "enemy",
                "ai": "Pursue",
                "roam_ai": null,
                "ai_group": null,
                "starting_position": [
                    9,
                    17
                ],
                "starting_traveler": null,
                "generic": false
            },
            {
                "nid": "Chantal",
                "team": "enemy",
                "ai": "Pursue",
                "roam_ai": null,
                "ai_group": null,
                "starting_position": [
                    11,
                    17
                ],
                "starting_traveler": null,
                "generic": false
            },
            {
                "nid": "101",
                "variant": null,
                "level": 14,
                "klass": "Fighter",
                "faction": "Coalition",
                "starting_items": [
                    [
                        "Steel_Axe",
                        false
                    ],
                    [
                        "Shove_Band",
                        false
                    ]
                ],
                "starting_skills": [],
                "team": "enemy",
                "ai": "Pursue",
                "roam_ai": null,
                "ai_group": "",
                "starting_position": [
                    5,
                    10
                ],
                "starting_traveler": null,
                "generic": true
            },
            {
                "nid": "102",
                "variant": null,
                "level": 14,
                "klass": "Mage",
                "faction": "Coalition",
                "starting_items": [
                    [
                        "Thunder",
                        false
                    ],
                    [
                        "Pivot_Band",
                        false
                    ]
                ],
                "starting_skills": [],
                "team": "enemy",
                "ai": "Pursue",
                "roam_ai": null,
                "ai_group": "",
                "starting_position": [
                    4,
                    10
                ],
                "starting_traveler": null,
                "generic": true
            },
            {
                "nid": "103",
                "variant": null,
                "level": 14,
                "klass": "Soldier",
                "faction": "Coalition",
                "starting_items": [
                    [
                        "Steel_Lance",
                        false
                    ],
                    [
                        "Shove_Band",
                        false
                    ]
                ],
                "starting_skills": [],
                "team": "enemy",
                "ai": "Pursue",
                "roam_ai": null,
                "ai_group": "",
                "starting_position": [
                    15,
                    10
                ],
                "starting_traveler": null,
                "generic": true
            },
            {
                "nid": "104",
                "variant": null,
                "level": 14,
                "klass": "Monk",
                "faction": "Coalition",
                "starting_items": [
                    [
                        "Shine",
                        false
                    ],
                    [
                        "Draw_Back_Band",
                        false
                    ]
                ],
                "starting_skills": [],
                "team": "enemy",
                "ai": "Pursue",
                "roam_ai": null,
                "ai_group": "",
                "starting_position": [
                    16,
                    10
                ],
                "starting_traveler": null,
                "generic": true
            },
            {
                "nid": "105",
                "variant": null,
                "level": 14,
                "klass": "Mage_Armor",
                "faction": "Coalition",
                "starting_items": [
                    [
                        "Miasma",
                        false
                    ],
                    [
                        "Swap_Band",
                        false
                    ]
                ],
                "starting_skills": [],
                "team": "enemy",
                "ai": "Pursue",
                "roam_ai": null,
                "ai_group": "",
                "starting_position": [
                    10,
                    11
                ],
                "starting_traveler": null,
                "generic": true
            },
            {
                "nid": "106",
                "variant": null,
                "level": 14,
                "klass": "Ninja",
                "faction": "Coalition",
                "starting_items": [
                    [
                        "Slasher",
                        false
                    ],
                    [
                        "Pivot_Band",
                        false
                    ]
                ],
                "starting_skills": [],
                "team": "enemy",
                "ai": "Pursue",
                "roam_ai": null,
                "ai_group": "",
                "starting_position": [
                    9,
                    11
                ],
                "starting_traveler": null,
                "generic": true
            },
            {
                "nid": "107",
                "variant": null,
                "level": 14,
                "klass": "Ninja",
                "faction": "Coalition",
                "starting_items": [
                    [
                        "Slasher",
                        false
                    ],
                    [
                        "Pivot_Band",
                        false
                    ]
                ],
                "starting_skills": [],
                "team": "enemy",
                "ai": "Pursue",
                "roam_ai": null,
                "ai_group": "",
                "starting_position": [
                    11,
                    11
                ],
                "starting_traveler": null,
                "generic": true
            },
            {
                "nid": "108",
                "variant": null,
                "level": 14,
                "klass": "Warrior",
                "faction": "Coalition",
                "starting_items": [
                    [
                        "Halberd_Plus",
                        false
                    ],
                    [
                        "Pivot_Band",
                        false
                    ],
                    [
                        "Steel_Bow",
                        false
                    ]
                ],
                "starting_skills": [],
                "team": "enemy",
                "ai": "Pursue",
                "roam_ai": null,
                "ai_group": "",
                "starting_position": [
                    10,
                    16
                ],
                "starting_traveler": null,
                "generic": true
            },
            {
                "nid": "109",
                "variant": null,
                "level": 14,
                "klass": "Mercenary",
                "faction": "Coalition",
                "starting_items": [
                    [
                        "Epee",
                        false
                    ],
                    [
                        "Draw_Back_Band",
                        false
                    ]
                ],
                "starting_skills": [],
                "team": "enemy",
                "ai": "Pursue",
                "roam_ai": null,
                "ai_group": "",
                "starting_position": [
                    11,
                    15
                ],
                "starting_traveler": null,
                "generic": true
            },
            {
                "nid": "110",
                "variant": null,
                "level": 14,
                "klass": "Mercenary",
                "faction": "Coalition",
                "starting_items": [
                    [
                        "Epee",
                        false
                    ],
                    [
                        "Draw_Back_Band",
                        false
                    ]
                ],
                "starting_skills": [],
                "team": "enemy",
                "ai": "Pursue",
                "roam_ai": null,
                "ai_group": "",
                "starting_position": [
                    9,
                    15
                ],
                "starting_traveler": null,
                "generic": true
            },
            {
                "nid": "111",
                "variant": null,
                "level": 14,
                "klass": "Lance_Knight",
                "faction": "Coalition",
                "starting_items": [
                    [
                        "Dragonspear",
                        false
                    ],
                    [
                        "Swap_Band",
                        false
                    ]
                ],
                "starting_skills": [],
                "team": "enemy",
                "ai": "Pursue",
                "roam_ai": null,
                "ai_group": "",
                "starting_position": [
                    3,
                    16
                ],
                "starting_traveler": null,
                "generic": true
            },
            {
                "nid": "112",
                "variant": null,
                "level": 14,
                "klass": "Thaumaturge",
                "faction": "Coalition",
                "starting_items": [
                    [
                        "Elwind",
                        false
                    ],
                    [
                        "Pivot_Band",
                        false
                    ]
                ],
                "starting_skills": [],
                "team": "enemy",
                "ai": "Pursue",
                "roam_ai": null,
                "ai_group": "",
                "starting_position": [
                    3,
                    17
                ],
                "starting_traveler": null,
                "generic": true
            },
            {
                "nid": "113",
                "variant": null,
                "level": 14,
                "klass": "Axe_Knight",
                "faction": "Coalition",
                "starting_items": [
                    [
                        "Labrys",
                        false
                    ],
                    [
                        "Swap_Band",
                        false
                    ]
                ],
                "starting_skills": [],
                "team": "enemy",
                "ai": "Pursue",
                "roam_ai": null,
                "ai_group": "",
                "starting_position": [
                    17,
                    16
                ],
                "starting_traveler": null,
                "generic": true
            },
            {
                "nid": "114",
                "variant": null,
                "level": 14,
                "klass": "Skirmisher",
                "faction": "Coalition",
                "starting_items": [
                    [
                        "Steel_Bow",
                        false
                    ],
                    [
                        "Pivot_Band",
                        false
                    ]
                ],
                "starting_skills": [],
                "team": "enemy",
                "ai": "Pursue",
                "roam_ai": null,
                "ai_group": "",
                "starting_position": [
                    17,
                    17
                ],
                "starting_traveler": null,
                "generic": true
            },
            {
                "nid": "118",
                "variant": null,
                "level": 14,
                "klass": "Cleric",
                "faction": "Coalition",
                "starting_items": [
                    [
                        "Physic",
                        false
                    ],
                    [
                        "Harden",
                        false
                    ]
                ],
                "starting_skills": [],
                "team": "enemy",
                "ai": "MixedStaff",
                "roam_ai": null,
                "ai_group": "",
                "starting_position": [
                    7,
                    16
                ],
                "starting_traveler": null,
                "generic": true
            },
            {
                "nid": "119",
                "variant": null,
                "level": 14,
                "klass": "Cleric",
                "faction": "Coalition",
                "starting_items": [
                    [
                        "Physic",
                        false
                    ],
                    [
                        "Harden",
                        false
                    ]
                ],
                "starting_skills": [],
                "team": "enemy",
                "ai": "MixedStaff",
                "roam_ai": null,
                "ai_group": "",
                "starting_position": [
                    13,
                    16
                ],
                "starting_traveler": null,
                "generic": true
            },
            {
                "nid": "115",
                "variant": null,
                "level": 14,
                "klass": "Ballistician",
                "faction": "Coalition",
                "starting_items": [
                    [
                        "Pinpoint",
                        false
                    ],
                    [
                        "Shove_Band",
                        false
                    ]
                ],
                "starting_skills": [],
                "team": "enemy",
                "ai": "Defend",
                "roam_ai": null,
                "ai_group": "",
                "starting_position": null,
                "starting_traveler": null,
                "generic": true
            },
            {
                "nid": "116",
                "variant": null,
                "level": 14,
                "klass": "Ballistician",
                "faction": "Coalition",
                "starting_items": [
                    [
                        "Pinpoint",
                        false
                    ],
                    [
                        "Shove_Band",
                        false
                    ]
                ],
                "starting_skills": [],
                "team": "enemy",
                "ai": "Defend",
                "roam_ai": null,
                "ai_group": "",
                "starting_position": null,
                "starting_traveler": null,
                "generic": true
            },
            {
                "nid": "117",
                "variant": null,
                "level": 14,
                "klass": "Ballistician",
                "faction": "Coalition",
                "starting_items": [
                    [
                        "Pinpoint",
                        false
                    ],
                    [
                        "Draw_Back_Band",
                        false
                    ]
                ],
                "starting_skills": [],
                "team": "enemy",
                "ai": "Defend",
                "roam_ai": null,
                "ai_group": "",
                "starting_position": null,
                "starting_traveler": null,
                "generic": true
            },
            {
                "nid": "wave1_1",
                "variant": null,
                "level": 14,
                "klass": "Soldier",
                "faction": "Coalition",
                "starting_items": [
                    [
                        "Heavy_Spear_Plus",
                        false
                    ],
                    [
                        "Draw_Back_Band",
                        false
                    ]
                ],
                "starting_skills": [],
                "team": "enemy",
                "ai": "Pursue",
                "roam_ai": null,
                "ai_group": "",
                "starting_position": null,
                "starting_traveler": null,
                "generic": true
            },
            {
                "nid": "wave1_2",
                "variant": null,
                "level": 14,
                "klass": "Archer",
                "faction": "Coalition",
                "starting_items": [
                    [
                        "Stout_Bow",
                        false
                    ],
                    [
                        "Shove_Band",
                        false
                    ]
                ],
                "starting_skills": [],
                "team": "enemy",
                "ai": "Pursue",
                "roam_ai": null,
                "ai_group": "",
                "starting_position": null,
                "starting_traveler": null,
                "generic": true
            },
            {
                "nid": "wave1_3",
                "variant": null,
                "level": 14,
                "klass": "Fighter",
                "faction": "Coalition",
                "starting_items": [
                    [
                        "Dragon_Axe",
                        false
                    ],
                    [
                        "Draw_Back_Band",
                        false
                    ]
                ],
                "starting_skills": [],
                "team": "enemy",
                "ai": "Pursue",
                "roam_ai": null,
                "ai_group": "",
                "starting_position": null,
                "starting_traveler": null,
                "generic": true
            },
            {
                "nid": "wave1_4",
                "variant": null,
                "level": 14,
                "klass": "Shaman",
                "faction": "Coalition",
                "starting_items": [
                    [
                        "Carreau",
                        false
                    ],
                    [
                        "Pivot_Band",
                        false
                    ]
                ],
                "starting_skills": [],
                "team": "enemy",
                "ai": "Pursue",
                "roam_ai": null,
                "ai_group": "",
                "starting_position": null,
                "starting_traveler": null,
                "generic": true
            },
            {
                "nid": "wave2_1",
                "variant": null,
                "level": 14,
                "klass": "Paladin",
                "faction": "Coalition",
                "starting_items": [
                    [
                        "Silver_Sword",
                        false
                    ],
                    [
                        "Swap_Band",
                        false
                    ]
                ],
                "starting_skills": [],
                "team": "enemy",
                "ai": "Pursue",
                "roam_ai": null,
                "ai_group": "",
                "starting_position": null,
                "starting_traveler": null,
                "generic": true
            },
            {
                "nid": "wave2_2",
                "variant": null,
                "level": 14,
                "klass": "Great_Knight",
                "faction": "Coalition",
                "starting_items": [
                    [
                        "Silver_Lance",
                        false
                    ],
                    [
                        "Swap_Band",
                        false
                    ]
                ],
                "starting_skills": [],
                "team": "enemy",
                "ai": "Pursue",
                "roam_ai": null,
                "ai_group": "",
                "starting_position": null,
                "starting_traveler": null,
                "generic": true
            },
            {
                "nid": "wave3_1",
                "variant": null,
                "level": 14,
                "klass": "General",
                "faction": "Coalition",
                "starting_items": [
                    [
                        "Dragon_Axe",
                        false
                    ],
                    [
                        "Draw_Back_Band",
                        false
                    ],
                    [
                        "Frostfaire_Lance",
                        false
                    ]
                ],
                "starting_skills": [],
                "team": "enemy",
                "ai": "Pursue",
                "roam_ai": null,
                "ai_group": "",
                "starting_position": null,
                "starting_traveler": null,
                "generic": true
            },
            {
                "nid": "wave3_2",
                "variant": null,
                "level": 14,
                "klass": "Arbiter",
                "faction": "Coalition",
                "starting_items": [
                    [
                        "Mystic_Edge",
                        false
                    ],
                    [
                        "Shove_Band",
                        false
                    ],
                    [
                        "Carreau",
                        false
                    ]
                ],
                "starting_skills": [],
                "team": "enemy",
                "ai": "Pursue",
                "roam_ai": null,
                "ai_group": "",
                "starting_position": null,
                "starting_traveler": null,
                "generic": true
            },
            {
                "nid": "138",
                "variant": null,
                "level": 14,
                "klass": "Beastkin",
                "faction": "Coalition",
                "starting_items": [
                    [
                        "Nature_Stone",
                        false
                    ]
                ],
                "starting_skills": [],
                "team": "enemy",
                "ai": "Pursue",
                "roam_ai": null,
                "ai_group": "",
                "starting_position": null,
                "starting_traveler": null,
                "generic": true
            },
            {
                "nid": "139",
                "variant": null,
                "level": 14,
                "klass": "Beastkin",
                "faction": "Coalition",
                "starting_items": [
                    [
                        "Nature_Stone",
                        false
                    ]
                ],
                "starting_skills": [],
                "team": "enemy",
                "ai": "Pursue",
                "roam_ai": null,
                "ai_group": "",
                "starting_position": null,
                "starting_traveler": null,
                "generic": true
            },
            {
                "nid": "140",
                "variant": null,
                "level": 14,
                "klass": "Mage_Armor",
                "faction": "Coalition",
                "starting_items": [
                    [
                        "Banshee",
                        false
                    ]
                ],
                "starting_skills": [],
                "team": "enemy",
                "ai": "Pursue",
                "roam_ai": null,
                "ai_group": "",
                "starting_position": null,
                "starting_traveler": null,
                "generic": true
            },
            {
                "nid": "141",
                "variant": null,
                "level": 14,
                "klass": "Mage_Armor",
                "faction": "Coalition",
                "starting_items": [
                    [
                        "Banshee",
                        false
                    ]
                ],
                "starting_skills": [],
                "team": "enemy",
                "ai": "Pursue",
                "roam_ai": null,
                "ai_group": "",
                "starting_position": null,
                "starting_traveler": null,
                "generic": true
            },
            {
                "nid": "wave4_1",
                "variant": null,
                "level": 14,
                "klass": "Wyvern_Knight",
                "faction": "Coalition",
                "starting_items": [
                    [
                        "Silver_Lance",
                        false
                    ]
                ],
                "starting_skills": [],
                "team": "enemy",
                "ai": "Pursue",
                "roam_ai": null,
                "ai_group": "",
                "starting_position": null,
                "starting_traveler": null,
                "generic": true
            },
            {
                "nid": "wave4_2",
                "variant": null,
                "level": 14,
                "klass": "Mage_Dragon",
                "faction": "Coalition",
                "starting_items": [
                    [
                        "Wind_Rune",
                        false
                    ],
                    [
                        "Crush",
                        false
                    ]
                ],
                "starting_skills": [],
                "team": "enemy",
                "ai": "Pursue",
                "roam_ai": null,
                "ai_group": "",
                "starting_position": null,
                "starting_traveler": null,
                "generic": true
            },
            {
                "nid": "wave4_3",
                "variant": null,
                "level": 14,
                "klass": "Earth_Dragon",
                "faction": "Coalition",
                "starting_items": [
                    [
                        "Earth_Stone",
                        false
                    ],
                    [
                        "Gaia",
                        false
                    ]
                ],
                "starting_skills": [],
                "team": "enemy",
                "ai": "Pursue",
                "roam_ai": null,
                "ai_group": "",
                "starting_position": null,
                "starting_traveler": null,
                "generic": true
            }
        ],
        "regions": [
            {
                "nid": "Formation_1",
                "region_type": "formation",
                "position": [
                    9,
                    5
                ],
                "size": [
                    1,
                    1
                ],
                "sub_nid": "",
                "condition": "True",
                "time_left": null,
                "only_once": false,
                "interrupt_move": false
            },
            {
                "nid": "Formation_2",
                "region_type": "formation",
                "position": [
                    9,
                    6
                ],
                "size": [
                    1,
                    1
                ],
                "sub_nid": null,
                "condition": "True",
                "time_left": null,
                "only_once": false,
                "interrupt_move": false
            },
            {
                "nid": "Formation_3",
                "region_type": "formation",
                "position": [
                    10,
                    6
                ],
                "size": [
                    1,
                    1
                ],
                "sub_nid": null,
                "condition": "True",
                "time_left": null,
                "only_once": false,
                "interrupt_move": false
            },
            {
                "nid": "Formation_4",
                "region_type": "formation",
                "position": [
                    11,
                    6
                ],
                "size": [
                    1,
                    1
                ],
                "sub_nid": null,
                "condition": "True",
                "time_left": null,
                "only_once": false,
                "interrupt_move": false
            },
            {
                "nid": "Formation_5",
                "region_type": "formation",
                "position": [
                    11,
                    5
                ],
                "size": [
                    1,
                    1
                ],
                "sub_nid": null,
                "condition": "True",
                "time_left": null,
                "only_once": false,
                "interrupt_move": false
            },
            {
                "nid": "Formation_6",
                "region_type": "formation",
                "position": [
                    10,
                    7
                ],
                "size": [
                    1,
                    1
                ],
                "sub_nid": null,
                "condition": "True",
                "time_left": null,
                "only_once": false,
                "interrupt_move": false
            }
        ],
        "unit_groups": [
            {
                "nid": "rein1",
                "units": [
                    "wave1_1",
                    "wave1_2",
                    "wave1_3",
                    "wave1_4"
                ],
                "positions": {
                    "wave1_1": [
                        0,
                        10
                    ],
                    "wave1_2": [
                        0,
                        11
                    ],
                    "wave1_3": [
                        20,
                        10
                    ],
                    "wave1_4": [
                        20,
                        11
                    ]
                }
            },
            {
                "nid": "rein2",
                "units": [
                    "115",
                    "116",
                    "wave2_1",
                    "wave2_2"
                ],
                "positions": {
                    "wave2_1": [
                        0,
                        16
                    ],
                    "wave2_2": [
                        20,
                        16
                    ],
                    "115": [
                        4,
                        17
                    ],
                    "116": [
                        16,
                        17
                    ]
                }
            },
            {
                "nid": "rein3",
                "units": [
                    "wave3_1",
                    "wave3_2"
                ],
                "positions": {
                    "wave3_1": [
                        20,
                        10
                    ],
                    "wave3_2": [
                        0,
                        10
                    ]
                }
            },
            {
                "nid": "hm_rein4",
                "units": [
                    "wave4_1",
                    "wave4_2",
                    "wave4_3"
                ],
                "positions": {
                    "wave4_1": [
                        10,
                        17
                    ],
                    "wave4_2": [
                        20,
                        5
                    ],
                    "wave4_3": [
                        0,
                        5
                    ]
                }
            },
            {
                "nid": "hm_1",
                "units": [
                    "138",
                    "139",
                    "140",
                    "141"
                ],
                "positions": {
                    "138": [
                        20,
                        5
                    ],
                    "139": [
                        0,
                        5
                    ],
                    "140": [
                        20,
                        17
                    ],
                    "141": [
                        0,
                        17
                    ]
                }
            }
        ],
        "ai_groups": []
    }
]