[
    {
        "nid": "Ilona",
        "name": "Elite: The Flagbearer",
        "tilemap": "Elite_Flagbearer",
        "bg_tilemap": null,
        "party": "Player",
        "music": {},
        "objective": {
            "simple": "All bosses defeated",
            "win": "All bosses defeated",
            "loss": "All allies defeated"
        },
        "roam": false,
        "roam_unit": null,
        "go_to_overworld": false,
        "should_record": true,
        "tags": [
            "Elite_Map"
        ],
        "units": [
            {
                "nid": "Ilona_E",
                "team": "enemy",
                "ai": "Defend_HighPriority",
                "roam_ai": null,
                "ai_group": "ilona",
                "starting_position": [
                    3,
                    4
                ],
                "starting_traveler": null,
                "generic": false
            },
            {
                "nid": "101",
                "variant": null,
                "level": 1,
                "klass": "World_Engine",
                "faction": "LastHope",
                "starting_items": [
                    [
                        "Silver_Lance",
                        false
                    ],
                    [
                        "Brilliance",
                        false
                    ]
                ],
                "starting_skills": [],
                "team": "enemy",
                "ai": "Defend",
                "roam_ai": null,
                "ai_group": "ilona",
                "starting_position": [
                    4,
                    4
                ],
                "starting_traveler": null,
                "generic": true
            },
            {
                "nid": "102",
                "variant": null,
                "level": 1,
                "klass": "World_Engine",
                "faction": "LastHope",
                "starting_items": [
                    [
                        "Silver_Lance",
                        false
                    ],
                    [
                        "Brilliance",
                        false
                    ]
                ],
                "starting_skills": [],
                "team": "enemy",
                "ai": "Defend",
                "roam_ai": null,
                "ai_group": "ilona",
                "starting_position": [
                    2,
                    4
                ],
                "starting_traveler": null,
                "generic": true
            },
            {
                "nid": "103",
                "variant": null,
                "level": 1,
                "klass": "World_Engine",
                "faction": "LastHope",
                "starting_items": [
                    [
                        "Silver_Lance",
                        false
                    ],
                    [
                        "Brilliance",
                        false
                    ]
                ],
                "starting_skills": [],
                "team": "enemy",
                "ai": "Defend",
                "roam_ai": null,
                "ai_group": "ilona",
                "starting_position": [
                    3,
                    5
                ],
                "starting_traveler": null,
                "generic": true
            },
            {
                "nid": "messenger_1",
                "variant": null,
                "level": 1,
                "klass": "Soldier",
                "faction": "LastHope",
                "starting_items": [
                    [
                        "Silver_Lance",
                        false
                    ]
                ],
                "starting_skills": [],
                "team": "enemy",
                "ai": "Reinforce_1",
                "roam_ai": null,
                "ai_group": "",
                "starting_position": [
                    5,
                    4
                ],
                "starting_traveler": null,
                "generic": true
            },
            {
                "nid": "messenger_2",
                "variant": null,
                "level": 1,
                "klass": "Soldier",
                "faction": "LastHope",
                "starting_items": [
                    [
                        "Silver_Lance",
                        false
                    ]
                ],
                "starting_skills": [],
                "team": "enemy",
                "ai": "Reinforce_2",
                "roam_ai": null,
                "ai_group": "",
                "starting_position": [
                    1,
                    4
                ],
                "starting_traveler": null,
                "generic": true
            },
            {
                "nid": "boss_1",
                "variant": null,
                "level": 1,
                "klass": "Hero",
                "faction": "LastHope",
                "starting_items": [
                    [
                        "Zweihander",
                        false
                    ],
                    [
                        "Rapier",
                        false
                    ],
                    [
                        "Tomahawk",
                        false
                    ]
                ],
                "starting_skills": [
                    "Boss_Tag"
                ],
                "team": "enemy",
                "ai": "Pursue",
                "roam_ai": null,
                "ai_group": "",
                "starting_position": null,
                "starting_traveler": null,
                "generic": true
            },
            {
                "nid": "boss_1_reins",
                "variant": null,
                "level": 1,
                "klass": "Archer",
                "faction": "LastHope",
                "starting_items": [
                    [
                        "Steel_Bow",
                        false
                    ],
                    [
                        "Fine_Longbow",
                        false
                    ]
                ],
                "starting_skills": [],
                "team": "enemy",
                "ai": "Pursue",
                "roam_ai": null,
                "ai_group": "",
                "starting_position": null,
                "starting_traveler": null,
                "generic": true
            },
            {
                "nid": "boss_1_reins2",
                "variant": null,
                "level": 1,
                "klass": "Monk",
                "faction": "LastHope",
                "starting_items": [
                    [
                        "Divine",
                        false
                    ],
                    [
                        "Varna",
                        false
                    ]
                ],
                "starting_skills": [],
                "team": "enemy",
                "ai": "Pursue",
                "roam_ai": null,
                "ai_group": "",
                "starting_position": null,
                "starting_traveler": null,
                "generic": true
            },
            {
                "nid": "boss_2",
                "variant": null,
                "level": 1,
                "klass": "Sage",
                "faction": "LastHope",
                "starting_items": [
                    [
                        "Thoron",
                        false
                    ],
                    [
                        "Scorch",
                        false
                    ]
                ],
                "starting_skills": [
                    "Boss_Tag"
                ],
                "team": "enemy",
                "ai": "Pursue",
                "roam_ai": null,
                "ai_group": "",
                "starting_position": null,
                "starting_traveler": null,
                "generic": true
            },
            {
                "nid": "boss_2_reins",
                "variant": null,
                "level": 1,
                "klass": "Fighter",
                "faction": "LastHope",
                "starting_items": [
                    [
                        "Hammer_Plus",
                        false
                    ],
                    [
                        "Short_Axe",
                        false
                    ]
                ],
                "starting_skills": [],
                "team": "enemy",
                "ai": "Pursue",
                "roam_ai": null,
                "ai_group": "",
                "starting_position": null,
                "starting_traveler": null,
                "generic": true
            },
            {
                "nid": "boss_2_reins2",
                "variant": null,
                "level": 1,
                "klass": "Thief",
                "faction": "LastHope",
                "starting_items": [
                    [
                        "Lethal_Edge",
                        false
                    ],
                    [
                        "Baselard",
                        false
                    ]
                ],
                "starting_skills": [],
                "team": "enemy",
                "ai": "Pursue",
                "roam_ai": null,
                "ai_group": "",
                "starting_position": null,
                "starting_traveler": null,
                "generic": true
            },
            {
                "nid": "104",
                "variant": null,
                "level": 1,
                "klass": "Monolith",
                "faction": "LastHope",
                "starting_items": [
                    [
                        "Silver_Lance",
                        false
                    ]
                ],
                "starting_skills": [],
                "team": "enemy",
                "ai": "Attack",
                "roam_ai": null,
                "ai_group": "",
                "starting_position": [
                    15,
                    13
                ],
                "starting_traveler": null,
                "generic": true
            },
            {
                "nid": "105",
                "variant": null,
                "level": 1,
                "klass": "Monolith",
                "faction": "LastHope",
                "starting_items": [
                    [
                        "Silver_Lance",
                        false
                    ]
                ],
                "starting_skills": [],
                "team": "enemy",
                "ai": "Attack",
                "roam_ai": null,
                "ai_group": "",
                "starting_position": [
                    13,
                    15
                ],
                "starting_traveler": null,
                "generic": true
            },
            {
                "nid": "106",
                "variant": null,
                "level": 1,
                "klass": "Falcoknight",
                "faction": "LastHope",
                "starting_items": [
                    [
                        "Flame_Lance",
                        false
                    ],
                    [
                        "Wind_Sword",
                        false
                    ]
                ],
                "starting_skills": [],
                "team": "enemy",
                "ai": "Defend",
                "roam_ai": null,
                "ai_group": "top",
                "starting_position": [
                    13,
                    0
                ],
                "starting_traveler": null,
                "generic": true
            },
            {
                "nid": "107",
                "variant": null,
                "level": 1,
                "klass": "Thief",
                "faction": "LastHope",
                "starting_items": [
                    [
                        "Poison_Point",
                        false
                    ]
                ],
                "starting_skills": [],
                "team": "enemy",
                "ai": "Defend",
                "roam_ai": null,
                "ai_group": "top",
                "starting_position": [
                    19,
                    6
                ],
                "starting_traveler": null,
                "generic": true
            },
            {
                "nid": "108",
                "variant": null,
                "level": 1,
                "klass": "Paladin",
                "faction": "LastHope",
                "starting_items": [
                    [
                        "Silver_Sword",
                        false
                    ],
                    [
                        "Short_Spear",
                        false
                    ]
                ],
                "starting_skills": [],
                "team": "enemy",
                "ai": "Defend",
                "roam_ai": null,
                "ai_group": "",
                "starting_position": [
                    11,
                    11
                ],
                "starting_traveler": null,
                "generic": true
            },
            {
                "nid": "109",
                "variant": null,
                "level": 1,
                "klass": "Sword_Knight",
                "faction": "LastHope",
                "starting_items": [
                    [
                        "Killing_Edge",
                        false
                    ]
                ],
                "starting_skills": [],
                "team": "enemy",
                "ai": "Defend",
                "roam_ai": null,
                "ai_group": "cavs",
                "starting_position": [
                    9,
                    8
                ],
                "starting_traveler": null,
                "generic": true
            },
            {
                "nid": "110",
                "variant": null,
                "level": 1,
                "klass": "Axe_Knight",
                "faction": "LastHope",
                "starting_items": [
                    [
                        "Short_Axe",
                        false
                    ]
                ],
                "starting_skills": [],
                "team": "enemy",
                "ai": "Defend",
                "roam_ai": null,
                "ai_group": "cavs",
                "starting_position": [
                    9,
                    7
                ],
                "starting_traveler": null,
                "generic": true
            },
            {
                "nid": "111",
                "variant": null,
                "level": 1,
                "klass": "Monolith",
                "faction": "LastHope",
                "starting_items": [
                    [
                        "Axereaver",
                        false
                    ],
                    [
                        "Spear",
                        false
                    ]
                ],
                "starting_skills": [],
                "team": "enemy",
                "ai": "Attack",
                "roam_ai": null,
                "ai_group": "",
                "starting_position": [
                    15,
                    7
                ],
                "starting_traveler": null,
                "generic": true
            },
            {
                "nid": "112",
                "variant": null,
                "level": 1,
                "klass": "Mage",
                "faction": "LastHope",
                "starting_items": [
                    [
                        "Zephyr",
                        false
                    ]
                ],
                "starting_skills": [],
                "team": "enemy",
                "ai": "Attack",
                "roam_ai": null,
                "ai_group": "",
                "starting_position": [
                    12,
                    6
                ],
                "starting_traveler": null,
                "generic": true
            },
            {
                "nid": "113",
                "variant": null,
                "level": 1,
                "klass": "Mercenary",
                "faction": "LastHope",
                "starting_items": [
                    [
                        "Epee",
                        false
                    ]
                ],
                "starting_skills": [],
                "team": "enemy",
                "ai": "Attack",
                "roam_ai": null,
                "ai_group": "",
                "starting_position": [
                    16,
                    5
                ],
                "starting_traveler": null,
                "generic": true
            },
            {
                "nid": "114",
                "variant": null,
                "level": 1,
                "klass": "Cleric",
                "faction": "LastHope",
                "starting_items": [
                    [
                        "Enfeeble",
                        false
                    ]
                ],
                "starting_skills": [],
                "team": "enemy",
                "ai": "Defend_HighPriority",
                "roam_ai": null,
                "ai_group": "",
                "starting_position": [
                    19,
                    12
                ],
                "starting_traveler": null,
                "generic": true
            },
            {
                "nid": "115",
                "variant": null,
                "level": 1,
                "klass": "Ranger",
                "faction": "LastHope",
                "starting_items": [
                    [
                        "Killer_Bow",
                        false
                    ],
                    [
                        "Stout_Bow",
                        false
                    ]
                ],
                "starting_skills": [],
                "team": "enemy",
                "ai": "Defend",
                "roam_ai": null,
                "ai_group": "bot",
                "starting_position": [
                    5,
                    16
                ],
                "starting_traveler": null,
                "generic": true
            },
            {
                "nid": "116",
                "variant": null,
                "level": 1,
                "klass": "Shaman",
                "faction": "LastHope",
                "starting_items": [
                    [
                        "Miasma",
                        false
                    ]
                ],
                "starting_skills": [],
                "team": "enemy",
                "ai": "Defend",
                "roam_ai": null,
                "ai_group": "",
                "starting_position": [
                    9,
                    15
                ],
                "starting_traveler": null,
                "generic": true
            },
            {
                "nid": "117",
                "variant": null,
                "level": 1,
                "klass": "Monolith",
                "faction": "LastHope",
                "starting_items": [
                    [
                        "Horseslayer_Plus",
                        false
                    ]
                ],
                "starting_skills": [],
                "team": "enemy",
                "ai": "Defend",
                "roam_ai": null,
                "ai_group": "",
                "starting_position": [
                    8,
                    17
                ],
                "starting_traveler": null,
                "generic": true
            },
            {
                "nid": "118",
                "variant": null,
                "level": 1,
                "klass": "Fighter",
                "faction": "LastHope",
                "starting_items": [
                    [
                        "Wary_Maul",
                        false
                    ]
                ],
                "starting_skills": [],
                "team": "enemy",
                "ai": "Attack",
                "roam_ai": null,
                "ai_group": "",
                "starting_position": [
                    3,
                    13
                ],
                "starting_traveler": null,
                "generic": true
            },
            {
                "nid": "119",
                "variant": null,
                "level": 1,
                "klass": "Mage",
                "faction": "LastHope",
                "starting_items": [
                    [
                        "Zephyr",
                        false
                    ]
                ],
                "starting_skills": [],
                "team": "enemy",
                "ai": "Attack",
                "roam_ai": null,
                "ai_group": "bot",
                "starting_position": [
                    8,
                    12
                ],
                "starting_traveler": null,
                "generic": true
            },
            {
                "nid": "120",
                "variant": null,
                "level": 1,
                "klass": "Cleric",
                "faction": "LastHope",
                "starting_items": [
                    [
                        "Freeze_Plus",
                        false
                    ]
                ],
                "starting_skills": [],
                "team": "enemy",
                "ai": "Defend_HighPriority",
                "roam_ai": null,
                "ai_group": "",
                "starting_position": [
                    4,
                    15
                ],
                "starting_traveler": null,
                "generic": true
            },
            {
                "nid": "121",
                "variant": null,
                "level": 1,
                "klass": "Great_Knight",
                "faction": "LastHope",
                "starting_items": [
                    [
                        "Zweihander",
                        false
                    ]
                ],
                "starting_skills": [],
                "team": "enemy",
                "ai": "Defend",
                "roam_ai": null,
                "ai_group": "gk",
                "starting_position": [
                    5,
                    7
                ],
                "starting_traveler": null,
                "generic": true
            },
            {
                "nid": "122",
                "variant": null,
                "level": 1,
                "klass": "Great_Knight",
                "faction": "LastHope",
                "starting_items": [
                    [
                        "Silver_Axe",
                        false
                    ]
                ],
                "starting_skills": [],
                "team": "enemy",
                "ai": "Defend",
                "roam_ai": null,
                "ai_group": "gk",
                "starting_position": [
                    3,
                    10
                ],
                "starting_traveler": null,
                "generic": true
            },
            {
                "nid": "123",
                "variant": null,
                "level": 1,
                "klass": "Sniper",
                "faction": "LastHope",
                "starting_items": [
                    [
                        "Greatbow",
                        false
                    ]
                ],
                "starting_skills": [],
                "team": "enemy",
                "ai": "Defend",
                "roam_ai": null,
                "ai_group": "ilona",
                "starting_position": null,
                "starting_traveler": null,
                "generic": true
            },
            {
                "nid": "124",
                "variant": null,
                "level": 1,
                "klass": "Valkyrie",
                "faction": "LastHope",
                "starting_items": [
                    [
                        "Brilliance",
                        false
                    ]
                ],
                "starting_skills": [],
                "team": "enemy",
                "ai": "Defend",
                "roam_ai": null,
                "ai_group": "",
                "starting_position": null,
                "starting_traveler": null,
                "generic": true
            },
            {
                "nid": "125",
                "variant": null,
                "level": 1,
                "klass": "Assassin",
                "faction": "LastHope",
                "starting_items": [
                    [
                        "Silver_Knife",
                        false
                    ],
                    [
                        "Killing_Edge_Plus",
                        false
                    ]
                ],
                "starting_skills": [],
                "team": "enemy",
                "ai": "Pursue",
                "roam_ai": null,
                "ai_group": "",
                "starting_position": null,
                "starting_traveler": null,
                "generic": true
            },
            {
                "nid": "126",
                "variant": null,
                "level": 1,
                "klass": "Assassin",
                "faction": "LastHope",
                "starting_items": [
                    [
                        "Silver_Knife",
                        false
                    ],
                    [
                        "Killing_Edge_Plus",
                        false
                    ]
                ],
                "starting_skills": [],
                "team": "enemy",
                "ai": "Pursue",
                "roam_ai": null,
                "ai_group": "",
                "starting_position": null,
                "starting_traveler": null,
                "generic": true
            },
            {
                "nid": "127",
                "variant": null,
                "level": 1,
                "klass": "Paladin",
                "faction": "LastHope",
                "starting_items": [
                    [
                        "Brave_Sword",
                        false
                    ]
                ],
                "starting_skills": [],
                "team": "enemy",
                "ai": "Pursue",
                "roam_ai": null,
                "ai_group": "",
                "starting_position": null,
                "starting_traveler": null,
                "generic": true
            },
            {
                "nid": "128",
                "variant": null,
                "level": 1,
                "klass": "Nobleman",
                "faction": "LastHope",
                "starting_items": [
                    [
                        "Disintegrate",
                        false
                    ]
                ],
                "starting_skills": [],
                "team": "enemy",
                "ai": "Pursue",
                "roam_ai": null,
                "ai_group": "",
                "starting_position": null,
                "starting_traveler": null,
                "generic": true
            },
            {
                "nid": "129",
                "variant": null,
                "level": 1,
                "klass": "Ranger",
                "faction": "LastHope",
                "starting_items": [
                    [
                        "Silver_Bow",
                        false
                    ]
                ],
                "starting_skills": [],
                "team": "enemy",
                "ai": "Pursue",
                "roam_ai": null,
                "ai_group": "",
                "starting_position": null,
                "starting_traveler": null,
                "generic": true
            },
            {
                "nid": "130",
                "variant": null,
                "level": 1,
                "klass": "Halberdier",
                "faction": "LastHope",
                "starting_items": [
                    [
                        "Dragonspear_Plus",
                        false
                    ],
                    [
                        "Spear",
                        false
                    ]
                ],
                "starting_skills": [],
                "team": "enemy",
                "ai": "Pursue",
                "roam_ai": null,
                "ai_group": "",
                "starting_position": null,
                "starting_traveler": null,
                "generic": true
            },
            {
                "nid": "131",
                "variant": null,
                "level": 1,
                "klass": "Warrior",
                "faction": "LastHope",
                "starting_items": [
                    [
                        "Wary_Maul",
                        false
                    ]
                ],
                "starting_skills": [],
                "team": "enemy",
                "ai": "Pursue",
                "roam_ai": null,
                "ai_group": "",
                "starting_position": null,
                "starting_traveler": null,
                "generic": true
            }
        ],
        "regions": [
            {
                "nid": "Formation_1",
                "region_type": "formation",
                "position": [
                    17,
                    16
                ],
                "size": [
                    1,
                    1
                ],
                "sub_nid": "",
                "condition": "True",
                "time_left": null,
                "only_once": false,
                "interrupt_move": false
            },
            {
                "nid": "Formation_2",
                "region_type": "formation",
                "position": [
                    17,
                    15
                ],
                "size": [
                    1,
                    1
                ],
                "sub_nid": "",
                "condition": "True",
                "time_left": null,
                "only_once": false,
                "interrupt_move": false
            },
            {
                "nid": "Formation_3",
                "region_type": "formation",
                "position": [
                    18,
                    15
                ],
                "size": [
                    1,
                    1
                ],
                "sub_nid": "",
                "condition": "True",
                "time_left": null,
                "only_once": false,
                "interrupt_move": false
            },
            {
                "nid": "Formation_4",
                "region_type": "formation",
                "position": [
                    18,
                    16
                ],
                "size": [
                    1,
                    1
                ],
                "sub_nid": "",
                "condition": "True",
                "time_left": null,
                "only_once": false,
                "interrupt_move": false
            },
            {
                "nid": "Formation_5",
                "region_type": "formation",
                "position": [
                    17,
                    17
                ],
                "size": [
                    1,
                    1
                ],
                "sub_nid": "",
                "condition": "True",
                "time_left": null,
                "only_once": false,
                "interrupt_move": false
            },
            {
                "nid": "Formation_6",
                "region_type": "formation",
                "position": [
                    18,
                    17
                ],
                "size": [
                    1,
                    1
                ],
                "sub_nid": "",
                "condition": "True",
                "time_left": null,
                "only_once": false,
                "interrupt_move": false
            },
            {
                "nid": "Formation_7",
                "region_type": "formation",
                "position": [
                    16,
                    16
                ],
                "size": [
                    1,
                    1
                ],
                "sub_nid": "",
                "condition": "True",
                "time_left": null,
                "only_once": false,
                "interrupt_move": false
            },
            {
                "nid": "Enemy_Escape_1",
                "region_type": "event",
                "position": [
                    14,
                    0
                ],
                "size": [
                    2,
                    1
                ],
                "sub_nid": "Reinforce_1",
                "condition": "unit.team == 'enemy'",
                "time_left": null,
                "only_once": true,
                "interrupt_move": false
            },
            {
                "nid": "Enemy_Escape_2",
                "region_type": "event",
                "position": [
                    0,
                    16
                ],
                "size": [
                    1,
                    2
                ],
                "sub_nid": "Reinforce_2",
                "condition": "unit.team == 'enemy'",
                "time_left": null,
                "only_once": true,
                "interrupt_move": false
            },
            {
                "nid": "hm_rein_zone",
                "region_type": "normal",
                "position": [
                    0,
                    0
                ],
                "size": [
                    9,
                    19
                ],
                "sub_nid": null,
                "condition": "True",
                "time_left": null,
                "only_once": false,
                "interrupt_move": false
            }
        ],
        "unit_groups": [
            {
                "nid": "boss1",
                "units": [
                    "boss_1",
                    "boss_1_reins",
                    "boss_1_reins2"
                ],
                "positions": {
                    "boss_1": [
                        15,
                        1
                    ],
                    "boss_1_reins": [
                        15,
                        0
                    ],
                    "boss_1_reins2": [
                        14,
                        0
                    ]
                }
            },
            {
                "nid": "boss2",
                "units": [
                    "boss_2",
                    "boss_2_reins",
                    "boss_2_reins2"
                ],
                "positions": {
                    "boss_2": [
                        1,
                        16
                    ],
                    "boss_2_reins": [
                        0,
                        17
                    ],
                    "boss_2_reins2": [
                        0,
                        16
                    ]
                }
            },
            {
                "nid": "hm_1",
                "units": [
                    "123",
                    "124",
                    "125",
                    "126"
                ],
                "positions": {
                    "124": [
                        10,
                        11
                    ],
                    "123": [
                        3,
                        3
                    ],
                    "125": [
                        6,
                        5
                    ],
                    "126": [
                        0,
                        11
                    ]
                }
            },
            {
                "nid": "hm_rein_1",
                "units": [
                    "127",
                    "128",
                    "129"
                ],
                "positions": {
                    "129": [
                        20,
                        18
                    ],
                    "127": [
                        20,
                        17
                    ],
                    "128": [
                        19,
                        18
                    ]
                }
            },
            {
                "nid": "hm_rein_2",
                "units": [
                    "130",
                    "131"
                ],
                "positions": {
                    "130": [
                        20,
                        7
                    ],
                    "131": [
                        20,
                        8
                    ]
                }
            }
        ],
        "ai_groups": [
            {
                "nid": "ilona",
                "trigger_threshold": 2
            },
            {
                "nid": "top",
                "trigger_threshold": 1
            },
            {
                "nid": "cavs",
                "trigger_threshold": 1
            },
            {
                "nid": "bot",
                "trigger_threshold": 1
            },
            {
                "nid": "gk",
                "trigger_threshold": 1
            }
        ]
    }
]