[
    {
        "nid": "Nikume",
        "name": "Elite: The Blademaster",
        "tilemap": "Elite_Blademaster",
        "bg_tilemap": null,
        "party": "Player",
        "music": {},
        "objective": {
            "simple": "Defeat Nikume",
            "win": "Defeat Nikume",
            "loss": "All allies defeated"
        },
        "roam": false,
        "roam_unit": null,
        "go_to_overworld": false,
        "should_record": true,
        "tags": [
            "Elite_Map"
        ],
        "units": [
            {
                "nid": "Nikume_E",
                "team": "enemy",
                "ai": "Pursue",
                "roam_ai": null,
                "ai_group": "",
                "starting_position": null,
                "starting_traveler": null,
                "generic": false
            },
            {
                "nid": "Kaku_E",
                "team": "enemy",
                "ai": "Pursue",
                "roam_ai": null,
                "ai_group": "",
                "starting_position": null,
                "starting_traveler": null,
                "generic": false
            },
            {
                "nid": "101",
                "variant": null,
                "level": 1,
                "klass": "Myrmidon",
                "faction": "Tawanai",
                "starting_items": [
                    [
                        "Epee",
                        false
                    ]
                ],
                "starting_skills": [],
                "team": "enemy",
                "ai": "Defend",
                "roam_ai": null,
                "ai_group": "",
                "starting_position": [
                    6,
                    12
                ],
                "starting_traveler": null,
                "generic": true
            },
            {
                "nid": "102",
                "variant": null,
                "level": 1,
                "klass": "Myrmidon",
                "faction": "Tawanai",
                "starting_items": [
                    [
                        "Epee",
                        false
                    ]
                ],
                "starting_skills": [],
                "team": "enemy",
                "ai": "Defend",
                "roam_ai": null,
                "ai_group": "",
                "starting_position": [
                    14,
                    4
                ],
                "starting_traveler": null,
                "generic": true
            },
            {
                "nid": "103",
                "variant": null,
                "level": 1,
                "klass": "Mage",
                "faction": "Tawanai",
                "starting_items": [
                    [
                        "Thunder",
                        false
                    ]
                ],
                "starting_skills": [],
                "team": "enemy",
                "ai": "Defend",
                "roam_ai": null,
                "ai_group": "",
                "starting_position": [
                    5,
                    12
                ],
                "starting_traveler": null,
                "generic": true
            },
            {
                "nid": "104",
                "variant": null,
                "level": 1,
                "klass": "Mage",
                "faction": "Tawanai",
                "starting_items": [
                    [
                        "Thunder",
                        false
                    ]
                ],
                "starting_skills": [],
                "team": "enemy",
                "ai": "Defend",
                "roam_ai": null,
                "ai_group": "",
                "starting_position": [
                    15,
                    4
                ],
                "starting_traveler": null,
                "generic": true
            },
            {
                "nid": "105",
                "variant": null,
                "level": 1,
                "klass": "Beastkin",
                "faction": "Tawanai",
                "starting_items": [
                    [
                        "Nature_Stone",
                        false
                    ]
                ],
                "starting_skills": [],
                "team": "enemy",
                "ai": "Defend",
                "roam_ai": null,
                "ai_group": "",
                "starting_position": [
                    13,
                    12
                ],
                "starting_traveler": null,
                "generic": true
            },
            {
                "nid": "106",
                "variant": null,
                "level": 1,
                "klass": "Beastkin",
                "faction": "Tawanai",
                "starting_items": [
                    [
                        "Nature_Stone",
                        false
                    ]
                ],
                "starting_skills": [],
                "team": "enemy",
                "ai": "Defend",
                "roam_ai": null,
                "ai_group": "",
                "starting_position": [
                    6,
                    5
                ],
                "starting_traveler": null,
                "generic": true
            },
            {
                "nid": "107",
                "variant": null,
                "level": 1,
                "klass": "Monk",
                "faction": "Tawanai",
                "starting_items": [
                    [
                        "Heavensward",
                        false
                    ]
                ],
                "starting_skills": [],
                "team": "enemy",
                "ai": "Defend",
                "roam_ai": null,
                "ai_group": "",
                "starting_position": [
                    13,
                    13
                ],
                "starting_traveler": null,
                "generic": true
            },
            {
                "nid": "108",
                "variant": null,
                "level": 1,
                "klass": "Monk",
                "faction": "Tawanai",
                "starting_items": [
                    [
                        "Heavensward",
                        false
                    ]
                ],
                "starting_skills": [],
                "team": "enemy",
                "ai": "Defend",
                "roam_ai": null,
                "ai_group": "",
                "starting_position": [
                    6,
                    4
                ],
                "starting_traveler": null,
                "generic": true
            },
            {
                "nid": "109",
                "variant": null,
                "level": 1,
                "klass": "Ranger",
                "faction": "Tawanai",
                "starting_items": [
                    [
                        "Killer_Bow",
                        false
                    ],
                    [
                        "Steel_Sword",
                        false
                    ]
                ],
                "starting_skills": [],
                "team": "enemy",
                "ai": "Defend",
                "roam_ai": null,
                "ai_group": "1",
                "starting_position": [
                    19,
                    9
                ],
                "starting_traveler": null,
                "generic": true
            },
            {
                "nid": "110",
                "variant": null,
                "level": 1,
                "klass": "Mage_Knight",
                "faction": "Tawanai",
                "starting_items": [
                    [
                        "Elfire",
                        false
                    ],
                    [
                        "FireShield",
                        false
                    ]
                ],
                "starting_skills": [],
                "team": "enemy",
                "ai": "Defend",
                "roam_ai": null,
                "ai_group": "1",
                "starting_position": [
                    1,
                    8
                ],
                "starting_traveler": null,
                "generic": true
            },
            {
                "nid": "111",
                "variant": null,
                "level": 1,
                "klass": "Ninja",
                "faction": "Tawanai",
                "starting_items": [
                    [
                        "Silencer",
                        false
                    ]
                ],
                "starting_skills": [],
                "team": "enemy",
                "ai": "Attack",
                "roam_ai": null,
                "ai_group": "",
                "starting_position": [
                    18,
                    4
                ],
                "starting_traveler": null,
                "generic": true
            },
            {
                "nid": "112",
                "variant": null,
                "level": 1,
                "klass": "Ninja",
                "faction": "Tawanai",
                "starting_items": [
                    [
                        "Silencer",
                        false
                    ]
                ],
                "starting_skills": [],
                "team": "enemy",
                "ai": "Attack",
                "roam_ai": null,
                "ai_group": "",
                "starting_position": [
                    1,
                    12
                ],
                "starting_traveler": null,
                "generic": true
            },
            {
                "nid": "113",
                "variant": null,
                "level": 1,
                "klass": "Shaman",
                "faction": "Tawanai",
                "starting_items": [
                    [
                        "Carreau",
                        false
                    ]
                ],
                "starting_skills": [],
                "team": "enemy",
                "ai": "Attack",
                "roam_ai": null,
                "ai_group": "",
                "starting_position": [
                    19,
                    13
                ],
                "starting_traveler": null,
                "generic": true
            },
            {
                "nid": "114",
                "variant": null,
                "level": 1,
                "klass": "Shaman",
                "faction": "Tawanai",
                "starting_items": [
                    [
                        "Carreau",
                        false
                    ]
                ],
                "starting_skills": [],
                "team": "enemy",
                "ai": "Attack",
                "roam_ai": null,
                "ai_group": "",
                "starting_position": [
                    1,
                    3
                ],
                "starting_traveler": null,
                "generic": true
            },
            {
                "nid": "115",
                "variant": null,
                "level": 1,
                "klass": "Wyvern_Chaser",
                "faction": "Tawanai",
                "starting_items": [
                    [
                        "Slasher",
                        false
                    ]
                ],
                "starting_skills": [
                    "Ethereal_Wings"
                ],
                "team": "enemy",
                "ai": "Pursue",
                "roam_ai": null,
                "ai_group": "",
                "starting_position": null,
                "starting_traveler": null,
                "generic": true
            },
            {
                "nid": "116",
                "variant": null,
                "level": 1,
                "klass": "Wyvern_Chaser",
                "faction": "Tawanai",
                "starting_items": [
                    [
                        "Slasher",
                        false
                    ]
                ],
                "starting_skills": [
                    "Ethereal_Wings"
                ],
                "team": "enemy",
                "ai": "Pursue",
                "roam_ai": null,
                "ai_group": "",
                "starting_position": null,
                "starting_traveler": null,
                "generic": true
            },
            {
                "nid": "117",
                "variant": null,
                "level": 1,
                "klass": "Brightwing",
                "faction": "Tawanai",
                "starting_items": [
                    [
                        "Shine",
                        false
                    ]
                ],
                "starting_skills": [
                    "Ethereal_Wings"
                ],
                "team": "enemy",
                "ai": "Pursue",
                "roam_ai": null,
                "ai_group": "",
                "starting_position": null,
                "starting_traveler": null,
                "generic": true
            },
            {
                "nid": "118",
                "variant": null,
                "level": 1,
                "klass": "Brightwing",
                "faction": "Tawanai",
                "starting_items": [
                    [
                        "Shine",
                        false
                    ]
                ],
                "starting_skills": [
                    "Ethereal_Wings"
                ],
                "team": "enemy",
                "ai": "Pursue",
                "roam_ai": null,
                "ai_group": "",
                "starting_position": null,
                "starting_traveler": null,
                "generic": true
            },
            {
                "nid": "119",
                "variant": null,
                "level": 1,
                "klass": "Brigand",
                "faction": "Tawanai",
                "starting_items": [
                    [
                        "Lance_Crusher",
                        false
                    ]
                ],
                "starting_skills": [],
                "team": "enemy",
                "ai": "Pursue",
                "roam_ai": null,
                "ai_group": "",
                "starting_position": null,
                "starting_traveler": null,
                "generic": true
            },
            {
                "nid": "120",
                "variant": null,
                "level": 1,
                "klass": "Brigand",
                "faction": "Tawanai",
                "starting_items": [
                    [
                        "Lance_Crusher",
                        false
                    ]
                ],
                "starting_skills": [],
                "team": "enemy",
                "ai": "Pursue",
                "roam_ai": null,
                "ai_group": "",
                "starting_position": null,
                "starting_traveler": null,
                "generic": true
            },
            {
                "nid": "121",
                "variant": null,
                "level": 1,
                "klass": "Sword_Knight",
                "faction": "Tawanai",
                "starting_items": [
                    [
                        "Rapier",
                        false
                    ]
                ],
                "starting_skills": [],
                "team": "enemy",
                "ai": "Pursue",
                "roam_ai": null,
                "ai_group": "",
                "starting_position": null,
                "starting_traveler": null,
                "generic": true
            },
            {
                "nid": "122",
                "variant": null,
                "level": 1,
                "klass": "Sword_Knight",
                "faction": "Tawanai",
                "starting_items": [
                    [
                        "Rapier",
                        false
                    ]
                ],
                "starting_skills": [],
                "team": "enemy",
                "ai": "Pursue",
                "roam_ai": null,
                "ai_group": "",
                "starting_position": null,
                "starting_traveler": null,
                "generic": true
            },
            {
                "nid": "123",
                "variant": null,
                "level": 1,
                "klass": "Beastkin",
                "faction": "Tawanai",
                "starting_items": [
                    [
                        "Nature_Stone",
                        false
                    ]
                ],
                "starting_skills": [],
                "team": "enemy",
                "ai": "Pursue",
                "roam_ai": null,
                "ai_group": "",
                "starting_position": null,
                "starting_traveler": null,
                "generic": true
            },
            {
                "nid": "124",
                "variant": null,
                "level": 1,
                "klass": "Beastkin",
                "faction": "Tawanai",
                "starting_items": [
                    [
                        "Nature_Stone",
                        false
                    ]
                ],
                "starting_skills": [],
                "team": "enemy",
                "ai": "Pursue",
                "roam_ai": null,
                "ai_group": "",
                "starting_position": null,
                "starting_traveler": null,
                "generic": true
            }
        ],
        "regions": [
            {
                "nid": "Formation_1",
                "region_type": "formation",
                "position": [
                    10,
                    5
                ],
                "size": [
                    1,
                    1
                ],
                "sub_nid": "",
                "condition": "True",
                "time_left": null,
                "only_once": false,
                "interrupt_move": false
            },
            {
                "nid": "Formation_2",
                "region_type": "formation",
                "position": [
                    9,
                    6
                ],
                "size": [
                    1,
                    1
                ],
                "sub_nid": "",
                "condition": "True",
                "time_left": null,
                "only_once": false,
                "interrupt_move": false
            },
            {
                "nid": "Formation_3",
                "region_type": "formation",
                "position": [
                    11,
                    6
                ],
                "size": [
                    1,
                    1
                ],
                "sub_nid": "",
                "condition": "True",
                "time_left": null,
                "only_once": false,
                "interrupt_move": false
            },
            {
                "nid": "Formation_4",
                "region_type": "formation",
                "position": [
                    10,
                    11
                ],
                "size": [
                    1,
                    1
                ],
                "sub_nid": "",
                "condition": "True",
                "time_left": null,
                "only_once": false,
                "interrupt_move": false
            },
            {
                "nid": "Formation_5",
                "region_type": "formation",
                "position": [
                    9,
                    10
                ],
                "size": [
                    1,
                    1
                ],
                "sub_nid": "",
                "condition": "True",
                "time_left": null,
                "only_once": false,
                "interrupt_move": false
            },
            {
                "nid": "Formation_6",
                "region_type": "formation",
                "position": [
                    11,
                    10
                ],
                "size": [
                    1,
                    1
                ],
                "sub_nid": "",
                "condition": "True",
                "time_left": null,
                "only_once": false,
                "interrupt_move": false
            },
            {
                "nid": "Clone_Spot_1",
                "region_type": "normal",
                "position": [
                    0,
                    2
                ],
                "size": [
                    1,
                    1
                ],
                "sub_nid": null,
                "condition": "True",
                "time_left": null,
                "only_once": false,
                "interrupt_move": false
            },
            {
                "nid": "Clone_Spot_2",
                "region_type": "normal",
                "position": [
                    0,
                    12
                ],
                "size": [
                    1,
                    1
                ],
                "sub_nid": null,
                "condition": "True",
                "time_left": null,
                "only_once": false,
                "interrupt_move": false
            },
            {
                "nid": "Clone_Spot_3",
                "region_type": "normal",
                "position": [
                    20,
                    5
                ],
                "size": [
                    1,
                    1
                ],
                "sub_nid": null,
                "condition": "True",
                "time_left": null,
                "only_once": false,
                "interrupt_move": false
            },
            {
                "nid": "Clone_Spot_4",
                "region_type": "normal",
                "position": [
                    20,
                    14
                ],
                "size": [
                    1,
                    1
                ],
                "sub_nid": null,
                "condition": "True",
                "time_left": null,
                "only_once": false,
                "interrupt_move": false
            },
            {
                "nid": "Clone_Spot_5",
                "region_type": "normal",
                "position": [
                    8,
                    3
                ],
                "size": [
                    1,
                    1
                ],
                "sub_nid": null,
                "condition": "True",
                "time_left": null,
                "only_once": false,
                "interrupt_move": false
            },
            {
                "nid": "Clone_Spot_6",
                "region_type": "normal",
                "position": [
                    16,
                    3
                ],
                "size": [
                    1,
                    1
                ],
                "sub_nid": null,
                "condition": "True",
                "time_left": null,
                "only_once": false,
                "interrupt_move": false
            },
            {
                "nid": "Clone_Spot_7",
                "region_type": "normal",
                "position": [
                    7,
                    14
                ],
                "size": [
                    1,
                    1
                ],
                "sub_nid": null,
                "condition": "True",
                "time_left": null,
                "only_once": false,
                "interrupt_move": false
            },
            {
                "nid": "Clone_Spot_8",
                "region_type": "normal",
                "position": [
                    15,
                    14
                ],
                "size": [
                    1,
                    1
                ],
                "sub_nid": null,
                "condition": "True",
                "time_left": null,
                "only_once": false,
                "interrupt_move": false
            }
        ],
        "unit_groups": [
            {
                "nid": "fliers_1",
                "units": [
                    "115",
                    "117"
                ],
                "positions": {
                    "115": [
                        0,
                        0
                    ],
                    "117": [
                        20,
                        16
                    ]
                }
            },
            {
                "nid": "fliers_2",
                "units": [
                    "116",
                    "118"
                ],
                "positions": {
                    "116": [
                        20,
                        0
                    ],
                    "118": [
                        0,
                        16
                    ]
                }
            },
            {
                "nid": "hm_1",
                "units": [
                    "119",
                    "120"
                ],
                "positions": {
                    "119": [
                        13,
                        8
                    ],
                    "120": [
                        7,
                        8
                    ]
                }
            },
            {
                "nid": "hm_rein_1",
                "units": [
                    "121",
                    "122"
                ],
                "positions": {
                    "121": [
                        20,
                        5
                    ],
                    "122": [
                        0,
                        12
                    ]
                }
            },
            {
                "nid": "hm_rein_2",
                "units": [
                    "123",
                    "124"
                ],
                "positions": {
                    "123": [
                        20,
                        13
                    ],
                    "124": [
                        0,
                        3
                    ]
                }
            }
        ],
        "ai_groups": [
            {
                "nid": "1",
                "trigger_threshold": 1
            }
        ]
    }
]