[
    {
        "nid": "SP_TLT",
        "name": "Special: The Lion Throne",
        "tilemap": "TLT_F",
        "bg_tilemap": null,
        "party": "Player",
        "music": {
            "player_phase": "Battle_at_Journey_End",
            "enemy_phase": "Battle_at_Journey_End",
            "enemy2_phase": "Battle_at_Journey_End",
            "other_phase": "Battle_at_Journey_End"
        },
        "objective": {
            "simple": "Defeat Ulver",
            "win": "Defeat Ulver",
            "loss": "All allies defeated"
        },
        "roam": false,
        "roam_unit": null,
        "go_to_overworld": false,
        "should_record": true,
        "tags": [
            "Boss_Map"
        ],
        "units": [
            {
                "nid": "Ulver",
                "team": "enemy",
                "ai": "Guard",
                "roam_ai": null,
                "ai_group": "",
                "starting_position": [
                    12,
                    3
                ],
                "starting_traveler": null,
                "generic": false
            },
            {
                "nid": "Adjutant",
                "team": "enemy",
                "ai": "Pursue",
                "roam_ai": null,
                "ai_group": "",
                "starting_position": [
                    11,
                    3
                ],
                "starting_traveler": null,
                "generic": false
            },
            {
                "nid": "101",
                "variant": null,
                "level": 30,
                "klass": "Swordmaster",
                "faction": "Phantom",
                "starting_items": [
                    [
                        "Killing_Edge_Plus",
                        false
                    ],
                    [
                        "Silver_Sword",
                        false
                    ]
                ],
                "starting_skills": [],
                "team": "enemy",
                "ai": "Pursue",
                "roam_ai": null,
                "ai_group": "",
                "starting_position": [
                    12,
                    15
                ],
                "starting_traveler": null,
                "generic": true
            },
            {
                "nid": "102",
                "variant": null,
                "level": 30,
                "klass": "Halberdier",
                "faction": "Phantom",
                "starting_items": [
                    [
                        "Brave_Lance",
                        false
                    ],
                    [
                        "Saunion",
                        false
                    ]
                ],
                "starting_skills": [],
                "team": "enemy",
                "ai": "Pursue",
                "roam_ai": null,
                "ai_group": "",
                "starting_position": [
                    19,
                    22
                ],
                "starting_traveler": null,
                "generic": true
            },
            {
                "nid": "103",
                "variant": null,
                "level": 30,
                "klass": "Berserker",
                "faction": "Phantom",
                "starting_items": [
                    [
                        "Giantsplitter",
                        false
                    ],
                    [
                        "Tomahawk",
                        false
                    ]
                ],
                "starting_skills": [],
                "team": "enemy",
                "ai": "Pursue",
                "roam_ai": null,
                "ai_group": "",
                "starting_position": [
                    12,
                    29
                ],
                "starting_traveler": null,
                "generic": true
            },
            {
                "nid": "104",
                "variant": null,
                "level": 30,
                "klass": "Sniper",
                "faction": "Phantom",
                "starting_items": [
                    [
                        "Brave_Bow",
                        false
                    ],
                    [
                        "Greatbow",
                        false
                    ]
                ],
                "starting_skills": [],
                "team": "enemy",
                "ai": "Pursue",
                "roam_ai": null,
                "ai_group": "",
                "starting_position": [
                    5,
                    22
                ],
                "starting_traveler": null,
                "generic": true
            },
            {
                "nid": "105",
                "variant": null,
                "level": 30,
                "klass": "Sage",
                "faction": "Phantom",
                "starting_items": [
                    [
                        "Fimbulvetr",
                        false
                    ],
                    [
                        "Immolation",
                        false
                    ]
                ],
                "starting_skills": [],
                "team": "enemy",
                "ai": "Pursue",
                "roam_ai": null,
                "ai_group": "",
                "starting_position": [
                    7,
                    17
                ],
                "starting_traveler": null,
                "generic": true
            },
            {
                "nid": "106",
                "variant": null,
                "level": 30,
                "klass": "Bishop",
                "faction": "Phantom",
                "starting_items": [
                    [
                        "MyriadArrows",
                        false
                    ],
                    [
                        "Rexvarna",
                        false
                    ]
                ],
                "starting_skills": [],
                "team": "enemy",
                "ai": "Pursue",
                "roam_ai": null,
                "ai_group": "",
                "starting_position": [
                    7,
                    27
                ],
                "starting_traveler": null,
                "generic": true
            },
            {
                "nid": "107",
                "variant": null,
                "level": 30,
                "klass": "Druid",
                "faction": "Phantom",
                "starting_items": [
                    [
                        "Fenrir",
                        false
                    ],
                    [
                        "Disintegrate",
                        false
                    ]
                ],
                "starting_skills": [],
                "team": "enemy",
                "ai": "Pursue",
                "roam_ai": null,
                "ai_group": "",
                "starting_position": [
                    17,
                    27
                ],
                "starting_traveler": null,
                "generic": true
            },
            {
                "nid": "108",
                "variant": null,
                "level": 30,
                "klass": "Mage_Dragon",
                "faction": "Phantom",
                "starting_items": [
                    [
                        "Prism_Stone",
                        false
                    ],
                    [
                        "Blizzard_Stone",
                        false
                    ]
                ],
                "starting_skills": [],
                "team": "enemy",
                "ai": "Pursue",
                "roam_ai": null,
                "ai_group": "",
                "starting_position": [
                    17,
                    17
                ],
                "starting_traveler": null,
                "generic": true
            },
            {
                "nid": "109",
                "variant": null,
                "level": 30,
                "klass": "Assassin",
                "faction": "Phantom",
                "starting_items": [
                    [
                        "Serrated_Blade",
                        false
                    ],
                    [
                        "Baselard",
                        false
                    ]
                ],
                "starting_skills": [],
                "team": "enemy",
                "ai": "Pursue",
                "roam_ai": null,
                "ai_group": "",
                "starting_position": null,
                "starting_traveler": null,
                "generic": true
            },
            {
                "nid": "110",
                "variant": null,
                "level": 30,
                "klass": "Saint",
                "faction": "Phantom",
                "starting_items": [
                    [
                        "Assault_Plus",
                        false
                    ],
                    [
                        "ArcDazzle",
                        false
                    ],
                    [
                        "Toxify",
                        false
                    ]
                ],
                "starting_skills": [],
                "team": "enemy",
                "ai": "Pursue",
                "roam_ai": null,
                "ai_group": "",
                "starting_position": null,
                "starting_traveler": null,
                "generic": true
            },
            {
                "nid": "111",
                "variant": null,
                "level": 30,
                "klass": "Greater_Beastkin",
                "faction": "Phantom",
                "starting_items": [
                    [
                        "Prism_Stone",
                        false
                    ],
                    [
                        "Blizzard_Stone",
                        false
                    ]
                ],
                "starting_skills": [],
                "team": "enemy",
                "ai": "Pursue",
                "roam_ai": null,
                "ai_group": "",
                "starting_position": null,
                "starting_traveler": null,
                "generic": true
            },
            {
                "nid": "112",
                "variant": null,
                "level": 30,
                "klass": "Divine_Dragon",
                "faction": "Phantom",
                "starting_items": [
                    [
                        "Inferno_Stone",
                        false
                    ],
                    [
                        "Ice_Rune",
                        false
                    ]
                ],
                "starting_skills": [],
                "team": "enemy",
                "ai": "Pursue",
                "roam_ai": null,
                "ai_group": "",
                "starting_position": null,
                "starting_traveler": null,
                "generic": true
            },
            {
                "nid": "113",
                "variant": null,
                "level": 30,
                "klass": "Spartan",
                "faction": "Phantom",
                "starting_items": [
                    [
                        "Zweihander",
                        false
                    ],
                    [
                        "Spear",
                        false
                    ]
                ],
                "starting_skills": [],
                "team": "enemy",
                "ai": "Pursue",
                "roam_ai": null,
                "ai_group": "",
                "starting_position": null,
                "starting_traveler": null,
                "generic": true
            },
            {
                "nid": "114",
                "variant": null,
                "level": 30,
                "klass": "Warrior",
                "faction": "Phantom",
                "starting_items": [
                    [
                        "Silver_Axe",
                        false
                    ],
                    [
                        "Killer_Bow_Plus",
                        false
                    ]
                ],
                "starting_skills": [],
                "team": "enemy",
                "ai": "Pursue",
                "roam_ai": null,
                "ai_group": "",
                "starting_position": null,
                "starting_traveler": null,
                "generic": true
            },
            {
                "nid": "115",
                "variant": null,
                "level": 30,
                "klass": "Templar",
                "faction": "Phantom",
                "starting_items": [
                    [
                        "Frost_Fangs",
                        false
                    ],
                    [
                        "Brilliance",
                        false
                    ]
                ],
                "starting_skills": [],
                "team": "enemy",
                "ai": "Pursue",
                "roam_ai": null,
                "ai_group": "",
                "starting_position": null,
                "starting_traveler": null,
                "generic": true
            },
            {
                "nid": "116",
                "variant": null,
                "level": 30,
                "klass": "Harrier",
                "faction": "Phantom",
                "starting_items": [
                    [
                        "Flame_Lance",
                        false
                    ],
                    [
                        "FrigidFetters",
                        false
                    ]
                ],
                "starting_skills": [],
                "team": "enemy",
                "ai": "Pursue",
                "roam_ai": null,
                "ai_group": "",
                "starting_position": null,
                "starting_traveler": null,
                "generic": true
            },
            {
                "nid": "117",
                "variant": null,
                "level": 30,
                "klass": "Mage_General",
                "faction": "Phantom",
                "starting_items": [
                    [
                        "MyriadArrows",
                        false
                    ],
                    [
                        "Ghostmaker",
                        false
                    ],
                    [
                        "Immolation",
                        false
                    ]
                ],
                "starting_skills": [],
                "team": "enemy",
                "ai": "Pursue",
                "roam_ai": null,
                "ai_group": "",
                "starting_position": null,
                "starting_traveler": null,
                "generic": true
            },
            {
                "nid": "118",
                "variant": null,
                "level": 30,
                "klass": "Master_General",
                "faction": "Phantom",
                "starting_items": [
                    [
                        "Brave_Sword",
                        false
                    ],
                    [
                        "Brave_Lance",
                        false
                    ],
                    [
                        "Brave_Axe",
                        false
                    ]
                ],
                "starting_skills": [],
                "team": "enemy",
                "ai": "Pursue",
                "roam_ai": null,
                "ai_group": "",
                "starting_position": null,
                "starting_traveler": null,
                "generic": true
            }
        ],
        "regions": [
            {
                "nid": "Formation_1",
                "region_type": "formation",
                "position": [
                    12,
                    22
                ],
                "size": [
                    1,
                    1
                ],
                "sub_nid": "",
                "condition": "True",
                "time_left": null,
                "only_once": false,
                "interrupt_move": false
            },
            {
                "nid": "Formation_2",
                "region_type": "formation",
                "position": [
                    12,
                    20
                ],
                "size": [
                    1,
                    1
                ],
                "sub_nid": "",
                "condition": "True",
                "time_left": null,
                "only_once": false,
                "interrupt_move": false
            },
            {
                "nid": "Formation_3",
                "region_type": "formation",
                "position": [
                    13,
                    21
                ],
                "size": [
                    1,
                    1
                ],
                "sub_nid": "",
                "condition": "True",
                "time_left": null,
                "only_once": false,
                "interrupt_move": false
            },
            {
                "nid": "Formation_4",
                "region_type": "formation",
                "position": [
                    14,
                    22
                ],
                "size": [
                    1,
                    1
                ],
                "sub_nid": "",
                "condition": "True",
                "time_left": null,
                "only_once": false,
                "interrupt_move": false
            },
            {
                "nid": "Formation_5",
                "region_type": "formation",
                "position": [
                    13,
                    23
                ],
                "size": [
                    1,
                    1
                ],
                "sub_nid": "",
                "condition": "True",
                "time_left": null,
                "only_once": false,
                "interrupt_move": false
            },
            {
                "nid": "Formation_6",
                "region_type": "formation",
                "position": [
                    12,
                    24
                ],
                "size": [
                    1,
                    1
                ],
                "sub_nid": "",
                "condition": "True",
                "time_left": null,
                "only_once": false,
                "interrupt_move": false
            },
            {
                "nid": "Formation_7",
                "region_type": "formation",
                "position": [
                    11,
                    23
                ],
                "size": [
                    1,
                    1
                ],
                "sub_nid": "",
                "condition": "True",
                "time_left": null,
                "only_once": false,
                "interrupt_move": false
            },
            {
                "nid": "Formation_8",
                "region_type": "formation",
                "position": [
                    10,
                    22
                ],
                "size": [
                    1,
                    1
                ],
                "sub_nid": "",
                "condition": "True",
                "time_left": null,
                "only_once": false,
                "interrupt_move": false
            },
            {
                "nid": "Formation_9",
                "region_type": "formation",
                "position": [
                    11,
                    21
                ],
                "size": [
                    1,
                    1
                ],
                "sub_nid": "",
                "condition": "True",
                "time_left": null,
                "only_once": false,
                "interrupt_move": false
            },
            {
                "nid": "Formation_10",
                "region_type": "formation",
                "position": [
                    11,
                    22
                ],
                "size": [
                    1,
                    1
                ],
                "sub_nid": "",
                "condition": "True",
                "time_left": null,
                "only_once": false,
                "interrupt_move": false
            },
            {
                "nid": "Formation_11",
                "region_type": "formation",
                "position": [
                    13,
                    22
                ],
                "size": [
                    1,
                    1
                ],
                "sub_nid": "",
                "condition": "True",
                "time_left": null,
                "only_once": false,
                "interrupt_move": false
            },
            {
                "nid": "Formation_12",
                "region_type": "formation",
                "position": [
                    12,
                    23
                ],
                "size": [
                    1,
                    1
                ],
                "sub_nid": "",
                "condition": "True",
                "time_left": null,
                "only_once": false,
                "interrupt_move": false
            }
        ],
        "unit_groups": [
            {
                "nid": "rein1",
                "units": [
                    "109",
                    "110",
                    "111",
                    "112"
                ],
                "positions": {
                    "109": [
                        12,
                        15
                    ],
                    "111": [
                        12,
                        29
                    ],
                    "110": [
                        19,
                        22
                    ],
                    "112": [
                        5,
                        22
                    ]
                }
            },
            {
                "nid": "rein2",
                "units": [
                    "113",
                    "114",
                    "115",
                    "116"
                ],
                "positions": {
                    "113": [
                        7,
                        17
                    ],
                    "114": [
                        17,
                        27
                    ],
                    "115": [
                        17,
                        17
                    ],
                    "116": [
                        7,
                        27
                    ]
                }
            },
            {
                "nid": "rein3",
                "units": [
                    "117",
                    "118"
                ],
                "positions": {
                    "117": [
                        5,
                        22
                    ],
                    "118": [
                        19,
                        22
                    ]
                }
            }
        ],
        "ai_groups": []
    }
]