[
    {
        "nid": "Tournament",
        "name": "Elite: The Tournament",
        "tilemap": "Link_Arena",
        "bg_tilemap": null,
        "party": "Player",
        "music": {},
        "objective": {
            "simple": "Rout",
            "win": "Rout",
            "loss": "All allies defeated"
        },
        "roam": false,
        "roam_unit": null,
        "go_to_overworld": false,
        "should_record": true,
        "tags": [
            "Elite_Map"
        ],
        "units": [
            {
                "nid": "Scutum_E",
                "team": "enemy",
                "ai": "Defend_Ignore_Green",
                "roam_ai": null,
                "ai_group": "4",
                "starting_position": null,
                "starting_traveler": null,
                "generic": false
            },
            {
                "nid": "Vulpecula_E",
                "team": "enemy",
                "ai": "Defend",
                "roam_ai": null,
                "ai_group": "4",
                "starting_position": null,
                "starting_traveler": null,
                "generic": false
            },
            {
                "nid": "102",
                "variant": null,
                "level": 1,
                "klass": "Soldier",
                "faction": "Sellsword",
                "starting_items": [
                    [
                        "Firesweep_Lance",
                        false
                    ]
                ],
                "starting_skills": [],
                "team": "enemy",
                "ai": "Pursue",
                "roam_ai": null,
                "ai_group": "",
                "starting_position": null,
                "starting_traveler": null,
                "generic": true
            },
            {
                "nid": "103",
                "variant": null,
                "level": 1,
                "klass": "Archer",
                "faction": "Sellsword",
                "starting_items": [
                    [
                        "Iron_Bow",
                        false
                    ]
                ],
                "starting_skills": [],
                "team": "enemy",
                "ai": "Pursue",
                "roam_ai": null,
                "ai_group": "",
                "starting_position": null,
                "starting_traveler": null,
                "generic": true
            },
            {
                "nid": "104",
                "variant": null,
                "level": 1,
                "klass": "Mage",
                "faction": "Sellsword",
                "starting_items": [
                    [
                        "Fire",
                        false
                    ]
                ],
                "starting_skills": [],
                "team": "enemy",
                "ai": "Pursue",
                "roam_ai": null,
                "ai_group": "",
                "starting_position": null,
                "starting_traveler": null,
                "generic": true
            },
            {
                "nid": "105",
                "variant": null,
                "level": 1,
                "klass": "Mercenary",
                "faction": "Sellsword",
                "starting_items": [
                    [
                        "Zanbato",
                        false
                    ]
                ],
                "starting_skills": [],
                "team": "enemy",
                "ai": "Pursue",
                "roam_ai": null,
                "ai_group": "",
                "starting_position": null,
                "starting_traveler": null,
                "generic": true
            },
            {
                "nid": "106",
                "variant": null,
                "level": 1,
                "klass": "Fighter",
                "faction": "Sellsword",
                "starting_items": [
                    [
                        "Hammer",
                        false
                    ]
                ],
                "starting_skills": [],
                "team": "enemy",
                "ai": "Pursue",
                "roam_ai": null,
                "ai_group": "",
                "starting_position": null,
                "starting_traveler": null,
                "generic": true
            },
            {
                "nid": "107",
                "variant": null,
                "level": 1,
                "klass": "Axe_Armor",
                "faction": "Sellsword",
                "starting_items": [
                    [
                        "Slim_Axe",
                        false
                    ]
                ],
                "starting_skills": [],
                "team": "enemy",
                "ai": "Pursue",
                "roam_ai": null,
                "ai_group": "2",
                "starting_position": null,
                "starting_traveler": null,
                "generic": true
            },
            {
                "nid": "108",
                "variant": null,
                "level": 1,
                "klass": "Manakete",
                "faction": "Sellsword",
                "starting_items": [
                    [
                        "Fire_Stone",
                        false
                    ]
                ],
                "starting_skills": [],
                "team": "enemy",
                "ai": "Pursue",
                "roam_ai": null,
                "ai_group": "2",
                "starting_position": null,
                "starting_traveler": null,
                "generic": true
            },
            {
                "nid": "109",
                "variant": null,
                "level": 1,
                "klass": "Wyvern_Chaser",
                "faction": "Sellsword",
                "starting_items": [
                    [
                        "Steel_Knife",
                        false
                    ]
                ],
                "starting_skills": [],
                "team": "enemy",
                "ai": "Pursue",
                "roam_ai": null,
                "ai_group": "2",
                "starting_position": null,
                "starting_traveler": null,
                "generic": true
            },
            {
                "nid": "110",
                "variant": null,
                "level": 1,
                "klass": "Brightwing",
                "faction": "Sellsword",
                "starting_items": [
                    [
                        "Flash",
                        false
                    ]
                ],
                "starting_skills": [],
                "team": "enemy",
                "ai": "Pursue",
                "roam_ai": null,
                "ai_group": "2",
                "starting_position": null,
                "starting_traveler": null,
                "generic": true
            },
            {
                "nid": "111",
                "variant": null,
                "level": 1,
                "klass": "Prima",
                "faction": "Sellsword",
                "starting_items": [
                    [
                        "Silencer",
                        false
                    ]
                ],
                "starting_skills": [],
                "team": "enemy",
                "ai": "Defend",
                "roam_ai": null,
                "ai_group": "3",
                "starting_position": null,
                "starting_traveler": null,
                "generic": true
            },
            {
                "nid": "112",
                "variant": null,
                "level": 1,
                "klass": "Sword_Knight",
                "faction": "Sellsword",
                "starting_items": [
                    [
                        "Wyrmslayer",
                        false
                    ]
                ],
                "starting_skills": [],
                "team": "enemy",
                "ai": "Defend",
                "roam_ai": null,
                "ai_group": "3",
                "starting_position": null,
                "starting_traveler": null,
                "generic": true
            },
            {
                "nid": "113",
                "variant": null,
                "level": 1,
                "klass": "Darkwing",
                "faction": "Sellsword",
                "starting_items": [
                    [
                        "Crush",
                        false
                    ]
                ],
                "starting_skills": [],
                "team": "enemy",
                "ai": "Defend",
                "roam_ai": null,
                "ai_group": "3",
                "starting_position": null,
                "starting_traveler": null,
                "generic": true
            },
            {
                "nid": "114",
                "variant": null,
                "level": 1,
                "klass": "Bow_Armor",
                "faction": "Sellsword",
                "starting_items": [
                    [
                        "Steel_Bow",
                        false
                    ],
                    [
                        "Short_Bow",
                        false
                    ]
                ],
                "starting_skills": [],
                "team": "enemy",
                "ai": "Defend",
                "roam_ai": null,
                "ai_group": "3",
                "starting_position": null,
                "starting_traveler": null,
                "generic": true
            },
            {
                "nid": "115",
                "variant": null,
                "level": 1,
                "klass": "Mage_Armor",
                "faction": "Oculi",
                "starting_items": [
                    [
                        "Carreau",
                        false
                    ]
                ],
                "starting_skills": [],
                "team": "enemy",
                "ai": "Defend",
                "roam_ai": null,
                "ai_group": "4",
                "starting_position": null,
                "starting_traveler": null,
                "generic": true
            },
            {
                "nid": "116",
                "variant": null,
                "level": 1,
                "klass": "Myrmidon",
                "faction": "Oculi",
                "starting_items": [
                    [
                        "Epee",
                        false
                    ]
                ],
                "starting_skills": [],
                "team": "enemy",
                "ai": "Defend",
                "roam_ai": null,
                "ai_group": "4",
                "starting_position": null,
                "starting_traveler": null,
                "generic": true
            },
            {
                "nid": "117",
                "variant": null,
                "level": 1,
                "klass": "Ninja",
                "faction": "Oculi",
                "starting_items": [
                    [
                        "Slumber_Stabber",
                        false
                    ]
                ],
                "starting_skills": [],
                "team": "enemy",
                "ai": "Defend",
                "roam_ai": null,
                "ai_group": "4",
                "starting_position": null,
                "starting_traveler": null,
                "generic": true
            },
            {
                "nid": "Fake_Bootes",
                "variant": null,
                "level": 1,
                "klass": "Manakete",
                "faction": "Oculi",
                "starting_items": [],
                "starting_skills": [],
                "team": "other",
                "ai": "None",
                "roam_ai": null,
                "ai_group": "",
                "starting_position": [
                    8,
                    0
                ],
                "starting_traveler": null,
                "generic": true
            },
            {
                "nid": "Fake_Adrius",
                "variant": null,
                "level": 1,
                "klass": "Sage",
                "faction": "Oculi",
                "starting_items": [],
                "starting_skills": [],
                "team": "other",
                "ai": "None",
                "roam_ai": null,
                "ai_group": "",
                "starting_position": [
                    9,
                    0
                ],
                "starting_traveler": null,
                "generic": true
            },
            {
                "nid": "Fake_GeminiF",
                "variant": null,
                "level": 1,
                "klass": "Assassin",
                "faction": "Oculi",
                "starting_items": [],
                "starting_skills": [],
                "team": "other",
                "ai": "None",
                "roam_ai": null,
                "ai_group": "",
                "starting_position": [
                    15,
                    6
                ],
                "starting_traveler": null,
                "generic": true
            },
            {
                "nid": "Fake_GeminiM",
                "variant": null,
                "level": 1,
                "klass": "Trickster",
                "faction": "Oculi",
                "starting_items": [],
                "starting_skills": [],
                "team": "other",
                "ai": "None",
                "roam_ai": null,
                "ai_group": "",
                "starting_position": [
                    15,
                    7
                ],
                "starting_traveler": null,
                "generic": true
            },
            {
                "nid": "Fake_Loreia",
                "variant": "Female",
                "level": 1,
                "klass": "Cleric",
                "faction": "Civilian",
                "starting_items": [],
                "starting_skills": [],
                "team": "other",
                "ai": "None",
                "roam_ai": null,
                "ai_group": "",
                "starting_position": [
                    9,
                    11
                ],
                "starting_traveler": null,
                "generic": true
            },
            {
                "nid": "Fake_Canes",
                "variant": "",
                "level": 1,
                "klass": "Veteran_Tamer",
                "faction": "Oculi",
                "starting_items": [],
                "starting_skills": [],
                "team": "other",
                "ai": "None",
                "roam_ai": null,
                "ai_group": "",
                "starting_position": [
                    1,
                    8
                ],
                "starting_traveler": null,
                "generic": true
            },
            {
                "nid": "Fake_Nikume",
                "variant": "Female",
                "level": 1,
                "klass": "Myrmidon",
                "faction": "Tawanai",
                "starting_items": [],
                "starting_skills": [],
                "team": "other",
                "ai": "None",
                "roam_ai": null,
                "ai_group": "",
                "starting_position": [
                    2,
                    5
                ],
                "starting_traveler": null,
                "generic": true
            },
            {
                "nid": "Fake_Kaku",
                "variant": "Female",
                "level": 1,
                "klass": "Ninja",
                "faction": "Tawanai",
                "starting_items": [],
                "starting_skills": [],
                "team": "other",
                "ai": "None",
                "roam_ai": null,
                "ai_group": "",
                "starting_position": [
                    1,
                    4
                ],
                "starting_traveler": null,
                "generic": true
            },
            {
                "nid": "Fake_Solfrid",
                "variant": null,
                "level": 1,
                "klass": "Prima",
                "faction": "Civilian",
                "starting_items": [],
                "starting_skills": [],
                "team": "other",
                "ai": "None",
                "roam_ai": null,
                "ai_group": "",
                "starting_position": [
                    6,
                    11
                ],
                "starting_traveler": null,
                "generic": true
            }
        ],
        "regions": [
            {
                "nid": "Formation_1",
                "region_type": "formation",
                "position": [
                    8,
                    9
                ],
                "size": [
                    1,
                    1
                ],
                "sub_nid": "",
                "condition": "True",
                "time_left": null,
                "only_once": false,
                "interrupt_move": false
            },
            {
                "nid": "Formation_2",
                "region_type": "formation",
                "position": [
                    7,
                    9
                ],
                "size": [
                    1,
                    1
                ],
                "sub_nid": "",
                "condition": "True",
                "time_left": null,
                "only_once": false,
                "interrupt_move": false
            },
            {
                "nid": "Formation_3",
                "region_type": "formation",
                "position": [
                    9,
                    9
                ],
                "size": [
                    1,
                    1
                ],
                "sub_nid": "",
                "condition": "True",
                "time_left": null,
                "only_once": false,
                "interrupt_move": false
            },
            {
                "nid": "Formation_4",
                "region_type": "formation",
                "position": [
                    6,
                    9
                ],
                "size": [
                    1,
                    1
                ],
                "sub_nid": "",
                "condition": "True",
                "time_left": null,
                "only_once": false,
                "interrupt_move": false
            },
            {
                "nid": "Formation_5",
                "region_type": "formation",
                "position": [
                    10,
                    9
                ],
                "size": [
                    1,
                    1
                ],
                "sub_nid": "",
                "condition": "True",
                "time_left": null,
                "only_once": false,
                "interrupt_move": false
            }
        ],
        "unit_groups": [
            {
                "nid": "group1",
                "units": [
                    "102",
                    "103",
                    "104",
                    "105",
                    "106"
                ],
                "positions": {
                    "103": [
                        7,
                        3
                    ],
                    "104": [
                        9,
                        3
                    ],
                    "105": [
                        6,
                        4
                    ],
                    "106": [
                        10,
                        4
                    ]
                }
            },
            {
                "nid": "group2",
                "units": [
                    "107",
                    "108",
                    "109",
                    "110"
                ],
                "positions": {
                    "107": [
                        6,
                        6
                    ],
                    "109": [
                        5,
                        4
                    ],
                    "110": [
                        5,
                        7
                    ]
                }
            },
            {
                "nid": "group3",
                "units": [
                    "111",
                    "112",
                    "113",
                    "114"
                ],
                "positions": {
                    "111": [
                        6,
                        4
                    ],
                    "112": [
                        7,
                        4
                    ],
                    "113": [
                        6,
                        5
                    ],
                    "114": [
                        7,
                        5
                    ]
                }
            },
            {
                "nid": "boss",
                "units": [
                    "Scutum_E",
                    "Vulpecula_E",
                    "115",
                    "116",
                    "117"
                ],
                "positions": {
                    "Scutum_E": [
                        8,
                        5
                    ],
                    "Vulpecula_E": [
                        8,
                        3
                    ],
                    "116": [
                        9,
                        4
                    ],
                    "117": [
                        7,
                        4
                    ]
                }
            }
        ],
        "ai_groups": [
            {
                "nid": "2",
                "trigger_threshold": 2
            },
            {
                "nid": "3",
                "trigger_threshold": 2
            },
            {
                "nid": "4",
                "trigger_threshold": 2
            }
        ]
    }
]