[
    {
        "nid": "Adrius",
        "name": "Adrius",
        "desc": "Attendant to The Herdsman.\nDiligent and faithful.",
        "variant": "",
        "level": 10,
        "klass": "Sage",
        "tags": [
            "Boss"
        ],
        "bases": {
            "HP": 35,
            "STR": 3,
            "MAG": 8,
            "SKL": 9,
            "SPD": 9,
            "LCK": 6,
            "DEF": 7,
            "CON": 9,
            "MOV": 5,
            "RES": 11
        },
        "growths": {
            "HP": 65,
            "STR": 15,
            "MAG": 50,
            "SKL": 45,
            "SPD": 40,
            "LCK": 30,
            "DEF": 20,
            "CON": 0,
            "MOV": 0,
            "RES": 25
        },
        "stat_cap_modifiers": {
            "STR": 0,
            "HP": 0,
            "SKL": 0,
            "MAG": 0,
            "LCK": 0,
            "CON": 0,
            "MOV": 0,
            "SPD": 0,
            "RES": 0,
            "DEF": 0
        },
        "starting_items": [
            [
                "Elwind",
                false
            ],
            [
                "Divine",
                false
            ]
        ],
        "learned_skills": [
            [
                1,
                "Commander"
            ],
            [
                1,
                "Legend"
            ]
        ],
        "unit_notes": [],
        "wexp_gain": {
            "Sword": [
                true,
                0,
                251
            ],
            "Lance": [
                false,
                0,
                251
            ],
            "Axe": [
                false,
                0,
                251
            ],
            "Bow": [
                false,
                0,
                251
            ],
            "Staff": [
                false,
                0,
                251
            ],
            "Light": [
                false,
                15,
                251
            ],
            "Anima": [
                false,
                25,
                251
            ],
            "Dark": [
                false,
                0,
                251
            ],
            "Default": [
                false,
                0,
                251
            ],
            "Dragonstone": [
                false,
                0,
                251
            ],
            "Stone": [
                false,
                0,
                251
            ]
        },
        "alternate_classes": [],
        "portrait_nid": "Adrius_Young",
        "affinity": "Wind",
        "fields": []
    }
]