[
    {
        "nid": "Advertiser",
        "name": "Advertiser",
        "desc": "Submitted by NeoMasterZX.",
        "variant": "",
        "level": 1,
        "klass": "Thief",
        "tags": [
            "Playable"
        ],
        "bases": {
            "HP": 20,
            "STR": 1,
            "MAG": 1,
            "SKL": 1,
            "SPD": 1,
            "LCK": 1,
            "DEF": 1,
            "RES": 1,
            "CON": 12,
            "MOV": 4
        },
        "growths": {
            "HP": 80,
            "STR": 0,
            "MAG": 0,
            "SKL": 0,
            "SPD": 0,
            "LCK": 0,
            "DEF": 0,
            "RES": 0,
            "CON": 0,
            "MOV": 0
        },
        "stat_cap_modifiers": {
            "STR": 0,
            "HP": 0,
            "SKL": 0,
            "MAG": 0,
            "LCK": 0,
            "CON": 0,
            "MOV": 0,
            "SPD": 0,
            "RES": 0,
            "DEF": 0
        },
        "starting_items": [
            [
                "Iron_Knife",
                false
            ],
            [
                "Life_Insurance",
                false
            ]
        ],
        "learned_skills": [
            [
                1,
                "Advertise"
            ],
            [
                1,
                "Data_Collection"
            ],
            [
                1,
                "Spur_Shopping"
            ],
            [
                1,
                "Spur_Shopping_Helper"
            ]
        ],
        "unit_notes": [],
        "wexp_gain": {
            "Sword": [
                false,
                0,
                51
            ],
            "Lance": [
                false,
                0,
                51
            ],
            "Axe": [
                false,
                0,
                51
            ],
            "Bow": [
                false,
                0,
                51
            ],
            "Knife": [
                false,
                1,
                51
            ],
            "Anima": [
                false,
                0,
                51
            ],
            "Light": [
                false,
                0,
                51
            ],
            "Dark": [
                false,
                1,
                51
            ],
            "Staff": [
                false,
                0,
                51
            ],
            "Stone": [
                false,
                0,
                51
            ],
            "Default": [
                false,
                0,
                51
            ]
        },
        "alternate_classes": [],
        "portrait_nid": "Advertiser",
        "affinity": "Anima",
        "fields": [
            [
                "Promoted_Weapon",
                "Dark"
            ],
            [
                "Creator",
                "NeoMasterZX"
            ],
            [
                "Base_Weapons",
                "Knife"
            ],
            [
                "Upgrade_Weapons",
                "Dark"
            ]
        ]
    }
]