[
    {
        "nid": "Aemulus",
        "name": "Aemulus",
        "desc": "Submitted by Olivia.",
        "variant": "Female",
        "level": 1,
        "klass": "Soldier",
        "tags": [
            "Female",
            "Playable"
        ],
        "bases": {
            "HP": 17,
            "STR": 8,
            "MAG": 5,
            "SKL": 10,
            "SPD": 9,
            "LCK": 5,
            "DEF": 1,
            "RES": 0,
            "CON": 8,
            "MOV": 4
        },
        "growths": {
            "HP": 75,
            "STR": 45,
            "MAG": 30,
            "SKL": 60,
            "SPD": 45,
            "LCK": 20,
            "DEF": 10,
            "RES": 5,
            "CON": 0,
            "MOV": 0
        },
        "stat_cap_modifiers": {
            "STR": 0,
            "HP": 0,
            "SKL": 0,
            "MAG": 0,
            "LCK": 0,
            "CON": 0,
            "MOV": 0,
            "SPD": 0,
            "RES": 0,
            "DEF": 0
        },
        "starting_items": [
            [
                "Fae_Acius",
                false
            ],
            [
                "Daemon_Acius",
                false
            ]
        ],
        "learned_skills": [
            [
                1,
                "Jealous_Patrons"
            ],
            [
                1,
                "Spurned_Patrons"
            ],
            [
                1,
                "Windward_Parry"
            ],
            [
                1,
                "Flameward_Riposte"
            ]
        ],
        "unit_notes": [],
        "wexp_gain": {
            "Sword": [
                false,
                0,
                251
            ],
            "Lance": [
                false,
                1,
                251
            ],
            "Axe": [
                false,
                0,
                251
            ],
            "Bow": [
                false,
                0,
                251
            ],
            "Knife": [
                false,
                0,
                251
            ],
            "Anima": [
                false,
                0,
                251
            ],
            "Light": [
                false,
                0,
                251
            ],
            "Dark": [
                false,
                0,
                251
            ],
            "Staff": [
                false,
                0,
                251
            ],
            "Dragonstone": [
                false,
                0,
                251
            ],
            "Default": [
                false,
                0,
                251
            ],
            "Stone": [
                false,
                0,
                251
            ]
        },
        "alternate_classes": [],
        "portrait_nid": "Aemulus",
        "affinity": "Wind",
        "fields": [
            [
                "Creator",
                "Olivia"
            ],
            [
                "Base_Weapons",
                "Lance"
            ]
        ]
    }
]