[
    {
        "nid": "Amakuni",
        "name": "Amakuni",
        "desc": "A survivor of the armory's wreckage.",
        "variant": "",
        "level": 1,
        "klass": "Berserker",
        "tags": [],
        "bases": {
            "HP": 21,
            "STR": 9,
            "MAG": 2,
            "SKL": 4,
            "SPD": 7,
            "LCK": 4,
            "DEF": 3,
            "RES": 1,
            "CON": 15,
            "MOV": 5
        },
        "growths": {
            "HP": 80,
            "STR": 45,
            "MAG": 15,
            "SKL": 25,
            "SPD": 30,
            "LCK": 35,
            "DEF": 20,
            "RES": 10,
            "MOV": 0,
            "CON": 0
        },
        "stat_cap_modifiers": {
            "STR": 0,
            "HP": 0,
            "SKL": 0,
            "MAG": 0,
            "LCK": 0,
            "CON": 0,
            "MOV": 0,
            "SPD": 0,
            "RES": 0,
            "DEF": 0
        },
        "starting_items": [
            [
                "Steel_Axe",
                false
            ],
            [
                "IronShield",
                false
            ],
            [
                "Fireheart_Relic",
                false
            ]
        ],
        "learned_skills": [
            [
                1,
                "Desperation_CS"
            ],
            [
                1,
                "One_Chosen_Weapon"
            ]
        ],
        "unit_notes": [],
        "wexp_gain": {
            "Axe": [
                false,
                15,
                null
            ]
        },
        "alternate_classes": [],
        "portrait_nid": "Mercenary (Version 4) {Sphealnuke}",
        "affinity": "Fire",
        "fields": []
    }
]