[
    {
        "nid": "Artemisia",
        "name": "Artemisia",
        "desc": "Submitted by Cxisse.\nA researcher of the cosmos. Seeks to find the brightest star.",
        "variant": "Female",
        "level": 1,
        "klass": "Griffon_Rider",
        "tags": [
            "Female",
            "Playable"
        ],
        "bases": {
            "SKL": 9,
            "MAG": 5,
            "STR": 5,
            "LCK": 6,
            "HP": 14,
            "SPD": 2,
            "DEF": 2,
            "RES": 3,
            "CON": 6,
            "MOV": 5
        },
        "growths": {
            "HP": 55,
            "STR": 35,
            "MAG": 35,
            "SKL": 55,
            "SPD": 20,
            "LCK": 40,
            "DEF": 10,
            "RES": 20,
            "MOV": 0,
            "CON": 0
        },
        "stat_cap_modifiers": {
            "STR": 0,
            "HP": 0,
            "SKL": 0,
            "MAG": 0,
            "LCK": 0,
            "CON": 0,
            "MOV": 0,
            "SPD": 0,
            "RES": 0,
            "DEF": 0
        },
        "starting_items": [
            [
                "Lyrae",
                false
            ]
        ],
        "learned_skills": [
            [
                1,
                "Lightning_Strikes_Thrice"
            ],
            [
                1,
                "Vega"
            ],
            [
                1,
                "Sagittarius"
            ]
        ],
        "unit_notes": [],
        "wexp_gain": {
            "Bow": [
                false,
                1,
                null
            ],
            "Light": [
                false,
                1,
                null
            ]
        },
        "alternate_classes": [],
        "portrait_nid": "Artemisia",
        "affinity": "Thunder",
        "fields": [
            [
                "Creator",
                "Cxisse"
            ],
            [
                "Base_Weapons",
                "Bow"
            ],
            [
                "Upgrade_Weapons",
                "Light"
            ],
            [
                "Promoted_Weapon",
                "Light"
            ]
        ]
    }
]