[
    {
        "nid": "Austin",
        "name": "Austin",
        "desc": "Submitted by Pizzanile.",
        "variant": null,
        "level": 1,
        "klass": "Monk",
        "tags": [
            "Playable"
        ],
        "bases": {
            "HP": 21,
            "RES": 10,
            "DEF": 7,
            "SPD": 6,
            "STR": 6,
            "MAG": 2,
            "SKL": 4,
            "LCK": 3,
            "CON": 9,
            "MOV": 4
        },
        "growths": {
            "HP": 75,
            "STR": 25,
            "SPD": 40,
            "DEF": 35,
            "RES": 45,
            "LCK": 20,
            "MAG": 15,
            "SKL": 25,
            "MOV": 0,
            "CON": 0
        },
        "stat_cap_modifiers": {
            "STR": 0,
            "HP": 0,
            "SKL": 0,
            "MAG": 0,
            "LCK": 0,
            "CON": 0,
            "MOV": 0,
            "SPD": 0,
            "RES": 0,
            "DEF": 0
        },
        "starting_items": [
            [
                "Iron_Staff",
                false
            ],
            [
                "Adhesive",
                false
            ]
        ],
        "learned_skills": [
            [
                1,
                "HiddenStaff"
            ],
            [
                1,
                "Relax_Friend"
            ],
            [
                1,
                "On_The_Rocks"
            ],
            [
                1,
                "Breaking_The_Ice"
            ]
        ],
        "unit_notes": [],
        "wexp_gain": {
            "Axe": [
                false,
                1,
                null
            ],
            "Staff": [
                false,
                1,
                null
            ]
        },
        "alternate_classes": [],
        "portrait_nid": "Austin",
        "affinity": "Ice",
        "fields": [
            [
                "Creator",
                "Pizzanile"
            ],
            [
                "Base_Weapons",
                "Staff"
            ],
            [
                "Promoted_Weapon",
                "Axe"
            ]
        ]
    }
]