[
    {
        "nid": "Bard",
        "name": "Bard",
        "desc": "Submitted by Leche.",
        "variant": "Female",
        "level": 1,
        "klass": "Archer",
        "tags": [
            "Female",
            "Playable"
        ],
        "bases": {
            "SKL": 11,
            "HP": 16,
            "STR": 4,
            "MAG": 3,
            "DEF": 5,
            "RES": 4,
            "LCK": 8,
            "SPD": 6,
            "CON": 8,
            "MOV": 5
        },
        "growths": {
            "SKL": 60,
            "HP": 45,
            "STR": 30,
            "MAG": 25,
            "SPD": 35,
            "LCK": 40,
            "DEF": 20,
            "RES": 15,
            "MOV": 0,
            "CON": 0
        },
        "stat_cap_modifiers": {
            "STR": 0,
            "HP": 0,
            "SKL": 0,
            "MAG": 0,
            "LCK": 0,
            "CON": 0,
            "MOV": 0,
            "SPD": 0,
            "RES": 0,
            "DEF": 0
        },
        "starting_items": [
            [
                "Iron_Bow",
                false
            ]
        ],
        "learned_skills": [
            [
                1,
                "MagesBallad"
            ],
            [
                1,
                "ArmyPaean"
            ],
            [
                1,
                "WandererMinuet"
            ],
            [
                1,
                "Bloodletter"
            ]
        ],
        "unit_notes": [],
        "wexp_gain": {
            "Bow": [
                false,
                1,
                51
            ],
            "Staff": [
                false,
                1,
                51
            ]
        },
        "alternate_classes": [],
        "portrait_nid": "Bard",
        "affinity": "Anima",
        "fields": [
            [
                "Creator",
                "Leche"
            ],
            [
                "Base_Weapons",
                "Bow"
            ],
            [
                "Upgrade_Weapons",
                "Staff"
            ]
        ]
    }
]