[
    {
        "nid": "BLOODSTORM",
        "name": "BLOODSTORM",
        "desc": "Submitted by RandomWizard.",
        "variant": "",
        "level": 1,
        "klass": "Soldier",
        "tags": [
            "Playable"
        ],
        "bases": {
            "HP": 19,
            "STR": 7,
            "MAG": 0,
            "SKL": 4,
            "SPD": 5,
            "LCK": 3,
            "DEF": 5,
            "RES": 0,
            "CON": 7,
            "MOV": 4
        },
        "growths": {
            "HP": 60,
            "STR": 40,
            "MAG": 0,
            "SKL": 25,
            "SPD": 15,
            "LCK": 0,
            "DEF": 15,
            "RES": 5,
            "CON": 0,
            "MOV": 0
        },
        "stat_cap_modifiers": {
            "STR": 0,
            "HP": 0,
            "SKL": 0,
            "MAG": 0,
            "LCK": 0,
            "CON": 0,
            "MOV": 0,
            "SPD": 0,
            "RES": 0,
            "DEF": 0
        },
        "starting_items": [
            [
                "LuciferPike",
                false
            ],
            [
                "Arms_Scroll",
                false
            ],
            [
                "Vulnerary",
                false
            ]
        ],
        "learned_skills": [
            [
                1,
                "SinEater"
            ],
            [
                1,
                "LeBoM"
            ]
        ],
        "unit_notes": [],
        "wexp_gain": {
            "Sword": [
                false,
                1,
                251
            ],
            "Lance": [
                false,
                1,
                251
            ],
            "Axe": [
                false,
                0,
                251
            ],
            "Bow": [
                false,
                0,
                251
            ],
            "Knife": [
                false,
                0,
                251
            ],
            "Anima": [
                false,
                0,
                251
            ],
            "Light": [
                false,
                0,
                251
            ],
            "Dark": [
                false,
                0,
                251
            ],
            "Staff": [
                false,
                0,
                251
            ],
            "Dragonstone": [
                false,
                0,
                251
            ],
            "Default": [
                false,
                0,
                251
            ],
            "Stone": [
                false,
                0,
                251
            ]
        },
        "alternate_classes": [],
        "portrait_nid": "Portrait Editor Sand and Sabres.gba_185@B9 [_B][_L][_O][_O][_D][_S]T[_O][_R]M_0116E848",
        "affinity": "Dark",
        "fields": [
            [
                "Creator",
                "RandomWizard"
            ],
            [
                "Base_Weapons",
                "Lance"
            ],
            [
                "Upgrade_Weapons",
                "Sword"
            ]
        ]
    }
]