[
    {
        "nid": "Chantal_Final",
        "name": "Chantal",
        "desc": "One of the mightiest generals of the Lux Coalition.",
        "variant": "Female",
        "level": 27,
        "klass": "Magician",
        "tags": [
            "Boss",
            "Female"
        ],
        "bases": {
            "HP": 40,
            "STR": 9,
            "MAG": 21,
            "SKL": 17,
            "SPD": 21,
            "LCK": 12,
            "DEF": 10,
            "RES": 20,
            "CON": 9,
            "MOV": 5
        },
        "growths": {
            "HP": 60,
            "STR": 10,
            "MAG": 55,
            "SKL": 30,
            "SPD": 40,
            "LCK": 20,
            "DEF": 10,
            "RES": 35,
            "CON": 0,
            "MOV": 0
        },
        "stat_cap_modifiers": {
            "STR": 0,
            "HP": 0,
            "SKL": 0,
            "MAG": 0,
            "LCK": 0,
            "CON": 0,
            "MOV": 0,
            "SPD": 0,
            "RES": 0,
            "DEF": 0
        },
        "starting_items": [
            [
                "Scorch",
                false
            ],
            [
                "Ray",
                false
            ],
            [
                "Fenrir",
                false
            ]
        ],
        "learned_skills": [
            [
                1,
                "Veteran_Plus"
            ],
            [
                1,
                "Affinity_Raven"
            ],
            [
                1,
                "Legend"
            ],
            [
                1,
                "HP_Double"
            ]
        ],
        "unit_notes": [],
        "wexp_gain": {
            "Sword": [
                false,
                0,
                251
            ],
            "Lance": [
                false,
                0,
                251
            ],
            "Axe": [
                false,
                0,
                251
            ],
            "Bow": [
                false,
                0,
                251
            ],
            "Knife": [
                false,
                0,
                251
            ],
            "Anima": [
                false,
                37,
                251
            ],
            "Light": [
                false,
                37,
                251
            ],
            "Dark": [
                false,
                37,
                251
            ],
            "Staff": [
                false,
                0,
                251
            ],
            "Stone": [
                false,
                0,
                251
            ],
            "Default": [
                false,
                0,
                251
            ]
        },
        "alternate_classes": [],
        "portrait_nid": "Chantal",
        "affinity": "Ice",
        "fields": []
    }
]