[
    {
        "nid": "Clarque",
        "name": "Clarque",
        "desc": "Submitted by Goldblitzx.\nA jaded mercenary, and a remorseful man long fallen from grace.",
        "variant": "",
        "level": 1,
        "klass": "Skirmisher",
        "tags": [
            "Playable"
        ],
        "bases": {
            "HP": 25,
            "DEF": 5,
            "RES": 4,
            "SPD": 2,
            "STR": 8,
            "SKL": 6,
            "LCK": 5,
            "CON": 12,
            "MOV": 5,
            "MAG": 3
        },
        "growths": {
            "HP": 100,
            "STR": 40,
            "MAG": 25,
            "SKL": 35,
            "SPD": 15,
            "LCK": 35,
            "DEF": 25,
            "RES": 15,
            "MOV": 0,
            "CON": 0
        },
        "stat_cap_modifiers": {
            "STR": 0,
            "HP": 0,
            "SKL": 0,
            "MAG": 0,
            "LCK": 0,
            "CON": 0,
            "MOV": 0,
            "SPD": 0,
            "RES": 0,
            "DEF": 0
        },
        "starting_items": [
            [
                "Steel_Bow",
                false
            ],
            [
                "Steel_Sword",
                false
            ]
        ],
        "learned_skills": [
            [
                1,
                "Push_CON"
            ],
            [
                1,
                "Natural_Born_Captain"
            ]
        ],
        "unit_notes": [],
        "wexp_gain": {
            "Bow": [
                false,
                7,
                null
            ],
            "Sword": [
                false,
                7,
                null
            ]
        },
        "alternate_classes": [],
        "portrait_nid": "Clarque",
        "affinity": "Ice",
        "fields": [
            [
                "Creator",
                "Goldblitzx"
            ],
            [
                "Base_Weapons",
                "Bow"
            ],
            [
                "Upgrade_Weapons",
                "Sword"
            ]
        ]
    }
]