[
    {
        "nid": "Crema",
        "name": "Crema",
        "desc": "Submitted by Hallan.",
        "variant": "",
        "level": 1,
        "klass": "Lord",
        "tags": [
            "Playable"
        ],
        "bases": {
            "HP": 18,
            "STR": 4,
            "MAG": 3,
            "SKL": 7,
            "SPD": 8,
            "LCK": 10,
            "DEF": 3,
            "RES": 4,
            "CON": 6,
            "MOV": 4
        },
        "growths": {
            "HP": 75,
            "STR": 30,
            "MAG": 30,
            "SKL": 35,
            "SPD": 40,
            "LCK": 60,
            "DEF": 20,
            "RES": 15,
            "CON": 0,
            "MOV": 0
        },
        "stat_cap_modifiers": {
            "HP": 0,
            "STR": 0,
            "MAG": 0,
            "SKL": 0,
            "SPD": 0,
            "LCK": 0,
            "DEF": 0,
            "RES": 0,
            "CON": 0,
            "MOV": 0
        },
        "starting_items": [
            [
                "Iron_Sword",
                false
            ],
            [
                "Wonderful_Box",
                false
            ]
        ],
        "learned_skills": [
            [
                1,
                "Star_Road"
            ],
            [
                1,
                "Celestial_Step"
            ],
            [
                1,
                "Has_Its_Thorns"
            ]
        ],
        "unit_notes": [],
        "wexp_gain": {
            "Sword": [
                false,
                1,
                null
            ],
            "Staff": [
                false,
                1,
                null
            ]
        },
        "alternate_classes": [],
        "portrait_nid": "Crema",
        "affinity": "Light",
        "fields": [
            [
                "Creator",
                "Hallan"
            ],
            [
                "Base_Weapons",
                "Sword"
            ],
            [
                "Promoted_Weapon",
                "Staff"
            ],
            [
                "Upgrade_Weapons",
                "Staff"
            ]
        ]
    }
]