[
    {
        "nid": "Crookshank",
        "name": "Crookshank",
        "desc": "Submitted by RandomWizard.",
        "variant": "",
        "level": 1,
        "klass": "Thief",
        "tags": [
            "Playable"
        ],
        "bases": {
            "HP": 22,
            "STR": 4,
            "MAG": 1,
            "SKL": 12,
            "SPD": 11,
            "LCK": 12,
            "DEF": 0,
            "RES": 4,
            "CON": 9,
            "MOV": 5
        },
        "growths": {
            "HP": 65,
            "STR": 30,
            "MAG": 15,
            "SKL": 40,
            "SPD": 35,
            "LCK": 45,
            "DEF": 10,
            "RES": 25,
            "CON": 0,
            "MOV": 0
        },
        "stat_cap_modifiers": {
            "STR": 0,
            "HP": 0,
            "SKL": 0,
            "MAG": 0,
            "LCK": 0,
            "CON": 0,
            "MOV": 0,
            "SPD": 0,
            "RES": 0,
            "DEF": 0
        },
        "starting_items": [
            [
                "Iron_Knife",
                false
            ],
            [
                "Hidden_Knife",
                false
            ],
            [
                "Lockpick",
                false
            ]
        ],
        "learned_skills": [
            [
                1,
                "Spur_Steal_Plus"
            ],
            [
                1,
                "Pass"
            ],
            [
                1,
                "Shade_CS"
            ]
        ],
        "unit_notes": [],
        "wexp_gain": {
            "Sword": [
                false,
                0,
                251
            ],
            "Lance": [
                false,
                0,
                251
            ],
            "Axe": [
                false,
                0,
                251
            ],
            "Bow": [
                false,
                1,
                251
            ],
            "Knife": [
                false,
                1,
                251
            ],
            "Anima": [
                false,
                0,
                251
            ],
            "Light": [
                false,
                0,
                251
            ],
            "Dark": [
                false,
                0,
                251
            ],
            "Staff": [
                false,
                0,
                251
            ],
            "Dragonstone": [
                false,
                0,
                251
            ],
            "Default": [
                false,
                0,
                251
            ],
            "Stone": [
                false,
                0,
                251
            ]
        },
        "alternate_classes": [],
        "portrait_nid": "Crookshank",
        "affinity": "Thunder",
        "fields": [
            [
                "Creator",
                "RandomWizard"
            ],
            [
                "Base_Weapons",
                "Knife"
            ],
            [
                "Upgrade_Weapons",
                "Bow"
            ]
        ]
    }
]