[
    {
        "nid": "Cryona",
        "name": "Cryona",
        "desc": "Submitted by Lichmaestro.",
        "variant": "Female",
        "level": 1,
        "klass": "Manakete",
        "tags": [
            "Female",
            "Playable"
        ],
        "bases": {
            "HP": 16,
            "STR": 3,
            "MAG": 6,
            "SKL": 5,
            "SPD": 8,
            "LCK": 5,
            "DEF": 4,
            "RES": 9,
            "CON": 9,
            "MOV": 4
        },
        "growths": {
            "HP": 65,
            "STR": 15,
            "MAG": 35,
            "SKL": 30,
            "SPD": 40,
            "RES": 45,
            "DEF": 25,
            "LCK": 30,
            "MOV": 0,
            "CON": 0
        },
        "stat_cap_modifiers": {
            "STR": 0,
            "HP": 0,
            "SKL": 0,
            "MAG": 0,
            "LCK": 0,
            "CON": 0,
            "MOV": 0,
            "SPD": 0,
            "RES": 0,
            "DEF": 0
        },
        "starting_items": [
            [
                "Chill_Rune",
                false
            ],
            [
                "Blizzard_Stone",
                false
            ]
        ],
        "learned_skills": [
            [
                1,
                "Chilling_Lungs"
            ],
            [
                1,
                "Unleash_the_Hail"
            ]
        ],
        "unit_notes": [],
        "wexp_gain": {
            "Stone": [
                false,
                7,
                null
            ],
            "Dark": [
                false,
                1,
                null
            ]
        },
        "alternate_classes": [],
        "portrait_nid": "Cryona",
        "affinity": "Ice",
        "fields": [
            [
                "Creator",
                "Lichmaestro"
            ],
            [
                "Base_Weapons",
                "Stone"
            ],
            [
                "Upgrade_Weapons",
                "Dark"
            ]
        ]
    }
]