[
    {
        "nid": "Desia",
        "name": "Desia",
        "desc": "Submitted by Rasta.",
        "variant": "Female",
        "level": 1,
        "klass": "Bael",
        "tags": [
            "Monster",
            "Female",
            "Playable"
        ],
        "bases": {
            "HP": 22,
            "STR": 0,
            "MAG": 6,
            "SKL": 7,
            "SPD": 2,
            "LCK": 6,
            "DEF": 7,
            "RES": 7,
            "CON": 8,
            "MOV": 4
        },
        "growths": {
            "HP": 75,
            "STR": 0,
            "MAG": 45,
            "SKL": 35,
            "SPD": 15,
            "LCK": 35,
            "DEF": 40,
            "RES": 40,
            "CON": 0,
            "MOV": 0
        },
        "stat_cap_modifiers": {
            "STR": 0,
            "HP": 0,
            "SKL": 0,
            "MAG": 0,
            "LCK": 0,
            "CON": 0,
            "MOV": 0,
            "SPD": 0,
            "RES": 0,
            "DEF": 0
        },
        "starting_items": [
            [
                "Predation",
                false
            ],
            [
                "Monstrous_Crown",
                false
            ]
        ],
        "learned_skills": [
            [
                1,
                "Endless_Epidemic"
            ],
            [
                1,
                "Wary_Fighter"
            ],
            [
                1,
                "Malevolent_Blight"
            ]
        ],
        "unit_notes": [],
        "wexp_gain": {
            "Sword": [
                false,
                0,
                251
            ],
            "Lance": [
                false,
                0,
                251
            ],
            "Axe": [
                false,
                0,
                251
            ],
            "Bow": [
                false,
                0,
                251
            ],
            "Knife": [
                false,
                0,
                251
            ],
            "Anima": [
                false,
                0,
                251
            ],
            "Light": [
                false,
                0,
                251
            ],
            "Dark": [
                false,
                0,
                251
            ],
            "Staff": [
                false,
                0,
                251
            ],
            "Stone": [
                false,
                1,
                251
            ],
            "Default": [
                false,
                0,
                251
            ]
        },
        "alternate_classes": [],
        "portrait_nid": "Desia",
        "affinity": "Anima",
        "fields": [
            [
                "Creator",
                "Rasta"
            ],
            [
                "Base_Weapons",
                "Stone"
            ]
        ]
    }
]