[
    {
        "nid": "Doofus",
        "name": "Doofus",
        "desc": "Submitted by Beccarte.",
        "variant": "",
        "level": 1,
        "klass": "Brigand",
        "tags": [
            "Playable"
        ],
        "bases": {
            "HP": 21,
            "STR": 10,
            "MAG": 2,
            "SKL": 8,
            "SPD": 2,
            "LCK": 3,
            "DEF": 6,
            "RES": 1,
            "CON": 13,
            "MOV": 4
        },
        "growths": {
            "HP": 85,
            "STR": 55,
            "MAG": 10,
            "SKL": 45,
            "SPD": 20,
            "LCK": 25,
            "DEF": 30,
            "RES": 5,
            "CON": 0,
            "MOV": 0
        },
        "stat_cap_modifiers": {
            "STR": 0,
            "HP": 0,
            "SKL": 0,
            "MAG": 0,
            "LCK": 0,
            "CON": 0,
            "MOV": 0,
            "SPD": 0,
            "RES": 0,
            "DEF": 0
        },
        "starting_items": [
            [
                "Iron_Axe",
                false
            ]
        ],
        "learned_skills": [
            [
                1,
                "Mutton_Chop"
            ],
            [
                1,
                "Trust_No_One"
            ],
            [
                1,
                "Quick_Reposte"
            ]
        ],
        "unit_notes": [],
        "wexp_gain": {
            "Sword": [
                false,
                1,
                251
            ],
            "Lance": [
                false,
                0,
                251
            ],
            "Axe": [
                false,
                1,
                251
            ],
            "Bow": [
                false,
                0,
                251
            ],
            "Knife": [
                false,
                0,
                251
            ],
            "Anima": [
                false,
                0,
                251
            ],
            "Light": [
                false,
                0,
                251
            ],
            "Dark": [
                false,
                0,
                251
            ],
            "Staff": [
                false,
                0,
                251
            ],
            "Dragonstone": [
                false,
                0,
                251
            ],
            "Default": [
                false,
                0,
                251
            ],
            "Stone": [
                false,
                0,
                251
            ]
        },
        "alternate_classes": [],
        "portrait_nid": "Doofus",
        "affinity": "Fire",
        "fields": [
            [
                "Creator",
                "Beccarte"
            ],
            [
                "Base_Weapons",
                "Axe"
            ],
            [
                "Upgrade_Weapons",
                "Sword"
            ]
        ]
    }
]