[
    {
        "nid": "Faenia_P",
        "name": "Faenia",
        "desc": "An army leader of the Lux Coalition.\nShe's quiet, but very determined.",
        "variant": "Female",
        "level": 1,
        "klass": "Sky_Knight_Sword",
        "tags": [
            "Female",
            "Playable"
        ],
        "bases": {
            "HP": 19,
            "STR": 4,
            "MAG": 5,
            "SKL": 6,
            "SPD": 8,
            "LCK": 8,
            "DEF": 2,
            "RES": 5,
            "CON": 10,
            "MOV": 5
        },
        "growths": {
            "HP": 65,
            "STR": 25,
            "MAG": 30,
            "SKL": 35,
            "SPD": 45,
            "LCK": 35,
            "DEF": 10,
            "RES": 25,
            "CON": 0,
            "MOV": 0
        },
        "stat_cap_modifiers": {
            "STR": 0,
            "HP": 0,
            "SKL": 0,
            "MAG": 0,
            "LCK": 0,
            "CON": 0,
            "MOV": 0,
            "SPD": 0,
            "RES": 0,
            "DEF": 0
        },
        "starting_items": [
            [
                "Tempest_Dagger",
                false
            ]
        ],
        "learned_skills": [
            [
                1,
                "HiddenKnife"
            ],
            [
                1,
                "Skyflow_Confluence"
            ],
            [
                1,
                "Rainfall"
            ],
            [
                1,
                "Swirling_Tempest"
            ],
            [
                1,
                "Skyflow_Bullet"
            ]
        ],
        "unit_notes": [],
        "wexp_gain": {
            "Sword": [
                false,
                0,
                251
            ],
            "Lance": [
                false,
                0,
                251
            ],
            "Axe": [
                false,
                0,
                251
            ],
            "Bow": [
                false,
                0,
                251
            ],
            "Knife": [
                false,
                1,
                251
            ],
            "Anima": [
                false,
                0,
                251
            ],
            "Light": [
                false,
                1,
                251
            ],
            "Dark": [
                false,
                0,
                251
            ],
            "Staff": [
                false,
                0,
                251
            ],
            "Stone": [
                false,
                0,
                251
            ],
            "Default": [
                false,
                0,
                251
            ]
        },
        "alternate_classes": [],
        "portrait_nid": "Faenia",
        "affinity": "Anima",
        "fields": [
            [
                "Creator",
                "Lord_Tweed"
            ],
            [
                "Base_Weapons",
                "Knife"
            ],
            [
                "Upgrade_Weapons",
                "Light"
            ]
        ]
    }
]