[
    {
        "nid": "Forz",
        "name": "Forz",
        "desc": "Submitted by Sigmaraven and Starlight.",
        "variant": "",
        "level": 1,
        "klass": "Pirate",
        "tags": [
            "Playable"
        ],
        "bases": {
            "HP": 20,
            "STR": 8,
            "MAG": 0,
            "SKL": 3,
            "SPD": 7,
            "LCK": 5,
            "DEF": 3,
            "RES": 3,
            "CON": 10,
            "MOV": 4
        },
        "growths": {
            "HP": 85,
            "STR": 65,
            "MAG": 0,
            "SKL": 30,
            "SPD": 50,
            "LCK": 40,
            "DEF": 10,
            "RES": 20,
            "CON": 0,
            "MOV": 0
        },
        "stat_cap_modifiers": {
            "STR": 0,
            "HP": 0,
            "SKL": 0,
            "MAG": 0,
            "LCK": 0,
            "CON": 0,
            "MOV": 0,
            "SPD": 0,
            "RES": 0,
            "DEF": 0
        },
        "starting_items": [
            [
                "Hatchet",
                false
            ],
            [
                "Swordreaver",
                false
            ]
        ],
        "learned_skills": [
            [
                1,
                "Undying"
            ]
        ],
        "unit_notes": [],
        "wexp_gain": {
            "Sword": [
                false,
                0,
                51
            ],
            "Lance": [
                false,
                0,
                51
            ],
            "Axe": [
                false,
                7,
                51
            ],
            "Bow": [
                false,
                0,
                51
            ],
            "Knife": [
                false,
                0,
                51
            ],
            "Anima": [
                false,
                0,
                51
            ],
            "Light": [
                false,
                0,
                51
            ],
            "Dark": [
                false,
                0,
                51
            ],
            "Staff": [
                false,
                0,
                51
            ],
            "Stone": [
                false,
                0,
                51
            ],
            "Default": [
                false,
                0,
                51
            ]
        },
        "alternate_classes": [],
        "portrait_nid": "Forz",
        "affinity": "Fire",
        "fields": [
            [
                "Creator",
                "Sigmaraven"
            ],
            [
                "Base_Weapons",
                "Axe"
            ]
        ]
    }
]