[
    {
        "nid": "Go_Stone",
        "name": "Go Stone",
        "desc": "Submitted by ViolaBuddy.",
        "variant": "",
        "level": 1,
        "klass": "Thief",
        "tags": [
            "Chess",
            "Playable"
        ],
        "bases": {
            "HP": 17,
            "STR": 7,
            "MAG": 2,
            "SKL": 9,
            "SPD": 8,
            "LCK": 5,
            "DEF": 3,
            "RES": 2,
            "CON": 8,
            "MOV": 4
        },
        "growths": {
            "HP": 65,
            "STR": 40,
            "MAG": 20,
            "SKL": 55,
            "SPD": 50,
            "LCK": 30,
            "DEF": 20,
            "RES": 15,
            "CON": 0,
            "MOV": 0
        },
        "stat_cap_modifiers": {
            "STR": 0,
            "HP": 0,
            "SKL": 0,
            "MAG": 0,
            "LCK": 0,
            "CON": 0,
            "MOV": 0,
            "SPD": 0,
            "RES": 0,
            "DEF": 0
        },
        "starting_items": [
            [
                "Knife_of_Liberty",
                false
            ]
        ],
        "learned_skills": [
            [
                1,
                "Atari"
            ],
            [
                1,
                "Two_Eyes_of_Life"
            ],
            [
                1,
                "Capture_Piece"
            ]
        ],
        "unit_notes": [],
        "wexp_gain": {
            "Sword": [
                false,
                0,
                251
            ],
            "Lance": [
                false,
                0,
                251
            ],
            "Axe": [
                false,
                0,
                251
            ],
            "Bow": [
                false,
                0,
                251
            ],
            "Knife": [
                false,
                1,
                251
            ],
            "Anima": [
                false,
                0,
                251
            ],
            "Light": [
                false,
                0,
                251
            ],
            "Dark": [
                false,
                0,
                251
            ],
            "Staff": [
                false,
                0,
                251
            ],
            "Stone": [
                false,
                1,
                251
            ],
            "Default": [
                false,
                0,
                251
            ]
        },
        "alternate_classes": [],
        "portrait_nid": "FE_GoStone",
        "affinity": "Earth",
        "fields": [
            [
                "Creator",
                "ViolaBuddy"
            ],
            [
                "Base_Weapons",
                "Knife"
            ],
            [
                "Upgrade_Weapons",
                "Stone"
            ]
        ]
    }
]