[
    {
        "nid": "Hidrargyra",
        "name": "Hidrargyra",
        "desc": "Submitted by Lichmaestro.",
        "variant": "Female",
        "level": 1,
        "klass": "Myrmidon",
        "tags": [
            "Female",
            "Playable"
        ],
        "bases": {
            "MOV": 5,
            "HP": 15,
            "STR": 4,
            "MAG": 5,
            "SKL": 9,
            "SPD": 10,
            "LCK": 5,
            "RES": 1,
            "DEF": 2,
            "CON": 7
        },
        "growths": {
            "HP": 55,
            "STR": 30,
            "MAG": 40,
            "SKL": 45,
            "SPD": 55,
            "LCK": 35,
            "DEF": 10,
            "RES": 5,
            "MOV": 0,
            "CON": 0
        },
        "stat_cap_modifiers": {
            "STR": 0,
            "HP": 0,
            "SKL": 0,
            "MAG": 0,
            "LCK": 0,
            "CON": 0,
            "MOV": 0,
            "SPD": 0,
            "RES": 0,
            "DEF": 0
        },
        "starting_items": [
            [
                "Mercurial_Blade",
                false
            ],
            [
                "Epee",
                false
            ]
        ],
        "learned_skills": [
            [
                1,
                "Fluidic_Constitution"
            ],
            [
                1,
                "Mercurial_Form"
            ]
        ],
        "unit_notes": [],
        "wexp_gain": {
            "Sword": [
                false,
                1,
                null
            ]
        },
        "alternate_classes": [],
        "portrait_nid": "Hydrargyra",
        "affinity": "Water",
        "fields": [
            [
                "Creator",
                "Lichmaestro"
            ],
            [
                "Base_Weapons",
                "Sword"
            ]
        ]
    }
]