[
    {
        "nid": "Janus",
        "name": "Janus",
        "desc": "Submitted by Sigmaraven.",
        "variant": "",
        "level": 1,
        "klass": "Mercenary",
        "tags": [
            "Playable"
        ],
        "bases": {
            "HP": 14,
            "MAG": 3,
            "SKL": 9,
            "SPD": 7,
            "LCK": 1,
            "DEF": 5,
            "CON": 10,
            "MOV": 4,
            "RES": 1,
            "STR": 5
        },
        "growths": {
            "HP": 65,
            "MAG": 25,
            "SKL": 45,
            "SPD": 40,
            "LCK": 35,
            "DEF": 25,
            "CON": 0,
            "MOV": 0,
            "RES": 25,
            "STR": 45
        },
        "stat_cap_modifiers": {
            "HP": 0,
            "DEF": 0,
            "CON": 0,
            "MAG": 0,
            "SPD": 0,
            "SKL": 0,
            "RES": 0,
            "MOV": 0,
            "LCK": 0,
            "STR": 0
        },
        "starting_items": [
            [
                "Revolver",
                false
            ]
        ],
        "learned_skills": [
            [
                1,
                "Low_Tide"
            ],
            [
                1,
                "Rising_Tide"
            ],
            [
                1,
                "High_Tide"
            ],
            [
                1,
                "Receding_Tide"
            ],
            [
                1,
                "Rising_Tide_H"
            ]
        ],
        "unit_notes": [],
        "wexp_gain": {
            "Sword": [
                true,
                1,
                251
            ],
            "Lance": [
                true,
                0,
                251
            ],
            "Axe": [
                false,
                1,
                251
            ],
            "Bow": [
                false,
                0,
                251
            ],
            "Staff": [
                false,
                0,
                251
            ],
            "Light": [
                false,
                0,
                251
            ],
            "Anima": [
                false,
                0,
                251
            ],
            "Dark": [
                false,
                0,
                251
            ],
            "Default": [
                false,
                0,
                251
            ]
        },
        "alternate_classes": [],
        "portrait_nid": "Janus",
        "affinity": "Anima",
        "fields": [
            [
                "Creator",
                "Sigmaraven"
            ],
            [
                "Base_Weapons",
                "Sword"
            ],
            [
                "Upgrade_Weapons",
                "Axe"
            ]
        ]
    }
]