[
    {
        "nid": "Jiulette",
        "name": "Jiulette",
        "desc": "A mercenary for hire.",
        "variant": "Female",
        "level": 1,
        "klass": "Warrior",
        "tags": [
            "Female"
        ],
        "bases": {
            "STR": 5,
            "HP": 18,
            "MAG": 3,
            "SKL": 5,
            "SPD": 6,
            "LCK": 4,
            "DEF": 4,
            "RES": 2,
            "CON": 11,
            "MOV": 5
        },
        "growths": {
            "HP": 75,
            "STR": 35,
            "MAG": 25,
            "SKL": 30,
            "SPD": 40,
            "LCK": 30,
            "DEF": 25,
            "RES": 10,
            "MOV": 0,
            "CON": 0
        },
        "stat_cap_modifiers": {
            "STR": 0,
            "HP": 0,
            "SKL": 0,
            "MAG": 0,
            "LCK": 0,
            "CON": 0,
            "MOV": 0,
            "SPD": 0,
            "RES": 0,
            "DEF": 0
        },
        "starting_items": [
            [
                "Bronze_Flail",
                false
            ],
            [
                "Coated_Arrows",
                false
            ]
        ],
        "learned_skills": [
            [
                1,
                "Guard_Breaker"
            ],
            [
                1,
                "Shove"
            ]
        ],
        "unit_notes": [],
        "wexp_gain": {
            "Axe": [
                false,
                7,
                null
            ],
            "Bow": [
                false,
                7,
                null
            ]
        },
        "alternate_classes": [],
        "portrait_nid": "Jiulette",
        "affinity": "Water",
        "fields": []
    }
]