[
    {
        "nid": "Johanna",
        "name": "Johanna",
        "desc": "Submitted by Rasta.",
        "variant": "",
        "level": 1,
        "klass": "Monk",
        "tags": [
            "Female",
            "Playable"
        ],
        "bases": {
            "HP": 19,
            "STR": 6,
            "MAG": 7,
            "SKL": 8,
            "SPD": 5,
            "LCK": 6,
            "DEF": 2,
            "RES": 5,
            "CON": 5,
            "MOV": 4
        },
        "growths": {
            "HP": 65,
            "STR": 30,
            "MAG": 45,
            "SKL": 35,
            "SPD": 45,
            "LCK": 30,
            "DEF": 15,
            "RES": 35,
            "CON": 0,
            "MOV": 0
        },
        "stat_cap_modifiers": {
            "HP": 0,
            "STR": 0,
            "MAG": 0,
            "SKL": 0,
            "SPD": 0,
            "LCK": 0,
            "DEF": 0,
            "RES": 0,
            "CON": 0,
            "MOV": 0
        },
        "starting_items": [
            [
                "Scripture",
                false
            ]
        ],
        "learned_skills": [
            [
                1,
                "Reverse_Verse"
            ],
            [
                1,
                "Voices_On_High"
            ],
            [
                1,
                "Unceasing_Urge"
            ],
            [
                1,
                "Daeva_Awe"
            ],
            [
                1,
                "Daeva_Awe_Enemy"
            ]
        ],
        "unit_notes": [],
        "wexp_gain": {
            "Sword": [
                false,
                0,
                51
            ],
            "Lance": [
                false,
                0,
                51
            ],
            "Axe": [
                false,
                0,
                51
            ],
            "Bow": [
                false,
                0,
                51
            ],
            "Knife": [
                false,
                0,
                51
            ],
            "Anima": [
                false,
                0,
                51
            ],
            "Light": [
                false,
                1,
                51
            ],
            "Dark": [
                false,
                0,
                51
            ],
            "Staff": [
                false,
                0,
                51
            ],
            "Stone": [
                false,
                0,
                51
            ],
            "Default": [
                false,
                0,
                51
            ]
        },
        "alternate_classes": [],
        "portrait_nid": "Lenh-Johanna",
        "affinity": "Dark",
        "fields": [
            [
                "Creator",
                "Rasta"
            ],
            [
                "Base_Weapons",
                "Light"
            ]
        ]
    }
]