[
    {
        "nid": "Kolbane",
        "name": "Kolbane",
        "desc": "Submitted by Luminescent Blade.",
        "variant": null,
        "level": 1,
        "klass": "Soldier",
        "tags": [
            "Playable"
        ],
        "bases": {
            "HP": 23,
            "STR": 8,
            "MAG": 2,
            "SKL": 10,
            "SPD": 8,
            "LCK": 5,
            "DEF": 7,
            "RES": 0,
            "CON": 11,
            "MOV": 4
        },
        "growths": {
            "HP": 75,
            "STR": 50,
            "MAG": 5,
            "SKL": 40,
            "SPD": 55,
            "LCK": 40,
            "DEF": 35,
            "RES": 15,
            "CON": 0,
            "MOV": 0
        },
        "stat_cap_modifiers": {
            "HP": 0,
            "STR": 0,
            "MAG": 0,
            "SKL": 0,
            "SPD": 0,
            "LCK": 0,
            "DEF": 0,
            "RES": 0,
            "CON": 0,
            "MOV": 0
        },
        "starting_items": [
            [
                "Iron_Lance",
                false
            ],
            [
                "Iron_Sword",
                false
            ]
        ],
        "learned_skills": [
            [
                1,
                "Dream_Of_Five"
            ],
            [
                1,
                "Dream_Of_Seven"
            ],
            [
                1,
                "Flag_Of_Aukema"
            ]
        ],
        "unit_notes": [],
        "wexp_gain": {
            "Lance": [
                false,
                7,
                null
            ],
            "Sword": [
                false,
                1,
                null
            ],
            "Axe": [
                false,
                1,
                null
            ],
            "Default": [
                false,
                0,
                0
            ],
            "Bow": [
                false,
                0,
                0
            ],
            "Anima": [
                false,
                0,
                0
            ],
            "Dark": [
                false,
                0,
                0
            ],
            "Knife": [
                false,
                0,
                0
            ],
            "Stone": [
                false,
                0,
                0
            ],
            "Staff": [
                false,
                0,
                0
            ],
            "Light": [
                false,
                0,
                0
            ]
        },
        "alternate_classes": [],
        "portrait_nid": "kolbane",
        "affinity": "Wind",
        "fields": [
            [
                "Base_Weapons",
                "Lance"
            ],
            [
                "Upgrade_Weapons",
                "Sword, Axe"
            ],
            [
                "Creator",
                "Luminescent Blade"
            ]
        ]
    }
]