[
    {
        "nid": "Lewenhaupt",
        "name": "Lewenhaupt",
        "desc": "Submitted by Spookrat.\nAn enigmatic medic with strange morals and humor.\nYou don't quite trust there's a person under the mask.",
        "variant": "",
        "level": 1,
        "klass": "Shaman_Staff",
        "tags": [
            "Monster",
            "Playable"
        ],
        "bases": {
            "HP": 17,
            "MAG": 2,
            "STR": 4,
            "DEF": 4,
            "SPD": 6,
            "CON": 9,
            "RES": 9,
            "LCK": 8,
            "SKL": 8,
            "MOV": 4
        },
        "growths": {
            "LCK": 45,
            "RES": 55,
            "SPD": 20,
            "HP": 60,
            "STR": 30,
            "MAG": 20,
            "SKL": 35,
            "DEF": 20,
            "MOV": 0,
            "CON": 0
        },
        "stat_cap_modifiers": {
            "STR": 0,
            "HP": 0,
            "SKL": 0,
            "MAG": 0,
            "LCK": 0,
            "CON": 0,
            "MOV": 0,
            "SPD": 0,
            "RES": 0,
            "DEF": 0
        },
        "starting_items": [
            [
                "Iron_Staff",
                false
            ],
            [
                "Potion_Belt",
                false
            ]
        ],
        "learned_skills": [
            [
                1,
                "Party_Bag"
            ],
            [
                1,
                "Hypocritical_Oath"
            ]
        ],
        "unit_notes": [],
        "wexp_gain": {
            "Staff": [
                false,
                1,
                null
            ],
            "Stone": [
                false,
                1,
                null
            ]
        },
        "alternate_classes": [],
        "portrait_nid": "Lewenhaupt",
        "affinity": "None",
        "fields": [
            [
                "Creator",
                "Spookrat"
            ],
            [
                "Base_Weapons",
                "Staff"
            ],
            [
                "Upgrade_Weapons",
                "Stone"
            ],
            [
                "Promoted_Weapon",
                "Stone"
            ]
        ]
    }
]