[
    {
        "nid": "Lupus_Final",
        "name": "Lupus",
        "desc": "The mightiest of Canes's hounds.",
        "variant": "",
        "level": 27,
        "klass": "Gwyllgi",
        "tags": [
            "Boss"
        ],
        "bases": {
            "HP": 35,
            "STR": 17,
            "MAG": 9,
            "SKL": 23,
            "SPD": 25,
            "LCK": 13,
            "DEF": 10,
            "RES": 12,
            "CON": 12,
            "MOV": 6
        },
        "growths": {
            "HP": 75,
            "STR": 35,
            "MAG": 20,
            "SKL": 55,
            "SPD": 50,
            "LCK": 20,
            "DEF": 15,
            "RES": 20,
            "CON": 0,
            "MOV": 0
        },
        "stat_cap_modifiers": {
            "STR": 0,
            "HP": 0,
            "SKL": 0,
            "MAG": 0,
            "LCK": 0,
            "CON": 0,
            "MOV": 0,
            "SPD": 0,
            "RES": 0,
            "DEF": 0
        },
        "starting_items": [
            [
                "Ripping_Fang_Plus",
                false
            ]
        ],
        "learned_skills": [
            [
                1,
                "Bleed_Smoke"
            ],
            [
                1,
                "Legend"
            ],
            [
                1,
                "HP_Double"
            ]
        ],
        "unit_notes": [],
        "wexp_gain": {
            "Sword": [
                false,
                0,
                251
            ],
            "Lance": [
                false,
                0,
                251
            ],
            "Axe": [
                false,
                0,
                251
            ],
            "Bow": [
                false,
                0,
                251
            ],
            "Knife": [
                false,
                0,
                251
            ],
            "Anima": [
                false,
                0,
                251
            ],
            "Light": [
                false,
                0,
                251
            ],
            "Dark": [
                false,
                0,
                251
            ],
            "Staff": [
                false,
                0,
                251
            ],
            "Dragonstone": [
                false,
                0,
                251
            ],
            "Default": [
                false,
                0,
                251
            ],
            "Stone": [
                false,
                0,
                251
            ]
        },
        "alternate_classes": [],
        "portrait_nid": "Lupus",
        "affinity": "Fire",
        "fields": []
    }
]