[
    {
        "nid": "Melgaard",
        "name": "Melgaard",
        "desc": "A general in the Lux Coalition.\nHis loyalty to the cause is unwavering.",
        "variant": "",
        "level": 17,
        "klass": "General",
        "tags": [
            "Boss"
        ],
        "bases": {
            "HP": 55,
            "STR": 19,
            "MAG": 4,
            "SKL": 15,
            "SPD": 10,
            "LCK": 9,
            "DEF": 20,
            "RES": 13,
            "CON": 15,
            "MOV": 5
        },
        "growths": {
            "HP": 80,
            "STR": 55,
            "MAG": 15,
            "SKL": 35,
            "SPD": 15,
            "LCK": 20,
            "DEF": 40,
            "RES": 30,
            "MOV": 0,
            "CON": 0
        },
        "stat_cap_modifiers": {
            "STR": 0,
            "HP": 0,
            "SKL": 0,
            "MAG": 0,
            "LCK": 0,
            "CON": 0,
            "MOV": 0,
            "SPD": 0,
            "RES": 0,
            "DEF": 0
        },
        "starting_items": [
            [
                "Wary_Maul",
                false
            ],
            [
                "Short_Axe",
                false
            ],
            [
                "Saunion",
                false
            ]
        ],
        "learned_skills": [
            [
                1,
                "Legend"
            ],
            [
                1,
                "Perfect_Counter"
            ]
        ],
        "unit_notes": [],
        "wexp_gain": {
            "Axe": [
                false,
                37,
                null
            ],
            "Lance": [
                false,
                37,
                null
            ]
        },
        "alternate_classes": [],
        "portrait_nid": "Melgaard",
        "affinity": "None",
        "fields": []
    }
]