[
    {
        "nid": "Penelope",
        "name": "Penelope",
        "desc": "Submitted by SigmaRaven.",
        "variant": "Female",
        "level": 1,
        "klass": "Civilian",
        "tags": [
            "Female",
            "Playable"
        ],
        "bases": {
            "HP": 13,
            "STR": 1,
            "MAG": 6,
            "SKL": 10,
            "SPD": 7,
            "LCK": 7,
            "DEF": 1,
            "RES": 5,
            "CON": 6,
            "MOV": 4
        },
        "growths": {
            "HP": 50,
            "STR": 65,
            "MAG": 35,
            "SKL": 60,
            "SPD": 40,
            "LCK": 30,
            "DEF": 5,
            "RES": 15,
            "CON": 0,
            "MOV": 0
        },
        "stat_cap_modifiers": {
            "STR": 0,
            "HP": 0,
            "SKL": 0,
            "MAG": 0,
            "LCK": 0,
            "CON": 0,
            "MOV": 0,
            "SPD": 0,
            "RES": 0,
            "DEF": 0
        },
        "starting_items": [
            [
                "Heal",
                false
            ]
        ],
        "learned_skills": [
            [
                1,
                "Summon_Drone"
            ],
            [
                1,
                "Rally_Spectators"
            ]
        ],
        "unit_notes": [],
        "wexp_gain": {
            "Sword": [
                false,
                0,
                251
            ],
            "Lance": [
                false,
                0,
                251
            ],
            "Axe": [
                false,
                1,
                251
            ],
            "Bow": [
                false,
                0,
                251
            ],
            "Knife": [
                false,
                0,
                251
            ],
            "Anima": [
                false,
                1,
                251
            ],
            "Light": [
                false,
                1,
                251
            ],
            "Dark": [
                false,
                0,
                251
            ],
            "Staff": [
                false,
                1,
                251
            ],
            "Dragonstone": [
                false,
                0,
                251
            ],
            "Default": [
                false,
                0,
                251
            ],
            "Stone": [
                false,
                0,
                251
            ]
        },
        "alternate_classes": [],
        "portrait_nid": "Penelope",
        "affinity": "Wind",
        "fields": [
            [
                "Creator",
                "SigmaRaven"
            ],
            [
                "Base_Weapons",
                "Staff"
            ],
            [
                "Upgrade_Weapons",
                "Axe,Anima,Light"
            ]
        ]
    }
]