[
    {
        "nid": "Rhavie",
        "name": "Rhavie",
        "desc": "Submitted by Soreo.\nA soft-spoken and reserved wolfskin that puts a stern front against the Fog.",
        "variant": "",
        "level": 1,
        "klass": "Beastkin_Generic",
        "tags": [
            "Playable"
        ],
        "bases": {
            "HP": 16,
            "STR": 6,
            "MAG": 6,
            "SKL": 7,
            "SPD": 8,
            "LCK": 3,
            "DEF": 1,
            "RES": 2,
            "CON": 7,
            "MOV": 5
        },
        "growths": {
            "SPD": 50,
            "SKL": 40,
            "STR": 35,
            "MAG": 35,
            "LCK": 30,
            "HP": 65,
            "DEF": 10,
            "RES": 15,
            "MOV": 0,
            "CON": 0
        },
        "stat_cap_modifiers": {
            "STR": 0,
            "HP": 0,
            "SKL": 0,
            "MAG": 0,
            "LCK": 0,
            "CON": 0,
            "MOV": 0,
            "SPD": 0,
            "RES": 0,
            "DEF": 0
        },
        "starting_items": [
            [
                "Iron_Knife",
                false
            ],
            [
                "Hidden_Knife",
                false
            ]
        ],
        "learned_skills": [
            [
                1,
                "Steal"
            ],
            [
                1,
                "Frostbite"
            ],
            [
                1,
                "Treacherous_Savagery"
            ],
            [
                1,
                "Information_Neutralization"
            ],
            [
                1,
                "Information_Neutralization_Helper"
            ],
            [
                1,
                "Information_Neutralization_Helper_2"
            ],
            [
                1,
                "HiddenKnife"
            ]
        ],
        "unit_notes": [],
        "wexp_gain": {
            "Knife": [
                false,
                1,
                null
            ],
            "Stone": [
                false,
                1,
                null
            ]
        },
        "alternate_classes": [],
        "portrait_nid": "Rhavie",
        "affinity": "Ice",
        "fields": [
            [
                "Creator",
                "Soreo"
            ],
            [
                "Base_Weapons",
                "Knife"
            ],
            [
                "Upgrade_Weapons",
                "Stone"
            ]
        ]
    }
]