[
    {
        "nid": "Rikaharuz",
        "name": "Rikaharuz",
        "desc": "Submitted by WiiSportsRemote.\nAn arrogant, small-minded Cat-Elf who lords over\npeople who he deems weaker than him.",
        "variant": "",
        "level": 1,
        "klass": "Lordling",
        "tags": [
            "Beast",
            "Playable"
        ],
        "bases": {
            "STR": 5,
            "MAG": 5,
            "SPD": 10,
            "RES": 3,
            "LCK": 5,
            "DEF": 3,
            "SKL": 4,
            "HP": 16,
            "CON": 5,
            "MOV": 5
        },
        "growths": {
            "STR": 25,
            "MAG": 25,
            "SPD": 50,
            "RES": 20,
            "LCK": 25,
            "DEF": 35,
            "SKL": 40,
            "HP": 60,
            "MOV": 0,
            "CON": 0
        },
        "stat_cap_modifiers": {
            "STR": 0,
            "HP": 0,
            "SKL": 0,
            "MAG": 0,
            "LCK": 0,
            "CON": 0,
            "MOV": 0,
            "SPD": 0,
            "RES": 0,
            "DEF": 0
        },
        "starting_items": [
            [
                "Craotung",
                false
            ],
            [
                "Rikaharuz_Claw",
                false
            ]
        ],
        "learned_skills": [
            [
                1,
                "Provoke_CS"
            ],
            [
                1,
                "Master_of_Some"
            ],
            [
                1,
                "Jack_of_all_Trades"
            ],
            [
                1,
                "Razing_Claws"
            ]
        ],
        "unit_notes": [],
        "wexp_gain": {
            "Axe": [
                false,
                1,
                null
            ],
            "Dark": [
                false,
                1,
                null
            ]
        },
        "alternate_classes": [],
        "portrait_nid": "Rikaharuz",
        "affinity": "Dark",
        "fields": [
            [
                "Creator",
                "WiiSportsRemote"
            ],
            [
                "Base_Weapons",
                "Axe"
            ],
            [
                "Upgrade_Weapons",
                "Dark"
            ]
        ]
    }
]