[
    {
        "nid": "Ryuugan",
        "name": "Ryuugan",
        "desc": "Submitted by Rasta.",
        "variant": "",
        "level": 1,
        "klass": "Myrmidon",
        "tags": [
            "Playable"
        ],
        "bases": {
            "HP": 17,
            "STR": 5,
            "MAG": 3,
            "SKL": 8,
            "SPD": 7,
            "LCK": 4,
            "DEF": 4,
            "RES": 1,
            "CON": 8,
            "MOV": 4
        },
        "growths": {
            "HP": 65,
            "STR": 35,
            "MAG": 20,
            "SKL": 60,
            "SPD": 65,
            "LCK": 40,
            "DEF": 15,
            "RES": 20,
            "CON": 0,
            "MOV": 0
        },
        "stat_cap_modifiers": {
            "STR": 0,
            "HP": 0,
            "SKL": 0,
            "MAG": 0,
            "LCK": 0,
            "CON": 0,
            "MOV": 0,
            "SPD": 0,
            "RES": 0,
            "DEF": 0
        },
        "starting_items": [
            [
                "Epee",
                false
            ]
        ],
        "learned_skills": [
            [
                1,
                "Speed_Demon"
            ],
            [
                1,
                "Swift_Learner"
            ],
            [
                1,
                "Flashing_Strike"
            ]
        ],
        "unit_notes": [],
        "wexp_gain": {
            "Sword": [
                false,
                7,
                251
            ],
            "Lance": [
                false,
                0,
                251
            ],
            "Axe": [
                false,
                0,
                251
            ],
            "Bow": [
                false,
                0,
                251
            ],
            "Knife": [
                false,
                0,
                251
            ],
            "Anima": [
                false,
                0,
                251
            ],
            "Light": [
                false,
                0,
                251
            ],
            "Dark": [
                false,
                0,
                251
            ],
            "Staff": [
                false,
                0,
                251
            ],
            "Stone": [
                false,
                0,
                251
            ],
            "Default": [
                false,
                0,
                251
            ]
        },
        "alternate_classes": [],
        "portrait_nid": "20",
        "affinity": "Water",
        "fields": [
            [
                "Creator",
                "Rasta"
            ],
            [
                "Base_Weapons",
                "Sword"
            ]
        ]
    }
]