[
    {
        "nid": "Schwache",
        "name": "Schw\u00e4che",
        "desc": "Submitted by Zappypants.",
        "variant": "",
        "level": 1,
        "klass": "Beastkin",
        "tags": [
            "Playable"
        ],
        "bases": {
            "SPD": 9,
            "RES": 7,
            "HP": 15,
            "DEF": 2,
            "STR": 6,
            "MAG": 4,
            "SKL": 7,
            "LCK": 5,
            "CON": 8,
            "MOV": 5
        },
        "growths": {
            "HP": 55,
            "STR": 40,
            "MAG": 25,
            "SKL": 40,
            "SPD": 45,
            "RES": 35,
            "DEF": 15,
            "LCK": 30,
            "MOV": 0,
            "CON": 0
        },
        "stat_cap_modifiers": {
            "STR": 0,
            "HP": 0,
            "SKL": 0,
            "MAG": 0,
            "LCK": 0,
            "CON": 0,
            "MOV": 0,
            "SPD": 0,
            "RES": 0,
            "DEF": 0
        },
        "starting_items": [
            [
                "Resentment",
                false
            ]
        ],
        "learned_skills": [
            [
                1,
                "Pestilent_Wind"
            ],
            [
                1,
                "Steal_Vitality"
            ],
            [
                1,
                "Imminent_Illness"
            ],
            [
                1,
                "Imminent_Illness_Helper"
            ]
        ],
        "unit_notes": [],
        "wexp_gain": {
            "Stone": [
                false,
                1,
                null
            ],
            "Lance": [
                false,
                1,
                null
            ]
        },
        "alternate_classes": [],
        "portrait_nid": "Schwache",
        "affinity": "Wind",
        "fields": [
            [
                "Promoted_Weapon",
                "Lance"
            ],
            [
                "Creator",
                "Zappypants"
            ],
            [
                "Base_Weapons",
                "Stone"
            ],
            [
                "Upgrade_Weapons",
                "Lance"
            ]
        ]
    }
]