[
    {
        "nid": "Sette",
        "name": "Sette",
        "desc": "Submitted by Dragz.",
        "variant": "",
        "level": 1,
        "klass": "Cleric",
        "tags": [
            "Playable"
        ],
        "bases": {
            "SKL": 10,
            "MAG": 10,
            "HP": 21,
            "STR": 3,
            "SPD": 5,
            "LCK": 7,
            "DEF": 4,
            "RES": 5,
            "CON": 7,
            "MOV": 4
        },
        "growths": {
            "HP": 70,
            "STR": 14,
            "MAG": 49,
            "SKL": 49,
            "SPD": 42,
            "LCK": 49,
            "DEF": 14,
            "RES": 21,
            "MOV": 0,
            "CON": 0
        },
        "stat_cap_modifiers": {
            "HP": 0,
            "STR": -2,
            "MAG": -2,
            "SKL": -2,
            "SPD": -2,
            "LCK": -2,
            "DEF": -2,
            "RES": -2,
            "MOV": 0,
            "CON": 0
        },
        "starting_items": [
            [
                "Assault",
                false
            ],
            [
                "Aloft",
                false
            ],
            [
                "Aum",
                false
            ]
        ],
        "learned_skills": [
            [
                1,
                "Fortunate_Seven"
            ],
            [
                1,
                "Fated_Heart"
            ],
            [
                1,
                "Lucky_Cap"
            ]
        ],
        "unit_notes": [],
        "wexp_gain": {
            "Light": [
                false,
                1,
                51
            ],
            "Staff": [
                false,
                1,
                51
            ],
            "Knife": [
                false,
                1,
                51
            ]
        },
        "alternate_classes": [],
        "portrait_nid": "Sette",
        "affinity": "Wind",
        "fields": [
            [
                "Promoted_Weapon",
                "Knife"
            ],
            [
                "Creator",
                "Dragz"
            ],
            [
                "Base_Weapons",
                "Staff"
            ],
            [
                "Upgrade_Weapons",
                "Light,Knife"
            ]
        ]
    }
]