[
    {
        "nid": "Solomon",
        "name": "Solomon",
        "desc": "Submitted by HeroicVileplume.",
        "variant": "Female",
        "level": 1,
        "klass": "Cleric",
        "tags": [
            "Female",
            "Playable"
        ],
        "bases": {
            "HP": 17,
            "DEF": 4,
            "RES": 10,
            "LCK": 9,
            "STR": 1,
            "MAG": 2,
            "SKL": 3,
            "SPD": 3,
            "CON": 8,
            "MOV": 5
        },
        "growths": {
            "RES": 50,
            "HP": 75,
            "LCK": 45,
            "SKL": 45,
            "STR": 5,
            "MAG": 15,
            "SPD": 20,
            "DEF": 15,
            "MOV": 0,
            "CON": 0
        },
        "stat_cap_modifiers": {
            "STR": 0,
            "HP": 0,
            "SKL": 0,
            "MAG": 0,
            "LCK": 0,
            "CON": 0,
            "MOV": 0,
            "SPD": 0,
            "RES": 0,
            "DEF": 0
        },
        "starting_items": [
            [
                "Judge_of_Originators",
                false
            ]
        ],
        "learned_skills": [
            [
                1,
                "March_of_the_Strange"
            ],
            [
                1,
                "The_Anointed_One"
            ]
        ],
        "unit_notes": [],
        "wexp_gain": {
            "Staff": [
                false,
                1,
                null
            ],
            "Light": [
                false,
                1,
                null
            ]
        },
        "alternate_classes": [],
        "portrait_nid": "Solomon",
        "affinity": "Light",
        "fields": [
            [
                "Creator",
                "HeroicVileplume"
            ],
            [
                "Base_Weapons",
                "Staff"
            ],
            [
                "Upgrade_Weapons",
                "Light"
            ]
        ]
    }
]