[
    {
        "nid": "Sotirios",
        "name": "Sotirios",
        "desc": "Known as the Animus Sage.\nHis knowledge towers above his peers.",
        "variant": "",
        "level": 1,
        "klass": "Mage",
        "tags": [
            "Playable"
        ],
        "bases": {
            "HP": 19,
            "STR": 3,
            "MAG": 8,
            "SKL": 8,
            "SPD": 3,
            "LCK": 5,
            "DEF": 5,
            "RES": 7,
            "CON": 10,
            "MOV": 4
        },
        "growths": {
            "HP": 65,
            "STR": 15,
            "MAG": 45,
            "SKL": 45,
            "SPD": 30,
            "LCK": 40,
            "DEF": 30,
            "RES": 30,
            "CON": 0,
            "MOV": 0
        },
        "stat_cap_modifiers": {
            "STR": 0,
            "HP": 0,
            "SKL": 0,
            "MAG": 0,
            "LCK": 0,
            "CON": 0,
            "MOV": 0,
            "SPD": 0,
            "RES": 0,
            "DEF": 0
        },
        "starting_items": [
            [
                "Fire",
                false
            ],
            [
                "Frost_Veil",
                false
            ],
            [
                "Thoron",
                false
            ]
        ],
        "learned_skills": [
            [
                1,
                "Elemental_Attunement"
            ],
            [
                1,
                "Animus_Graft"
            ],
            [
                1,
                "Animus_Strike"
            ],
            [
                1,
                "Burn_Strike"
            ],
            [
                1,
                "Ice_Strike"
            ],
            [
                1,
                "Thunder_Strike"
            ],
            [
                1,
                "Burn_Graft"
            ],
            [
                1,
                "Chill_Graft"
            ],
            [
                1,
                "Dazzle_Graft"
            ]
        ],
        "unit_notes": [],
        "wexp_gain": {
            "Sword": [
                false,
                0,
                251
            ],
            "Lance": [
                false,
                0,
                251
            ],
            "Axe": [
                false,
                0,
                251
            ],
            "Bow": [
                false,
                0,
                251
            ],
            "Knife": [
                false,
                0,
                251
            ],
            "Anima": [
                false,
                1,
                251
            ],
            "Light": [
                false,
                0,
                251
            ],
            "Dark": [
                false,
                0,
                251
            ],
            "Staff": [
                false,
                1,
                251
            ],
            "Dragonstone": [
                false,
                0,
                251
            ],
            "Default": [
                false,
                0,
                251
            ],
            "Stone": [
                false,
                0,
                251
            ]
        },
        "alternate_classes": [],
        "portrait_nid": "Sotirios",
        "affinity": "Anima",
        "fields": [
            [
                "Creator",
                "Lord_Tweed"
            ],
            [
                "Base_Weapons",
                "Anima"
            ],
            [
                "Upgrade_Weapons",
                "Staff"
            ]
        ]
    }
]