[
    {
        "nid": "Sotirios_E",
        "name": "Sotirios",
        "desc": "Known as the Animus Sage.\nHis knowledge towers above his peers.",
        "variant": "",
        "level": 1,
        "klass": "Sage",
        "tags": [
            "Boss"
        ],
        "bases": {
            "HP": 23,
            "STR": 3,
            "MAG": 9,
            "SKL": 10,
            "SPD": 5,
            "LCK": 6,
            "DEF": 6,
            "RES": 8,
            "CON": 10,
            "MOV": 5
        },
        "growths": {
            "HP": 65,
            "STR": 15,
            "MAG": 45,
            "SKL": 45,
            "SPD": 30,
            "LCK": 40,
            "DEF": 30,
            "RES": 30,
            "CON": 0,
            "MOV": 0
        },
        "stat_cap_modifiers": {
            "STR": 0,
            "HP": 0,
            "SKL": 0,
            "MAG": 0,
            "LCK": 0,
            "CON": 0,
            "MOV": 0,
            "SPD": 0,
            "RES": 0,
            "DEF": 0
        },
        "starting_items": [
            [
                "Seers_Eye",
                false
            ]
        ],
        "learned_skills": [
            [
                1,
                "Animus_Strike"
            ],
            [
                1,
                "Burn_Strike"
            ],
            [
                1,
                "Ice_Strike"
            ],
            [
                1,
                "Thunder_Strike"
            ],
            [
                1,
                "Distant_Counter"
            ],
            [
                1,
                "Legend"
            ]
        ],
        "unit_notes": [],
        "wexp_gain": {
            "Sword": [
                false,
                0,
                251
            ],
            "Lance": [
                false,
                0,
                251
            ],
            "Axe": [
                false,
                0,
                251
            ],
            "Bow": [
                false,
                0,
                251
            ],
            "Knife": [
                false,
                0,
                251
            ],
            "Anima": [
                false,
                37,
                251
            ],
            "Light": [
                false,
                0,
                251
            ],
            "Dark": [
                false,
                0,
                251
            ],
            "Staff": [
                false,
                37,
                251
            ],
            "Dragonstone": [
                false,
                0,
                251
            ],
            "Default": [
                false,
                0,
                251
            ],
            "Stone": [
                false,
                0,
                251
            ]
        },
        "alternate_classes": [],
        "portrait_nid": "Sotirios",
        "affinity": "Anima",
        "fields": []
    }
]