[
    {
        "nid": "Vance",
        "name": "Vance",
        "desc": "Submitted by Sigmaraven.",
        "variant": "",
        "level": 1,
        "klass": "Mage",
        "tags": [
            "Playable"
        ],
        "bases": {
            "HP": 17,
            "STR": 4,
            "MAG": 7,
            "SKL": 6,
            "SPD": 4,
            "LCK": 5,
            "DEF": 2,
            "RES": 7,
            "CON": 5,
            "MOV": 4
        },
        "growths": {
            "HP": 45,
            "STR": 0,
            "MAG": 45,
            "SKL": 45,
            "SPD": 25,
            "LCK": 10,
            "DEF": 0,
            "RES": 45,
            "CON": 0,
            "MOV": 0
        },
        "stat_cap_modifiers": {
            "STR": 0,
            "HP": 0,
            "SKL": 0,
            "MAG": 0,
            "LCK": 0,
            "CON": 0,
            "MOV": 0,
            "SPD": 0,
            "RES": 0,
            "DEF": 0
        },
        "starting_items": [
            [
                "Fire",
                false
            ]
        ],
        "learned_skills": [
            [
                1,
                "PreparedCasting"
            ]
        ],
        "unit_notes": [],
        "wexp_gain": {
            "Sword": [
                false,
                0,
                251
            ],
            "Lance": [
                false,
                0,
                251
            ],
            "Axe": [
                false,
                0,
                251
            ],
            "Bow": [
                false,
                0,
                251
            ],
            "Knife": [
                false,
                0,
                251
            ],
            "Anima": [
                false,
                1,
                251
            ],
            "Light": [
                false,
                0,
                251
            ],
            "Dark": [
                false,
                0,
                251
            ],
            "Staff": [
                false,
                0,
                251
            ],
            "Stone": [
                false,
                0,
                251
            ],
            "Default": [
                false,
                0,
                251
            ]
        },
        "alternate_classes": [],
        "portrait_nid": "vance",
        "affinity": "Ice",
        "fields": [
            [
                "Creator",
                "Sigmaraven"
            ],
            [
                "Base_Weapons",
                "Anima"
            ]
        ]
    }
]