[
    {
        "nid": "Vandread",
        "name": "Vandread",
        "desc": "Submitted by Lichmaestro.",
        "variant": "",
        "level": 1,
        "klass": "Shaman",
        "tags": [
            "Playable"
        ],
        "bases": {
            "HP": 15,
            "STR": 0,
            "MAG": 9,
            "SKL": 8,
            "SPD": 5,
            "LCK": 0,
            "DEF": 4,
            "RES": 7,
            "CON": 10,
            "MOV": 4
        },
        "growths": {
            "HP": 55,
            "STR": 5,
            "MAG": 60,
            "SKL": 40,
            "SPD": 40,
            "LCK": 5,
            "DEF": 25,
            "RES": 25,
            "CON": 0,
            "MOV": 0
        },
        "stat_cap_modifiers": {
            "STR": 0,
            "HP": 0,
            "SKL": 0,
            "MAG": 0,
            "LCK": 0,
            "CON": 0,
            "MOV": 0,
            "SPD": 0,
            "RES": 0,
            "DEF": 0
        },
        "starting_items": [
            [
                "Liber_Mortuorum",
                false
            ]
        ],
        "learned_skills": [
            [
                1,
                "Trust_No_One"
            ],
            [
                1,
                "Arcane_Tyrant"
            ],
            [
                1,
                "Consume_Life"
            ]
        ],
        "unit_notes": [],
        "wexp_gain": {
            "Sword": [
                false,
                0,
                251
            ],
            "Lance": [
                false,
                0,
                251
            ],
            "Axe": [
                false,
                0,
                251
            ],
            "Bow": [
                false,
                0,
                251
            ],
            "Knife": [
                false,
                0,
                251
            ],
            "Anima": [
                false,
                0,
                251
            ],
            "Light": [
                false,
                0,
                251
            ],
            "Dark": [
                false,
                7,
                251
            ],
            "Staff": [
                false,
                0,
                251
            ],
            "Dragonstone": [
                false,
                0,
                251
            ],
            "Default": [
                false,
                0,
                251
            ],
            "Stone": [
                false,
                0,
                251
            ]
        },
        "alternate_classes": [],
        "portrait_nid": "Lord_Vandread - Lichmaestro",
        "affinity": "Dark",
        "fields": [
            [
                "Creator",
                "Lichmaestro"
            ],
            [
                "Base_Weapons",
                "Dark"
            ]
        ]
    }
]