[
    {
        "nid": "96",
        "size": [
            15,
            13
        ],
        "autotile_fps": 29,
        "layers": [
            {
                "nid": "base",
                "visible": true,
                "foreground": false,
                "terrain_grid": {
                    "11,3": "Fence",
                    "12,3": "Fence",
                    "13,3": "Fence",
                    "14,3": "Fence",
                    "14,4": "Fence",
                    "14,5": "Fence",
                    "11,0": "Fence",
                    "14,9": "Fence",
                    "13,9": "Fence",
                    "12,9": "Fence",
                    "12,10": "Fence",
                    "11,10": "Fence",
                    "11,9": "Fence",
                    "11,8": "Fence",
                    "11,7": "Fence",
                    "11,6": "Fence",
                    "10,6": "Fence",
                    "10,7": "Fence",
                    "9,7": "Fence",
                    "9,6": "Fence",
                    "6,6": "Fence",
                    "5,6": "Fence",
                    "4,6": "Fence",
                    "4,7": "Fence",
                    "4,8": "Fence",
                    "5,7": "Fence",
                    "5,8": "Fence",
                    "5,9": "Fence",
                    "6,7": "Fence",
                    "5,12": "Fence",
                    "4,5": "Fence",
                    "4,4": "Fence",
                    "3,4": "Fence",
                    "3,5": "Fence",
                    "0,4": "Fence",
                    "0,5": "Fence",
                    "0,8": "Fence",
                    "3,8": "Fence",
                    "0,3": "2",
                    "4,0": "2",
                    "5,0": "2",
                    "5,1": "2",
                    "9,0": "2",
                    "12,0": "2",
                    "13,4": "2",
                    "14,6": "2",
                    "12,8": "2",
                    "9,5": "2",
                    "5,5": "2",
                    "9,8": "2",
                    "10,8": "2",
                    "10,9": "2",
                    "12,12": "2",
                    "7,12": "2",
                    "4,12": "2",
                    "5,10": "5",
                    "5,11": "5",
                    "7,7": "5",
                    "8,7": "5",
                    "11,1": "5",
                    "11,2": "5",
                    "1,5": "5",
                    "2,5": "5",
                    "2,8": "11",
                    "1,8": "11",
                    "1,9": "11",
                    "1,10": "11",
                    "1,11": "11",
                    "0,11": "11",
                    "0,12": "11",
                    "0,10": "11",
                    "0,9": "11",
                    "1,12": "11",
                    "2,12": "21",
                    "0,6": "6",
                    "0,7": "6",
                    "1,7": "6",
                    "2,7": "6",
                    "3,7": "6",
                    "3,6": "6",
                    "2,6": "6",
                    "1,6": "6",
                    "1,1": "9",
                    "2,1": "9",
                    "3,1": "9",
                    "3,0": "9",
                    "2,0": "9",
                    "1,0": "9",
                    "6,0": "9",
                    "6,1": "9",
                    "6,2": "9",
                    "7,2": "30",
                    "7,1": "9",
                    "8,1": "9",
                    "8,0": "9",
                    "7,0": "9",
                    "8,2": "9",
                    "13,10": "9",
                    "13,11": "9",
                    "13,12": "9",
                    "14,12": "9",
                    "14,11": "9",
                    "14,10": "9",
                    "12,1": "1",
                    "13,1": "1",
                    "14,1": "1",
                    "13,0": "1",
                    "14,0": "1",
                    "12,2": "1",
                    "13,2": "1",
                    "14,2": "1",
                    "12,4": "1",
                    "12,7": "1",
                    "4,3": "1",
                    "14,7": "1",
                    "5,4": "1",
                    "9,2": "1",
                    "8,3": "1",
                    "0,2": "1",
                    "10,0": "1",
                    "8,6": "1",
                    "2,2": "1",
                    "10,3": "1",
                    "11,5": "1",
                    "1,3": "1",
                    "13,5": "1",
                    "13,8": "1",
                    "7,4": "1",
                    "6,5": "1",
                    "4,2": "1",
                    "12,6": "1",
                    "3,3": "1",
                    "5,3": "1",
                    "9,1": "1",
                    "8,5": "1",
                    "10,2": "1",
                    "11,4": "1",
                    "0,1": "1",
                    "9,4": "1",
                    "2,4": "1",
                    "1,2": "1",
                    "10,5": "1",
                    "13,7": "1",
                    "6,4": "1",
                    "7,3": "1",
                    "7,6": "1",
                    "12,5": "1",
                    "3,2": "1",
                    "4,1": "1",
                    "5,2": "1",
                    "14,8": "1",
                    "8,4": "1",
                    "9,3": "1",
                    "0,0": "1",
                    "10,4": "1",
                    "10,1": "1",
                    "1,4": "1",
                    "2,3": "1",
                    "13,6": "1",
                    "7,5": "1",
                    "6,3": "1",
                    "6,12": "1",
                    "8,9": "1",
                    "8,12": "1",
                    "9,11": "1",
                    "10,12": "1",
                    "11,11": "1",
                    "6,11": "1",
                    "7,10": "1",
                    "6,8": "1",
                    "8,11": "1",
                    "9,10": "1",
                    "8,8": "1",
                    "10,11": "1",
                    "7,9": "1",
                    "6,10": "1",
                    "12,11": "1",
                    "9,9": "1",
                    "9,12": "1",
                    "8,10": "1",
                    "11,12": "1",
                    "10,10": "1",
                    "7,11": "1",
                    "6,9": "1",
                    "7,8": "1",
                    "4,10": "1",
                    "4,9": "1",
                    "2,10": "1",
                    "3,10": "1",
                    "2,9": "1",
                    "3,9": "1",
                    "3,12": "1",
                    "4,11": "1",
                    "2,11": "1",
                    "3,11": "1"
                },
                "sprite_grid": {
                    "12,4": [
                        "Townstair",
                        [
                            12,
                            4
                        ]
                    ],
                    "4,0": [
                        "Townstair",
                        [
                            4,
                            0
                        ]
                    ],
                    "4,9": [
                        "Townstair",
                        [
                            4,
                            9
                        ]
                    ],
                    "5,1": [
                        "Townstair",
                        [
                            5,
                            1
                        ]
                    ],
                    "8,0": [
                        "Townstair",
                        [
                            8,
                            0
                        ]
                    ],
                    "5,10": [
                        "Townstair",
                        [
                            5,
                            10
                        ]
                    ],
                    "8,9": [
                        "Townstair",
                        [
                            8,
                            9
                        ]
                    ],
                    "10,6": [
                        "Townstair",
                        [
                            10,
                            6
                        ]
                    ],
                    "9,8": [
                        "Townstair",
                        [
                            9,
                            8
                        ]
                    ],
                    "0,5": [
                        "Townstair",
                        [
                            0,
                            5
                        ]
                    ],
                    "2,2": [
                        "Townstair",
                        [
                            2,
                            2
                        ]
                    ],
                    "11,5": [
                        "Townstair",
                        [
                            11,
                            5
                        ]
                    ],
                    "2,11": [
                        "Townstair",
                        [
                            2,
                            11
                        ]
                    ],
                    "13,8": [
                        "Townstair",
                        [
                            13,
                            8
                        ]
                    ],
                    "6,2": [
                        "Townstair",
                        [
                            6,
                            2
                        ]
                    ],
                    "7,1": [
                        "Townstair",
                        [
                            7,
                            1
                        ]
                    ],
                    "6,11": [
                        "Townstair",
                        [
                            6,
                            11
                        ]
                    ],
                    "7,10": [
                        "Townstair",
                        [
                            7,
                            10
                        ]
                    ],
                    "4,2": [
                        "Townstair",
                        [
                            4,
                            2
                        ]
                    ],
                    "3,6": [
                        "Townstair",
                        [
                            3,
                            6
                        ]
                    ],
                    "5,3": [
                        "Townstair",
                        [
                            5,
                            3
                        ]
                    ],
                    "8,2": [
                        "Townstair",
                        [
                            8,
                            2
                        ]
                    ],
                    "9,1": [
                        "Townstair",
                        [
                            9,
                            1
                        ]
                    ],
                    "5,12": [
                        "Townstair",
                        [
                            5,
                            12
                        ]
                    ],
                    "8,11": [
                        "Townstair",
                        [
                            8,
                            11
                        ]
                    ],
                    "9,10": [
                        "Townstair",
                        [
                            9,
                            10
                        ]
                    ],
                    "0,7": [
                        "Townstair",
                        [
                            0,
                            7
                        ]
                    ],
                    "2,4": [
                        "Townstair",
                        [
                            2,
                            4
                        ]
                    ],
                    "11,7": [
                        "Townstair",
                        [
                            11,
                            7
                        ]
                    ],
                    "13,1": [
                        "Townstair",
                        [
                            13,
                            1
                        ]
                    ],
                    "1,8": [
                        "Townstair",
                        [
                            1,
                            8
                        ]
                    ],
                    "13,10": [
                        "Townstair",
                        [
                            13,
                            10
                        ]
                    ],
                    "6,4": [
                        "Townstair",
                        [
                            6,
                            4
                        ]
                    ],
                    "7,3": [
                        "Townstair",
                        [
                            7,
                            3
                        ]
                    ],
                    "7,12": [
                        "Townstair",
                        [
                            7,
                            12
                        ]
                    ],
                    "3,8": [
                        "Townstair",
                        [
                            3,
                            8
                        ]
                    ],
                    "5,5": [
                        "Townstair",
                        [
                            5,
                            5
                        ]
                    ],
                    "8,4": [
                        "Townstair",
                        [
                            8,
                            4
                        ]
                    ],
                    "14,8": [
                        "Townstair",
                        [
                            14,
                            8
                        ]
                    ],
                    "9,3": [
                        "Townstair",
                        [
                            9,
                            3
                        ]
                    ],
                    "0,0": [
                        "Townstair",
                        [
                            0,
                            0
                        ]
                    ],
                    "11,0": [
                        "Townstair",
                        [
                            11,
                            0
                        ]
                    ],
                    "9,12": [
                        "Townstair",
                        [
                            9,
                            12
                        ]
                    ],
                    "0,9": [
                        "Townstair",
                        [
                            0,
                            9
                        ]
                    ],
                    "11,9": [
                        "Townstair",
                        [
                            11,
                            9
                        ]
                    ],
                    "13,3": [
                        "Townstair",
                        [
                            13,
                            3
                        ]
                    ],
                    "1,10": [
                        "Townstair",
                        [
                            1,
                            10
                        ]
                    ],
                    "13,12": [
                        "Townstair",
                        [
                            13,
                            12
                        ]
                    ],
                    "6,6": [
                        "Townstair",
                        [
                            6,
                            6
                        ]
                    ],
                    "7,5": [
                        "Townstair",
                        [
                            7,
                            5
                        ]
                    ],
                    "3,1": [
                        "Townstair",
                        [
                            3,
                            1
                        ]
                    ],
                    "14,1": [
                        "Townstair",
                        [
                            14,
                            1
                        ]
                    ],
                    "3,10": [
                        "Townstair",
                        [
                            3,
                            10
                        ]
                    ],
                    "5,7": [
                        "Townstair",
                        [
                            5,
                            7
                        ]
                    ],
                    "14,10": [
                        "Townstair",
                        [
                            14,
                            10
                        ]
                    ],
                    "9,5": [
                        "Townstair",
                        [
                            9,
                            5
                        ]
                    ],
                    "0,2": [
                        "Townstair",
                        [
                            0,
                            2
                        ]
                    ],
                    "11,2": [
                        "Townstair",
                        [
                            11,
                            2
                        ]
                    ],
                    "1,3": [
                        "Townstair",
                        [
                            1,
                            3
                        ]
                    ],
                    "13,5": [
                        "Townstair",
                        [
                            13,
                            5
                        ]
                    ],
                    "1,12": [
                        "Townstair",
                        [
                            1,
                            12
                        ]
                    ],
                    "7,7": [
                        "Townstair",
                        [
                            7,
                            7
                        ]
                    ],
                    "12,6": [
                        "Townstair",
                        [
                            12,
                            6
                        ]
                    ],
                    "3,3": [
                        "Townstair",
                        [
                            3,
                            3
                        ]
                    ],
                    "5,0": [
                        "Townstair",
                        [
                            5,
                            0
                        ]
                    ],
                    "14,3": [
                        "Townstair",
                        [
                            14,
                            3
                        ]
                    ],
                    "3,12": [
                        "Townstair",
                        [
                            3,
                            12
                        ]
                    ],
                    "5,9": [
                        "Townstair",
                        [
                            5,
                            9
                        ]
                    ],
                    "4,11": [
                        "Townstair",
                        [
                            4,
                            11
                        ]
                    ],
                    "14,12": [
                        "Townstair",
                        [
                            14,
                            12
                        ]
                    ],
                    "9,7": [
                        "Townstair",
                        [
                            9,
                            7
                        ]
                    ],
                    "11,4": [
                        "Townstair",
                        [
                            11,
                            4
                        ]
                    ],
                    "10,8": [
                        "Townstair",
                        [
                            10,
                            8
                        ]
                    ],
                    "1,5": [
                        "Townstair",
                        [
                            1,
                            5
                        ]
                    ],
                    "13,7": [
                        "Townstair",
                        [
                            13,
                            7
                        ]
                    ],
                    "6,1": [
                        "Townstair",
                        [
                            6,
                            1
                        ]
                    ],
                    "7,0": [
                        "Townstair",
                        [
                            7,
                            0
                        ]
                    ],
                    "7,9": [
                        "Townstair",
                        [
                            7,
                            9
                        ]
                    ],
                    "12,8": [
                        "Townstair",
                        [
                            12,
                            8
                        ]
                    ],
                    "3,5": [
                        "Townstair",
                        [
                            3,
                            5
                        ]
                    ],
                    "5,2": [
                        "Townstair",
                        [
                            5,
                            2
                        ]
                    ],
                    "4,4": [
                        "Townstair",
                        [
                            4,
                            4
                        ]
                    ],
                    "14,5": [
                        "Townstair",
                        [
                            14,
                            5
                        ]
                    ],
                    "9,0": [
                        "Townstair",
                        [
                            9,
                            0
                        ]
                    ],
                    "5,11": [
                        "Townstair",
                        [
                            5,
                            11
                        ]
                    ],
                    "9,9": [
                        "Townstair",
                        [
                            9,
                            9
                        ]
                    ],
                    "10,1": [
                        "Townstair",
                        [
                            10,
                            1
                        ]
                    ],
                    "13,0": [
                        "Townstair",
                        [
                            13,
                            0
                        ]
                    ],
                    "10,10": [
                        "Townstair",
                        [
                            10,
                            10
                        ]
                    ],
                    "1,7": [
                        "Townstair",
                        [
                            1,
                            7
                        ]
                    ],
                    "13,9": [
                        "Townstair",
                        [
                            13,
                            9
                        ]
                    ],
                    "2,6": [
                        "Townstair",
                        [
                            2,
                            6
                        ]
                    ],
                    "7,2": [
                        "Riv_Town",
                        [
                            0,
                            4
                        ]
                    ],
                    "7,11": [
                        "Townstair",
                        [
                            7,
                            11
                        ]
                    ],
                    "12,1": [
                        "Townstair",
                        [
                            12,
                            1
                        ]
                    ],
                    "12,10": [
                        "Townstair",
                        [
                            12,
                            10
                        ]
                    ],
                    "3,7": [
                        "Townstair",
                        [
                            3,
                            7
                        ]
                    ],
                    "5,4": [
                        "Townstair",
                        [
                            5,
                            4
                        ]
                    ],
                    "4,6": [
                        "Townstair",
                        [
                            4,
                            6
                        ]
                    ],
                    "14,7": [
                        "Townstair",
                        [
                            14,
                            7
                        ]
                    ],
                    "9,2": [
                        "Townstair",
                        [
                            9,
                            2
                        ]
                    ],
                    "8,6": [
                        "Townstair",
                        [
                            8,
                            6
                        ]
                    ],
                    "10,3": [
                        "Townstair",
                        [
                            10,
                            3
                        ]
                    ],
                    "1,0": [
                        "Townstair",
                        [
                            1,
                            0
                        ]
                    ],
                    "13,2": [
                        "Townstair",
                        [
                            13,
                            2
                        ]
                    ],
                    "10,12": [
                        "Townstair",
                        [
                            10,
                            12
                        ]
                    ],
                    "1,9": [
                        "Townstair",
                        [
                            1,
                            9
                        ]
                    ],
                    "0,11": [
                        "Townstair",
                        [
                            0,
                            11
                        ]
                    ],
                    "2,8": [
                        "Townstair",
                        [
                            2,
                            8
                        ]
                    ],
                    "11,11": [
                        "Townstair",
                        [
                            11,
                            11
                        ]
                    ],
                    "7,4": [
                        "Townstair",
                        [
                            7,
                            4
                        ]
                    ],
                    "13,11": [
                        "Townstair",
                        [
                            13,
                            11
                        ]
                    ],
                    "6,8": [
                        "Townstair",
                        [
                            6,
                            8
                        ]
                    ],
                    "12,3": [
                        "Townstair",
                        [
                            12,
                            3
                        ]
                    ],
                    "3,0": [
                        "Townstair",
                        [
                            3,
                            0
                        ]
                    ],
                    "14,0": [
                        "Townstair",
                        [
                            14,
                            0
                        ]
                    ],
                    "12,12": [
                        "Townstair",
                        [
                            12,
                            12
                        ]
                    ],
                    "3,9": [
                        "Townstair",
                        [
                            3,
                            9
                        ]
                    ],
                    "5,6": [
                        "Townstair",
                        [
                            5,
                            6
                        ]
                    ],
                    "4,8": [
                        "Townstair",
                        [
                            4,
                            8
                        ]
                    ],
                    "14,9": [
                        "Townstair",
                        [
                            14,
                            9
                        ]
                    ],
                    "8,8": [
                        "Townstair",
                        [
                            8,
                            8
                        ]
                    ],
                    "10,5": [
                        "Townstair",
                        [
                            10,
                            5
                        ]
                    ],
                    "1,2": [
                        "Townstair",
                        [
                            1,
                            2
                        ]
                    ],
                    "0,4": [
                        "Townstair",
                        [
                            0,
                            4
                        ]
                    ],
                    "2,1": [
                        "Townstair",
                        [
                            2,
                            1
                        ]
                    ],
                    "13,4": [
                        "Townstair",
                        [
                            13,
                            4
                        ]
                    ],
                    "1,11": [
                        "Townstair",
                        [
                            1,
                            11
                        ]
                    ],
                    "2,10": [
                        "Townstair",
                        [
                            2,
                            10
                        ]
                    ],
                    "6,10": [
                        "Townstair",
                        [
                            6,
                            10
                        ]
                    ],
                    "12,5": [
                        "Townstair",
                        [
                            12,
                            5
                        ]
                    ],
                    "3,2": [
                        "Townstair",
                        [
                            3,
                            2
                        ]
                    ],
                    "14,2": [
                        "Townstair",
                        [
                            14,
                            2
                        ]
                    ],
                    "4,1": [
                        "Townstair",
                        [
                            4,
                            1
                        ]
                    ],
                    "3,11": [
                        "Townstair",
                        [
                            3,
                            11
                        ]
                    ],
                    "14,11": [
                        "Townstair",
                        [
                            14,
                            11
                        ]
                    ],
                    "4,10": [
                        "Townstair",
                        [
                            4,
                            10
                        ]
                    ],
                    "8,1": [
                        "Townstair",
                        [
                            8,
                            1
                        ]
                    ],
                    "8,10": [
                        "Townstair",
                        [
                            8,
                            10
                        ]
                    ],
                    "10,7": [
                        "Townstair",
                        [
                            10,
                            7
                        ]
                    ],
                    "1,4": [
                        "Townstair",
                        [
                            1,
                            4
                        ]
                    ],
                    "0,6": [
                        "Townstair",
                        [
                            0,
                            6
                        ]
                    ],
                    "2,3": [
                        "Townstair",
                        [
                            2,
                            3
                        ]
                    ],
                    "11,6": [
                        "Townstair",
                        [
                            11,
                            6
                        ]
                    ],
                    "2,12": [
                        "Townstair",
                        [
                            2,
                            12
                        ]
                    ],
                    "6,3": [
                        "Townstair",
                        [
                            6,
                            3
                        ]
                    ],
                    "6,12": [
                        "Townstair",
                        [
                            6,
                            12
                        ]
                    ],
                    "12,7": [
                        "Townstair",
                        [
                            12,
                            7
                        ]
                    ],
                    "3,4": [
                        "Townstair",
                        [
                            3,
                            4
                        ]
                    ],
                    "14,4": [
                        "Townstair",
                        [
                            14,
                            4
                        ]
                    ],
                    "4,3": [
                        "Townstair",
                        [
                            4,
                            3
                        ]
                    ],
                    "4,12": [
                        "Townstair",
                        [
                            4,
                            12
                        ]
                    ],
                    "8,3": [
                        "Townstair",
                        [
                            8,
                            3
                        ]
                    ],
                    "10,0": [
                        "Townstair",
                        [
                            10,
                            0
                        ]
                    ],
                    "8,12": [
                        "Townstair",
                        [
                            8,
                            12
                        ]
                    ],
                    "10,9": [
                        "Townstair",
                        [
                            10,
                            9
                        ]
                    ],
                    "1,6": [
                        "Townstair",
                        [
                            1,
                            6
                        ]
                    ],
                    "0,8": [
                        "Townstair",
                        [
                            0,
                            8
                        ]
                    ],
                    "2,5": [
                        "Townstair",
                        [
                            2,
                            5
                        ]
                    ],
                    "9,11": [
                        "Townstair",
                        [
                            9,
                            11
                        ]
                    ],
                    "11,8": [
                        "Townstair",
                        [
                            11,
                            8
                        ]
                    ],
                    "6,5": [
                        "Townstair",
                        [
                            6,
                            5
                        ]
                    ],
                    "12,0": [
                        "Townstair",
                        [
                            12,
                            0
                        ]
                    ],
                    "12,9": [
                        "Townstair",
                        [
                            12,
                            9
                        ]
                    ],
                    "14,6": [
                        "Townstair",
                        [
                            14,
                            6
                        ]
                    ],
                    "4,5": [
                        "Townstair",
                        [
                            4,
                            5
                        ]
                    ],
                    "8,5": [
                        "Townstair",
                        [
                            8,
                            5
                        ]
                    ],
                    "10,2": [
                        "Townstair",
                        [
                            10,
                            2
                        ]
                    ],
                    "9,4": [
                        "Townstair",
                        [
                            9,
                            4
                        ]
                    ],
                    "0,1": [
                        "Townstair",
                        [
                            0,
                            1
                        ]
                    ],
                    "11,1": [
                        "Townstair",
                        [
                            11,
                            1
                        ]
                    ],
                    "10,11": [
                        "Townstair",
                        [
                            10,
                            11
                        ]
                    ],
                    "0,10": [
                        "Townstair",
                        [
                            0,
                            10
                        ]
                    ],
                    "2,7": [
                        "Townstair",
                        [
                            2,
                            7
                        ]
                    ],
                    "11,10": [
                        "Townstair",
                        [
                            11,
                            10
                        ]
                    ],
                    "6,7": [
                        "Townstair",
                        [
                            6,
                            7
                        ]
                    ],
                    "7,6": [
                        "Townstair",
                        [
                            7,
                            6
                        ]
                    ],
                    "12,2": [
                        "Townstair",
                        [
                            12,
                            2
                        ]
                    ],
                    "12,11": [
                        "Townstair",
                        [
                            12,
                            11
                        ]
                    ],
                    "4,7": [
                        "Townstair",
                        [
                            4,
                            7
                        ]
                    ],
                    "5,8": [
                        "Townstair",
                        [
                            5,
                            8
                        ]
                    ],
                    "8,7": [
                        "Townstair",
                        [
                            8,
                            7
                        ]
                    ],
                    "10,4": [
                        "Townstair",
                        [
                            10,
                            4
                        ]
                    ],
                    "1,1": [
                        "Townstair",
                        [
                            1,
                            1
                        ]
                    ],
                    "0,3": [
                        "Townstair",
                        [
                            0,
                            3
                        ]
                    ],
                    "2,0": [
                        "Townstair",
                        [
                            2,
                            0
                        ]
                    ],
                    "9,6": [
                        "Townstair",
                        [
                            9,
                            6
                        ]
                    ],
                    "11,3": [
                        "Townstair",
                        [
                            11,
                            3
                        ]
                    ],
                    "0,12": [
                        "Townstair",
                        [
                            0,
                            12
                        ]
                    ],
                    "2,9": [
                        "Townstair",
                        [
                            2,
                            9
                        ]
                    ],
                    "11,12": [
                        "Townstair",
                        [
                            11,
                            12
                        ]
                    ],
                    "13,6": [
                        "Townstair",
                        [
                            13,
                            6
                        ]
                    ],
                    "6,0": [
                        "Townstair",
                        [
                            6,
                            0
                        ]
                    ],
                    "6,9": [
                        "Townstair",
                        [
                            6,
                            9
                        ]
                    ],
                    "7,8": [
                        "Townstair",
                        [
                            7,
                            8
                        ]
                    ]
                }
            }
        ],
        "tilesets": [
            "Townstair",
            "Riv_Town"
        ]
    }
]