[
    {
        "nid": "97",
        "size": [
            17,
            13
        ],
        "autotile_fps": 29,
        "layers": [
            {
                "nid": "base",
                "visible": true,
                "foreground": false,
                "terrain_grid": {
                    "7,2": "0",
                    "7,1": "0",
                    "7,0": "0",
                    "8,0": "0",
                    "8,1": "0",
                    "9,1": "0",
                    "9,2": "0",
                    "9,0": "0",
                    "8,2": "0",
                    "13,0": "0",
                    "13,1": "0",
                    "14,1": "0",
                    "15,1": "0",
                    "15,0": "0",
                    "16,0": "0",
                    "14,0": "0",
                    "16,1": "0",
                    "16,2": "0",
                    "16,3": "0",
                    "15,3": "0",
                    "15,2": "0",
                    "14,7": "0",
                    "15,7": "0",
                    "16,7": "0",
                    "16,8": "0",
                    "16,9": "0",
                    "15,9": "0",
                    "14,9": "0",
                    "14,8": "0",
                    "15,8": "0",
                    "11,11": "0",
                    "11,12": "0",
                    "10,12": "0",
                    "9,12": "0",
                    "9,11": "0",
                    "10,11": "0",
                    "8,11": "0",
                    "8,12": "0",
                    "3,10": "0",
                    "3,9": "0",
                    "3,8": "0",
                    "3,7": "0",
                    "2,7": "0",
                    "1,7": "0",
                    "0,7": "0",
                    "0,8": "0",
                    "0,9": "0",
                    "0,10": "0",
                    "0,11": "0",
                    "0,12": "0",
                    "1,12": "0",
                    "2,12": "0",
                    "2,11": "0",
                    "2,10": "0",
                    "2,9": "0",
                    "2,8": "0",
                    "1,8": "0",
                    "1,9": "0",
                    "1,10": "0",
                    "1,11": "0",
                    "1,4": "0",
                    "1,3": "0",
                    "0,3": "0",
                    "0,2": "0",
                    "0,1": "0",
                    "0,0": "0",
                    "1,0": "0",
                    "1,1": "0",
                    "1,2": "0",
                    "2,2": "0",
                    "2,1": "0",
                    "2,0": "0",
                    "3,0": "0",
                    "4,0": "0",
                    "4,1": "0",
                    "4,2": "0",
                    "3,1": "0",
                    "7,7": "Fence",
                    "7,6": "Fence",
                    "8,6": "Fence",
                    "9,6": "Fence",
                    "9,7": "Fence",
                    "3,2": "0",
                    "0,4": "0",
                    "2,3": "2",
                    "9,3": "2",
                    "12,0": "2",
                    "13,3": "2",
                    "14,3": "2",
                    "14,2": "2",
                    "16,6": "2",
                    "12,8": "2",
                    "14,10": "2",
                    "7,12": "2",
                    "5,10": "2",
                    "3,11": "2",
                    "6,7": "10",
                    "7,8": "10",
                    "8,8": "10",
                    "9,8": "10",
                    "10,7": "10",
                    "8,7": "10",
                    "2,4": "1",
                    "3,4": "1",
                    "3,3": "1",
                    "4,3": "1",
                    "8,4": "1",
                    "9,4": "1",
                    "10,2": "1",
                    "10,3": "1",
                    "13,2": "1",
                    "13,4": "1",
                    "13,7": "1",
                    "13,8": "1",
                    "13,9": "1",
                    "12,12": "1",
                    "16,12": "1",
                    "4,9": "1",
                    "4,10": "1",
                    "4,11": "1",
                    "3,12": "1",
                    "12,4": "7",
                    "5,1": "7",
                    "8,9": "7",
                    "10,6": "7",
                    "11,5": "7",
                    "0,5": "7",
                    "15,5": "7",
                    "6,2": "7",
                    "6,11": "7",
                    "7,10": "7",
                    "3,6": "7",
                    "5,3": "7",
                    "5,12": "7",
                    "9,10": "7",
                    "11,7": "7",
                    "13,10": "7",
                    "6,4": "7",
                    "7,3": "7",
                    "5,5": "7",
                    "11,0": "7",
                    "11,9": "7",
                    "13,12": "7",
                    "6,6": "7",
                    "7,5": "7",
                    "5,7": "7",
                    "9,5": "7",
                    "11,2": "7",
                    "13,5": "7",
                    "15,11": "7",
                    "16,10": "7",
                    "12,6": "7",
                    "5,0": "7",
                    "14,12": "7",
                    "5,9": "7",
                    "11,4": "7",
                    "10,8": "7",
                    "1,5": "7",
                    "15,4": "7",
                    "6,1": "7",
                    "7,9": "7",
                    "14,5": "7",
                    "5,2": "7",
                    "4,4": "7",
                    "3,5": "7",
                    "5,11": "7",
                    "9,9": "7",
                    "10,1": "7",
                    "10,10": "7",
                    "15,6": "7",
                    "2,6": "7",
                    "16,5": "7",
                    "7,11": "7",
                    "12,1": "7",
                    "12,10": "7",
                    "5,4": "7",
                    "4,6": "7",
                    "13,11": "7",
                    "7,4": "7",
                    "6,8": "7",
                    "12,3": "7",
                    "5,6": "7",
                    "4,8": "7",
                    "10,5": "7",
                    "6,10": "7",
                    "12,5": "7",
                    "14,11": "7",
                    "8,10": "7",
                    "11,6": "7",
                    "0,6": "7",
                    "6,3": "7",
                    "6,12": "7",
                    "12,7": "7",
                    "14,4": "7",
                    "4,12": "7",
                    "8,3": "7",
                    "10,0": "7",
                    "10,9": "7",
                    "1,6": "7",
                    "11,8": "7",
                    "2,5": "7",
                    "16,4": "7",
                    "6,5": "7",
                    "12,9": "7",
                    "14,6": "7",
                    "4,5": "7",
                    "8,5": "7",
                    "11,1": "7",
                    "11,10": "7",
                    "15,10": "7",
                    "12,2": "7",
                    "12,11": "7",
                    "4,7": "7",
                    "5,8": "7",
                    "10,4": "7",
                    "11,3": "7",
                    "13,6": "7",
                    "6,0": "7",
                    "15,12": "7",
                    "6,9": "7",
                    "16,11": "7"
                },
                "sprite_grid": {
                    "12,4": [
                        "Riv_Town",
                        [
                            12,
                            4
                        ]
                    ],
                    "4,0": [
                        "Riv_Town",
                        [
                            4,
                            0
                        ]
                    ],
                    "4,9": [
                        "Riv_Town",
                        [
                            4,
                            9
                        ]
                    ],
                    "5,1": [
                        "Riv_Town",
                        [
                            5,
                            1
                        ]
                    ],
                    "8,0": [
                        "Riv_Town",
                        [
                            8,
                            0
                        ]
                    ],
                    "5,10": [
                        "Riv_Town",
                        [
                            5,
                            10
                        ]
                    ],
                    "8,9": [
                        "Riv_Town",
                        [
                            8,
                            9
                        ]
                    ],
                    "10,6": [
                        "Riv_Town",
                        [
                            10,
                            6
                        ]
                    ],
                    "9,8": [
                        "Riv_Town",
                        [
                            9,
                            8
                        ]
                    ],
                    "0,5": [
                        "Riv_Town",
                        [
                            0,
                            5
                        ]
                    ],
                    "2,2": [
                        "Riv_Town",
                        [
                            2,
                            2
                        ]
                    ],
                    "11,5": [
                        "Riv_Town",
                        [
                            11,
                            5
                        ]
                    ],
                    "2,11": [
                        "Riv_Town",
                        [
                            2,
                            11
                        ]
                    ],
                    "13,8": [
                        "Riv_Town",
                        [
                            13,
                            8
                        ]
                    ],
                    "15,5": [
                        "Riv_Town",
                        [
                            15,
                            5
                        ]
                    ],
                    "6,2": [
                        "Riv_Town",
                        [
                            6,
                            2
                        ]
                    ],
                    "7,1": [
                        "Riv_Town",
                        [
                            7,
                            1
                        ]
                    ],
                    "6,11": [
                        "Riv_Town",
                        [
                            6,
                            11
                        ]
                    ],
                    "7,10": [
                        "Riv_Town",
                        [
                            7,
                            10
                        ]
                    ],
                    "4,2": [
                        "Riv_Town",
                        [
                            4,
                            2
                        ]
                    ],
                    "3,6": [
                        "Riv_Town",
                        [
                            3,
                            6
                        ]
                    ],
                    "5,3": [
                        "Riv_Town",
                        [
                            5,
                            3
                        ]
                    ],
                    "8,2": [
                        "Riv_Town",
                        [
                            8,
                            2
                        ]
                    ],
                    "9,1": [
                        "Riv_Town",
                        [
                            9,
                            1
                        ]
                    ],
                    "5,12": [
                        "Riv_Town",
                        [
                            5,
                            12
                        ]
                    ],
                    "8,11": [
                        "Riv_Town",
                        [
                            8,
                            11
                        ]
                    ],
                    "9,10": [
                        "Riv_Town",
                        [
                            9,
                            10
                        ]
                    ],
                    "0,7": [
                        "Riv_Town",
                        [
                            0,
                            7
                        ]
                    ],
                    "2,4": [
                        "Riv_Town",
                        [
                            2,
                            4
                        ]
                    ],
                    "11,7": [
                        "Riv_Town",
                        [
                            11,
                            7
                        ]
                    ],
                    "13,1": [
                        "Riv_Town",
                        [
                            13,
                            1
                        ]
                    ],
                    "1,8": [
                        "Riv_Town",
                        [
                            1,
                            8
                        ]
                    ],
                    "13,10": [
                        "Riv_Town",
                        [
                            13,
                            10
                        ]
                    ],
                    "6,4": [
                        "Riv_Town",
                        [
                            6,
                            4
                        ]
                    ],
                    "15,7": [
                        "Riv_Town",
                        [
                            15,
                            7
                        ]
                    ],
                    "7,3": [
                        "Riv_Town",
                        [
                            7,
                            3
                        ]
                    ],
                    "16,6": [
                        "Riv_Town",
                        [
                            16,
                            6
                        ]
                    ],
                    "7,12": [
                        "Riv_Town",
                        [
                            7,
                            12
                        ]
                    ],
                    "3,8": [
                        "Riv_Town",
                        [
                            3,
                            8
                        ]
                    ],
                    "5,5": [
                        "Riv_Town",
                        [
                            5,
                            5
                        ]
                    ],
                    "8,4": [
                        "Riv_Town",
                        [
                            8,
                            4
                        ]
                    ],
                    "14,8": [
                        "Riv_Town",
                        [
                            14,
                            8
                        ]
                    ],
                    "9,3": [
                        "Riv_Town",
                        [
                            9,
                            3
                        ]
                    ],
                    "0,0": [
                        "Riv_Town",
                        [
                            0,
                            0
                        ]
                    ],
                    "11,0": [
                        "Riv_Town",
                        [
                            11,
                            0
                        ]
                    ],
                    "9,12": [
                        "Riv_Town",
                        [
                            9,
                            12
                        ]
                    ],
                    "0,9": [
                        "Riv_Town",
                        [
                            0,
                            9
                        ]
                    ],
                    "11,9": [
                        "Riv_Town",
                        [
                            11,
                            9
                        ]
                    ],
                    "13,3": [
                        "Riv_Town",
                        [
                            13,
                            3
                        ]
                    ],
                    "15,0": [
                        "Riv_Town",
                        [
                            15,
                            0
                        ]
                    ],
                    "1,10": [
                        "Riv_Town",
                        [
                            1,
                            10
                        ]
                    ],
                    "13,12": [
                        "Riv_Town",
                        [
                            13,
                            12
                        ]
                    ],
                    "6,6": [
                        "Riv_Town",
                        [
                            6,
                            6
                        ]
                    ],
                    "15,9": [
                        "Riv_Town",
                        [
                            15,
                            9
                        ]
                    ],
                    "7,5": [
                        "Riv_Town",
                        [
                            7,
                            5
                        ]
                    ],
                    "16,8": [
                        "Riv_Town",
                        [
                            16,
                            8
                        ]
                    ],
                    "3,1": [
                        "Riv_Town",
                        [
                            3,
                            1
                        ]
                    ],
                    "14,1": [
                        "Riv_Town",
                        [
                            14,
                            1
                        ]
                    ],
                    "3,10": [
                        "Riv_Town",
                        [
                            3,
                            10
                        ]
                    ],
                    "5,7": [
                        "Riv_Town",
                        [
                            5,
                            7
                        ]
                    ],
                    "14,10": [
                        "Riv_Town",
                        [
                            14,
                            10
                        ]
                    ],
                    "9,5": [
                        "Riv_Town",
                        [
                            9,
                            5
                        ]
                    ],
                    "0,2": [
                        "Riv_Town",
                        [
                            0,
                            2
                        ]
                    ],
                    "11,2": [
                        "Riv_Town",
                        [
                            11,
                            2
                        ]
                    ],
                    "1,3": [
                        "Riv_Town",
                        [
                            1,
                            3
                        ]
                    ],
                    "13,5": [
                        "Riv_Town",
                        [
                            13,
                            5
                        ]
                    ],
                    "15,2": [
                        "Riv_Town",
                        [
                            15,
                            2
                        ]
                    ],
                    "16,1": [
                        "Riv_Town",
                        [
                            16,
                            1
                        ]
                    ],
                    "1,12": [
                        "Riv_Town",
                        [
                            1,
                            12
                        ]
                    ],
                    "15,11": [
                        "Riv_Town",
                        [
                            15,
                            11
                        ]
                    ],
                    "16,10": [
                        "Riv_Town",
                        [
                            16,
                            10
                        ]
                    ],
                    "7,7": [
                        "Riv_Town",
                        [
                            7,
                            7
                        ]
                    ],
                    "12,6": [
                        "Riv_Town",
                        [
                            12,
                            6
                        ]
                    ],
                    "3,3": [
                        "Riv_Town",
                        [
                            3,
                            3
                        ]
                    ],
                    "5,0": [
                        "Riv_Town",
                        [
                            5,
                            0
                        ]
                    ],
                    "14,3": [
                        "Riv_Town",
                        [
                            14,
                            3
                        ]
                    ],
                    "3,12": [
                        "Riv_Town",
                        [
                            3,
                            12
                        ]
                    ],
                    "5,9": [
                        "Riv_Town",
                        [
                            5,
                            9
                        ]
                    ],
                    "4,11": [
                        "Riv_Town",
                        [
                            4,
                            11
                        ]
                    ],
                    "14,12": [
                        "Riv_Town",
                        [
                            14,
                            12
                        ]
                    ],
                    "9,7": [
                        "Riv_Town",
                        [
                            9,
                            7
                        ]
                    ],
                    "11,4": [
                        "Riv_Town",
                        [
                            11,
                            4
                        ]
                    ],
                    "10,8": [
                        "Riv_Town",
                        [
                            10,
                            8
                        ]
                    ],
                    "1,5": [
                        "Riv_Town",
                        [
                            1,
                            5
                        ]
                    ],
                    "13,7": [
                        "Riv_Town",
                        [
                            13,
                            7
                        ]
                    ],
                    "6,1": [
                        "Riv_Town",
                        [
                            6,
                            1
                        ]
                    ],
                    "15,4": [
                        "Riv_Town",
                        [
                            15,
                            4
                        ]
                    ],
                    "7,0": [
                        "Riv_Town",
                        [
                            7,
                            0
                        ]
                    ],
                    "16,3": [
                        "Riv_Town",
                        [
                            16,
                            3
                        ]
                    ],
                    "16,12": [
                        "Riv_Town",
                        [
                            16,
                            12
                        ]
                    ],
                    "7,9": [
                        "Riv_Town",
                        [
                            7,
                            9
                        ]
                    ],
                    "12,8": [
                        "Riv_Town",
                        [
                            12,
                            8
                        ]
                    ],
                    "3,5": [
                        "Riv_Town",
                        [
                            3,
                            5
                        ]
                    ],
                    "5,2": [
                        "Riv_Town",
                        [
                            5,
                            2
                        ]
                    ],
                    "4,4": [
                        "Riv_Town",
                        [
                            4,
                            4
                        ]
                    ],
                    "14,5": [
                        "Riv_Town",
                        [
                            14,
                            5
                        ]
                    ],
                    "9,0": [
                        "Riv_Town",
                        [
                            9,
                            0
                        ]
                    ],
                    "5,11": [
                        "Riv_Town",
                        [
                            5,
                            11
                        ]
                    ],
                    "9,9": [
                        "Riv_Town",
                        [
                            9,
                            9
                        ]
                    ],
                    "10,1": [
                        "Riv_Town",
                        [
                            10,
                            1
                        ]
                    ],
                    "13,0": [
                        "Riv_Town",
                        [
                            13,
                            0
                        ]
                    ],
                    "10,10": [
                        "Riv_Town",
                        [
                            10,
                            10
                        ]
                    ],
                    "1,7": [
                        "Riv_Town",
                        [
                            1,
                            7
                        ]
                    ],
                    "13,9": [
                        "Riv_Town",
                        [
                            13,
                            9
                        ]
                    ],
                    "2,6": [
                        "Riv_Town",
                        [
                            2,
                            6
                        ]
                    ],
                    "15,6": [
                        "Riv_Town",
                        [
                            15,
                            6
                        ]
                    ],
                    "7,2": [
                        "Riv_Town",
                        [
                            7,
                            2
                        ]
                    ],
                    "16,5": [
                        "Riv_Town",
                        [
                            16,
                            5
                        ]
                    ],
                    "7,11": [
                        "Riv_Town",
                        [
                            7,
                            11
                        ]
                    ],
                    "12,1": [
                        "Riv_Town",
                        [
                            12,
                            1
                        ]
                    ],
                    "12,10": [
                        "Riv_Town",
                        [
                            12,
                            10
                        ]
                    ],
                    "3,7": [
                        "Riv_Town",
                        [
                            3,
                            7
                        ]
                    ],
                    "5,4": [
                        "Riv_Town",
                        [
                            5,
                            4
                        ]
                    ],
                    "4,6": [
                        "Riv_Town",
                        [
                            4,
                            6
                        ]
                    ],
                    "14,7": [
                        "Riv_Town",
                        [
                            14,
                            7
                        ]
                    ],
                    "9,2": [
                        "Riv_Town",
                        [
                            9,
                            2
                        ]
                    ],
                    "8,6": [
                        "Riv_Town",
                        [
                            8,
                            6
                        ]
                    ],
                    "10,3": [
                        "Riv_Town",
                        [
                            10,
                            3
                        ]
                    ],
                    "1,0": [
                        "Riv_Town",
                        [
                            1,
                            0
                        ]
                    ],
                    "13,2": [
                        "Riv_Town",
                        [
                            13,
                            2
                        ]
                    ],
                    "10,12": [
                        "Riv_Town",
                        [
                            10,
                            12
                        ]
                    ],
                    "1,9": [
                        "Riv_Town",
                        [
                            1,
                            9
                        ]
                    ],
                    "0,11": [
                        "Riv_Town",
                        [
                            0,
                            11
                        ]
                    ],
                    "2,8": [
                        "Riv_Town",
                        [
                            2,
                            8
                        ]
                    ],
                    "11,11": [
                        "Riv_Town",
                        [
                            11,
                            11
                        ]
                    ],
                    "7,4": [
                        "Riv_Town",
                        [
                            7,
                            4
                        ]
                    ],
                    "13,11": [
                        "Riv_Town",
                        [
                            13,
                            11
                        ]
                    ],
                    "16,7": [
                        "Riv_Town",
                        [
                            16,
                            7
                        ]
                    ],
                    "6,8": [
                        "Riv_Town",
                        [
                            6,
                            8
                        ]
                    ],
                    "12,3": [
                        "Riv_Town",
                        [
                            12,
                            3
                        ]
                    ],
                    "3,0": [
                        "Riv_Town",
                        [
                            3,
                            0
                        ]
                    ],
                    "14,0": [
                        "Riv_Town",
                        [
                            14,
                            0
                        ]
                    ],
                    "12,12": [
                        "Riv_Town",
                        [
                            12,
                            12
                        ]
                    ],
                    "3,9": [
                        "Riv_Town",
                        [
                            3,
                            9
                        ]
                    ],
                    "5,6": [
                        "Riv_Town",
                        [
                            5,
                            6
                        ]
                    ],
                    "4,8": [
                        "Riv_Town",
                        [
                            4,
                            8
                        ]
                    ],
                    "14,9": [
                        "Riv_Town",
                        [
                            14,
                            9
                        ]
                    ],
                    "8,8": [
                        "Riv_Town",
                        [
                            8,
                            8
                        ]
                    ],
                    "10,5": [
                        "Riv_Town",
                        [
                            10,
                            5
                        ]
                    ],
                    "1,2": [
                        "Riv_Town",
                        [
                            1,
                            2
                        ]
                    ],
                    "0,4": [
                        "Riv_Town",
                        [
                            16,
                            9
                        ]
                    ],
                    "2,1": [
                        "Riv_Town",
                        [
                            2,
                            1
                        ]
                    ],
                    "13,4": [
                        "Riv_Town",
                        [
                            13,
                            4
                        ]
                    ],
                    "16,0": [
                        "Riv_Town",
                        [
                            16,
                            0
                        ]
                    ],
                    "1,11": [
                        "Riv_Town",
                        [
                            1,
                            11
                        ]
                    ],
                    "2,10": [
                        "Riv_Town",
                        [
                            2,
                            10
                        ]
                    ],
                    "16,9": [
                        "Riv_Town",
                        [
                            16,
                            9
                        ]
                    ],
                    "6,10": [
                        "Riv_Town",
                        [
                            6,
                            10
                        ]
                    ],
                    "12,5": [
                        "Riv_Town",
                        [
                            12,
                            5
                        ]
                    ],
                    "3,2": [
                        "Riv_Town",
                        [
                            16,
                            9
                        ]
                    ],
                    "14,2": [
                        "Riv_Town",
                        [
                            14,
                            2
                        ]
                    ],
                    "4,1": [
                        "Riv_Town",
                        [
                            4,
                            1
                        ]
                    ],
                    "3,11": [
                        "Riv_Town",
                        [
                            3,
                            11
                        ]
                    ],
                    "14,11": [
                        "Riv_Town",
                        [
                            14,
                            11
                        ]
                    ],
                    "4,10": [
                        "Riv_Town",
                        [
                            4,
                            10
                        ]
                    ],
                    "8,1": [
                        "Riv_Town",
                        [
                            8,
                            1
                        ]
                    ],
                    "8,10": [
                        "Riv_Town",
                        [
                            8,
                            10
                        ]
                    ],
                    "10,7": [
                        "Riv_Town",
                        [
                            10,
                            7
                        ]
                    ],
                    "1,4": [
                        "Riv_Town",
                        [
                            1,
                            4
                        ]
                    ],
                    "0,6": [
                        "Riv_Town",
                        [
                            0,
                            6
                        ]
                    ],
                    "2,3": [
                        "Riv_Town",
                        [
                            2,
                            3
                        ]
                    ],
                    "11,6": [
                        "Riv_Town",
                        [
                            11,
                            6
                        ]
                    ],
                    "16,2": [
                        "Riv_Town",
                        [
                            16,
                            2
                        ]
                    ],
                    "2,12": [
                        "Riv_Town",
                        [
                            2,
                            12
                        ]
                    ],
                    "6,3": [
                        "Riv_Town",
                        [
                            6,
                            3
                        ]
                    ],
                    "6,12": [
                        "Riv_Town",
                        [
                            6,
                            12
                        ]
                    ],
                    "12,7": [
                        "Riv_Town",
                        [
                            12,
                            7
                        ]
                    ],
                    "3,4": [
                        "Riv_Town",
                        [
                            3,
                            4
                        ]
                    ],
                    "14,4": [
                        "Riv_Town",
                        [
                            14,
                            4
                        ]
                    ],
                    "4,3": [
                        "Riv_Town",
                        [
                            4,
                            3
                        ]
                    ],
                    "4,12": [
                        "Riv_Town",
                        [
                            4,
                            12
                        ]
                    ],
                    "8,3": [
                        "Riv_Town",
                        [
                            8,
                            3
                        ]
                    ],
                    "10,0": [
                        "Riv_Town",
                        [
                            10,
                            0
                        ]
                    ],
                    "8,12": [
                        "Riv_Town",
                        [
                            8,
                            12
                        ]
                    ],
                    "10,9": [
                        "Riv_Town",
                        [
                            10,
                            9
                        ]
                    ],
                    "1,6": [
                        "Riv_Town",
                        [
                            1,
                            6
                        ]
                    ],
                    "0,8": [
                        "Riv_Town",
                        [
                            0,
                            8
                        ]
                    ],
                    "2,5": [
                        "Riv_Town",
                        [
                            2,
                            5
                        ]
                    ],
                    "9,11": [
                        "Riv_Town",
                        [
                            9,
                            11
                        ]
                    ],
                    "11,8": [
                        "Riv_Town",
                        [
                            11,
                            8
                        ]
                    ],
                    "16,4": [
                        "Riv_Town",
                        [
                            16,
                            4
                        ]
                    ],
                    "15,8": [
                        "Riv_Town",
                        [
                            15,
                            8
                        ]
                    ],
                    "6,5": [
                        "Riv_Town",
                        [
                            6,
                            5
                        ]
                    ],
                    "12,0": [
                        "Riv_Town",
                        [
                            12,
                            0
                        ]
                    ],
                    "12,9": [
                        "Riv_Town",
                        [
                            12,
                            9
                        ]
                    ],
                    "14,6": [
                        "Riv_Town",
                        [
                            14,
                            6
                        ]
                    ],
                    "4,5": [
                        "Riv_Town",
                        [
                            4,
                            5
                        ]
                    ],
                    "8,5": [
                        "Riv_Town",
                        [
                            8,
                            5
                        ]
                    ],
                    "10,2": [
                        "Riv_Town",
                        [
                            10,
                            2
                        ]
                    ],
                    "9,4": [
                        "Riv_Town",
                        [
                            9,
                            4
                        ]
                    ],
                    "0,1": [
                        "Riv_Town",
                        [
                            0,
                            1
                        ]
                    ],
                    "11,1": [
                        "Riv_Town",
                        [
                            11,
                            1
                        ]
                    ],
                    "10,11": [
                        "Riv_Town",
                        [
                            10,
                            11
                        ]
                    ],
                    "0,10": [
                        "Riv_Town",
                        [
                            0,
                            10
                        ]
                    ],
                    "2,7": [
                        "Riv_Town",
                        [
                            2,
                            7
                        ]
                    ],
                    "11,10": [
                        "Riv_Town",
                        [
                            11,
                            10
                        ]
                    ],
                    "15,1": [
                        "Riv_Town",
                        [
                            15,
                            1
                        ]
                    ],
                    "15,10": [
                        "Riv_Town",
                        [
                            15,
                            10
                        ]
                    ],
                    "6,7": [
                        "Riv_Town",
                        [
                            6,
                            7
                        ]
                    ],
                    "7,6": [
                        "Riv_Town",
                        [
                            7,
                            6
                        ]
                    ],
                    "12,2": [
                        "Riv_Town",
                        [
                            12,
                            2
                        ]
                    ],
                    "12,11": [
                        "Riv_Town",
                        [
                            12,
                            11
                        ]
                    ],
                    "4,7": [
                        "Riv_Town",
                        [
                            4,
                            7
                        ]
                    ],
                    "5,8": [
                        "Riv_Town",
                        [
                            5,
                            8
                        ]
                    ],
                    "8,7": [
                        "Riv_Town",
                        [
                            8,
                            7
                        ]
                    ],
                    "10,4": [
                        "Riv_Town",
                        [
                            10,
                            4
                        ]
                    ],
                    "1,1": [
                        "Riv_Town",
                        [
                            1,
                            1
                        ]
                    ],
                    "0,3": [
                        "Riv_Town",
                        [
                            0,
                            3
                        ]
                    ],
                    "2,0": [
                        "Riv_Town",
                        [
                            2,
                            0
                        ]
                    ],
                    "9,6": [
                        "Riv_Town",
                        [
                            9,
                            6
                        ]
                    ],
                    "11,3": [
                        "Riv_Town",
                        [
                            11,
                            3
                        ]
                    ],
                    "0,12": [
                        "Riv_Town",
                        [
                            0,
                            12
                        ]
                    ],
                    "2,9": [
                        "Riv_Town",
                        [
                            2,
                            9
                        ]
                    ],
                    "11,12": [
                        "Riv_Town",
                        [
                            11,
                            12
                        ]
                    ],
                    "13,6": [
                        "Riv_Town",
                        [
                            13,
                            6
                        ]
                    ],
                    "15,3": [
                        "Riv_Town",
                        [
                            15,
                            3
                        ]
                    ],
                    "6,0": [
                        "Riv_Town",
                        [
                            6,
                            0
                        ]
                    ],
                    "15,12": [
                        "Riv_Town",
                        [
                            15,
                            12
                        ]
                    ],
                    "6,9": [
                        "Riv_Town",
                        [
                            6,
                            9
                        ]
                    ],
                    "16,11": [
                        "Riv_Town",
                        [
                            16,
                            11
                        ]
                    ],
                    "7,8": [
                        "Riv_Town",
                        [
                            7,
                            8
                        ]
                    ]
                }
            }
        ],
        "tilesets": [
            "Riv_Town"
        ]
    }
]