[
    {
        "nid": "Tower_Base",
        "size": [
            15,
            18
        ],
        "autotile_fps": 29,
        "layers": [
            {
                "nid": "base",
                "visible": true,
                "foreground": false,
                "terrain_grid": {
                    "5,3": "8",
                    "9,3": "8",
                    "9,6": "8",
                    "5,6": "8",
                    "5,9": "8",
                    "9,9": "8",
                    "5,0": "9",
                    "5,1": "9",
                    "4,1": "9",
                    "3,1": "9",
                    "2,1": "9",
                    "1,1": "9",
                    "0,1": "9",
                    "0,0": "9",
                    "1,0": "9",
                    "2,0": "9",
                    "3,0": "9",
                    "4,0": "9",
                    "3,2": "9",
                    "3,4": "9",
                    "3,5": "9",
                    "0,2": "9",
                    "0,3": "9",
                    "0,4": "9",
                    "0,5": "9",
                    "0,6": "9",
                    "0,7": "9",
                    "0,8": "9",
                    "0,9": "9",
                    "0,10": "9",
                    "0,11": "9",
                    "0,12": "9",
                    "0,13": "9",
                    "0,14": "9",
                    "0,15": "9",
                    "0,16": "9",
                    "0,17": "9",
                    "1,17": "9",
                    "2,17": "9",
                    "3,17": "9",
                    "4,17": "9",
                    "5,17": "9",
                    "5,16": "9",
                    "4,16": "9",
                    "3,16": "9",
                    "2,16": "9",
                    "2,15": "9",
                    "1,15": "9",
                    "1,16": "9",
                    "1,14": "9",
                    "1,12": "9",
                    "1,11": "9",
                    "1,10": "9",
                    "1,9": "9",
                    "1,8": "9",
                    "2,8": "9",
                    "2,9": "9",
                    "3,11": "9",
                    "3,12": "9",
                    "3,8": "9",
                    "3,9": "9",
                    "4,11": "9",
                    "4,12": "9",
                    "5,12": "9",
                    "5,13": "9",
                    "5,14": "9",
                    "4,14": "9",
                    "4,13": "9",
                    "9,12": "9",
                    "9,13": "9",
                    "9,14": "9",
                    "10,14": "9",
                    "10,13": "9",
                    "10,12": "9",
                    "10,11": "9",
                    "11,11": "9",
                    "11,12": "9",
                    "11,8": "9",
                    "11,9": "9",
                    "12,8": "9",
                    "12,9": "9",
                    "13,9": "9",
                    "13,8": "9",
                    "14,8": "9",
                    "14,9": "9",
                    "14,10": "9",
                    "13,10": "9",
                    "13,11": "9",
                    "13,12": "9",
                    "14,12": "9",
                    "14,11": "9",
                    "14,13": "9",
                    "14,14": "9",
                    "14,15": "9",
                    "14,16": "9",
                    "14,17": "9",
                    "13,17": "9",
                    "12,17": "9",
                    "11,17": "9",
                    "10,17": "9",
                    "9,17": "9",
                    "9,16": "9",
                    "10,16": "9",
                    "11,16": "9",
                    "12,16": "9",
                    "13,14": "9",
                    "13,15": "9",
                    "13,16": "9",
                    "12,15": "9",
                    "14,7": "9",
                    "14,6": "9",
                    "14,5": "9",
                    "14,4": "9",
                    "14,3": "9",
                    "14,2": "9",
                    "14,1": "9",
                    "14,0": "9",
                    "13,0": "9",
                    "12,0": "9",
                    "11,0": "9",
                    "10,0": "9",
                    "9,0": "9",
                    "9,1": "9",
                    "10,1": "9",
                    "11,1": "9",
                    "12,1": "9",
                    "13,1": "9",
                    "11,2": "9",
                    "11,4": "9",
                    "11,5": "9",
                    "6,1": "5",
                    "7,1": "5",
                    "7,0": "5",
                    "6,0": "5",
                    "8,0": "5",
                    "8,1": "5",
                    "6,13": "5",
                    "6,14": "5",
                    "7,14": "5",
                    "8,14": "5",
                    "8,13": "5",
                    "7,13": "5",
                    "11,10": "5",
                    "3,10": "5",
                    "6,17": "5",
                    "7,17": "5",
                    "8,17": "5",
                    "7,3": "6",
                    "6,9": "6",
                    "7,12": "6",
                    "13,4": "6",
                    "1,6": "6",
                    "3,7": "6",
                    "2,5": "6",
                    "8,5": "6",
                    "5,8": "6",
                    "10,8": "6",
                    "6,7": "6",
                    "5,5": "6",
                    "10,7": "6",
                    "7,6": "6",
                    "6,10": "6",
                    "12,6": "6",
                    "13,7": "6",
                    "4,10": "6",
                    "2,6": "6",
                    "8,2": "6",
                    "5,11": "6",
                    "4,5": "6",
                    "7,5": "6",
                    "8,12": "6",
                    "7,8": "6",
                    "8,9": "6",
                    "9,4": "6",
                    "10,3": "6",
                    "7,2": "6",
                    "12,2": "6",
                    "13,3": "6",
                    "1,5": "6",
                    "3,6": "6",
                    "2,2": "6",
                    "8,6": "6",
                    "10,9": "6",
                    "9,7": "6",
                    "6,4": "6",
                    "5,4": "6",
                    "10,4": "6",
                    "6,11": "6",
                    "12,7": "6",
                    "13,6": "6",
                    "2,7": "6",
                    "8,3": "6",
                    "5,10": "6",
                    "4,6": "6",
                    "10,10": "6",
                    "9,2": "6",
                    "5,7": "6",
                    "11,3": "6",
                    "7,4": "6",
                    "12,4": "6",
                    "1,3": "6",
                    "4,8": "6",
                    "9,8": "6",
                    "6,2": "6",
                    "7,11": "6",
                    "8,10": "6",
                    "9,11": "6",
                    "12,3": "6",
                    "13,2": "6",
                    "1,4": "6",
                    "2,3": "6",
                    "8,7": "6",
                    "4,2": "6",
                    "6,5": "6",
                    "11,7": "6",
                    "10,5": "6",
                    "6,8": "6",
                    "13,5": "6",
                    "1,7": "6",
                    "2,4": "6",
                    "8,4": "6",
                    "4,7": "6",
                    "6,6": "6",
                    "10,6": "6",
                    "7,7": "6",
                    "12,5": "6",
                    "1,2": "6",
                    "4,9": "6",
                    "3,3": "6",
                    "4,4": "6",
                    "6,3": "6",
                    "7,10": "6",
                    "8,11": "6",
                    "9,10": "6",
                    "6,12": "6",
                    "7,9": "6",
                    "8,8": "6",
                    "4,3": "6",
                    "9,5": "6",
                    "5,2": "6",
                    "11,6": "6",
                    "10,2": "6",
                    "3,15": "6",
                    "13,13": "6",
                    "12,12": "6",
                    "10,15": "6",
                    "7,16": "6",
                    "2,12": "6",
                    "11,14": "6",
                    "3,14": "6",
                    "7,15": "6",
                    "9,15": "6",
                    "12,13": "6",
                    "2,13": "6",
                    "12,10": "6",
                    "8,16": "6",
                    "6,15": "6",
                    "8,15": "6",
                    "11,13": "6",
                    "12,14": "6",
                    "3,13": "6",
                    "1,13": "6",
                    "2,10": "6",
                    "5,15": "6",
                    "12,11": "6",
                    "2,14": "6",
                    "4,15": "6",
                    "2,11": "6",
                    "11,15": "6",
                    "6,16": "6"
                },
                "sprite_grid": {
                    "7,3": [
                        "Valni_1",
                        [
                            7,
                            3
                        ]
                    ],
                    "6,9": [
                        "Valni_1",
                        [
                            6,
                            9
                        ]
                    ],
                    "14,17": [
                        "Valni_1",
                        [
                            14,
                            17
                        ]
                    ],
                    "12,1": [
                        "Valni_1",
                        [
                            12,
                            1
                        ]
                    ],
                    "11,11": [
                        "Valni_1",
                        [
                            11,
                            11
                        ]
                    ],
                    "10,17": [
                        "Valni_1",
                        [
                            10,
                            17
                        ]
                    ],
                    "7,12": [
                        "Valni_1",
                        [
                            7,
                            12
                        ]
                    ],
                    "14,4": [
                        "Valni_1",
                        [
                            14,
                            4
                        ]
                    ],
                    "13,4": [
                        "Valni_1",
                        [
                            13,
                            4
                        ]
                    ],
                    "12,12": [
                        "Valni_1",
                        [
                            12,
                            12
                        ]
                    ],
                    "1,17": [
                        "Valni_1",
                        [
                            1,
                            17
                        ]
                    ],
                    "0,7": [
                        "Valni_1",
                        [
                            0,
                            7
                        ]
                    ],
                    "13,17": [
                        "Valni_1",
                        [
                            13,
                            17
                        ]
                    ],
                    "1,6": [
                        "Valni_1",
                        [
                            1,
                            6
                        ]
                    ],
                    "0,10": [
                        "Valni_1",
                        [
                            0,
                            10
                        ]
                    ],
                    "3,7": [
                        "Valni_1",
                        [
                            3,
                            7
                        ]
                    ],
                    "2,5": [
                        "Valni_1",
                        [
                            2,
                            5
                        ]
                    ],
                    "1,11": [
                        "Valni_1",
                        [
                            1,
                            11
                        ]
                    ],
                    "8,5": [
                        "Valni_1",
                        [
                            8,
                            5
                        ]
                    ],
                    "5,8": [
                        "Valni_1",
                        [
                            5,
                            8
                        ]
                    ],
                    "4,0": [
                        "Valni_1",
                        [
                            4,
                            0
                        ]
                    ],
                    "10,8": [
                        "Valni_1",
                        [
                            10,
                            8
                        ]
                    ],
                    "9,0": [
                        "Valni_1",
                        [
                            9,
                            0
                        ]
                    ],
                    "6,7": [
                        "Valni_1",
                        [
                            6,
                            7
                        ]
                    ],
                    "5,5": [
                        "Valni_1",
                        [
                            5,
                            5
                        ]
                    ],
                    "11,5": [
                        "Valni_1",
                        [
                            11,
                            5
                        ]
                    ],
                    "10,7": [
                        "Valni_1",
                        [
                            10,
                            7
                        ]
                    ],
                    "7,6": [
                        "Valni_1",
                        [
                            7,
                            6
                        ]
                    ],
                    "6,10": [
                        "Valni_1",
                        [
                            6,
                            10
                        ]
                    ],
                    "12,6": [
                        "Valni_1",
                        [
                            12,
                            6
                        ]
                    ],
                    "0,17": [
                        "Valni_1",
                        [
                            0,
                            17
                        ]
                    ],
                    "14,1": [
                        "Valni_1",
                        [
                            14,
                            1
                        ]
                    ],
                    "13,7": [
                        "Valni_1",
                        [
                            13,
                            7
                        ]
                    ],
                    "12,17": [
                        "Valni_1",
                        [
                            12,
                            17
                        ]
                    ],
                    "0,4": [
                        "Valni_1",
                        [
                            0,
                            4
                        ]
                    ],
                    "1,1": [
                        "Valni_1",
                        [
                            1,
                            1
                        ]
                    ],
                    "8,15": [
                        "Valni_1",
                        [
                            8,
                            15
                        ]
                    ],
                    "4,10": [
                        "Valni_1",
                        [
                            4,
                            10
                        ]
                    ],
                    "3,2": [
                        "Valni_1",
                        [
                            3,
                            2
                        ]
                    ],
                    "2,6": [
                        "Valni_1",
                        [
                            2,
                            6
                        ]
                    ],
                    "9,14": [
                        "Valni_1",
                        [
                            9,
                            14
                        ]
                    ],
                    "8,2": [
                        "Valni_1",
                        [
                            8,
                            2
                        ]
                    ],
                    "5,11": [
                        "Valni_1",
                        [
                            5,
                            11
                        ]
                    ],
                    "4,5": [
                        "Valni_1",
                        [
                            4,
                            5
                        ]
                    ],
                    "10,13": [
                        "Valni_1",
                        [
                            10,
                            13
                        ]
                    ],
                    "9,3": [
                        "Valni_1",
                        [
                            9,
                            3
                        ]
                    ],
                    "6,0": [
                        "Valni_1",
                        [
                            6,
                            0
                        ]
                    ],
                    "4,16": [
                        "Valni_1",
                        [
                            4,
                            16
                        ]
                    ],
                    "11,0": [
                        "Valni_1",
                        [
                            11,
                            0
                        ]
                    ],
                    "9,16": [
                        "Valni_1",
                        [
                            9,
                            16
                        ]
                    ],
                    "7,5": [
                        "Valni_1",
                        [
                            7,
                            5
                        ]
                    ],
                    "14,15": [
                        "Valni_1",
                        [
                            14,
                            15
                        ]
                    ],
                    "12,11": [
                        "Valni_1",
                        [
                            12,
                            11
                        ]
                    ],
                    "14,2": [
                        "Valni_1",
                        [
                            14,
                            2
                        ]
                    ],
                    "13,10": [
                        "Valni_1",
                        [
                            13,
                            10
                        ]
                    ],
                    "2,17": [
                        "Valni_1",
                        [
                            2,
                            17
                        ]
                    ],
                    "0,1": [
                        "Valni_1",
                        [
                            0,
                            1
                        ]
                    ],
                    "3,12": [
                        "Valni_1",
                        [
                            3,
                            12
                        ]
                    ],
                    "1,12": [
                        "Valni_1",
                        [
                            1,
                            12
                        ]
                    ],
                    "8,12": [
                        "Valni_1",
                        [
                            8,
                            12
                        ]
                    ],
                    "4,15": [
                        "Valni_1",
                        [
                            4,
                            15
                        ]
                    ],
                    "3,1": [
                        "Valni_1",
                        [
                            3,
                            1
                        ]
                    ],
                    "2,11": [
                        "Valni_1",
                        [
                            2,
                            11
                        ]
                    ],
                    "9,9": [
                        "Valni_1",
                        [
                            9,
                            9
                        ]
                    ],
                    "5,14": [
                        "Valni_1",
                        [
                            5,
                            14
                        ]
                    ],
                    "10,14": [
                        "Valni_1",
                        [
                            10,
                            14
                        ]
                    ],
                    "6,13": [
                        "Valni_1",
                        [
                            6,
                            13
                        ]
                    ],
                    "11,15": [
                        "Valni_1",
                        [
                            11,
                            15
                        ]
                    ],
                    "7,8": [
                        "Valni_1",
                        [
                            7,
                            8
                        ]
                    ],
                    "6,16": [
                        "Valni_1",
                        [
                            6,
                            16
                        ]
                    ],
                    "13,0": [
                        "Valni_1",
                        [
                            13,
                            0
                        ]
                    ],
                    "12,8": [
                        "Valni_1",
                        [
                            12,
                            8
                        ]
                    ],
                    "11,16": [
                        "Valni_1",
                        [
                            11,
                            16
                        ]
                    ],
                    "14,8": [
                        "Valni_1",
                        [
                            14,
                            8
                        ]
                    ],
                    "13,13": [
                        "Valni_1",
                        [
                            13,
                            13
                        ]
                    ],
                    "0,14": [
                        "Valni_1",
                        [
                            0,
                            14
                        ]
                    ],
                    "3,11": [
                        "Valni_1",
                        [
                            3,
                            11
                        ]
                    ],
                    "2,1": [
                        "Valni_1",
                        [
                            2,
                            1
                        ]
                    ],
                    "1,15": [
                        "Valni_1",
                        [
                            1,
                            15
                        ]
                    ],
                    "8,9": [
                        "Valni_1",
                        [
                            8,
                            9
                        ]
                    ],
                    "4,12": [
                        "Valni_1",
                        [
                            4,
                            12
                        ]
                    ],
                    "2,12": [
                        "Valni_1",
                        [
                            2,
                            12
                        ]
                    ],
                    "9,4": [
                        "Valni_1",
                        [
                            9,
                            4
                        ]
                    ],
                    "5,1": [
                        "Valni_1",
                        [
                            5,
                            1
                        ]
                    ],
                    "3,17": [
                        "Valni_1",
                        [
                            3,
                            17
                        ]
                    ],
                    "10,3": [
                        "Valni_1",
                        [
                            10,
                            3
                        ]
                    ],
                    "7,2": [
                        "Valni_1",
                        [
                            7,
                            2
                        ]
                    ],
                    "6,14": [
                        "Valni_1",
                        [
                            6,
                            14
                        ]
                    ],
                    "12,2": [
                        "Valni_1",
                        [
                            12,
                            2
                        ]
                    ],
                    "11,10": [
                        "Valni_1",
                        [
                            11,
                            10
                        ]
                    ],
                    "7,15": [
                        "Valni_1",
                        [
                            7,
                            15
                        ]
                    ],
                    "14,5": [
                        "Valni_1",
                        [
                            14,
                            5
                        ]
                    ],
                    "13,3": [
                        "Valni_1",
                        [
                            13,
                            3
                        ]
                    ],
                    "12,13": [
                        "Valni_1",
                        [
                            12,
                            13
                        ]
                    ],
                    "1,16": [
                        "Valni_1",
                        [
                            1,
                            16
                        ]
                    ],
                    "13,16": [
                        "Valni_1",
                        [
                            13,
                            16
                        ]
                    ],
                    "1,5": [
                        "Valni_1",
                        [
                            1,
                            5
                        ]
                    ],
                    "0,11": [
                        "Valni_1",
                        [
                            0,
                            11
                        ]
                    ],
                    "3,6": [
                        "Valni_1",
                        [
                            3,
                            6
                        ]
                    ],
                    "2,2": [
                        "Valni_1",
                        [
                            2,
                            2
                        ]
                    ],
                    "1,10": [
                        "Valni_1",
                        [
                            1,
                            10
                        ]
                    ],
                    "8,6": [
                        "Valni_1",
                        [
                            8,
                            6
                        ]
                    ],
                    "4,1": [
                        "Valni_1",
                        [
                            4,
                            1
                        ]
                    ],
                    "10,9": [
                        "Valni_1",
                        [
                            10,
                            9
                        ]
                    ],
                    "9,7": [
                        "Valni_1",
                        [
                            9,
                            7
                        ]
                    ],
                    "6,4": [
                        "Valni_1",
                        [
                            6,
                            4
                        ]
                    ],
                    "5,4": [
                        "Valni_1",
                        [
                            5,
                            4
                        ]
                    ],
                    "11,4": [
                        "Valni_1",
                        [
                            11,
                            4
                        ]
                    ],
                    "10,4": [
                        "Valni_1",
                        [
                            10,
                            4
                        ]
                    ],
                    "7,1": [
                        "Valni_1",
                        [
                            7,
                            1
                        ]
                    ],
                    "6,11": [
                        "Valni_1",
                        [
                            6,
                            11
                        ]
                    ],
                    "5,17": [
                        "Valni_1",
                        [
                            5,
                            17
                        ]
                    ],
                    "12,7": [
                        "Valni_1",
                        [
                            12,
                            7
                        ]
                    ],
                    "11,9": [
                        "Valni_1",
                        [
                            11,
                            9
                        ]
                    ],
                    "14,6": [
                        "Valni_1",
                        [
                            14,
                            6
                        ]
                    ],
                    "13,6": [
                        "Valni_1",
                        [
                            13,
                            6
                        ]
                    ],
                    "0,5": [
                        "Valni_1",
                        [
                            0,
                            5
                        ]
                    ],
                    "1,0": [
                        "Valni_1",
                        [
                            1,
                            0
                        ]
                    ],
                    "0,8": [
                        "Valni_1",
                        [
                            0,
                            8
                        ]
                    ],
                    "4,11": [
                        "Valni_1",
                        [
                            4,
                            11
                        ]
                    ],
                    "3,5": [
                        "Valni_1",
                        [
                            3,
                            5
                        ]
                    ],
                    "2,7": [
                        "Valni_1",
                        [
                            2,
                            7
                        ]
                    ],
                    "9,13": [
                        "Valni_1",
                        [
                            9,
                            13
                        ]
                    ],
                    "8,3": [
                        "Valni_1",
                        [
                            8,
                            3
                        ]
                    ],
                    "5,10": [
                        "Valni_1",
                        [
                            5,
                            10
                        ]
                    ],
                    "4,6": [
                        "Valni_1",
                        [
                            4,
                            6
                        ]
                    ],
                    "10,10": [
                        "Valni_1",
                        [
                            10,
                            10
                        ]
                    ],
                    "9,2": [
                        "Valni_1",
                        [
                            9,
                            2
                        ]
                    ],
                    "6,1": [
                        "Valni_1",
                        [
                            6,
                            1
                        ]
                    ],
                    "5,7": [
                        "Valni_1",
                        [
                            5,
                            7
                        ]
                    ],
                    "4,17": [
                        "Valni_1",
                        [
                            4,
                            17
                        ]
                    ],
                    "11,3": [
                        "Valni_1",
                        [
                            11,
                            3
                        ]
                    ],
                    "7,4": [
                        "Valni_1",
                        [
                            7,
                            4
                        ]
                    ],
                    "14,12": [
                        "Valni_1",
                        [
                            14,
                            12
                        ]
                    ],
                    "12,4": [
                        "Valni_1",
                        [
                            12,
                            4
                        ]
                    ],
                    "7,17": [
                        "Valni_1",
                        [
                            7,
                            17
                        ]
                    ],
                    "14,3": [
                        "Valni_1",
                        [
                            14,
                            3
                        ]
                    ],
                    "13,9": [
                        "Valni_1",
                        [
                            13,
                            9
                        ]
                    ],
                    "0,2": [
                        "Valni_1",
                        [
                            0,
                            2
                        ]
                    ],
                    "3,15": [
                        "Valni_1",
                        [
                            3,
                            15
                        ]
                    ],
                    "1,3": [
                        "Valni_1",
                        [
                            1,
                            3
                        ]
                    ],
                    "8,13": [
                        "Valni_1",
                        [
                            8,
                            13
                        ]
                    ],
                    "4,8": [
                        "Valni_1",
                        [
                            4,
                            8
                        ]
                    ],
                    "3,0": [
                        "Valni_1",
                        [
                            3,
                            0
                        ]
                    ],
                    "2,8": [
                        "Valni_1",
                        [
                            2,
                            8
                        ]
                    ],
                    "9,8": [
                        "Valni_1",
                        [
                            9,
                            8
                        ]
                    ],
                    "8,0": [
                        "Valni_1",
                        [
                            8,
                            0
                        ]
                    ],
                    "5,13": [
                        "Valni_1",
                        [
                            5,
                            13
                        ]
                    ],
                    "10,15": [
                        "Valni_1",
                        [
                            10,
                            15
                        ]
                    ],
                    "6,2": [
                        "Valni_1",
                        [
                            6,
                            2
                        ]
                    ],
                    "11,14": [
                        "Valni_1",
                        [
                            11,
                            14
                        ]
                    ],
                    "7,11": [
                        "Valni_1",
                        [
                            7,
                            11
                        ]
                    ],
                    "6,17": [
                        "Valni_1",
                        [
                            6,
                            17
                        ]
                    ],
                    "14,9": [
                        "Valni_1",
                        [
                            14,
                            9
                        ]
                    ],
                    "12,9": [
                        "Valni_1",
                        [
                            12,
                            9
                        ]
                    ],
                    "13,12": [
                        "Valni_1",
                        [
                            13,
                            12
                        ]
                    ],
                    "0,15": [
                        "Valni_1",
                        [
                            0,
                            15
                        ]
                    ],
                    "3,10": [
                        "Valni_1",
                        [
                            3,
                            10
                        ]
                    ],
                    "1,14": [
                        "Valni_1",
                        [
                            1,
                            14
                        ]
                    ],
                    "8,10": [
                        "Valni_1",
                        [
                            8,
                            10
                        ]
                    ],
                    "4,13": [
                        "Valni_1",
                        [
                            4,
                            13
                        ]
                    ],
                    "2,13": [
                        "Valni_1",
                        [
                            2,
                            13
                        ]
                    ],
                    "9,11": [
                        "Valni_1",
                        [
                            9,
                            11
                        ]
                    ],
                    "5,0": [
                        "Valni_1",
                        [
                            5,
                            0
                        ]
                    ],
                    "3,16": [
                        "Valni_1",
                        [
                            3,
                            16
                        ]
                    ],
                    "10,0": [
                        "Valni_1",
                        [
                            10,
                            0
                        ]
                    ],
                    "8,16": [
                        "Valni_1",
                        [
                            8,
                            16
                        ]
                    ],
                    "6,15": [
                        "Valni_1",
                        [
                            6,
                            15
                        ]
                    ],
                    "12,3": [
                        "Valni_1",
                        [
                            12,
                            3
                        ]
                    ],
                    "11,13": [
                        "Valni_1",
                        [
                            11,
                            13
                        ]
                    ],
                    "7,14": [
                        "Valni_1",
                        [
                            7,
                            14
                        ]
                    ],
                    "14,10": [
                        "Valni_1",
                        [
                            14,
                            10
                        ]
                    ],
                    "13,2": [
                        "Valni_1",
                        [
                            13,
                            2
                        ]
                    ],
                    "12,14": [
                        "Valni_1",
                        [
                            12,
                            14
                        ]
                    ],
                    "13,15": [
                        "Valni_1",
                        [
                            13,
                            15
                        ]
                    ],
                    "1,4": [
                        "Valni_1",
                        [
                            1,
                            4
                        ]
                    ],
                    "0,12": [
                        "Valni_1",
                        [
                            0,
                            12
                        ]
                    ],
                    "3,9": [
                        "Valni_1",
                        [
                            3,
                            9
                        ]
                    ],
                    "2,3": [
                        "Valni_1",
                        [
                            2,
                            3
                        ]
                    ],
                    "1,9": [
                        "Valni_1",
                        [
                            1,
                            9
                        ]
                    ],
                    "8,7": [
                        "Valni_1",
                        [
                            8,
                            7
                        ]
                    ],
                    "4,2": [
                        "Valni_1",
                        [
                            4,
                            2
                        ]
                    ],
                    "2,14": [
                        "Valni_1",
                        [
                            2,
                            14
                        ]
                    ],
                    "9,6": [
                        "Valni_1",
                        [
                            9,
                            6
                        ]
                    ],
                    "6,5": [
                        "Valni_1",
                        [
                            6,
                            5
                        ]
                    ],
                    "5,3": [
                        "Valni_1",
                        [
                            5,
                            3
                        ]
                    ],
                    "11,7": [
                        "Valni_1",
                        [
                            11,
                            7
                        ]
                    ],
                    "10,5": [
                        "Valni_1",
                        [
                            10,
                            5
                        ]
                    ],
                    "7,0": [
                        "Valni_1",
                        [
                            7,
                            0
                        ]
                    ],
                    "6,8": [
                        "Valni_1",
                        [
                            6,
                            8
                        ]
                    ],
                    "5,16": [
                        "Valni_1",
                        [
                            5,
                            16
                        ]
                    ],
                    "12,0": [
                        "Valni_1",
                        [
                            12,
                            0
                        ]
                    ],
                    "11,8": [
                        "Valni_1",
                        [
                            11,
                            8
                        ]
                    ],
                    "10,16": [
                        "Valni_1",
                        [
                            10,
                            16
                        ]
                    ],
                    "14,16": [
                        "Valni_1",
                        [
                            14,
                            16
                        ]
                    ],
                    "7,13": [
                        "Valni_1",
                        [
                            7,
                            13
                        ]
                    ],
                    "14,7": [
                        "Valni_1",
                        [
                            14,
                            7
                        ]
                    ],
                    "13,5": [
                        "Valni_1",
                        [
                            13,
                            5
                        ]
                    ],
                    "0,6": [
                        "Valni_1",
                        [
                            0,
                            6
                        ]
                    ],
                    "1,7": [
                        "Valni_1",
                        [
                            1,
                            7
                        ]
                    ],
                    "0,9": [
                        "Valni_1",
                        [
                            0,
                            9
                        ]
                    ],
                    "3,4": [
                        "Valni_1",
                        [
                            3,
                            4
                        ]
                    ],
                    "2,4": [
                        "Valni_1",
                        [
                            2,
                            4
                        ]
                    ],
                    "9,12": [
                        "Valni_1",
                        [
                            9,
                            12
                        ]
                    ],
                    "8,4": [
                        "Valni_1",
                        [
                            8,
                            4
                        ]
                    ],
                    "5,9": [
                        "Valni_1",
                        [
                            5,
                            9
                        ]
                    ],
                    "4,7": [
                        "Valni_1",
                        [
                            4,
                            7
                        ]
                    ],
                    "10,11": [
                        "Valni_1",
                        [
                            10,
                            11
                        ]
                    ],
                    "9,1": [
                        "Valni_1",
                        [
                            9,
                            1
                        ]
                    ],
                    "6,6": [
                        "Valni_1",
                        [
                            6,
                            6
                        ]
                    ],
                    "5,6": [
                        "Valni_1",
                        [
                            5,
                            6
                        ]
                    ],
                    "11,2": [
                        "Valni_1",
                        [
                            11,
                            2
                        ]
                    ],
                    "10,6": [
                        "Valni_1",
                        [
                            10,
                            6
                        ]
                    ],
                    "7,7": [
                        "Valni_1",
                        [
                            7,
                            7
                        ]
                    ],
                    "14,13": [
                        "Valni_1",
                        [
                            14,
                            13
                        ]
                    ],
                    "12,5": [
                        "Valni_1",
                        [
                            12,
                            5
                        ]
                    ],
                    "0,16": [
                        "Valni_1",
                        [
                            0,
                            16
                        ]
                    ],
                    "7,16": [
                        "Valni_1",
                        [
                            7,
                            16
                        ]
                    ],
                    "14,0": [
                        "Valni_1",
                        [
                            14,
                            0
                        ]
                    ],
                    "13,8": [
                        "Valni_1",
                        [
                            13,
                            8
                        ]
                    ],
                    "12,16": [
                        "Valni_1",
                        [
                            12,
                            16
                        ]
                    ],
                    "0,3": [
                        "Valni_1",
                        [
                            0,
                            3
                        ]
                    ],
                    "3,14": [
                        "Valni_1",
                        [
                            3,
                            14
                        ]
                    ],
                    "1,2": [
                        "Valni_1",
                        [
                            1,
                            2
                        ]
                    ],
                    "8,14": [
                        "Valni_1",
                        [
                            8,
                            14
                        ]
                    ],
                    "4,9": [
                        "Valni_1",
                        [
                            4,
                            9
                        ]
                    ],
                    "3,3": [
                        "Valni_1",
                        [
                            3,
                            3
                        ]
                    ],
                    "2,9": [
                        "Valni_1",
                        [
                            2,
                            9
                        ]
                    ],
                    "9,15": [
                        "Valni_1",
                        [
                            9,
                            15
                        ]
                    ],
                    "8,1": [
                        "Valni_1",
                        [
                            8,
                            1
                        ]
                    ],
                    "5,12": [
                        "Valni_1",
                        [
                            5,
                            12
                        ]
                    ],
                    "4,4": [
                        "Valni_1",
                        [
                            4,
                            4
                        ]
                    ],
                    "10,12": [
                        "Valni_1",
                        [
                            10,
                            12
                        ]
                    ],
                    "6,3": [
                        "Valni_1",
                        [
                            6,
                            3
                        ]
                    ],
                    "11,1": [
                        "Valni_1",
                        [
                            11,
                            1
                        ]
                    ],
                    "9,17": [
                        "Valni_1",
                        [
                            9,
                            17
                        ]
                    ],
                    "7,10": [
                        "Valni_1",
                        [
                            7,
                            10
                        ]
                    ],
                    "14,14": [
                        "Valni_1",
                        [
                            14,
                            14
                        ]
                    ],
                    "12,10": [
                        "Valni_1",
                        [
                            12,
                            10
                        ]
                    ],
                    "13,11": [
                        "Valni_1",
                        [
                            13,
                            11
                        ]
                    ],
                    "2,16": [
                        "Valni_1",
                        [
                            2,
                            16
                        ]
                    ],
                    "0,0": [
                        "Valni_1",
                        [
                            0,
                            0
                        ]
                    ],
                    "3,13": [
                        "Valni_1",
                        [
                            3,
                            13
                        ]
                    ],
                    "1,13": [
                        "Valni_1",
                        [
                            1,
                            13
                        ]
                    ],
                    "8,11": [
                        "Valni_1",
                        [
                            8,
                            11
                        ]
                    ],
                    "4,14": [
                        "Valni_1",
                        [
                            4,
                            14
                        ]
                    ],
                    "2,10": [
                        "Valni_1",
                        [
                            2,
                            10
                        ]
                    ],
                    "9,10": [
                        "Valni_1",
                        [
                            9,
                            10
                        ]
                    ],
                    "5,15": [
                        "Valni_1",
                        [
                            5,
                            15
                        ]
                    ],
                    "10,1": [
                        "Valni_1",
                        [
                            10,
                            1
                        ]
                    ],
                    "8,17": [
                        "Valni_1",
                        [
                            8,
                            17
                        ]
                    ],
                    "6,12": [
                        "Valni_1",
                        [
                            6,
                            12
                        ]
                    ],
                    "11,12": [
                        "Valni_1",
                        [
                            11,
                            12
                        ]
                    ],
                    "7,9": [
                        "Valni_1",
                        [
                            7,
                            9
                        ]
                    ],
                    "14,11": [
                        "Valni_1",
                        [
                            14,
                            11
                        ]
                    ],
                    "13,1": [
                        "Valni_1",
                        [
                            13,
                            1
                        ]
                    ],
                    "12,15": [
                        "Valni_1",
                        [
                            12,
                            15
                        ]
                    ],
                    "11,17": [
                        "Valni_1",
                        [
                            11,
                            17
                        ]
                    ],
                    "13,14": [
                        "Valni_1",
                        [
                            13,
                            14
                        ]
                    ],
                    "0,13": [
                        "Valni_1",
                        [
                            0,
                            13
                        ]
                    ],
                    "3,8": [
                        "Valni_1",
                        [
                            3,
                            8
                        ]
                    ],
                    "2,0": [
                        "Valni_1",
                        [
                            2,
                            0
                        ]
                    ],
                    "1,8": [
                        "Valni_1",
                        [
                            1,
                            8
                        ]
                    ],
                    "8,8": [
                        "Valni_1",
                        [
                            8,
                            8
                        ]
                    ],
                    "4,3": [
                        "Valni_1",
                        [
                            4,
                            3
                        ]
                    ],
                    "2,15": [
                        "Valni_1",
                        [
                            2,
                            15
                        ]
                    ],
                    "9,5": [
                        "Valni_1",
                        [
                            9,
                            5
                        ]
                    ],
                    "5,2": [
                        "Valni_1",
                        [
                            5,
                            2
                        ]
                    ],
                    "11,6": [
                        "Valni_1",
                        [
                            11,
                            6
                        ]
                    ],
                    "10,2": [
                        "Valni_1",
                        [
                            10,
                            2
                        ]
                    ]
                }
            }
        ],
        "tilesets": [
            "Valni_1"
        ]
    }
]